
[Client] packet : (0x16) F_REQUEST_INIT_OBJECT  Size = 16 
|------------------------------------------------|----------------|
|00 01 02 03 04 05 06 07 08 09 0A 0B 0C 0D 0E 0F |0123456789ABCDEF|
|------------------------------------------------|----------------|
|00 04 6F 74 00 1E 00 00 00 16 2D 9A 00 00 8D 49 |..ot......-....I|                                                
-------------------------------------------------------------------
[Server] packet : (0x72) F_CREATE_MONSTER  Size = 136 
|------------------------------------------------|----------------|
|00 01 02 03 04 05 06 07 08 09 0A 0B 0C 0D 0E 0F |0123456789ABCDEF|
|------------------------------------------------|----------------|
|00 85 72 2D 9A 00 00 02 22 1A 10 00 0D 1F EE 00 |..r-....".......|
|0C C8 9F 00 00 04 C2 32 02 41 00 00 00 00 08 00 |.......2.A......|
|00 00 00 03 E8 00 00 00 00 36 ED 00 09 00 00 01 |.........6......|
|19 00 54 68 6F 72 73 68 61 66 6E 20 4D 69 6C 69 |..Thorshafn Mili|
|74 69 61 6D 61 6E 5E 6D 00 01 0A 00 00 00 12 25 |tiaman^m.......%|
|00 2D 9A 9F EE 48 9F 1A 10 64 00 64 00 00 00 00 |.-...H...d.d....|
|00 22 02 2D 9A 01 08 00 0A 05 2D 00 0C 05 6A 00 |.".-......-...j.|
|14 09 BE 00 15 09 C2 00 16 09 BD 00 18 09 C0 00 |................|
|19 09 C1 00 1C 09 BF 00                         |........        |
-------------------------------------------------------------------
[Server] packet : (0xDA) F_USE_ABILITY  Size = 23 
|------------------------------------------------|----------------|
|00 01 02 03 04 05 06 07 08 09 0A 0B 0C 0D 0E 0F |0123456789ABCDEF|
|------------------------------------------------|----------------|
|00 14 DA 00 00 01 19 01 19 00 00 18 54 02 00 00 |............T...|
|00 00 00 00 00 00 00                            |.......         |
-------------------------------------------------------------------
[Server] packet : (0x61) F_PLAY_SOUND  Size = 16 
|------------------------------------------------|----------------|
|00 01 02 03 04 05 06 07 08 09 0A 0B 0C 0D 0E 0F |0123456789ABCDEF|
|------------------------------------------------|----------------|
|00 0D 61 00 00 0E 13 88 87 43 3F 48 18 C0 00 00 |..a......C?H....|                                                
-------------------------------------------------------------------
[Client] packet : (0xD2) F_INTERACT  Size = 24 
|------------------------------------------------|----------------|
|00 01 02 03 04 05 06 07 08 09 0A 0B 0C 0D 0E 0F |0123456789ABCDEF|
|------------------------------------------------|----------------|
|00 0C 6F 79 00 1E 00 00 00 D2 00 00 03 16 00 00 |..oy............|
|00 00 00 00 00 00 00 00                         |........        |
-------------------------------------------------------------------
[Client] packet : (0xE8) F_CLIENT_DATA  Size = 20 
|------------------------------------------------|----------------|
|00 01 02 03 04 05 06 07 08 09 0A 0B 0C 0D 0E 0F |0123456789ABCDEF|
|------------------------------------------------|----------------|
|00 08 6F 7B 00 1E 00 00 00 E8 00 34 00 04 6B 21 |..o{.......4..k!|
|01 00 00 00                                     |....            |
-------------------------------------------------------------------
[Server] packet : (0x7E) F_SET_ABILITY_TIMER  Size = 15 
|------------------------------------------------|----------------|
|00 01 02 03 04 05 06 07 08 09 0A 0B 0C 0D 0E 0F |0123456789ABCDEF|
|------------------------------------------------|----------------|
|00 0C 7E 00 01 01 00 00 00 00 00 00 00 00 00    |............... |
-------------------------------------------------------------------
[Server] packet : (0xE9) F_INTERACT_RESPONSE  Size = 11 
|------------------------------------------------|----------------|
|00 01 02 03 04 05 06 07 08 09 0A 0B 0C 0D 0E 0F |0123456789ABCDEF|
|------------------------------------------------|----------------|
|00 08 E9 00 03 16 00 00 00 02 00                |...........     |
-------------------------------------------------------------------
[Client] packet : (0xD2) F_INTERACT  Size = 24 
|------------------------------------------------|----------------|
|00 01 02 03 04 05 06 07 08 09 0A 0B 0C 0D 0E 0F |0123456789ABCDEF|
|------------------------------------------------|----------------|
|00 0C 6F 7C 00 1E 00 00 00 D2 00 00 03 16 00 09 |..o|............|
|00 00 00 00 00 00 9A D3                         |........        |
-------------------------------------------------------------------
[Server] packet : (0xBF) F_INIT_STORE  Size = 2424 
|------------------------------------------------|----------------|
|00 01 02 03 04 05 06 07 08 09 0A 0B 0C 0D 0E 0F |0123456789ABCDEF|
|------------------------------------------------|----------------|
|09 75 BF 00 00 00 0A 01 01 00 00 00 03 00 00 00 |.u..............|
|00 00 00 03 25 2D 24 B8 00 00 00 00 00 00 00 00 |....%-$.........|
|0F 18 00 01 00 00 00 04 00 00 00 00 00 00 00 00 |................|
|00 00 00 00 00 00 00 00 00 00 00 00 00 01 00 01 |................|
|00 00 00 00 00 00 00 00 00 00 00 00 11 45 78 6F |.............Exo|
|74 69 63 20 42 65 6C 74 20 50 6F 75 63 68 00 00 |tic Belt Pouch..|
|00 00 00 00 47 54 68 69 73 20 65 78 6F 74 69 63 |....GThis exotic|
|20 74 72 6F 70 68 79 20 69 73 20 66 72 6F 6D 20 | trophy is from |
|66 61 72 20 6F 66 66 20 6C 61 6E 64 73 20 61 6E |far off lands an|
|64 20 63 61 6E 20 62 65 20 77 6F 72 6E 20 6F 6E |d can be worn on|
|20 79 6F 75 72 20 61 72 6D 6F 72 2E 01 01 00 00 | your armor.....|
|03 06 20 08 00 00 00 00 00 00 00 00 00 00 00 00 |.. .............|
|00 00 00 00 00 00 00 01 00 03 25 2C 03 00 18 54 |..........%,...T|
|72 6F 70 68 79 20 52 65 64 65 6D 70 74 69 6F 6E |rophy Redemption|
|20 54 69 63 6B 65 74 00 01 00 00 00 00 00 00 00 | Ticket.........|
|00 00 00 00 00 00 00 00 00 00 00 01 03 00 00 00 |................|
|00 00 00 03 25 2E 24 B9 00 00 00 00 00 00 00 00 |....%.$.........|
|0F 18 00 01 00 00 00 04 00 00 00 00 00 00 00 00 |................|
|00 00 00 00 00 00 00 00 00 00 00 00 00 01 00 01 |................|
|00 00 00 00 00 00 00 00 00 00 00 00 13 45 78 6F |.............Exo|
|74 69 63 20 48 6F 6F 70 65 64 20 44 69 73 63 73 |tic Hooped Discs|
|00 00 00 00 00 00 47 54 68 69 73 20 65 78 6F 74 |......GThis exot|
|69 63 20 74 72 6F 70 68 79 20 69 73 20 66 72 6F |ic trophy is fro|
|6D 20 66 61 72 20 6F 66 66 20 6C 61 6E 64 73 20 |m far off lands |
|61 6E 64 20 63 61 6E 20 62 65 20 77 6F 72 6E 20 |and can be worn |
|6F 6E 20 79 6F 75 72 20 61 72 6D 6F 72 2E 01 01 |on your armor...|
|00 00 03 06 20 08 00 00 00 00 00 00 00 00 00 00 |.... ...........|
|00 00 00 00 00 00 00 00 00 01 00 03 25 2C 03 00 |............%,..|
|18 54 72 6F 70 68 79 20 52 65 64 65 6D 70 74 69 |.Trophy Redempti|
|6F 6E 20 54 69 63 6B 65 74 00 01 00 00 00 00 00 |on Ticket.......|
|00 00 00 00 00 00 00 00 00 00 00 00 00 02 03 00 |................|
|00 00 00 00 00 03 25 2F 24 BA 00 00 00 00 00 00 |......%/$.......|
|00 00 0F 18 00 01 00 00 00 04 00 00 00 00 00 00 |................|
|00 00 00 00 00 00 00 00 00 00 00 00 00 00 00 01 |................|
|00 01 00 00 00 00 00 00 00 00 00 00 00 00 11 45 |...............E|
|78 6F 74 69 63 20 53 69 6C 6B 20 53 63 61 72 66 |xotic Silk Scarf|
|00 00 00 00 00 00 47 54 68 69 73 20 65 78 6F 74 |......GThis exot|
|69 63 20 74 72 6F 70 68 79 20 69 73 20 66 72 6F |ic trophy is fro|
|6D 20 66 61 72 20 6F 66 66 20 6C 61 6E 64 73 20 |m far off lands |
|61 6E 64 20 63 61 6E 20 62 65 20 77 6F 72 6E 20 |and can be worn |
|6F 6E 20 79 6F 75 72 20 61 72 6D 6F 72 2E 01 01 |on your armor...|
|00 00 03 06 20 08 00 00 00 00 00 00 00 00 00 00 |.... ...........|
|00 00 00 00 00 00 00 00 00 01 00 03 25 2C 03 00 |............%,..|
|18 54 72 6F 70 68 79 20 52 65 64 65 6D 70 74 69 |.Trophy Redempti|
|6F 6E 20 54 69 63 6B 65 74 00 01 00 00 00 00 00 |on Ticket.......|
|00 00 00 00 00 00 00 00 00 00 00 00 00 03 03 00 |................|
|00 00 00 00 00 03 25 30 24 BB 00 00 00 00 00 00 |......%0$.......|
|00 00 0F 18 00 01 00 00 00 04 00 00 00 00 00 00 |................|
|00 00 00 00 00 00 00 00 00 00 00 00 00 00 00 01 |................|
|00 01 00 00 00 00 00 00 00 00 00 00 00 00 11 45 |...............E|
|78 6F 74 69 63 20 41 6E 69 6D 61 6C 20 50 61 77 |xotic Animal Paw|
|00 00 00 00 00 00 47 54 68 69 73 20 65 78 6F 74 |......GThis exot|
|69 63 20 74 72 6F 70 68 79 20 69 73 20 66 72 6F |ic trophy is fro|
|6D 20 66 61 72 20 6F 66 66 20 6C 61 6E 64 73 20 |m far off lands |
|61 6E 64 20 63 61 6E 20 62 65 20 77 6F 72 6E 20 |and can be worn |
|6F 6E 20 79 6F 75 72 20 61 72 6D 6F 72 2E 01 01 |on your armor...|
|00 00 03 06 20 08 00 00 00 00 00 00 00 00 00 00 |.... ...........|
|00 00 00 00 00 00 00 00 00 01 00 03 25 2C 03 00 |............%,..|
|18 54 72 6F 70 68 79 20 52 65 64 65 6D 70 74 69 |.Trophy Redempti|
|6F 6E 20 54 69 63 6B 65 74 00 01 00 00 00 00 00 |on Ticket.......|
|00 00 00 00 00 00 00 00 00 00 00 00 00 04 03 00 |................|
|00 00 00 00 00 03 25 31 24 BC 00 00 00 00 00 00 |......%1$.......|
|00 00 0F 18 00 01 00 00 00 04 00 00 00 00 00 00 |................|
|00 00 00 00 00 00 00 00 00 00 00 00 00 00 00 01 |................|
|00 01 00 00 00 00 00 00 00 00 00 00 00 00 18 45 |...............E|
|78 6F 74 69 63 20 52 65 6D 61 69 6E 73 20 6F 66 |xotic Remains of|
|20 61 6E 20 55 72 6E 00 00 00 00 00 00 47 54 68 | an Urn......GTh|
|69 73 20 65 78 6F 74 69 63 20 74 72 6F 70 68 79 |is exotic trophy|
|20 69 73 20 66 72 6F 6D 20 66 61 72 20 6F 66 66 | is from far off|
|20 6C 61 6E 64 73 20 61 6E 64 20 63 61 6E 20 62 | lands and can b|
|65 20 77 6F 72 6E 20 6F 6E 20 79 6F 75 72 20 61 |e worn on your a|
|72 6D 6F 72 2E 01 01 00 00 03 06 20 08 00 00 00 |rmor....... ....|
|00 00 00 00 00 00 00 00 00 00 00 00 00 00 00 00 |................|
|01 00 03 25 2C 03 00 18 54 72 6F 70 68 79 20 52 |...%,...Trophy R|
|65 64 65 6D 70 74 69 6F 6E 20 54 69 63 6B 65 74 |edemption Ticket|
|00 01 00 00 00 00 00 00 00 00 00 00 00 00 00 00 |................|
|00 00 00 00 05 03 00 00 00 00 00 00 03 25 32 24 |.............%2$|
|BD 00 00 00 00 00 00 00 00 0F 18 00 01 00 00 00 |................|
|04 00 00 00 00 00 00 00 00 00 00 00 00 00 00 00 |................|
|00 00 00 00 00 00 01 00 01 00 00 00 00 00 00 00 |................|
|00 00 00 00 00 11 45 78 6F 74 69 63 20 4A 61 64 |......Exotic Jad|
|65 20 54 6F 72 73 6F 00 00 00 00 00 00 47 54 68 |e Torso......GTh|
|69 73 20 65 78 6F 74 69 63 20 74 72 6F 70 68 79 |is exotic trophy|
|20 69 73 20 66 72 6F 6D 20 66 61 72 20 6F 66 66 | is from far off|
|20 6C 61 6E 64 73 20 61 6E 64 20 63 61 6E 20 62 | lands and can b|
|65 20 77 6F 72 6E 20 6F 6E 20 79 6F 75 72 20 61 |e worn on your a|
|72 6D 6F 72 2E 01 01 00 00 03 06 20 08 00 00 00 |rmor....... ....|
|00 00 00 00 00 00 00 00 00 00 00 00 00 00 00 00 |................|
|01 00 03 25 2C 03 00 18 54 72 6F 70 68 79 20 52 |...%,...Trophy R|
|65 64 65 6D 70 74 69 6F 6E 20 54 69 63 6B 65 74 |edemption Ticket|
|00 01 00 00 00 00 00 00 00 00 00 00 00 00 00 00 |................|
|00 00 00 00 06 03 00 00 00 00 00 00 03 25 33 24 |.............%3$|
|BE 00 00 00 00 00 00 00 00 0F 18 00 01 00 00 00 |................|
|04 00 00 00 00 00 00 00 00 00 00 00 00 00 00 00 |................|
|00 00 00 00 00 00 01 00 01 00 00 00 00 00 00 00 |................|
|00 00 00 00 00 12 45 78 6F 74 69 63 20 52 6F 70 |......Exotic Rop|
|65 64 20 52 75 6E 65 73 00 00 00 00 00 00 47 54 |ed Runes......GT|
|68 69 73 20 65 78 6F 74 69 63 20 74 72 6F 70 68 |his exotic troph|
|79 20 69 73 20 66 72 6F 6D 20 66 61 72 20 6F 66 |y is from far of|
|66 20 6C 61 6E 64 73 20 61 6E 64 20 63 61 6E 20 |f lands and can |
|62 65 20 77 6F 72 6E 20 6F 6E 20 79 6F 75 72 20 |be worn on your |
|61 72 6D 6F 72 2E 01 01 00 00 03 06 20 08 00 00 |armor....... ...|
|00 00 00 00 00 00 00 00 00 00 00 00 00 00 00 00 |................|
|00 01 00 03 25 2C 03 00 18 54 72 6F 70 68 79 20 |....%,...Trophy |
|52 65 64 65 6D 70 74 69 6F 6E 20 54 69 63 6B 65 |Redemption Ticke|
|74 00 01 00 00 00 00 00 00 00 00 00 00 00 00 00 |t...............|
|00 00 00 00 00 07 03 00 00 00 00 00 00 03 25 34 |..............%4|
|24 BF 00 00 00 00 00 00 00 00 0F 18 00 01 00 00 |$...............|
|00 04 00 00 00 00 00 00 00 00 00 00 00 00 00 00 |................|
|00 00 00 00 00 00 00 01 00 01 00 00 00 00 00 00 |................|
|00 00 00 00 00 00 10 45 78 6F 74 69 63 20 4A 61 |.......Exotic Ja|
|64 65 20 42 61 6C 6C 00 00 00 00 00 00 47 54 68 |de Ball......GTh|
|69 73 20 65 78 6F 74 69 63 20 74 72 6F 70 68 79 |is exotic trophy|
|20 69 73 20 66 72 6F 6D 20 66 61 72 20 6F 66 66 | is from far off|
|20 6C 61 6E 64 73 20 61 6E 64 20 63 61 6E 20 62 | lands and can b|
|65 20 77 6F 72 6E 20 6F 6E 20 79 6F 75 72 20 61 |e worn on your a|
|72 6D 6F 72 2E 01 01 00 00 03 06 20 08 00 00 00 |rmor....... ....|
|00 00 00 00 00 00 00 00 00 00 00 00 00 00 00 00 |................|
|01 00 03 25 2C 03 00 18 54 72 6F 70 68 79 20 52 |...%,...Trophy R|
|65 64 65 6D 70 74 69 6F 6E 20 54 69 63 6B 65 74 |edemption Ticket|
|00 01 00 00 00 00 00 00 00 00 00 00 00 00 00 00 |................|
|00 00 00 00 08 03 00 00 00 00 00 00 03 25 35 24 |.............%5$|
|C0 00 00 00 00 00 00 00 00 0F 18 00 01 00 00 00 |................|
|04 00 00 00 00 00 00 00 00 00 00 00 00 00 00 00 |................|
|00 00 00 00 00 00 01 00 01 00 00 00 00 00 00 00 |................|
|00 00 00 00 00 0F 45 78 6F 74 69 63 20 4A 61 64 |......Exotic Jad|
|65 20 46 61 6E 00 00 00 00 00 00 47 54 68 69 73 |e Fan......GThis|
|20 65 78 6F 74 69 63 20 74 72 6F 70 68 79 20 69 | exotic trophy i|
|73 20 66 72 6F 6D 20 66 61 72 20 6F 66 66 20 6C |s from far off l|
|61 6E 64 73 20 61 6E 64 20 63 61 6E 20 62 65 20 |ands and can be |
|77 6F 72 6E 20 6F 6E 20 79 6F 75 72 20 61 72 6D |worn on your arm|
|6F 72 2E 01 01 00 00 03 06 20 08 00 00 00 00 00 |or....... ......|
|00 00 00 00 00 00 00 00 00 00 00 00 00 00 01 00 |................|
|03 25 2C 03 00 18 54 72 6F 70 68 79 20 52 65 64 |.%,...Trophy Red|
|65 6D 70 74 69 6F 6E 20 54 69 63 6B 65 74 00 01 |emption Ticket..|
|00 00 00 00 00 00 00 00 00 00 00 00 00 00 00 00 |................|
|00 00 09 03 00 00 00 00 00 00 03 25 36 24 C1 00 |...........%6$..|
|00 00 00 00 00 00 00 0F 18 00 01 00 00 00 04 00 |................|
|00 00 00 00 00 00 00 00 00 00 00 00 00 00 00 00 |................|
|00 00 00 00 01 00 01 00 00 00 00 00 00 00 00 00 |................|
|00 00 00 16 45 78 6F 74 69 63 20 43 69 72 63 6C |....Exotic Circl|
|65 73 20 6F 66 20 46 61 74 65 00 00 00 00 00 00 |es of Fate......|
|47 54 68 69 73 20 65 78 6F 74 69 63 20 74 72 6F |GThis exotic tro|
|70 68 79 20 69 73 20 66 72 6F 6D 20 66 61 72 20 |phy is from far |
|6F 66 66 20 6C 61 6E 64 73 20 61 6E 64 20 63 61 |off lands and ca|
|6E 20 62 65 20 77 6F 72 6E 20 6F 6E 20 79 6F 75 |n be worn on you|
|72 20 61 72 6D 6F 72 2E 01 01 00 00 03 06 20 08 |r armor....... .|
|00 00 00 00 00 00 00 00 00 00 00 00 00 00 00 00 |................|
|00 00 00 01 00 03 25 2C 03 00 18 54 72 6F 70 68 |......%,...Troph|
|79 20 52 65 64 65 6D 70 74 69 6F 6E 20 54 69 63 |y Redemption Tic|
|6B 65 74 00 01 00 00 00 00 00 00 00 00 00 00 00 |ket.............|
|00 00 00 00 00 00 00 00                         |........        |
-------------------------------------------------------------------
[Server] packet : (0xBF) F_INIT_STORE  Size = 497 
|------------------------------------------------|----------------|
|00 01 02 03 04 05 06 07 08 09 0A 0B 0C 0D 0E 0F |0123456789ABCDEF|
|------------------------------------------------|----------------|
|01 EE BF 00 00 01 02 00 01 00 00 03 00 00 00 00 |................|
|00 00 03 25 38 24 C5 00 00 00 00 00 00 00 00 0F |...%8$..........|
|18 00 01 00 00 00 04 00 56 00 00 00 00 00 00 00 |........V.......|
|00 00 00 00 00 00 00 00 00 00 00 00 01 00 01 00 |................|
|00 00 00 00 00 00 00 00 00 00 00 13 52 61 74 20 |............Rat |
|6F 6E 20 61 20 4C 61 72 67 65 20 48 6F 6F 6B 00 |on a Large Hook.|
|00 00 00 00 00 47 54 68 69 73 20 65 78 6F 74 69 |.....GThis exoti|
|63 20 74 72 6F 70 68 79 20 69 73 20 66 72 6F 6D |c trophy is from|
|20 66 61 72 20 6F 66 66 20 6C 61 6E 64 73 20 61 | far off lands a|
|6E 64 20 63 61 6E 20 62 65 20 77 6F 72 6E 20 6F |nd can be worn o|
|6E 20 79 6F 75 72 20 61 72 6D 6F 72 2E 01 01 00 |n your armor....|
|00 03 06 20 08 00 00 00 00 00 00 00 00 00 00 00 |... ............|
|00 00 00 00 00 00 00 00 01 00 03 25 2C 03 00 18 |...........%,...|
|54 72 6F 70 68 79 20 52 65 64 65 6D 70 74 69 6F |Trophy Redemptio|
|6E 20 54 69 63 6B 65 74 00 01 00 00 00 00 00 00 |n Ticket........|
|00 00 00 00 00 00 00 00 00 00 00 00 01 03 00 00 |................|
|00 00 00 00 03 25 3A 24 C7 00 00 00 00 00 00 00 |.....%:$........|
|00 0F 18 00 01 00 00 00 04 00 56 00 00 00 00 00 |..........V.....|
|00 00 00 00 00 00 00 00 00 00 00 00 00 00 01 00 |................|
|01 00 00 00 00 00 00 00 00 00 00 00 00 15 53 6B |..............Sk|
|75 6C 6C 20 6F 6E 20 61 20 4C 61 72 67 65 20 43 |ull on a Large C|
|6C 61 77 00 00 00 00 00 00 47 54 68 69 73 20 65 |law......GThis e|
|78 6F 74 69 63 20 74 72 6F 70 68 79 20 69 73 20 |xotic trophy is |
|66 72 6F 6D 20 66 61 72 20 6F 66 66 20 6C 61 6E |from far off lan|
|64 73 20 61 6E 64 20 63 61 6E 20 62 65 20 77 6F |ds and can be wo|
|72 6E 20 6F 6E 20 79 6F 75 72 20 61 72 6D 6F 72 |rn on your armor|
|2E 01 01 00 00 03 06 20 08 00 00 00 00 00 00 00 |....... ........|
|00 00 00 00 00 00 00 00 00 00 00 00 01 00 03 25 |...............%|
|2C 03 00 18 54 72 6F 70 68 79 20 52 65 64 65 6D |,...Trophy Redem|
|70 74 69 6F 6E 20 54 69 63 6B 65 74 00 01 00 00 |ption Ticket....|
|00 00 00 00 00 00 00 00 00 00 00 00 00 00 00 00 |................|
|00                                              |.               |
-------------------------------------------------------------------
[Server] packet : (0xC0) F_STORE_BUY_BACK  Size = 5 
|------------------------------------------------|----------------|
|00 01 02 03 04 05 06 07 08 09 0A 0B 0C 0D 0E 0F |0123456789ABCDEF|
|------------------------------------------------|----------------|
|00 02 C0 00 00                                  |.....           |
-------------------------------------------------------------------
[Client] packet : (0x16) F_REQUEST_INIT_OBJECT  Size = 16 
|------------------------------------------------|----------------|
|00 01 02 03 04 05 06 07 08 09 0A 0B 0C 0D 0E 0F |0123456789ABCDEF|
|------------------------------------------------|----------------|
|00 04 6F 7E 00 1E 00 00 00 16 31 19 00 00 E0 D3 |..o~......1.....|                                                
-------------------------------------------------------------------
[Client] packet : (0x16) F_REQUEST_INIT_OBJECT  Size = 16 
|------------------------------------------------|----------------|
|00 01 02 03 04 05 06 07 08 09 0A 0B 0C 0D 0E 0F |0123456789ABCDEF|
|------------------------------------------------|----------------|
|00 04 6F 7F 00 1E 00 00 00 16 10 ED 00 00 51 37 |..o...........Q7|                                                
-------------------------------------------------------------------
[Server] packet : (0x72) F_CREATE_MONSTER  Size = 136 
|------------------------------------------------|----------------|
|00 01 02 03 04 05 06 07 08 09 0A 0B 0C 0D 0E 0F |0123456789ABCDEF|
|------------------------------------------------|----------------|
|00 85 72 31 19 01 13 05 1D 24 C6 00 0D 2B 25 00 |..r1.....$...+%.|
|0C B4 45 00 00 05 37 34 02 58 00 00 00 00 00 00 |..E...74.X......|
|00 04 00 03 E8 00 00 00 01 4E 29 00 00 00 00 01 |.........N).....|
|19 00 44 77 61 72 66 65 6E 20 47 79 72 6F 63 6F |..Dwarfen Gyroco|
|70 74 65 72 5E 6D 00 00 B4 01 0A 00 00 00 00 00 |pter^m..........|
|00 00 1A 19 00 31 19 AB 25 34 45 24 C6 64 01 64 |.....1..%4E$.d.d|
|00 00 00 00 00 13 01 00 68 AA ED 33 C6 24 64 31 |........h..3.$d1|
|19 00 05 00 14 08 13 00 15 07 D3 00 16 07 D2 00 |................|
|18 07 D4 00 1C 07 D0 00                         |........        |
-------------------------------------------------------------------
[Server] packet : (0x72) F_CREATE_MONSTER  Size = 140 
|------------------------------------------------|----------------|
|00 01 02 03 04 05 06 07 08 09 0A 0B 0C 0D 0E 0F |0123456789ABCDEF|
|------------------------------------------------|----------------|
|00 89 72 10 ED 01 13 03 74 24 C6 00 0D 2B 1C 00 |..r.....t$...+..|
|0C B4 98 00 00 05 37 34 02 58 00 00 00 00 00 00 |......74.X......|
|00 04 00 03 E8 00 00 00 01 4E 29 00 04 00 00 01 |.........N).....|
|19 00 44 77 61 72 66 65 6E 20 47 79 72 6F 63 6F |..Dwarfen Gyroco|
|70 74 65 72 5E 6D 00 00 B4 01 0A 00 00 00 00 00 |pter^m..........|
|00 00 1A 1D 00 10 ED AB 1C 34 98 24 C6 64 01 64 |.........4.$.d.d|
|00 00 00 00 00 13 01 00 31 AA CC 34 C6 24 64 10 |........1..4.$d.|
|ED 00 06 00 14 08 13 00 15 07 D3 00 16 07 D2 00 |................|
|17 07 D5 00 18 07 D4 00 1C 07 D0 00             |............    |
-------------------------------------------------------------------
[Server] packet : (0x0A) F_OBJECT_DEATH  Size = 15 
|------------------------------------------------|----------------|
|00 01 02 03 04 05 06 07 08 09 0A 0B 0C 0D 0E 0F |0123456789ABCDEF|
|------------------------------------------------|----------------|
|00 0C 0A 31 1E 00 00 00 00 00 00 00 00 00 00    |............... |
-------------------------------------------------------------------
[Server] packet : (0xDA) F_USE_ABILITY  Size = 23 
|------------------------------------------------|----------------|
|00 01 02 03 04 05 06 07 08 09 0A 0B 0C 0D 0E 0F |0123456789ABCDEF|
|------------------------------------------------|----------------|
|00 14 DA 00 00 01 19 01 19 00 00 18 54 02 00 00 |............T...|
|00 00 00 00 00 00 00                            |.......         |
-------------------------------------------------------------------
[Server] packet : (0x61) F_PLAY_SOUND  Size = 16 
|------------------------------------------------|----------------|
|00 01 02 03 04 05 06 07 08 09 0A 0B 0C 0D 0E 0F |0123456789ABCDEF|
|------------------------------------------------|----------------|
|00 0D 61 00 00 0E 13 88 87 E4 3E BB 18 C0 00 00 |..a.......>.....|                                                
-------------------------------------------------------------------
[Server] packet : (0xDA) F_USE_ABILITY  Size = 23 
|------------------------------------------------|----------------|
|00 01 02 03 04 05 06 07 08 09 0A 0B 0C 0D 0E 0F |0123456789ABCDEF|
|------------------------------------------------|----------------|
|00 14 DA 00 00 18 54 18 54 00 00 01 19 02 00 00 |......T.T.......|
|00 00 00 00 00 00 00                            |.......         |
-------------------------------------------------------------------
[Server] packet : (0x0A) F_OBJECT_DEATH  Size = 15 
|------------------------------------------------|----------------|
|00 01 02 03 04 05 06 07 08 09 0A 0B 0C 0D 0E 0F |0123456789ABCDEF|
|------------------------------------------------|----------------|
|00 0C 0A 33 C1 00 00 00 00 00 00 00 00 00 00    |............... |
-------------------------------------------------------------------
[Client] packet : (0x0B) F_PING  Size = 32 
|------------------------------------------------|----------------|
|00 01 02 03 04 05 06 07 08 09 0A 0B 0C 0D 0E 0F |0123456789ABCDEF|
|------------------------------------------------|----------------|
|00 14 6F 84 00 1E 00 00 00 0B 00 74 76 64 B1 18 |..o........tvd..|
|C0 40 16 A3 29 20 00 00 00 00 00 00 00 00 FE 14 |.@..) ..........|                                                
-------------------------------------------------------------------
[Server] packet : (0x81) S_PONG  Size = 23 
|------------------------------------------------|----------------|
|00 01 02 03 04 05 06 07 08 09 0A 0B 0C 0D 0E 0F |0123456789ABCDEF|
|------------------------------------------------|----------------|
|00 14 81 00 74 76 64 52 74 B9 AE 00 00 00 00 00 |....tvdRt.......|
|00 6F 85 00 00 00 00                            |.......         |
-------------------------------------------------------------------
[Server] packet : (0xDA) F_USE_ABILITY  Size = 23 
|------------------------------------------------|----------------|
|00 01 02 03 04 05 06 07 08 09 0A 0B 0C 0D 0E 0F |0123456789ABCDEF|
|------------------------------------------------|----------------|
|00 14 DA 00 00 01 19 01 19 00 00 18 54 02 00 00 |............T...|
|00 00 00 00 00 00 00                            |.......         |
-------------------------------------------------------------------
[Client] packet : (0x01) UNKNOWN  Size = 32 
|------------------------------------------------|----------------|
|00 01 02 03 04 05 06 07 08 09 0A 0B 0C 0D 0E 0F |0123456789ABCDEF|
|------------------------------------------------|----------------|
|00 14 6F 87 00 1E 00 00 00 01 00 74 75 1E 20 07 |..o........tu. .|
|2A 68 90 38 40 04 00 23 7D F8 08 18 D5 DA 60 8D |*h.8@..#}.....`.|                                                
-------------------------------------------------------------------
[Server] packet : (0x00) UNKNOWN  Size = 23 
|------------------------------------------------|----------------|
|00 01 02 03 04 05 06 07 08 09 0A 0B 0C 0D 0E 0F |0123456789ABCDEF|
|------------------------------------------------|----------------|
|00 14 00 00 74 75 1E 79 74 CB CE 00 00 00 00 00 |....tu.yt.......|
|23 7D F8 08 18 D5 00                            |.......         |
-------------------------------------------------------------------
[Client] packet : (0xD2) F_INTERACT  Size = 24 
|------------------------------------------------|----------------|
|00 01 02 03 04 05 06 07 08 09 0A 0B 0C 0D 0E 0F |0123456789ABCDEF|
|------------------------------------------------|----------------|
|00 0C 6F 89 00 1E 00 00 00 D2 00 00 03 16 00 00 |..o.............|
|00 00 00 00 00 00 00 00                         |........        |
-------------------------------------------------------------------
[Server] packet : (0x7E) F_SET_ABILITY_TIMER  Size = 15 
|------------------------------------------------|----------------|
|00 01 02 03 04 05 06 07 08 09 0A 0B 0C 0D 0E 0F |0123456789ABCDEF|
|------------------------------------------------|----------------|
|00 0C 7E 00 01 01 00 00 00 00 00 00 00 00 00    |............... |
-------------------------------------------------------------------
[Server] packet : (0xE9) F_INTERACT_RESPONSE  Size = 11 
|------------------------------------------------|----------------|
|00 01 02 03 04 05 06 07 08 09 0A 0B 0C 0D 0E 0F |0123456789ABCDEF|
|------------------------------------------------|----------------|
|00 08 E9 00 03 16 00 00 00 02 00                |...........     |
-------------------------------------------------------------------
[Client] packet : (0xD2) F_INTERACT  Size = 24 
|------------------------------------------------|----------------|
|00 01 02 03 04 05 06 07 08 09 0A 0B 0C 0D 0E 0F |0123456789ABCDEF|
|------------------------------------------------|----------------|
|00 0C 6F 8A 00 1E 00 00 00 D2 00 00 03 16 00 09 |..o.............|
|00 00 00 00 00 00 9A D3                         |........        |
-------------------------------------------------------------------
[Server] packet : (0xBF) F_INIT_STORE  Size = 2424 
|------------------------------------------------|----------------|
|00 01 02 03 04 05 06 07 08 09 0A 0B 0C 0D 0E 0F |0123456789ABCDEF|
|------------------------------------------------|----------------|
|09 75 BF 00 00 00 0A 01 01 00 00 00 03 00 00 00 |.u..............|
|00 00 00 03 25 2D 24 B8 00 00 00 00 00 00 00 00 |....%-$.........|
|0F 18 00 01 00 00 00 04 00 00 00 00 00 00 00 00 |................|
|00 00 00 00 00 00 00 00 00 00 00 00 00 01 00 01 |................|
|00 00 00 00 00 00 00 00 00 00 00 00 11 45 78 6F |.............Exo|
|74 69 63 20 42 65 6C 74 20 50 6F 75 63 68 00 00 |tic Belt Pouch..|
|00 00 00 00 47 54 68 69 73 20 65 78 6F 74 69 63 |....GThis exotic|
|20 74 72 6F 70 68 79 20 69 73 20 66 72 6F 6D 20 | trophy is from |
|66 61 72 20 6F 66 66 20 6C 61 6E 64 73 20 61 6E |far off lands an|
|64 20 63 61 6E 20 62 65 20 77 6F 72 6E 20 6F 6E |d can be worn on|
|20 79 6F 75 72 20 61 72 6D 6F 72 2E 01 01 00 00 | your armor.....|
|03 06 20 08 00 00 00 00 00 00 00 00 00 00 00 00 |.. .............|
|00 00 00 00 00 00 00 01 00 03 25 2C 03 00 18 54 |..........%,...T|
|72 6F 70 68 79 20 52 65 64 65 6D 70 74 69 6F 6E |rophy Redemption|
|20 54 69 63 6B 65 74 00 01 00 00 00 00 00 00 00 | Ticket.........|
|00 00 00 00 00 00 00 00 00 00 00 01 03 00 00 00 |................|
|00 00 00 03 25 2E 24 B9 00 00 00 00 00 00 00 00 |....%.$.........|
|0F 18 00 01 00 00 00 04 00 00 00 00 00 00 00 00 |................|
|00 00 00 00 00 00 00 00 00 00 00 00 00 01 00 01 |................|
|00 00 00 00 00 00 00 00 00 00 00 00 13 45 78 6F |.............Exo|
|74 69 63 20 48 6F 6F 70 65 64 20 44 69 73 63 73 |tic Hooped Discs|
|00 00 00 00 00 00 47 54 68 69 73 20 65 78 6F 74 |......GThis exot|
|69 63 20 74 72 6F 70 68 79 20 69 73 20 66 72 6F |ic trophy is fro|
|6D 20 66 61 72 20 6F 66 66 20 6C 61 6E 64 73 20 |m far off lands |
|61 6E 64 20 63 61 6E 20 62 65 20 77 6F 72 6E 20 |and can be worn |
|6F 6E 20 79 6F 75 72 20 61 72 6D 6F 72 2E 01 01 |on your armor...|
|00 00 03 06 20 08 00 00 00 00 00 00 00 00 00 00 |.... ...........|
|00 00 00 00 00 00 00 00 00 01 00 03 25 2C 03 00 |............%,..|
|18 54 72 6F 70 68 79 20 52 65 64 65 6D 70 74 69 |.Trophy Redempti|
|6F 6E 20 54 69 63 6B 65 74 00 01 00 00 00 00 00 |on Ticket.......|
|00 00 00 00 00 00 00 00 00 00 00 00 00 02 03 00 |................|
|00 00 00 00 00 03 25 2F 24 BA 00 00 00 00 00 00 |......%/$.......|
|00 00 0F 18 00 01 00 00 00 04 00 00 00 00 00 00 |................|
|00 00 00 00 00 00 00 00 00 00 00 00 00 00 00 01 |................|
|00 01 00 00 00 00 00 00 00 00 00 00 00 00 11 45 |...............E|
|78 6F 74 69 63 20 53 69 6C 6B 20 53 63 61 72 66 |xotic Silk Scarf|
|00 00 00 00 00 00 47 54 68 69 73 20 65 78 6F 74 |......GThis exot|
|69 63 20 74 72 6F 70 68 79 20 69 73 20 66 72 6F |ic trophy is fro|
|6D 20 66 61 72 20 6F 66 66 20 6C 61 6E 64 73 20 |m far off lands |
|61 6E 64 20 63 61 6E 20 62 65 20 77 6F 72 6E 20 |and can be worn |
|6F 6E 20 79 6F 75 72 20 61 72 6D 6F 72 2E 01 01 |on your armor...|
|00 00 03 06 20 08 00 00 00 00 00 00 00 00 00 00 |.... ...........|
|00 00 00 00 00 00 00 00 00 01 00 03 25 2C 03 00 |............%,..|
|18 54 72 6F 70 68 79 20 52 65 64 65 6D 70 74 69 |.Trophy Redempti|
|6F 6E 20 54 69 63 6B 65 74 00 01 00 00 00 00 00 |on Ticket.......|
|00 00 00 00 00 00 00 00 00 00 00 00 00 03 03 00 |................|
|00 00 00 00 00 03 25 30 24 BB 00 00 00 00 00 00 |......%0$.......|
|00 00 0F 18 00 01 00 00 00 04 00 00 00 00 00 00 |................|
|00 00 00 00 00 00 00 00 00 00 00 00 00 00 00 01 |................|
|00 01 00 00 00 00 00 00 00 00 00 00 00 00 11 45 |...............E|
|78 6F 74 69 63 20 41 6E 69 6D 61 6C 20 50 61 77 |xotic Animal Paw|
|00 00 00 00 00 00 47 54 68 69 73 20 65 78 6F 74 |......GThis exot|
|69 63 20 74 72 6F 70 68 79 20 69 73 20 66 72 6F |ic trophy is fro|
|6D 20 66 61 72 20 6F 66 66 20 6C 61 6E 64 73 20 |m far off lands |
|61 6E 64 20 63 61 6E 20 62 65 20 77 6F 72 6E 20 |and can be worn |
|6F 6E 20 79 6F 75 72 20 61 72 6D 6F 72 2E 01 01 |on your armor...|
|00 00 03 06 20 08 00 00 00 00 00 00 00 00 00 00 |.... ...........|
|00 00 00 00 00 00 00 00 00 01 00 03 25 2C 03 00 |............%,..|
|18 54 72 6F 70 68 79 20 52 65 64 65 6D 70 74 69 |.Trophy Redempti|
|6F 6E 20 54 69 63 6B 65 74 00 01 00 00 00 00 00 |on Ticket.......|
|00 00 00 00 00 00 00 00 00 00 00 00 00 04 03 00 |................|
|00 00 00 00 00 03 25 31 24 BC 00 00 00 00 00 00 |......%1$.......|
|00 00 0F 18 00 01 00 00 00 04 00 00 00 00 00 00 |................|
|00 00 00 00 00 00 00 00 00 00 00 00 00 00 00 01 |................|
|00 01 00 00 00 00 00 00 00 00 00 00 00 00 18 45 |...............E|
|78 6F 74 69 63 20 52 65 6D 61 69 6E 73 20 6F 66 |xotic Remains of|
|20 61 6E 20 55 72 6E 00 00 00 00 00 00 47 54 68 | an Urn......GTh|
|69 73 20 65 78 6F 74 69 63 20 74 72 6F 70 68 79 |is exotic trophy|
|20 69 73 20 66 72 6F 6D 20 66 61 72 20 6F 66 66 | is from far off|
|20 6C 61 6E 64 73 20 61 6E 64 20 63 61 6E 20 62 | lands and can b|
|65 20 77 6F 72 6E 20 6F 6E 20 79 6F 75 72 20 61 |e worn on your a|
|72 6D 6F 72 2E 01 01 00 00 03 06 20 08 00 00 00 |rmor....... ....|
|00 00 00 00 00 00 00 00 00 00 00 00 00 00 00 00 |................|
|01 00 03 25 2C 03 00 18 54 72 6F 70 68 79 20 52 |...%,...Trophy R|
|65 64 65 6D 70 74 69 6F 6E 20 54 69 63 6B 65 74 |edemption Ticket|
|00 01 00 00 00 00 00 00 00 00 00 00 00 00 00 00 |................|
|00 00 00 00 05 03 00 00 00 00 00 00 03 25 32 24 |.............%2$|
|BD 00 00 00 00 00 00 00 00 0F 18 00 01 00 00 00 |................|
|04 00 00 00 00 00 00 00 00 00 00 00 00 00 00 00 |................|
|00 00 00 00 00 00 01 00 01 00 00 00 00 00 00 00 |................|
|00 00 00 00 00 11 45 78 6F 74 69 63 20 4A 61 64 |......Exotic Jad|
|65 20 54 6F 72 73 6F 00 00 00 00 00 00 47 54 68 |e Torso......GTh|
|69 73 20 65 78 6F 74 69 63 20 74 72 6F 70 68 79 |is exotic trophy|
|20 69 73 20 66 72 6F 6D 20 66 61 72 20 6F 66 66 | is from far off|
|20 6C 61 6E 64 73 20 61 6E 64 20 63 61 6E 20 62 | lands and can b|
|65 20 77 6F 72 6E 20 6F 6E 20 79 6F 75 72 20 61 |e worn on your a|
|72 6D 6F 72 2E 01 01 00 00 03 06 20 08 00 00 00 |rmor....... ....|
|00 00 00 00 00 00 00 00 00 00 00 00 00 00 00 00 |................|
|01 00 03 25 2C 03 00 18 54 72 6F 70 68 79 20 52 |...%,...Trophy R|
|65 64 65 6D 70 74 69 6F 6E 20 54 69 63 6B 65 74 |edemption Ticket|
|00 01 00 00 00 00 00 00 00 00 00 00 00 00 00 00 |................|
|00 00 00 00 06 03 00 00 00 00 00 00 03 25 33 24 |.............%3$|
|BE 00 00 00 00 00 00 00 00 0F 18 00 01 00 00 00 |................|
|04 00 00 00 00 00 00 00 00 00 00 00 00 00 00 00 |................|
|00 00 00 00 00 00 01 00 01 00 00 00 00 00 00 00 |................|
|00 00 00 00 00 12 45 78 6F 74 69 63 20 52 6F 70 |......Exotic Rop|
|65 64 20 52 75 6E 65 73 00 00 00 00 00 00 47 54 |ed Runes......GT|
|68 69 73 20 65 78 6F 74 69 63 20 74 72 6F 70 68 |his exotic troph|
|79 20 69 73 20 66 72 6F 6D 20 66 61 72 20 6F 66 |y is from far of|
|66 20 6C 61 6E 64 73 20 61 6E 64 20 63 61 6E 20 |f lands and can |
|62 65 20 77 6F 72 6E 20 6F 6E 20 79 6F 75 72 20 |be worn on your |
|61 72 6D 6F 72 2E 01 01 00 00 03 06 20 08 00 00 |armor....... ...|
|00 00 00 00 00 00 00 00 00 00 00 00 00 00 00 00 |................|
|00 01 00 03 25 2C 03 00 18 54 72 6F 70 68 79 20 |....%,...Trophy |
|52 65 64 65 6D 70 74 69 6F 6E 20 54 69 63 6B 65 |Redemption Ticke|
|74 00 01 00 00 00 00 00 00 00 00 00 00 00 00 00 |t...............|
|00 00 00 00 00 07 03 00 00 00 00 00 00 03 25 34 |..............%4|
|24 BF 00 00 00 00 00 00 00 00 0F 18 00 01 00 00 |$...............|
|00 04 00 00 00 00 00 00 00 00 00 00 00 00 00 00 |................|
|00 00 00 00 00 00 00 01 00 01 00 00 00 00 00 00 |................|
|00 00 00 00 00 00 10 45 78 6F 74 69 63 20 4A 61 |.......Exotic Ja|
|64 65 20 42 61 6C 6C 00 00 00 00 00 00 47 54 68 |de Ball......GTh|
|69 73 20 65 78 6F 74 69 63 20 74 72 6F 70 68 79 |is exotic trophy|
|20 69 73 20 66 72 6F 6D 20 66 61 72 20 6F 66 66 | is from far off|
|20 6C 61 6E 64 73 20 61 6E 64 20 63 61 6E 20 62 | lands and can b|
|65 20 77 6F 72 6E 20 6F 6E 20 79 6F 75 72 20 61 |e worn on your a|
|72 6D 6F 72 2E 01 01 00 00 03 06 20 08 00 00 00 |rmor....... ....|
|00 00 00 00 00 00 00 00 00 00 00 00 00 00 00 00 |................|
|01 00 03 25 2C 03 00 18 54 72 6F 70 68 79 20 52 |...%,...Trophy R|
|65 64 65 6D 70 74 69 6F 6E 20 54 69 63 6B 65 74 |edemption Ticket|
|00 01 00 00 00 00 00 00 00 00 00 00 00 00 00 00 |................|
|00 00 00 00 08 03 00 00 00 00 00 00 03 25 35 24 |.............%5$|
|C0 00 00 00 00 00 00 00 00 0F 18 00 01 00 00 00 |................|
|04 00 00 00 00 00 00 00 00 00 00 00 00 00 00 00 |................|
|00 00 00 00 00 00 01 00 01 00 00 00 00 00 00 00 |................|
|00 00 00 00 00 0F 45 78 6F 74 69 63 20 4A 61 64 |......Exotic Jad|
|65 20 46 61 6E 00 00 00 00 00 00 47 54 68 69 73 |e Fan......GThis|
|20 65 78 6F 74 69 63 20 74 72 6F 70 68 79 20 69 | exotic trophy i|
|73 20 66 72 6F 6D 20 66 61 72 20 6F 66 66 20 6C |s from far off l|
|61 6E 64 73 20 61 6E 64 20 63 61 6E 20 62 65 20 |ands and can be |
|77 6F 72 6E 20 6F 6E 20 79 6F 75 72 20 61 72 6D |worn on your arm|
|6F 72 2E 01 01 00 00 03 06 20 08 00 00 00 00 00 |or....... ......|
|00 00 00 00 00 00 00 00 00 00 00 00 00 00 01 00 |................|
|03 25 2C 03 00 18 54 72 6F 70 68 79 20 52 65 64 |.%,...Trophy Red|
|65 6D 70 74 69 6F 6E 20 54 69 63 6B 65 74 00 01 |emption Ticket..|
|00 00 00 00 00 00 00 00 00 00 00 00 00 00 00 00 |................|
|00 00 09 03 00 00 00 00 00 00 03 25 36 24 C1 00 |...........%6$..|
|00 00 00 00 00 00 00 0F 18 00 01 00 00 00 04 00 |................|
|00 00 00 00 00 00 00 00 00 00 00 00 00 00 00 00 |................|
|00 00 00 00 01 00 01 00 00 00 00 00 00 00 00 00 |................|
|00 00 00 16 45 78 6F 74 69 63 20 43 69 72 63 6C |....Exotic Circl|
|65 73 20 6F 66 20 46 61 74 65 00 00 00 00 00 00 |es of Fate......|
|47 54 68 69 73 20 65 78 6F 74 69 63 20 74 72 6F |GThis exotic tro|
|70 68 79 20 69 73 20 66 72 6F 6D 20 66 61 72 20 |phy is from far |
|6F 66 66 20 6C 61 6E 64 73 20 61 6E 64 20 63 61 |off lands and ca|
|6E 20 62 65 20 77 6F 72 6E 20 6F 6E 20 79 6F 75 |n be worn on you|
|72 20 61 72 6D 6F 72 2E 01 01 00 00 03 06 20 08 |r armor....... .|
|00 00 00 00 00 00 00 00 00 00 00 00 00 00 00 00 |................|
|00 00 00 01 00 03 25 2C 03 00 18 54 72 6F 70 68 |......%,...Troph|
|79 20 52 65 64 65 6D 70 74 69 6F 6E 20 54 69 63 |y Redemption Tic|
|6B 65 74 00 01 00 00 00 00 00 00 00 00 00 00 00 |ket.............|
|00 00 00 00 00 00 00 00                         |........        |
-------------------------------------------------------------------
[Server] packet : (0xBF) F_INIT_STORE  Size = 497 
|------------------------------------------------|----------------|
|00 01 02 03 04 05 06 07 08 09 0A 0B 0C 0D 0E 0F |0123456789ABCDEF|
|------------------------------------------------|----------------|
|01 EE BF 00 00 01 02 00 01 00 00 03 00 00 00 00 |................|
|00 00 03 25 38 24 C5 00 00 00 00 00 00 00 00 0F |...%8$..........|
|18 00 01 00 00 00 04 00 56 00 00 00 00 00 00 00 |........V.......|
|00 00 00 00 00 00 00 00 00 00 00 00 01 00 01 00 |................|
|00 00 00 00 00 00 00 00 00 00 00 13 52 61 74 20 |............Rat |
|6F 6E 20 61 20 4C 61 72 67 65 20 48 6F 6F 6B 00 |on a Large Hook.|
|00 00 00 00 00 47 54 68 69 73 20 65 78 6F 74 69 |.....GThis exoti|
|63 20 74 72 6F 70 68 79 20 69 73 20 66 72 6F 6D |c trophy is from|
|20 66 61 72 20 6F 66 66 20 6C 61 6E 64 73 20 61 | far off lands a|
|6E 64 20 63 61 6E 20 62 65 20 77 6F 72 6E 20 6F |nd can be worn o|
|6E 20 79 6F 75 72 20 61 72 6D 6F 72 2E 01 01 00 |n your armor....|
|00 03 06 20 08 00 00 00 00 00 00 00 00 00 00 00 |... ............|
|00 00 00 00 00 00 00 00 01 00 03 25 2C 03 00 18 |...........%,...|
|54 72 6F 70 68 79 20 52 65 64 65 6D 70 74 69 6F |Trophy Redemptio|
|6E 20 54 69 63 6B 65 74 00 01 00 00 00 00 00 00 |n Ticket........|
|00 00 00 00 00 00 00 00 00 00 00 00 01 03 00 00 |................|
|00 00 00 00 03 25 3A 24 C7 00 00 00 00 00 00 00 |.....%:$........|
|00 0F 18 00 01 00 00 00 04 00 56 00 00 00 00 00 |..........V.....|
|00 00 00 00 00 00 00 00 00 00 00 00 00 00 01 00 |................|
|01 00 00 00 00 00 00 00 00 00 00 00 00 15 53 6B |..............Sk|
|75 6C 6C 20 6F 6E 20 61 20 4C 61 72 67 65 20 43 |ull on a Large C|
|6C 61 77 00 00 00 00 00 00 47 54 68 69 73 20 65 |law......GThis e|
|78 6F 74 69 63 20 74 72 6F 70 68 79 20 69 73 20 |xotic trophy is |
|66 72 6F 6D 20 66 61 72 20 6F 66 66 20 6C 61 6E |from far off lan|
|64 73 20 61 6E 64 20 63 61 6E 20 62 65 20 77 6F |ds and can be wo|
|72 6E 20 6F 6E 20 79 6F 75 72 20 61 72 6D 6F 72 |rn on your armor|
|2E 01 01 00 00 03 06 20 08 00 00 00 00 00 00 00 |....... ........|
|00 00 00 00 00 00 00 00 00 00 00 00 01 00 03 25 |...............%|
|2C 03 00 18 54 72 6F 70 68 79 20 52 65 64 65 6D |,...Trophy Redem|
|70 74 69 6F 6E 20 54 69 63 6B 65 74 00 01 00 00 |ption Ticket....|
|00 00 00 00 00 00 00 00 00 00 00 00 00 00 00 00 |................|
|00                                              |.               |
-------------------------------------------------------------------
[Server] packet : (0xC0) F_STORE_BUY_BACK  Size = 5 
|------------------------------------------------|----------------|
|00 01 02 03 04 05 06 07 08 09 0A 0B 0C 0D 0E 0F |0123456789ABCDEF|
|------------------------------------------------|----------------|
|00 02 C0 00 00                                  |.....           |
-------------------------------------------------------------------
[Server] packet : (0xDA) F_USE_ABILITY  Size = 23 
|------------------------------------------------|----------------|
|00 01 02 03 04 05 06 07 08 09 0A 0B 0C 0D 0E 0F |0123456789ABCDEF|
|------------------------------------------------|----------------|
|00 14 DA 00 00 01 19 01 19 00 00 18 54 02 00 00 |............T...|
|00 00 00 00 00 00 00                            |.......         |
-------------------------------------------------------------------
[Client] packet : (0x16) F_REQUEST_INIT_OBJECT  Size = 16 
|------------------------------------------------|----------------|
|00 01 02 03 04 05 06 07 08 09 0A 0B 0C 0D 0E 0F |0123456789ABCDEF|
|------------------------------------------------|----------------|
|00 04 6F 8C 00 1E 00 00 00 16 32 41 00 00 CC 46 |..o.......2A...F|                                                
-------------------------------------------------------------------
[Server] packet : (0x72) F_CREATE_MONSTER  Size = 136 
|------------------------------------------------|----------------|
|00 01 02 03 04 05 06 07 08 09 0A 0B 0C 0D 0E 0F |0123456789ABCDEF|
|------------------------------------------------|----------------|
|00 85 72 32 41 00 00 04 CC 19 D1 00 0D 1E C9 00 |..r2A...........|
|0C CD D4 00 00 04 C2 32 02 41 00 00 00 00 08 00 |.......2.A......|
|00 00 00 03 E8 00 00 00 00 36 EC 00 04 00 00 01 |.........6......|
|19 00 54 68 6F 72 73 68 61 66 6E 20 4D 69 6C 69 |..Thorshafn Mili|
|74 69 61 6D 61 6E 5E 6D 00 01 0A 00 00 00 12 25 |tiaman^m.......%|
|00 32 41 9E C9 4D D4 19 D1 64 00 64 00 00 00 00 |.2A..M...d.d....|
|00 CC 04 32 41 01 08 00 0A 05 2D 00 0C 05 6A 00 |...2A.....-...j.|
|14 09 BE 00 15 09 C2 00 16 09 BD 00 18 09 C0 00 |................|
|19 09 C1 00 1C 09 BF 00                         |........        |
-------------------------------------------------------------------
[Server] packet : (0xDA) F_USE_ABILITY  Size = 23 
|------------------------------------------------|----------------|
|00 01 02 03 04 05 06 07 08 09 0A 0B 0C 0D 0E 0F |0123456789ABCDEF|
|------------------------------------------------|----------------|
|00 14 DA 00 00 18 54 18 54 00 00 01 19 02 00 00 |......T.T.......|
|00 00 00 00 00 00 00                            |.......         |
-------------------------------------------------------------------
[Client] packet : (0x16) F_REQUEST_INIT_OBJECT  Size = 16 
|------------------------------------------------|----------------|
|00 01 02 03 04 05 06 07 08 09 0A 0B 0C 0D 0E 0F |0123456789ABCDEF|
|------------------------------------------------|----------------|
|00 04 6F 8F 00 1E 00 00 00 16 13 D3 00 00 29 6F |..o...........)o|                                                
-------------------------------------------------------------------
[Server] packet : (0x72) F_CREATE_MONSTER  Size = 107 
|------------------------------------------------|----------------|
|00 01 02 03 04 05 06 07 08 09 0A 0B 0C 0D 0E 0F |0123456789ABCDEF|
|------------------------------------------------|----------------|
|00 68 72 13 D3 00 EB 0D A6 1F 20 00 0C F1 3B 00 |.hr....... ...;.|
|0C AA 35 FF C6 04 48 32 02 80 00 00 00 00 00 00 |..5...H2........|
|00 01 00 03 E8 00 00 00 00 37 FD 00 03 00 00 01 |.........7......|
|19 00 50 69 6E 6B 20 48 6F 72 72 6F 72 5E 6D 00 |..Pink Horror^m.|
|00 00 00 08 01 0A 00 00 00 1A 05 00 13 D3 71 3B |..............q;|
|2A 35 1F 20 64 01 64 00 00 00 00 08 EB 00 8E 9B |*5. d.d.........|
|76 46 2E DC 1D 64 13 D3 00 00 00                |...........     |
-------------------------------------------------------------------
[Client] packet : (0xFE) F_PLAY_VOICE_OVER  Size = 16 
|------------------------------------------------|----------------|
|00 01 02 03 04 05 06 07 08 09 0A 0B 0C 0D 0E 0F |0123456789ABCDEF|
|------------------------------------------------|----------------|
|00 04 6F 91 00 1E FF FF 00 FE 02 00 00 00 47 91 |..o...........G.|                                                
-------------------------------------------------------------------
[Server] packet : (0x74) UNKNOWN  Size = 44 
|------------------------------------------------|----------------|
|00 01 02 03 04 05 06 07 08 09 0A 0B 0C 0D 0E 0F |0123456789ABCDEF|
|------------------------------------------------|----------------|
|00 29 74 01 01 00 00 00 04 02 00 00 02 00 03 00 |.)t.............|
|00 00 00 00 00 00 01 00 01 00 00 01 F4 00 00 01 |................|
|0B 02 00 01 00 00 01 F4 00 00 01 00             |............    |
-------------------------------------------------------------------
[Server] packet : (0xDA) F_USE_ABILITY  Size = 23 
|------------------------------------------------|----------------|
|00 01 02 03 04 05 06 07 08 09 0A 0B 0C 0D 0E 0F |0123456789ABCDEF|
|------------------------------------------------|----------------|
|00 14 DA 00 00 01 19 01 19 00 00 18 54 02 00 00 |............T...|
|09 00 00 00 00 00 00                            |.......         |
-------------------------------------------------------------------
[Server] packet : (0x0A) F_OBJECT_DEATH  Size = 15 
|------------------------------------------------|----------------|
|00 01 02 03 04 05 06 07 08 09 0A 0B 0C 0D 0E 0F |0123456789ABCDEF|
|------------------------------------------------|----------------|
|00 0C 0A 20 B9 00 00 00 00 00 00 00 00 00 00    |............... |
-------------------------------------------------------------------
[Client] packet : (0x0B) F_PING  Size = 32 
|------------------------------------------------|----------------|
|00 01 02 03 04 05 06 07 08 09 0A 0B 0C 0D 0E 0F |0123456789ABCDEF|
|------------------------------------------------|----------------|
|00 14 6F 94 00 1E 00 00 00 0B 00 74 89 F1 9E 10 |..o........t....|
|D4 05 0A 04 25 E3 00 00 00 00 00 00 00 00 FE 14 |....%...........|                                                
-------------------------------------------------------------------
[Server] packet : (0x81) S_PONG  Size = 23 
|------------------------------------------------|----------------|
|00 01 02 03 04 05 06 07 08 09 0A 0B 0C 0D 0E 0F |0123456789ABCDEF|
|------------------------------------------------|----------------|
|00 14 81 00 74 89 F1 52 74 B9 B3 00 00 00 00 00 |....t..Rt.......|
|00 6F 95 00 00 00 00                            |.......         |
-------------------------------------------------------------------
[Server] packet : (0xDA) F_USE_ABILITY  Size = 23 
|------------------------------------------------|----------------|
|00 01 02 03 04 05 06 07 08 09 0A 0B 0C 0D 0E 0F |0123456789ABCDEF|
|------------------------------------------------|----------------|
|00 14 DA 00 00 01 19 01 19 00 00 18 54 02 00 00 |............T...|
|05 00 00 00 00 00 00                            |.......         |
-------------------------------------------------------------------
[Server] packet : (0xDA) F_USE_ABILITY  Size = 23 
|------------------------------------------------|----------------|
|00 01 02 03 04 05 06 07 08 09 0A 0B 0C 0D 0E 0F |0123456789ABCDEF|
|------------------------------------------------|----------------|
|00 14 DA 00 00 18 54 18 54 00 00 01 19 02 00 00 |......T.T.......|
|00 00 00 00 00 00 00                            |.......         |
-------------------------------------------------------------------
[Client] packet : (0x5A) F_PING_DATAGRAM  Size = 13 
|------------------------------------------------|----------------|
|00 01 02 03 04 05 06 07 08 09 0A 0B 0C 0D 0E 0F |0123456789ABCDEF|
|------------------------------------------------|----------------|
|00 01 6F 9B 00 1E FF FF 00 5A 00 8F A0          |.............   |
-------------------------------------------------------------------
[Server] packet : (0xDA) F_USE_ABILITY  Size = 23 
|------------------------------------------------|----------------|
|00 01 02 03 04 05 06 07 08 09 0A 0B 0C 0D 0E 0F |0123456789ABCDEF|
|------------------------------------------------|----------------|
|00 14 DA 00 00 01 19 01 19 00 00 18 54 02 00 00 |............T...|
|00 00 00 00 00 00 00                            |.......         |
-------------------------------------------------------------------
[Client] packet : (0x0B) F_PING  Size = 32 
|------------------------------------------------|----------------|
|00 01 02 03 04 05 06 07 08 09 0A 0B 0C 0D 0E 0F |0123456789ABCDEF|
|------------------------------------------------|----------------|
|00 14 6F 9F 00 1E 00 00 00 0B 00 74 9D 87 27 87 |..o........t..'.|
|3B 7A DD BB 47 76 00 00 00 00 00 00 00 00 FE 14 |;z..Gv..........|                                                
-------------------------------------------------------------------
[Server] packet : (0x81) S_PONG  Size = 23 
|------------------------------------------------|----------------|
|00 01 02 03 04 05 06 07 08 09 0A 0B 0C 0D 0E 0F |0123456789ABCDEF|
|------------------------------------------------|----------------|
|00 14 81 00 74 9D 87 52 74 B9 B8 00 00 00 00 00 |....t..Rt.......|
|00 6F A0 00 00 00 00                            |.......         |
-------------------------------------------------------------------
[Server] packet : (0xDA) F_USE_ABILITY  Size = 23 
|------------------------------------------------|----------------|
|00 01 02 03 04 05 06 07 08 09 0A 0B 0C 0D 0E 0F |0123456789ABCDEF|
|------------------------------------------------|----------------|
|00 14 DA 00 00 01 19 01 19 00 00 18 54 02 00 00 |............T...|
|09 00 00 00 00 00 00                            |.......         |
-------------------------------------------------------------------
[Server] packet : (0xDA) F_USE_ABILITY  Size = 23 
|------------------------------------------------|----------------|
|00 01 02 03 04 05 06 07 08 09 0A 0B 0C 0D 0E 0F |0123456789ABCDEF|
|------------------------------------------------|----------------|
|00 14 DA 00 00 18 54 18 54 00 00 01 19 02 00 00 |......T.T.......|
|09 00 00 00 00 00 00                            |.......         |
-------------------------------------------------------------------
[Client] packet : (0x01) UNKNOWN  Size = 32 
|------------------------------------------------|----------------|
|00 01 02 03 04 05 06 07 08 09 0A 0B 0C 0D 0E 0F |0123456789ABCDEF|
|------------------------------------------------|----------------|
|00 14 6F A3 00 1E 00 00 00 01 00 74 9D 3B 00 23 |..o........t.;.#|
|39 B0 08 18 C0 4A 20 07 3F FF 90 38 49 C6 00 00 |9....J .?..8I...|                                                
-------------------------------------------------------------------
[Server] packet : (0x00) UNKNOWN  Size = 23 
|------------------------------------------------|----------------|
|00 01 02 03 04 05 06 07 08 09 0A 0B 0C 0D 0E 0F |0123456789ABCDEF|
|------------------------------------------------|----------------|
|00 14 00 00 74 9D 3B 79 74 F4 36 00 00 00 00 20 |....t.;yt.6.... |
|07 3F FF 90 38 49 00                            |.......         |
-------------------------------------------------------------------
[Client] packet : (0x16) F_REQUEST_INIT_OBJECT  Size = 16 
|------------------------------------------------|----------------|
|00 01 02 03 04 05 06 07 08 09 0A 0B 0C 0D 0E 0F |0123456789ABCDEF|
|------------------------------------------------|----------------|
|00 04 6F A5 00 1E 00 00 00 16 22 B9 00 00 D7 82 |..o.......".....|                                                
-------------------------------------------------------------------
[Server] packet : (0x72) F_CREATE_MONSTER  Size = 140 
|------------------------------------------------|----------------|
|00 01 02 03 04 05 06 07 08 09 0A 0B 0C 0D 0E 0F |0123456789ABCDEF|
|------------------------------------------------|----------------|
|00 89 72 22 B9 01 13 06 59 24 C6 00 0D 2B 47 00 |..r"....Y$...+G.|
|0C B4 0D 00 00 05 37 34 02 58 00 00 00 00 00 00 |......74.X......|
|00 04 00 03 E8 00 00 00 01 4E 29 00 02 00 00 01 |.........N).....|
|19 00 44 77 61 72 66 65 6E 20 47 79 72 6F 63 6F |..Dwarfen Gyroco|
|70 74 65 72 5E 6D 00 00 B4 01 0A 00 00 00 00 00 |pter^m..........|
|00 00 1A 1D 00 22 B9 AB 47 34 0D 24 C6 64 01 64 |....."..G4.$.d.d|
|00 00 00 00 00 13 01 00 A9 AA 3C 33 C6 24 64 22 |..........<3.$d"|
|B9 00 06 00 14 08 13 00 15 07 D3 00 16 07 D2 00 |................|
|17 07 D5 00 18 07 D4 00 1C 07 D0 00             |............    |
-------------------------------------------------------------------
[Server] packet : (0xDA) F_USE_ABILITY  Size = 23 
|------------------------------------------------|----------------|
|00 01 02 03 04 05 06 07 08 09 0A 0B 0C 0D 0E 0F |0123456789ABCDEF|
|------------------------------------------------|----------------|
|00 14 DA 00 00 01 19 01 19 00 00 18 54 02 00 00 |............T...|
|00 00 00 00 00 00 00                            |.......         |
-------------------------------------------------------------------
[Server] packet : (0x0A) F_OBJECT_DEATH  Size = 15 
|------------------------------------------------|----------------|
|00 01 02 03 04 05 06 07 08 09 0A 0B 0C 0D 0E 0F |0123456789ABCDEF|
|------------------------------------------------|----------------|
|00 0C 0A 2B 15 00 00 00 00 00 00 00 00 00 00    |............... |
-------------------------------------------------------------------
[Server] packet : (0xDA) F_USE_ABILITY  Size = 23 
|------------------------------------------------|----------------|
|00 01 02 03 04 05 06 07 08 09 0A 0B 0C 0D 0E 0F |0123456789ABCDEF|
|------------------------------------------------|----------------|
|00 14 DA 00 00 01 19 01 19 00 00 18 54 02 00 00 |............T...|
|00 00 00 00 00 00 00                            |.......         |
-------------------------------------------------------------------
[Client] packet : (0x0B) F_PING  Size = 32 
|------------------------------------------------|----------------|
|00 01 02 03 04 05 06 07 08 09 0A 0B 0C 0D 0E 0F |0123456789ABCDEF|
|------------------------------------------------|----------------|
|00 14 6F AB 00 1E 00 00 00 0B 00 74 B1 11 CA 98 |..o........t....|
|55 83 01 44 23 3A 00 00 00 00 00 00 00 00 FE 14 |U..D#:..........|                                                
-------------------------------------------------------------------
[Server] packet : (0x81) S_PONG  Size = 23 
|------------------------------------------------|----------------|
|00 01 02 03 04 05 06 07 08 09 0A 0B 0C 0D 0E 0F |0123456789ABCDEF|
|------------------------------------------------|----------------|
|00 14 81 00 74 B1 11 52 74 B9 BD 00 00 00 00 00 |....t..Rt.......|
|00 6F AC 00 00 00 00                            |.......         |
-------------------------------------------------------------------
[Server] packet : (0xDA) F_USE_ABILITY  Size = 23 
|------------------------------------------------|----------------|
|00 01 02 03 04 05 06 07 08 09 0A 0B 0C 0D 0E 0F |0123456789ABCDEF|
|------------------------------------------------|----------------|
|00 14 DA 00 00 18 54 18 54 00 00 01 19 02 00 00 |......T.T.......|
|04 00 00 00 00 00 00                            |.......         |
-------------------------------------------------------------------
[Client] packet : (0x16) F_REQUEST_INIT_OBJECT  Size = 16 
|------------------------------------------------|----------------|
|00 01 02 03 04 05 06 07 08 09 0A 0B 0C 0D 0E 0F |0123456789ABCDEF|
|------------------------------------------------|----------------|
|00 04 6F AE 00 1E 00 00 00 16 1F 95 00 00 18 BA |..o.............|                                                
-------------------------------------------------------------------
[Server] packet : (0x72) F_CREATE_MONSTER  Size = 136 
|------------------------------------------------|----------------|
|00 01 02 03 04 05 06 07 08 09 0A 0B 0C 0D 0E 0F |0123456789ABCDEF|
|------------------------------------------------|----------------|
|00 85 72 1F 95 01 13 07 20 24 C6 00 0D 2B 6C 00 |..r..... $...+l.|
|0C B3 F6 00 00 05 37 34 02 58 00 00 00 00 00 00 |......74.X......|
|00 04 00 03 E8 00 00 00 01 4E 29 00 01 00 00 01 |.........N).....|
|19 00 44 77 61 72 66 65 6E 20 47 79 72 6F 63 6F |..Dwarfen Gyroco|
|70 74 65 72 5E 6D 00 00 B4 01 0A 00 00 00 00 00 |pter^m..........|
|00 00 1A 19 00 1F 95 AB 6C 33 F6 24 C6 64 01 64 |........l3.$.d.d|
|00 00 00 00 00 13 01 00 F5 AA A8 32 C6 24 64 1F |...........2.$d.|
|95 00 05 00 14 08 13 00 15 07 D3 00 16 07 D2 00 |................|
|18 07 D4 00 1C 07 D0 00                         |........        |
-------------------------------------------------------------------
[Server] packet : (0xDA) F_USE_ABILITY  Size = 23 
|------------------------------------------------|----------------|
|00 01 02 03 04 05 06 07 08 09 0A 0B 0C 0D 0E 0F |0123456789ABCDEF|
|------------------------------------------------|----------------|
|00 14 DA 00 00 01 19 01 19 00 00 18 54 02 00 00 |............T...|
|00 00 00 00 00 00 00                            |.......         |
-------------------------------------------------------------------
[Client] packet : (0x86) F_MAIL  Size = 16 
|------------------------------------------------|----------------|
|00 01 02 03 04 05 06 07 08 09 0A 0B 0C 0D 0E 0F |0123456789ABCDEF|
|------------------------------------------------|----------------|
|00 04 6F B1 00 1E FF FF 00 86 00 00 00 00 00 00 |..o.............|                                                
-------------------------------------------------------------------
[Server] packet : (0xDA) F_USE_ABILITY  Size = 23 
|------------------------------------------------|----------------|
|00 01 02 03 04 05 06 07 08 09 0A 0B 0C 0D 0E 0F |0123456789ABCDEF|
|------------------------------------------------|----------------|
|00 14 DA 00 00 01 19 01 19 00 00 18 54 02 00 00 |............T...|
|09 00 00 00 00 00 00                            |.......         |
-------------------------------------------------------------------