
[Client] packet : (0x01) UNKNOWN  Size = 32 
|------------------------------------------------|----------------|
|00 01 02 03 04 05 06 07 08 09 0A 0B 0C 0D 0E 0F |0123456789ABCDEF|
|------------------------------------------------|----------------|
|00 14 14 E6 00 55 00 00 00 01 00 12 44 D8 00 00 |.....U......D...|
|00 00 00 00 00 00 00 00 40 43 00 00 1E 91 B3 31 |........@C.....1|                                                
-------------------------------------------------------------------
[Server] packet : (0x00) UNKNOWN  Size = 23 
|------------------------------------------------|----------------|
|00 01 02 03 04 05 06 07 08 09 0A 0B 0C 0D 0E 0F |0123456789ABCDEF|
|------------------------------------------------|----------------|
|00 14 00 00 12 44 D8 79 E9 98 3D 00 00 00 00 00 |.....D.y..=.....|
|00 40 43 00 00 1E 00                            |.......         |
-------------------------------------------------------------------
[Client] packet : (0x0B) F_PING  Size = 32 
|------------------------------------------------|----------------|
|00 01 02 03 04 05 06 07 08 09 0A 0B 0C 0D 0E 0F |0123456789ABCDEF|
|------------------------------------------------|----------------|
|00 14 14 E9 00 55 00 00 00 0B 00 12 50 1B A5 B7 |.....U......P...|
|FF ED B1 3E 71 BE 00 00 00 00 00 00 00 00 8E C1 |...>q...........|                                                
-------------------------------------------------------------------
[Server] packet : (0x81) S_PONG  Size = 23 
|------------------------------------------------|----------------|
|00 01 02 03 04 05 06 07 08 09 0A 0B 0C 0D 0E 0F |0123456789ABCDEF|
|------------------------------------------------|----------------|
|00 14 81 00 12 50 1B 52 74 D7 7A 00 00 00 00 00 |.....P.Rt.z.....|
|00 14 EA 00 00 00 00                            |.......         |
-------------------------------------------------------------------
[Server] packet : (0x61) F_PLAY_SOUND  Size = 16 
|------------------------------------------------|----------------|
|00 01 02 03 04 05 06 07 08 09 0A 0B 0C 0D 0E 0F |0123456789ABCDEF|
|------------------------------------------------|----------------|
|00 0D 61 00 00 03 03 E8 0A EC 75 63 1B 76 00 00 |..a.......uc.v..|                                                
-------------------------------------------------------------------
[Client] packet : (0xFE) F_PLAY_VOICE_OVER  Size = 16 
|------------------------------------------------|----------------|
|00 01 02 03 04 05 06 07 08 09 0A 0B 0C 0D 0E 0F |0123456789ABCDEF|
|------------------------------------------------|----------------|
|00 04 14 F0 00 55 FF FF 00 FE 02 00 00 00 0E EF |.....U..........|                                                
-------------------------------------------------------------------
[Server] packet : (0x74) UNKNOWN  Size = 44 
|------------------------------------------------|----------------|
|00 01 02 03 04 05 06 07 08 09 0A 0B 0C 0D 0E 0F |0123456789ABCDEF|
|------------------------------------------------|----------------|
|00 29 74 01 01 00 00 00 04 02 00 00 02 00 03 00 |.)t.............|
|00 00 00 00 00 00 01 00 01 00 00 01 F4 00 00 01 |................|
|22 02 00 01 00 00 01 F4 00 00 00 00             |............    |
-------------------------------------------------------------------
[Client] packet : (0x5A) F_PING_DATAGRAM  Size = 13 
|------------------------------------------------|----------------|
|00 01 02 03 04 05 06 07 08 09 0A 0B 0C 0D 0E 0F |0123456789ABCDEF|
|------------------------------------------------|----------------|
|00 01 14 F3 00 55 FF FF 00 5A 00 F0 17          |.............   |
-------------------------------------------------------------------
[Client] packet : (0xD2) F_INTERACT  Size = 24 
|------------------------------------------------|----------------|
|00 01 02 03 04 05 06 07 08 09 0A 0B 0C 0D 0E 0F |0123456789ABCDEF|
|------------------------------------------------|----------------|
|00 0C 14 F7 00 55 00 00 00 D2 00 00 06 68 00 00 |.....U.......h..|
|00 00 00 00 00 00 00 00                         |........        |
-------------------------------------------------------------------
[Client] packet : (0xE8) F_CLIENT_DATA  Size = 20 
|------------------------------------------------|----------------|
|00 01 02 03 04 05 06 07 08 09 0A 0B 0C 0D 0E 0F |0123456789ABCDEF|
|------------------------------------------------|----------------|
|00 08 14 F9 00 55 00 00 00 E8 00 34 00 04 6B 21 |.....U.....4..k!|
|01 00 00 00                                     |....            |
-------------------------------------------------------------------
[Client] packet : (0x0B) F_PING  Size = 32 
|------------------------------------------------|----------------|
|00 01 02 03 04 05 06 07 08 09 0A 0B 0C 0D 0E 0F |0123456789ABCDEF|
|------------------------------------------------|----------------|
|00 14 14 FA 00 55 00 00 00 0B 00 12 63 2A AD E3 |.....U......c*..|
|79 F2 BC DF E5 7B 00 00 00 00 00 00 00 00 8E C1 |y....{..........|                                                
-------------------------------------------------------------------
[Server] packet : (0x7E) F_SET_ABILITY_TIMER  Size = 15 
|------------------------------------------------|----------------|
|00 01 02 03 04 05 06 07 08 09 0A 0B 0C 0D 0E 0F |0123456789ABCDEF|
|------------------------------------------------|----------------|
|00 0C 7E 00 01 01 00 00 00 00 00 00 00 00 00    |............... |
-------------------------------------------------------------------
[Server] packet : (0xE9) F_INTERACT_RESPONSE  Size = 52 
|------------------------------------------------|----------------|
|00 01 02 03 04 05 06 07 08 09 0A 0B 0C 0D 0E 0F |0123456789ABCDEF|
|------------------------------------------------|----------------|
|00 31 E9 00 06 68 00 00 00 22 00 27 54 61 6B 65 |.1...h...".'Take|
|20 77 68 61 74 20 79 6F 75 20 77 69 6C 6C 2C 20 | what you will, |
|67 69 76 65 20 77 68 61 74 20 79 6F 75 20 6D 75 |give what you mu|
|73 74 2E 00                                     |....            |
-------------------------------------------------------------------
[Server] packet : (0x81) S_PONG  Size = 23 
|------------------------------------------------|----------------|
|00 01 02 03 04 05 06 07 08 09 0A 0B 0C 0D 0E 0F |0123456789ABCDEF|
|------------------------------------------------|----------------|
|00 14 81 00 12 63 2A 52 74 D7 7F 00 00 00 00 00 |.....c*Rt.......|
|00 14 FB 00 00 00 00                            |.......         |
-------------------------------------------------------------------
[Client] packet : (0xD2) F_INTERACT  Size = 24 
|------------------------------------------------|----------------|
|00 01 02 03 04 05 06 07 08 09 0A 0B 0C 0D 0E 0F |0123456789ABCDEF|
|------------------------------------------------|----------------|
|00 0C 15 01 00 55 00 00 00 D2 00 00 06 68 00 09 |.....U.......h..|
|00 00 00 00 00 00 00 00                         |........        |
-------------------------------------------------------------------
[Server] packet : (0xBF) F_INIT_STORE  Size = 3004 
|------------------------------------------------|----------------|
|00 01 02 03 04 05 06 07 08 09 0A 0B 0C 0D 0E 0F |0123456789ABCDEF|
|------------------------------------------------|----------------|
|0B B9 BF 00 00 00 0F 01 01 00 00 00 03 00 00 00 |................|
|1E 00 00 02 D2 4E 14 08 00 00 00 00 00 00 00 00 |.....N..........|
|00 00 00 01 00 00 00 01 00 00 00 00 00 00 00 00 |................|
|00 00 00 00 00 0C 00 14 00 01 00 00 00 00 00 00 |................|
|00 00 00 00 00 00 09 41 72 69 64 20 53 6F 69 6C |.......Arid Soil|
|00 00 00 04 09 00 01 0A 00 0A 0C 00 02 05 00 03 |................|
|00 00 49 41 20 6C 6F 77 2D 67 72 61 64 65 20 73 |..IA low-grade s|
|6F 69 6C 20 75 73 65 64 20 74 6F 20 69 6E 63 72 |oil used to incr|
|65 61 73 65 20 74 68 65 20 63 68 61 6E 63 65 20 |ease the chance |
|6F 66 20 67 72 6F 77 69 6E 67 20 73 6F 6D 65 74 |of growing somet|
|68 69 6E 67 20 62 65 74 74 65 72 2E 00 01 00 00 |hing better.....|
|03 02 00 08 00 00 00 00 00 00 01 02 00 00 00 00 |................|
|00 00 00 00 00 00 00 00 01 03 00 00 01 38 00 00 |.............8..|
|02 D2 54 14 08 00 00 00 00 00 00 00 00 00 00 00 |..T.............|
|0A 00 00 00 01 00 00 00 00 00 00 00 00 00 00 00 |................|
|00 00 7D 00 14 00 01 00 00 00 00 00 00 00 00 00 |..}.............|
|00 00 00 09 44 61 6D 70 20 53 6F 69 6C 00 00 00 |....Damp Soil...|
|04 09 00 32 0A 00 14 0C 00 05 05 00 03 00 00 49 |...2...........I|
|41 20 6D 69 64 2D 67 72 61 64 65 20 73 6F 69 6C |A mid-grade soil|
|20 75 73 65 64 20 74 6F 20 69 6E 63 72 65 61 73 | used to increas|
|65 20 74 68 65 20 63 68 61 6E 63 65 20 6F 66 20 |e the chance of |
|67 72 6F 77 69 6E 67 20 73 6F 6D 65 74 68 69 6E |growing somethin|
|67 20 62 65 74 74 65 72 2E 00 01 00 00 03 02 00 |g better........|
|08 00 00 00 00 00 00 32 02 00 00 00 00 00 00 00 |.......2........|
|00 00 00 00 00 02 03 00 00 02 EE 00 00 02 D2 57 |...............W|
|14 09 00 00 00 00 00 00 00 00 00 00 00 14 00 00 |................|
|00 02 00 00 00 00 00 00 00 00 00 00 00 00 01 2C |...............,|
|00 14 00 01 00 00 00 00 00 00 00 00 00 00 00 00 |................|
|0E 4D 6F 69 73 74 65 6E 65 64 20 53 6F 69 6C 00 |.Moistened Soil.|
|00 00 04 09 00 64 0A 00 1E 0C 00 0A 05 00 03 00 |.....d..........|
|00 49 41 20 6D 69 64 2D 67 72 61 64 65 20 73 6F |.IA mid-grade so|
|69 6C 20 75 73 65 64 20 74 6F 20 69 6E 63 72 65 |il used to incre|
|61 73 65 20 74 68 65 20 63 68 61 6E 63 65 20 6F |ase the chance o|
|66 20 67 72 6F 77 69 6E 67 20 73 6F 6D 65 74 68 |f growing someth|
|69 6E 67 20 62 65 74 74 65 72 2E 00 01 00 00 03 |ing better......|
|02 00 08 00 00 00 00 00 00 64 02 00 00 00 00 00 |.........d......|
|00 00 00 00 00 00 00 03 03 00 00 04 65 00 00 02 |............e...|
|D2 5D 14 09 00 00 00 00 00 00 00 00 00 00 00 1E |.]..............|
|00 00 00 02 00 00 00 00 00 00 00 00 00 00 00 00 |................|
|01 C2 00 14 00 01 00 00 00 00 00 00 00 00 00 00 |................|
|00 00 0C 46 65 72 74 69 6C 65 20 53 6F 69 6C 00 |...Fertile Soil.|
|00 00 04 09 00 96 0A 00 28 0C 00 0F 05 00 03 00 |........(.......|
|00 4A 41 20 68 69 67 68 2D 67 72 61 64 65 20 73 |.JA high-grade s|
|6F 69 6C 20 75 73 65 64 20 74 6F 20 69 6E 63 72 |oil used to incr|
|65 61 73 65 20 74 68 65 20 63 68 61 6E 63 65 20 |ease the chance |
|6F 66 20 67 72 6F 77 69 6E 67 20 73 6F 6D 65 74 |of growing somet|
|68 69 6E 67 20 62 65 74 74 65 72 2E 00 01 00 00 |hing better.....|
|03 02 00 08 00 00 00 00 00 00 96 02 00 00 00 00 |................|
|00 00 00 00 00 00 00 00 04 03 00 00 05 DC 00 00 |................|
|02 D2 63 14 0D 00 00 00 00 00 00 00 00 00 00 00 |..c.............|
|28 00 00 00 02 00 00 00 00 00 00 00 00 00 00 00 |(...............|
|00 02 58 00 14 00 01 00 00 00 00 00 00 00 00 00 |..X.............|
|00 00 00 0C 41 65 72 61 74 65 64 20 53 6F 69 6C |....Aerated Soil|
|00 00 00 04 09 00 C8 0A 00 32 0C 00 14 05 00 03 |.........2......|
|00 00 44 41 20 72 69 63 68 20 73 6F 69 6C 20 75 |..DA rich soil u|
|73 65 64 20 74 6F 20 69 6E 63 72 65 61 73 65 20 |sed to increase |
|74 68 65 20 63 68 61 6E 63 65 20 6F 66 20 67 72 |the chance of gr|
|6F 77 69 6E 67 20 73 6F 6D 65 74 68 69 6E 67 20 |owing something |
|62 65 74 74 65 72 2E 00 01 00 00 03 02 00 08 00 |better..........|
|00 00 00 00 00 C8 02 00 00 00 00 00 00 00 00 00 |................|
|00 00 00 05 03 00 00 00 1E 00 00 02 D2 66 14 2E |.............f..|
|00 00 00 00 00 00 00 00 00 22 00 01 00 00 00 01 |........."......|
|00 00 00 00 00 00 00 00 00 00 00 00 00 0C 00 14 |................|
|00 01 00 00 00 00 00 00 00 00 00 00 00 00 17 52 |...............R|
|75 73 74 65 64 20 54 69 6E 20 57 61 74 65 72 69 |usted Tin Wateri|
|6E 67 20 43 61 6E 00 00 00 04 09 00 01 0A 00 0A |ng Can..........|
|0E 00 01 05 00 03 00 00 58 41 20 6C 6F 77 2D 71 |........XA low-q|
|75 61 6C 69 74 79 20 77 61 74 65 72 69 6E 67 20 |uality watering |
|63 61 6E 20 75 73 65 64 20 74 6F 20 69 6E 63 72 |can used to incr|
|65 61 73 65 20 74 68 65 20 63 68 61 6E 63 65 20 |ease the chance |
|6F 66 20 67 72 6F 77 69 6E 67 20 73 6F 6D 65 74 |of growing somet|
|68 69 6E 67 20 65 78 63 65 70 74 69 6F 6E 61 6C |hing exceptional|
|2E 00 01 00 00 03 02 00 08 00 00 00 00 00 00 01 |................|
|03 00 00 00 00 00 00 00 00 00 00 00 00 06 03 00 |................|
|00 01 38 00 00 02 D2 72 14 2E 00 00 00 00 00 00 |..8....r........|
|00 00 00 22 00 0A 00 00 00 01 00 00 00 00 00 00 |..."............|
|00 00 00 00 00 00 00 7D 00 14 00 01 00 00 00 00 |.......}........|
|00 00 00 00 00 00 00 00 14 53 6C 65 6E 64 65 72 |.........Slender|
|20 57 61 74 65 72 69 6E 67 20 43 61 6E 00 00 00 | Watering Can...|
|04 09 00 32 0A 00 14 0E 00 02 05 00 03 00 00 58 |...2...........X|
|41 20 6D 69 64 2D 71 75 61 6C 69 74 79 20 77 61 |A mid-quality wa|
|74 65 72 69 6E 67 20 63 61 6E 20 75 73 65 64 20 |tering can used |
|74 6F 20 69 6E 63 72 65 61 73 65 20 74 68 65 20 |to increase the |
|63 68 61 6E 63 65 20 6F 66 20 67 72 6F 77 69 6E |chance of growin|
|67 20 73 6F 6D 65 74 68 69 6E 67 20 65 78 63 65 |g something exce|
|70 74 69 6F 6E 61 6C 2E 00 01 00 00 03 02 00 08 |ptional.........|
|00 00 00 00 00 00 32 03 00 00 00 00 00 00 00 00 |......2.........|
|00 00 00 00 07 03 00 00 02 EE 00 00 02 D2 75 14 |..............u.|
|2F 00 00 00 00 00 00 00 00 00 22 00 14 00 00 00 |/.........".....|
|02 00 00 00 00 00 00 00 00 00 00 00 00 01 2C 00 |..............,.|
|14 00 01 00 00 00 00 00 00 00 00 00 00 00 00 1B |................|
|50 6F 6C 69 73 68 65 64 20 42 72 61 73 73 20 57 |Polished Brass W|
|61 74 65 72 69 6E 67 20 43 61 6E 00 00 00 04 09 |atering Can.....|
|00 64 0A 00 1E 0E 00 04 05 00 03 00 00 58 41 20 |.d...........XA |
|6D 69 64 2D 71 75 61 6C 69 74 79 20 77 61 74 65 |mid-quality wate|
|72 69 6E 67 20 63 61 6E 20 75 73 65 64 20 74 6F |ring can used to|
|20 69 6E 63 72 65 61 73 65 20 74 68 65 20 63 68 | increase the ch|
|61 6E 63 65 20 6F 66 20 67 72 6F 77 69 6E 67 20 |ance of growing |
|73 6F 6D 65 74 68 69 6E 67 20 65 78 63 65 70 74 |something except|
|69 6F 6E 61 6C 2E 00 01 00 00 03 02 00 08 00 00 |ional...........|
|00 00 00 00 64 03 00 00 00 00 00 00 00 00 00 00 |....d...........|
|00 00 08 03 00 00 04 65 00 00 02 D2 78 14 2F 00 |.......e....x./.|
|00 00 00 00 00 00 00 00 22 00 1E 00 00 00 02 00 |........".......|
|00 00 00 00 00 00 00 00 00 00 00 01 C2 00 14 00 |................|
|01 00 00 00 00 00 00 00 00 00 00 00 00 1A 53 68 |..............Sh|
|69 6E 69 6E 67 20 53 74 65 65 6C 20 57 61 74 65 |ining Steel Wate|
|72 69 6E 67 20 43 61 6E 00 00 00 04 09 00 96 0A |ring Can........|
|00 28 0E 00 06 05 00 03 00 00 57 41 20 68 69 67 |.(........WA hig|
|68 2D 67 72 61 64 65 20 77 61 74 65 72 69 6E 67 |h-grade watering|
|20 63 61 6E 20 75 73 65 64 20 74 6F 20 69 6E 63 | can used to inc|
|72 65 61 73 65 20 74 68 65 20 63 68 61 6E 63 65 |rease the chance|
|20 6F 66 20 67 72 6F 77 69 6E 67 20 73 6F 6D 65 | of growing some|
|74 68 69 6E 67 20 65 78 63 65 70 74 69 6F 6E 61 |thing exceptiona|
|6C 2E 00 01 00 00 03 02 00 08 00 00 00 00 00 00 |l...............|
|96 03 00 00 00 00 00 00 00 00 00 00 00 00 09 03 |................|
|00 00 05 DC 00 00 02 D2 7B 14 30 00 00 00 00 00 |........{.0.....|
|00 00 00 00 22 00 28 00 00 00 02 00 00 00 00 00 |....".(.........|
|00 00 00 00 00 00 00 02 58 00 14 00 01 00 00 00 |........X.......|
|00 00 00 00 00 00 00 00 00 20 49 6D 62 75 65 64 |......... Imbued|
|20 4C 65 61 66 2D 48 61 6E 64 6C 65 64 20 57 61 | Leaf-Handled Wa|
|74 65 72 69 6E 67 20 43 61 6E 00 00 00 04 09 00 |tering Can......|
|C8 0A 00 32 0E 00 08 05 00 03 00 00 5D 41 20 6D |...2........]A m|
|61 67 69 63 61 6C 6C 79 2D 69 6D 62 75 65 64 20 |agically-imbued |
|77 61 74 65 72 69 6E 67 20 63 61 6E 20 75 73 65 |watering can use|
|64 20 74 6F 20 69 6E 63 72 65 61 73 65 20 74 68 |d to increase th|
|65 20 63 68 61 6E 63 65 20 6F 66 20 67 72 6F 77 |e chance of grow|
|69 6E 67 20 73 6F 6D 65 74 68 69 6E 67 20 65 78 |ing something ex|
|63 65 70 74 69 6F 6E 61 6C 2E 00 01 00 00 03 02 |ceptional.......|
|00 08 00 00 00 00 00 00 C8 03 00 00 00 00 00 00 |................|
|00 00 00 00 00 00 0A 03 00 00 00 1E 00 00 02 D2 |................|
|7E 02 2E 00 00 00 00 00 00 00 00 00 22 00 01 00 |~..........."...|
|00 00 01 00 00 00 00 00 00 00 00 00 00 00 00 00 |................|
|0C 00 14 00 01 00 00 00 00 00 00 00 00 00 00 00 |................|
|00 0C 43 6C 6F 74 74 65 64 20 47 6F 72 65 00 00 |..Clotted Gore..|
|00 04 09 00 01 0A 00 0A 0D FF FF 05 00 03 00 00 |................|
|40 41 20 6C 6F 77 2D 67 72 61 64 65 20 6E 75 74 |@A low-grade nut|
|72 69 65 6E 74 20 75 73 65 64 20 74 6F 20 64 65 |rient used to de|
|63 72 65 61 73 65 20 74 68 65 20 63 68 61 6E 63 |crease the chanc|
|65 20 6F 66 20 70 6C 61 6E 74 20 64 65 61 74 68 |e of plant death|
|2E 00 01 00 00 03 02 00 08 00 00 00 00 00 00 01 |................|
|04 00 00 00 00 00 00 00 00 00 00 00 00 0B 03 00 |................|
|00 01 38 00 00 02 D2 86 02 2E 00 00 00 00 00 00 |..8.............|
|00 00 00 22 00 0A 00 00 00 01 00 00 00 00 00 00 |..."............|
|00 00 00 00 00 00 00 7D 00 14 00 01 00 00 00 00 |.......}........|
|00 00 00 00 00 00 00 00 12 4D 6F 6C 64 65 72 69 |.........Molderi|
|6E 67 20 45 6E 74 72 61 69 6C 73 00 00 00 04 09 |ng Entrails.....|
|00 32 0A 00 14 0D FF FE 05 00 03 00 00 40 41 20 |.2...........@A |
|6D 69 64 2D 67 72 61 64 65 20 6E 75 74 72 69 65 |mid-grade nutrie|
|6E 74 20 75 73 65 64 20 74 6F 20 64 65 63 72 65 |nt used to decre|
|61 73 65 20 74 68 65 20 63 68 61 6E 63 65 20 6F |ase the chance o|
|66 20 70 6C 61 6E 74 20 64 65 61 74 68 2E 00 01 |f plant death...|
|00 00 03 02 00 08 00 00 00 00 00 00 32 04 00 00 |............2...|
|00 00 00 00 00 00 00 00 00 00 0C 03 00 00 02 EE |................|
|00 00 02 D2 8F 02 28 00 00 00 00 00 00 00 00 00 |......(.........|
|22 00 14 00 00 00 02 00 00 00 00 00 00 00 00 00 |"...............|
|00 00 00 01 2C 00 14 00 01 00 00 00 00 00 00 00 |....,...........|
|00 00 00 00 00 11 53 74 65 61 6D 69 6E 67 20 45 |......Steaming E|
|6E 74 72 61 69 6C 73 00 00 00 04 09 00 64 0A 00 |ntrails......d..|
|1E 0D FF FD 05 00 03 00 00 40 41 20 6D 69 64 2D |.........@A mid-|
|67 72 61 64 65 20 6E 75 74 72 69 65 6E 74 20 75 |grade nutrient u|
|73 65 64 20 74 6F 20 64 65 63 72 65 61 73 65 20 |sed to decrease |
|74 68 65 20 63 68 61 6E 63 65 20 6F 66 20 70 6C |the chance of pl|
|61 6E 74 20 64 65 61 74 68 2E 00 01 00 00 03 02 |ant death.......|
|00 08 00 00 00 00 00 00 64 04 00 00 00 00 00 00 |........d.......|
|00 00 00 00 00 00 0D 03 00 00 04 65 00 00 02 D2 |...........e....|
|92 02 28 00 00 00 00 00 00 00 00 00 22 00 1E 00 |..(........."...|
|00 00 02 00 00 00 00 00 00 00 00 00 00 00 00 01 |................|
|C2 00 14 00 01 00 00 00 00 00 00 00 00 00 00 00 |................|
|00 11 42 6C 61 63 6B 65 6E 65 64 20 56 69 73 63 |..Blackened Visc|
|65 72 61 00 00 00 04 09 00 96 0A 00 28 0D FF FC |era.........(...|
|05 00 03 00 00 41 41 20 68 69 67 68 2D 67 72 61 |.....AA high-gra|
|64 65 20 6E 75 74 72 69 65 6E 74 20 75 73 65 64 |de nutrient used|
|20 74 6F 20 64 65 63 72 65 61 73 65 20 74 68 65 | to decrease the|
|20 63 68 61 6E 63 65 20 6F 66 20 70 6C 61 6E 74 | chance of plant|
|20 64 65 61 74 68 2E 00 01 00 00 03 02 00 08 00 | death..........|
|00 00 00 00 00 96 04 00 00 00 00 00 00 00 00 00 |................|
|00 00 00 0E 03 00 00 05 DC 00 00 02 D2 95 02 2B |...............+|
|00 00 00 00 00 00 00 00 00 22 00 28 00 00 00 02 |.........".(....|
|00 00 00 00 00 00 00 00 00 00 00 00 02 58 00 14 |.............X..|
|00 01 00 00 00 00 00 00 00 00 00 00 00 00 12 47 |...............G|
|6C 69 73 74 65 6E 69 6E 67 20 56 69 73 63 65 72 |listening Viscer|
|61 00 00 00 04 09 00 C8 0A 00 32 0D FF FB 05 00 |a.........2.....|
|03 00 00 3B 41 20 72 69 63 68 20 6E 75 74 72 69 |...;A rich nutri|
|65 6E 74 20 75 73 65 64 20 74 6F 20 64 65 63 72 |ent used to decr|
|65 61 73 65 20 74 68 65 20 63 68 61 6E 63 65 20 |ease the chance |
|6F 66 20 70 6C 61 6E 74 20 64 65 61 74 68 2E 00 |of plant death..|
|01 00 00 03 02 00 08 00 00 00 00 00 00 C8 04 00 |................|
|00 00 00 00 00 00 00 00 00 00 00 00             |............    |
-------------------------------------------------------------------
[Server] packet : (0xBF) F_INIT_STORE  Size = 3015 
|------------------------------------------------|----------------|
|00 01 02 03 04 05 06 07 08 09 0A 0B 0C 0D 0E 0F |0123456789ABCDEF|
|------------------------------------------------|----------------|
|0B C4 BF 00 00 01 10 00 01 00 00 03 00 00 00 7D |...............}|
|00 00 01 48 29 13 F1 00 00 00 00 00 00 00 00 00 |...H)...........|
|22 00 04 00 00 00 01 00 00 00 00 00 00 00 00 00 |"...............|
|00 00 00 00 32 00 32 00 01 00 00 00 00 00 00 00 |....2.2.........|
|00 00 00 00 00 19 4D 75 73 74 79 20 45 6C 76 69 |......Musty Elvi|
|73 68 20 50 61 72 73 6C 65 79 20 53 65 65 64 00 |sh Parsley Seed.|
|00 00 05 09 00 01 0E 00 0A 0D 00 10 05 00 03 09 |................|
|00 01 00 00 32 47 72 6F 77 73 20 69 6E 74 6F 20 |....2Grows into |
|61 20 6D 65 61 67 65 72 20 72 65 73 74 6F 72 61 |a meager restora|
|74 69 6F 6E 20 70 6F 74 69 6F 6E 20 69 6E 67 72 |tion potion ingr|
|65 64 69 65 6E 74 2E 00 01 00 00 03 02 20 08 00 |edient....... ..|
|00 00 00 00 00 01 01 00 00 00 00 00 00 00 00 00 |................|
|00 00 00 01 03 00 00 00 7D 00 00 01 48 39 12 11 |........}...H9..|
|00 00 00 00 00 00 00 00 00 22 00 04 00 00 00 01 |........."......|
|00 00 00 00 00 00 00 00 00 00 00 00 00 32 00 32 |.............2.2|
|00 01 00 00 00 00 00 00 00 00 00 00 00 00 17 4D |...............M|
|6F 74 6C 65 79 20 53 6D 65 64 6C 65 79 63 61 70 |otley Smedleycap|
|20 53 70 6F 72 65 00 00 00 05 09 00 01 0E 00 0A | Spore..........|
|0D 00 10 05 00 03 09 00 01 00 00 33 47 72 6F 77 |...........3Grow|
|73 20 69 6E 74 6F 20 61 20 6D 65 61 67 65 72 20 |s into a meager |
|69 6E 74 65 6C 6C 69 67 65 6E 63 65 20 70 6F 74 |intelligence pot|
|69 6F 6E 20 69 6E 67 72 65 64 69 65 6E 74 2E 00 |ion ingredient..|
|01 00 00 03 02 20 08 00 00 00 00 00 00 01 05 00 |..... ..........|
|00 00 00 00 00 00 00 00 00 00 00 02 03 00 00 00 |................|
|7D 00 00 01 48 49 13 F2 00 00 00 00 00 00 00 00 |}...HI..........|
|00 22 00 04 00 00 00 01 00 00 00 00 00 00 00 00 |."..............|
|00 00 00 00 00 32 00 32 00 01 00 00 00 00 00 00 |.....2.2........|
|00 00 00 00 00 00 14 57 69 73 70 79 20 42 65 61 |.......Wispy Bea|
|72 64 77 65 65 64 20 53 65 65 64 00 00 00 05 09 |rdweed Seed.....|
|00 01 0E 00 0A 0D 00 10 05 00 03 09 00 01 00 00 |................|
|2F 47 72 6F 77 73 20 69 6E 74 6F 20 61 20 6D 65 |/Grows into a me|
|61 67 65 72 20 73 74 72 65 6E 67 74 68 20 70 6F |ager strength po|
|74 69 6F 6E 20 69 6E 67 72 65 64 69 65 6E 74 2E |tion ingredient.|
|00 01 00 00 03 02 20 08 00 00 00 00 00 00 01 01 |...... .........|
|00 00 00 00 00 00 00 00 00 00 00 00 03 03 00 00 |................|
|00 7D 00 00 01 48 41 13 F3 00 00 00 00 00 00 00 |.}...HA.........|
|00 00 22 00 04 00 00 00 01 00 00 00 00 00 00 00 |..".............|
|00 00 00 00 00 00 32 00 32 00 01 00 00 00 00 00 |......2.2.......|
|00 00 00 00 00 00 00 17 50 65 74 75 6C 61 6E 74 |........Petulant|
|20 47 72 75 6D 70 6C 65 61 66 20 53 65 65 64 00 | Grumpleaf Seed.|
|00 00 05 09 00 01 0E 00 0A 0D 00 10 05 00 03 09 |................|
|00 01 00 00 30 47 72 6F 77 73 20 69 6E 74 6F 20 |....0Grows into |
|61 20 6D 65 61 67 65 72 20 77 69 6C 6C 70 6F 77 |a meager willpow|
|65 72 20 70 6F 74 69 6F 6E 20 69 6E 67 72 65 64 |er potion ingred|
|69 65 6E 74 2E 00 01 00 00 03 02 20 08 00 00 00 |ient....... ....|
|00 00 00 01 01 00 00 00 00 00 00 00 00 00 00 00 |................|
|00 04 03 00 00 00 7D 00 00 01 49 81 13 F4 00 00 |......}...I.....|
|00 00 00 00 00 00 00 22 00 04 00 00 00 01 00 00 |......."........|
|00 00 00 00 00 00 00 00 00 00 00 32 00 32 00 01 |...........2.2..|
|00 00 00 00 00 00 00 00 00 00 00 00 1A 57 6F 6F |.............Woo|
|6C 6C 79 20 54 68 69 65 66 27 73 20 4E 65 74 74 |lly Thief's Nett|
|6C 65 20 53 65 65 64 00 00 00 05 09 00 01 0E 00 |le Seed.........|
|0A 0D 00 10 05 00 03 09 00 01 00 00 36 47 72 6F |............6Gro|
|77 73 20 69 6E 74 6F 20 61 20 6D 65 61 67 65 72 |ws into a meager|
|20 62 61 6C 6C 69 73 74 69 63 20 73 6B 69 6C 6C | ballistic skill|
|20 70 6F 74 69 6F 6E 20 69 6E 67 72 65 64 69 65 | potion ingredie|
|6E 74 2E 00 01 00 00 03 02 20 08 00 00 00 00 00 |nt....... ......|
|00 01 01 00 00 00 00 00 00 00 00 00 00 00 00 05 |................|
|03 00 00 00 7D 00 00 01 48 69 13 F5 00 00 00 00 |....}...Hi......|
|00 00 00 00 00 22 00 04 00 00 00 01 00 00 00 00 |....."..........|
|00 00 00 00 00 00 00 00 00 32 00 32 00 01 00 00 |.........2.2....|
|00 00 00 00 00 00 00 00 00 00 18 53 77 61 79 69 |...........Swayi|
|6E 67 20 44 61 6E 64 65 64 72 61 67 6F 6E 20 53 |ng Dandedragon S|
|65 65 64 00 00 00 05 09 00 01 0E 00 0A 0D 00 10 |eed.............|
|05 00 03 09 00 01 00 00 33 47 72 6F 77 73 20 69 |........3Grows i|
|6E 74 6F 20 61 20 6D 65 61 67 65 72 20 69 6E 76 |nto a meager inv|
|69 67 6F 72 61 74 69 6F 6E 20 70 6F 74 69 6F 6E |igoration potion|
|20 69 6E 67 72 65 64 69 65 6E 74 2E 00 01 00 00 | ingredient.....|
|03 02 20 08 00 00 00 00 00 00 01 01 00 00 00 00 |.. .............|
|00 00 00 00 00 00 00 00 06 03 00 00 00 7D 00 00 |.............}..|
|01 48 99 13 F6 00 00 00 00 00 00 00 00 00 22 00 |.H............".|
|04 00 00 00 01 00 00 00 00 00 00 00 00 00 00 00 |................|
|00 00 32 00 32 00 01 00 00 00 00 00 00 00 00 00 |..2.2...........|
|00 00 00 17 50 65 62 62 6C 65 64 20 47 72 61 76 |....Pebbled Grav|
|65 6C 6E 75 74 73 20 53 65 65 64 00 00 00 05 09 |elnuts Seed.....|
|00 01 0E 00 0A 0D 00 10 05 00 03 09 00 01 00 00 |................|
|3B 47 72 6F 77 73 20 69 6E 74 6F 20 61 20 6D 65 |;Grows into a me|
|61 67 65 72 20 63 6F 72 70 6F 72 65 61 6C 20 72 |ager corporeal r|
|65 73 69 73 74 61 6E 63 65 20 70 6F 74 69 6F 6E |esistance potion|
|20 69 6E 67 72 65 64 69 65 6E 74 2E 00 01 00 00 | ingredient.....|
|03 02 20 08 00 00 00 00 00 00 01 01 00 00 00 00 |.. .............|
|00 00 00 00 00 00 00 00 07 03 00 00 00 7D 00 00 |.............}..|
|01 48 A1 13 F7 00 00 00 00 00 00 00 00 00 22 00 |.H............".|
|04 00 00 00 01 00 00 00 00 00 00 00 00 00 00 00 |................|
|00 00 32 00 32 00 01 00 00 00 00 00 00 00 00 00 |..2.2...........|
|00 00 00 16 57 69 73 70 79 20 53 70 69 64 65 72 |....Wispy Spider|
|66 72 6F 6E 64 20 53 65 65 64 00 00 00 05 09 00 |frond Seed......|
|01 0E 00 0A 0D 00 10 05 00 03 09 00 01 00 00 38 |...............8|
|47 72 6F 77 73 20 69 6E 74 6F 20 61 20 6D 65 61 |Grows into a mea|
|67 65 72 20 73 70 69 72 69 74 20 72 65 73 69 73 |ger spirit resis|
|74 61 6E 63 65 20 70 6F 74 69 6F 6E 20 69 6E 67 |tance potion ing|
|72 65 64 69 65 6E 74 2E 00 01 00 00 03 02 20 08 |redient....... .|
|00 00 00 00 00 00 01 01 00 00 00 00 00 00 00 00 |................|
|00 00 00 00 08 03 00 00 00 7D 00 00 01 49 89 13 |.........}...I..|
|F8 00 00 00 00 00 00 00 00 00 22 00 04 00 00 00 |..........".....|
|01 00 00 00 00 00 00 00 00 00 00 00 00 00 32 00 |..............2.|
|32 00 01 00 00 00 00 00 00 00 00 00 00 00 00 15 |2...............|
|53 6D 6F 6B 69 6E 67 20 50 79 72 65 20 49 76 79 |Smoking Pyre Ivy|
|20 53 65 65 64 00 00 00 05 09 00 01 0E 00 0A 0D | Seed...........|
|00 10 05 00 03 09 00 01 00 00 2E 47 72 6F 77 73 |...........Grows|
|20 69 6E 74 6F 20 61 20 6D 65 61 67 65 72 20 6D | into a meager m|
|6F 6C 6F 74 6F 76 20 70 6F 74 69 6F 6E 20 69 6E |olotov potion in|
|67 72 65 64 69 65 6E 74 2E 00 01 00 00 03 02 20 |gredient....... |
|08 00 00 00 00 00 00 01 01 00 00 00 00 00 00 00 |................|
|00 00 00 00 00 09 03 00 00 00 7D 00 00 01 48 51 |..........}...HQ|
|13 F9 00 00 00 00 00 00 00 00 00 22 00 04 00 00 |..........."....|
|00 01 00 00 00 00 00 00 00 00 00 00 00 00 00 32 |...............2|
|00 32 00 01 00 00 00 00 00 00 00 00 00 00 00 00 |.2..............|
|19 53 6D 6F 6B 69 6E 67 20 41 72 67 6F 73 74 20 |.Smoking Argost |
|43 72 65 65 70 20 53 65 65 64 00 00 00 05 09 00 |Creep Seed......|
|01 0E 00 0A 0D 00 10 05 00 03 09 00 01 00 00 33 |...............3|
|47 72 6F 77 73 20 69 6E 74 6F 20 61 20 6D 65 61 |Grows into a mea|
|67 65 72 20 66 6C 61 6D 65 20 62 72 65 61 74 68 |ger flame breath|
|20 70 6F 74 69 6F 6E 20 69 6E 67 72 65 64 69 65 | potion ingredie|
|6E 74 2E 00 01 00 00 03 02 20 08 00 00 00 00 00 |nt....... ......|
|00 01 01 00 00 00 00 00 00 00 00 00 00 00 00 0A |................|
|03 00 00 00 7D 00 00 01 49 0B 13 FA 00 00 00 00 |....}...I.......|
|00 00 00 00 00 22 00 04 00 00 00 01 00 00 00 00 |....."..........|
|00 00 00 00 00 00 00 00 00 32 00 32 00 01 00 00 |.........2.2....|
|00 00 00 00 00 00 00 00 00 00 16 47 6C 6F 73 73 |...........Gloss|
|79 20 53 70 75 6D 65 70 65 74 61 6C 20 53 65 65 |y Spumepetal See|
|64 00 00 00 04 09 00 01 0E 00 0A 0D 00 10 05 00 |d...............|
|03 00 00 2E 47 72 6F 77 73 20 69 6E 74 6F 20 61 |....Grows into a|
|20 6D 65 61 67 65 72 20 68 65 61 6C 69 6E 67 20 | meager healing |
|70 6F 74 69 6F 6E 20 69 6E 67 72 65 64 69 65 6E |potion ingredien|
|74 2E 00 01 00 00 03 02 20 08 00 00 00 00 00 00 |t....... .......|
|01 01 00 00 00 00 00 00 00 00 00 00 00 00 0B 03 |................|
|00 00 00 7D 00 00 01 4A 97 14 02 00 00 00 00 00 |...}...J........|
|00 00 00 00 22 00 04 00 00 00 01 00 00 00 00 00 |...."...........|
|00 00 00 00 00 00 00 00 32 00 32 00 01 00 00 00 |........2.2.....|
|00 00 00 00 00 00 00 00 00 17 53 69 6D 6D 65 72 |..........Simmer|
|69 6E 67 20 41 73 68 62 65 72 72 79 20 53 65 65 |ing Ashberry See|
|64 00 00 00 04 09 00 01 0E 00 0A 0D 00 10 05 00 |d...............|
|03 00 00 2D 47 72 6F 77 73 20 69 6E 74 6F 20 61 |...-Grows into a|
|20 6D 65 61 67 65 72 20 6E 61 70 61 6C 6D 20 70 | meager napalm p|
|6F 74 69 6F 6E 20 69 6E 67 72 65 64 69 65 6E 74 |otion ingredient|
|2E 00 01 00 00 03 02 20 08 00 00 00 00 00 00 01 |....... ........|
|01 00 00 00 00 00 00 00 00 00 00 00 00 0C 03 00 |................|
|00 00 7D 00 00 01 48 A9 12 12 00 00 00 00 00 00 |..}...H.........|
|00 00 00 22 00 04 00 00 00 01 00 00 00 00 00 00 |..."............|
|00 00 00 00 00 00 00 32 00 32 00 01 00 00 00 00 |.......2.2......|
|00 00 00 00 00 00 00 00 16 43 61 6C 6C 6F 75 73 |.........Callous|
|20 47 6F 62 73 77 6F 72 74 20 53 70 6F 72 65 00 | Gobswort Spore.|
|00 00 05 09 00 01 0E 00 0A 0D 00 10 05 00 03 09 |................|
|00 01 00 00 46 47 72 6F 77 73 20 69 6E 74 6F 20 |....FGrows into |
|61 20 6D 65 61 67 65 72 20 69 6E 67 72 65 64 69 |a meager ingredi|
|65 6E 74 20 74 68 61 74 20 69 6E 63 72 65 61 73 |ent that increas|
|65 73 20 74 68 65 20 64 75 72 61 74 69 6F 6E 20 |es the duration |
|6F 66 20 70 6F 74 69 6F 6E 73 2E 00 01 00 00 03 |of potions......|
|02 20 08 00 00 00 00 00 00 01 05 00 00 00 00 00 |. ..............|
|00 00 00 00 00 00 00 0D 03 00 00 00 7D 00 00 01 |............}...|
|48 B1 12 13 00 00 00 00 00 00 00 00 00 22 00 04 |H............"..|
|00 00 00 01 00 00 00 00 00 00 00 00 00 00 00 00 |................|
|00 32 00 32 00 01 00 00 00 00 00 00 00 00 00 00 |.2.2............|
|00 00 10 44 75 73 74 79 20 46 75 73 6B 20 53 70 |...Dusty Fusk Sp|
|6F 72 65 00 00 00 05 09 00 01 0E 00 0A 0D 00 10 |ore.............|
|05 00 03 09 00 01 00 00 44 47 72 6F 77 73 20 69 |........DGrows i|
|6E 74 6F 20 61 20 6D 65 61 67 65 72 20 69 6E 67 |nto a meager ing|
|72 65 64 69 65 6E 74 20 74 68 61 74 20 69 6E 63 |redient that inc|
|72 65 61 73 65 73 20 74 68 65 20 6E 75 6D 62 65 |reases the numbe|
|72 20 6F 66 20 70 6F 74 69 6F 6E 73 2E 00 01 00 |r of potions....|
|00 03 02 20 08 00 00 00 00 00 00 01 05 00 00 00 |... ............|
|00 00 00 00 00 00 00 00 00 0E 03 00 00 00 7D 00 |..............}.|
|00 01 49 01 14 01 00 00 00 00 00 00 00 00 00 22 |..I............"|
|00 04 00 00 00 01 00 00 00 00 00 00 00 00 00 00 |................|
|00 00 00 32 00 32 00 01 00 00 00 00 00 00 00 00 |...2.2..........|
|00 00 00 00 15 50 72 69 63 6B 6C 79 20 47 6F 6C |.....Prickly Gol|
|64 77 65 65 64 20 53 65 65 64 00 00 00 04 09 00 |dweed Seed......|
|01 0E 00 0A 0D 00 10 05 00 03 00 00 47 47 72 6F |............GGro|
|77 73 20 69 6E 74 6F 20 61 20 6D 65 61 67 65 72 |ws into a meager|
|20 69 6E 67 72 65 64 69 65 6E 74 20 74 68 61 74 | ingredient that|
|20 69 6E 63 72 65 61 73 65 73 20 74 68 65 20 73 | increases the s|
|74 61 62 69 6C 69 74 79 20 6F 66 20 70 6F 74 69 |tability of poti|
|6F 6E 73 2E 00 01 00 00 03 02 20 08 00 00 00 00 |ons....... .....|
|00 00 01 01 00 00 00 00 00 00 00 00 00 00 00 00 |................|
|0F 03 00 00 00 7D 00 00 01 4A 73 14 05 00 00 00 |.....}...Js.....|
|00 00 00 00 00 00 22 00 04 00 00 00 01 00 00 00 |......".........|
|00 00 00 00 00 00 00 00 00 00 32 00 32 00 01 00 |..........2.2...|
|00 00 00 00 00 00 00 00 00 00 00 15 53 75 6C 6C |............Sull|
|65 6E 20 4D 61 72 73 68 72 6F 6F 74 20 53 65 65 |en Marshroot See|
|64 00 00 00 04 09 00 01 0E 00 0A 0D 00 10 05 00 |d...............|
|03 00 00 56 47 72 6F 77 73 20 69 6E 74 6F 20 61 |...VGrows into a|
|20 6D 65 61 67 65 72 20 69 6E 67 72 65 64 69 65 | meager ingredie|
|6E 74 20 74 68 61 74 20 69 6E 63 72 65 61 73 65 |nt that increase|
|73 20 74 68 65 20 63 68 61 6E 63 65 73 20 6F 66 |s the chances of|
|20 67 65 74 74 69 6E 67 20 73 6F 6D 65 74 68 69 | getting somethi|
|6E 67 20 62 65 74 74 65 72 2E 00 01 00 00 03 02 |ng better.......|
|20 08 00 00 00 00 00 00 01 01 00 00 00 00 00 00 | ...............|
|00 00 00 00 00 00 00                            |.......         |
-------------------------------------------------------------------
[Server] packet : (0xBF) F_INIT_STORE  Size = 2522 
|------------------------------------------------|----------------|
|00 01 02 03 04 05 06 07 08 09 0A 0B 0C 0D 0E 0F |0123456789ABCDEF|
|------------------------------------------------|----------------|
|09 D7 BF 00 00 02 0D 00 01 00 00 03 00 00 00 1E |................|
|00 00 0D DE 65 1D 33 00 00 00 00 00 00 00 00 00 |....e.3.........|
|22 00 01 00 00 00 01 00 00 00 00 00 00 00 00 00 |"...............|
|00 00 00 00 0C 00 14 00 01 00 00 00 00 00 00 00 |................|
|00 00 00 00 00 16 41 70 70 72 65 6E 74 69 63 65 |......Apprentice|
|27 73 20 52 65 6C 69 63 20 42 6F 78 00 00 00 07 |'s Relic Box....|
|05 00 05 08 00 0D 09 00 01 02 00 00 0E 00 01 07 |................|
|00 04 0F 00 00 00 00 3F 41 20 63 6F 6E 74 61 69 |.......?A contai|
|6E 65 72 20 75 73 65 64 20 62 79 20 61 6E 20 61 |ner used by an a|
|70 70 72 65 6E 74 69 63 65 20 6F 66 20 74 68 65 |pprentice of the|
|20 54 61 6C 69 73 6D 61 6E 2D 4D 61 6B 69 6E 67 | Talisman-Making|
|20 74 72 61 64 65 2E 00 01 00 00 03 02 00 08 00 | trade..........|
|00 00 00 00 00 01 00 00 00 00 00 00 00 00 00 00 |................|
|00 00 00 01 03 00 00 00 9B 00 00 0D DE 66 1D 34 |.............f.4|
|00 00 00 00 00 00 00 00 00 22 00 05 00 00 00 01 |........."......|
|00 00 00 00 00 00 00 00 00 00 00 00 00 3E 00 14 |.............>..|
|00 01 00 00 00 00 00 00 00 00 00 00 00 00 16 4A |...............J|
|6F 75 72 6E 65 79 6D 61 6E 27 73 20 52 65 6C 69 |ourneyman's Reli|
|63 20 42 6F 78 00 00 00 07 05 00 05 08 00 0D 09 |c Box...........|
|00 32 02 00 00 0E 00 02 07 00 04 0F 00 00 00 00 |.2..............|
|3E 41 20 63 6F 6E 74 61 69 6E 65 72 20 75 73 65 |>A container use|
|64 20 62 79 20 61 20 6A 6F 75 72 6E 65 79 6D 61 |d by a journeyma|
|6E 20 6F 66 20 74 68 65 20 54 61 6C 69 73 6D 61 |n of the Talisma|
|6E 2D 4D 61 6B 69 6E 67 20 74 72 61 64 65 2E 00 |n-Making trade..|
|01 00 00 03 02 00 08 00 00 00 00 00 00 32 00 00 |.............2..|
|00 00 00 00 00 00 00 00 00 00 00 02 03 00 00 02 |................|
|32 00 00 0D DE 67 1D 35 00 00 00 00 00 00 00 00 |2....g.5........|
|00 22 00 0F 00 00 00 02 00 00 00 00 00 00 00 00 |."..............|
|00 00 00 00 00 E1 00 14 00 01 00 00 00 00 00 00 |................|
|00 00 00 00 00 00 15 43 72 61 66 74 73 6D 61 6E |.......Craftsman|
|27 73 20 52 65 6C 69 63 20 42 6F 78 00 00 00 07 |'s Relic Box....|
|05 00 05 08 00 0D 09 00 64 02 00 00 0E 00 03 07 |........d.......|
|00 04 0F 00 00 00 00 3D 41 20 63 6F 6E 74 61 69 |.......=A contai|
|6E 65 72 20 75 73 65 64 20 62 79 20 61 20 63 72 |ner used by a cr|
|61 66 74 73 6D 61 6E 20 6F 66 20 74 68 65 20 54 |aftsman of the T|
|61 6C 69 73 6D 61 6E 2D 4D 61 6B 69 6E 67 20 74 |alisman-Making t|
|72 61 64 65 2E 00 01 00 00 03 02 00 08 00 00 00 |rade............|
|00 00 00 64 00 00 00 00 00 00 00 00 00 00 00 00 |...d............|
|00 03 03 00 00 04 C1 00 00 0D DE 68 1D 36 00 00 |...........h.6..|
|00 00 00 00 00 00 00 00 00 1E 00 00 00 03 00 00 |................|
|00 00 00 00 00 00 00 00 00 00 01 E7 00 14 00 01 |................|
|00 00 00 00 00 00 00 00 00 00 00 00 13 41 72 74 |.............Art|
|69 73 61 6E 27 73 20 52 65 6C 69 63 20 42 6F 78 |isan's Relic Box|
|00 00 00 07 05 00 05 08 00 0D 09 00 96 02 00 00 |................|
|0E 00 04 07 00 04 0F 00 00 00 00 3C 41 20 63 6F |...........<A co|
|6E 74 61 69 6E 65 72 20 75 73 65 64 20 62 79 20 |ntainer used by |
|61 6E 20 61 72 74 69 73 61 6E 20 6F 66 20 74 68 |an artisan of th|
|65 20 54 61 6C 69 73 6D 61 6E 2D 4D 61 6B 69 6E |e Talisman-Makin|
|67 20 74 72 61 64 65 2E 00 01 00 00 03 02 00 08 |g trade.........|
|00 00 00 00 00 00 96 00 00 00 00 00 00 00 00 00 |................|
|00 00 00 00 04 03 00 00 00 14 00 00 0D DE 51 0F |..............Q.|
|21 00 00 00 00 00 00 00 00 00 00 00 00 00 00 00 |!...............|
|01 00 00 00 00 00 00 00 00 00 00 00 00 00 08 00 |................|
|14 00 01 00 00 00 00 00 00 00 00 00 00 00 00 14 |................|
|46 72 61 67 69 6C 65 20 53 6F 72 72 65 6C 20 48 |Fragile Sorrel H|
|65 61 72 74 00 00 00 05 05 00 05 08 00 0E 09 00 |eart............|
|01 02 00 01 06 00 31 00 00 40 54 68 69 73 20 6D |......1..@This m|
|65 61 67 65 72 20 66 72 61 67 6D 65 6E 74 20 63 |eager fragment c|
|61 6E 20 62 65 20 75 73 65 64 20 74 6F 20 63 72 |an be used to cr|
|65 61 74 65 20 62 61 6C 6C 69 73 74 69 63 73 20 |eate ballistics |
|74 61 6C 69 73 6D 61 6E 73 2E 00 01 00 00 03 02 |talismans.......|
|00 00 00 00 00 00 00 00 01 00 00 00 00 00 00 00 |................|
|00 00 00 00 00 00 05 03 00 00 00 14 00 00 0D DE |................|
|52 0F 54 00 00 00 00 00 00 00 00 00 00 00 00 00 |R.T.............|
|00 00 01 00 00 00 00 00 00 00 00 00 00 00 00 00 |................|
|08 00 14 00 01 00 00 00 00 00 00 00 00 00 00 00 |................|
|00 16 46 72 61 67 69 6C 65 20 4C 61 76 65 6E 64 |..Fragile Lavend|
|65 72 20 46 72 6F 73 74 00 00 00 05 05 00 05 08 |er Frost........|
|00 0E 09 00 01 02 00 01 06 00 32 00 00 42 54 68 |..........2..BTh|
|69 73 20 6D 65 61 67 65 72 20 66 72 61 67 6D 65 |is meager fragme|
|6E 74 20 63 61 6E 20 62 65 20 75 73 65 64 20 74 |nt can be used t|
|6F 20 63 72 65 61 74 65 20 69 6E 74 65 6C 6C 69 |o create intelli|
|67 65 6E 63 65 20 74 61 6C 69 73 6D 61 6E 73 2E |gence talismans.|
|00 01 00 00 03 02 00 00 00 00 00 00 00 00 01 00 |................|
|00 00 00 00 00 00 00 00 00 00 00 00 06 03 00 00 |................|
|00 14 00 00 0D DE 53 10 01 00 00 00 00 00 00 00 |......S.........|
|00 00 00 00 00 00 00 00 01 00 00 00 00 00 00 00 |................|
|00 00 00 00 00 00 08 00 14 00 01 00 00 00 00 00 |................|
|00 00 00 00 00 00 00 13 46 72 61 67 69 6C 65 20 |........Fragile |
|49 6E 64 69 67 6F 20 48 61 7A 65 00 00 00 05 05 |Indigo Haze.....|
|00 05 08 00 0E 09 00 01 02 00 01 06 00 33 00 00 |.............3..|
|3F 54 68 69 73 20 6D 65 61 67 65 72 20 66 72 61 |?This meager fra|
|67 6D 65 6E 74 20 63 61 6E 20 62 65 20 75 73 65 |gment can be use|
|64 20 74 6F 20 63 72 65 61 74 65 20 77 69 6C 6C |d to create will|
|70 6F 77 65 72 20 74 61 6C 69 73 6D 61 6E 73 2E |power talismans.|
|00 01 00 00 03 02 00 00 00 00 00 00 00 00 01 00 |................|
|00 00 00 00 00 00 00 00 00 00 00 00 07 03 00 00 |................|
|00 14 00 00 0D DE 54 0F 38 00 00 00 00 00 00 00 |......T.8.......|
|00 00 00 00 00 00 00 00 01 00 00 00 00 00 00 00 |................|
|00 00 00 00 00 00 08 00 14 00 01 00 00 00 00 00 |................|
|00 00 00 00 00 00 00 0C 46 72 61 67 69 6C 65 20 |........Fragile |
|53 6C 61 67 00 00 00 05 05 00 05 08 00 0E 09 00 |Slag............|
|01 02 00 01 06 00 34 00 00 3E 54 68 69 73 20 6D |......4..>This m|
|65 61 67 65 72 20 66 72 61 67 6D 65 6E 74 20 63 |eager fragment c|
|61 6E 20 62 65 20 75 73 65 64 20 74 6F 20 63 72 |an be used to cr|
|65 61 74 65 20 73 74 72 65 6E 67 74 68 20 74 61 |eate strength ta|
|6C 69 73 6D 61 6E 73 2E 00 01 00 00 03 02 00 00 |lismans.........|
|00 00 00 00 00 00 01 00 00 00 00 00 00 00 00 00 |................|
|00 00 00 00 08 03 00 00 00 02 00 00 0D D8 ED 01 |................|
|A1 00 00 00 00 00 00 00 00 00 22 00 00 00 00 00 |..........".....|
|01 00 00 00 00 00 00 00 00 00 00 00 00 00 01 00 |................|
|32 00 01 00 00 00 00 00 00 00 00 00 00 00 00 09 |2...............|
|4D 6F 6A 6F 20 43 6F 69 6E 00 00 00 05 05 00 05 |Mojo Coin.......|
|08 00 10 09 00 01 02 00 01 0C 00 01 00 00 41 54 |..............AT|
|68 69 73 20 6D 65 61 67 65 72 20 63 75 72 69 6F |his meager curio|
|75 73 20 6F 62 6A 65 63 74 20 63 61 6E 20 62 65 |us object can be|
|20 75 73 65 64 20 74 6F 20 61 64 64 20 70 6F 77 | used to add pow|
|65 72 20 74 6F 20 74 61 6C 69 73 6D 61 6E 73 2E |er to talismans.|
|00 01 00 00 03 02 00 00 00 00 00 00 00 00 01 00 |................|
|00 00 00 00 00 00 00 00 00 00 00 00 09 03 00 00 |................|
|00 14 00 00 0D D9 76 01 87 00 00 00 00 00 00 00 |......v.........|
|00 00 22 00 01 00 00 00 01 00 00 00 00 00 00 00 |..".............|
|00 00 00 00 00 00 08 00 14 00 01 00 00 00 00 00 |................|
|00 00 00 00 00 00 00 10 49 6D 70 75 72 65 20 47 |........Impure G|
|6F 6C 64 20 44 75 73 74 00 00 00 04 05 00 05 08 |old Dust........|
|00 0F 09 00 01 02 00 01 00 00 46 54 68 69 73 20 |..........FThis |
|6D 65 61 67 65 72 20 63 6F 6D 70 6F 6E 65 6E 74 |meager component|
|20 63 61 6E 20 62 65 20 75 73 65 64 20 74 6F 20 | can be used to |
|69 6E 63 72 65 61 73 65 20 74 68 65 20 70 6F 77 |increase the pow|
|65 72 20 6F 66 20 61 20 74 61 6C 69 73 6D 61 6E |er of a talisman|
|2E 00 01 00 00 03 02 00 08 00 00 00 00 00 00 01 |................|
|00 00 00 00 00 00 00 00 00 00 00 00 00 0A 03 00 |................|
|00 00 C8 00 00 02 E7 0F 12 47 00 00 00 00 00 00 |.........G......|
|00 00 00 22 00 00 00 00 00 03 00 00 00 00 00 00 |..."............|
|00 00 00 00 00 00 00 50 00 64 00 01 00 00 00 00 |.......P.d......|
|00 00 00 00 00 00 00 00 0E 53 69 6C 65 6E 74 20 |.........Silent |
|45 73 73 65 6E 63 65 00 00 00 05 05 00 05 08 00 |Essence.........|
|11 09 00 01 02 00 02 0C 00 02 00 00 33 54 68 69 |............3Thi|
|73 20 70 6F 74 65 6E 74 20 6F 62 6A 65 63 74 20 |s potent object |
|63 61 6E 20 62 65 20 75 73 65 64 20 74 6F 20 63 |can be used to c|
|72 65 61 74 65 20 74 61 6C 69 73 6D 61 6E 73 2E |reate talismans.|
|00 01 00 00 03 02 00 00 00 00 00 00 00 00 01 00 |................|
|00 00 00 00 00 00 00 00 00 00 00 00 0B 03 00 00 |................|
|00 32 00 00 0D DE 5A 11 B3 00 00 00 00 00 00 00 |.2....Z.........|
|00 00 22 01 01 00 00 00 02 00 00 00 00 00 00 00 |..".............|
|00 00 00 00 00 00 14 00 14 00 01 00 00 00 00 00 |................|
|00 00 00 00 00 00 00 12 53 68 61 74 74 65 72 65 |........Shattere|
|64 20 46 69 67 75 72 69 6E 65 00 00 00 02 05 00 |d Figurine......|
|06 08 00 13 00 00 31 54 68 69 73 20 66 69 67 75 |......1This figu|
|72 69 6E 65 20 68 61 73 20 6E 6F 20 64 69 73 63 |rine has no disc|
|65 72 6E 61 62 6C 65 20 63 68 61 72 61 63 74 65 |ernable characte|
|72 69 73 74 69 63 73 2E 00 01 00 00 03 02 02 08 |ristics.........|
|00 00 00 00 00 00 00 00 00 00 00 00 00 00 00 00 |................|
|00 00 00 00 0C 03 00 00 00 7D 00 00 0D DE 5B 11 |.........}....[.|
|B3 00 00 00 00 00 00 00 00 00 22 01 0A 00 00 00 |..........".....|
|02 00 00 00 00 00 00 00 00 00 00 00 00 00 32 00 |..............2.|
|14 00 01 00 00 00 00 00 00 00 00 00 00 00 00 0F |................|
|52 75 69 6E 65 64 20 46 69 67 75 72 69 6E 65 08 |Ruined Figurine.|
|00 00 00 00 00 00 00 00 00 00 00 00 00 00 00 00 |................|
|00 00 00 00 00 00 00 00 00 00 00 00 00 00 00 00 |................|
|00 00 00 00 00 00 00 00 00 00 00 00 00 00 00 00 |................|
|00 00 00 00 00 00 00 00 00 00 00 00 00 00 00 00 |................|
|00 00 02 05 00 06 08 00 13 00 00 31 54 68 69 73 |...........1This|
|20 66 69 67 75 72 69 6E 65 20 68 61 73 20 6E 6F | figurine has no|
|20 64 69 73 63 65 72 6E 61 62 6C 65 20 63 68 61 | discernable cha|
|72 61 63 74 65 72 69 73 74 69 63 73 2E 00 01 00 |racteristics....|
|00 03 02 02 08 00 00 00 00 00 00 00 00 00 00 00 |................|
|00 00 00 00 00 00 00 00 00 00                   |..........      |
-------------------------------------------------------------------
[Server] packet : (0xBF) F_INIT_STORE  Size = 1475 
|------------------------------------------------|----------------|
|00 01 02 03 04 05 06 07 08 09 0A 0B 0C 0D 0E 0F |0123456789ABCDEF|
|------------------------------------------------|----------------|
|05 C0 BF 00 00 03 08 00 01 00 00 03 00 00 00 64 |...............d|
|00 00 01 56 34 03 1B 00 00 00 00 00 00 00 00 00 |...V4...........|
|00 00 03 00 00 00 04 00 00 00 00 00 00 00 00 00 |................|
|00 00 00 00 28 00 14 00 01 00 00 00 00 00 00 00 |....(...........|
|00 00 00 00 00 10 4F 70 61 71 75 65 20 47 61 74 |......Opaque Gat|
|65 73 74 6F 6E 65 00 00 00 07 05 00 05 08 00 0E |estone..........|
|09 00 32 06 01 F8 0C FF 38 0E FF 38 02 00 01 00 |..2.....8..8....|
|00 31 54 68 69 73 20 73 74 6F 6E 65 20 73 69 7A |.1This stone siz|
|7A 6C 65 73 20 77 69 74 68 20 74 65 6C 65 70 6F |zles with telepo|
|72 74 61 74 69 6F 6E 61 6C 20 65 6E 65 72 67 69 |rtational energi|
|65 73 2E 00 01 00 00 03 02 00 08 00 00 00 00 00 |es..............|
|00 32 00 00 00 00 00 00 00 00 00 00 00 00 00 01 |.2..............|
|03 00 00 03 E8 00 00 01 56 35 03 1B 00 00 00 00 |........V5......|
|00 00 00 00 00 00 00 0B 00 00 00 04 00 00 00 00 |................|
|00 00 00 00 00 00 00 00 01 90 00 14 00 01 00 00 |................|
|00 00 00 00 00 00 00 00 00 00 10 43 6C 6F 75 64 |...........Cloud|
|79 20 47 61 74 65 73 74 6F 6E 65 00 00 00 07 05 |y Gatestone.....|
|00 05 08 00 0E 09 00 64 06 01 F9 0C FF 38 0E FF |.......d.....8..|
|38 02 00 01 00 00 31 54 68 69 73 20 73 74 6F 6E |8.....1This ston|
|65 20 73 69 7A 7A 6C 65 73 20 77 69 74 68 20 74 |e sizzles with t|
|65 6C 65 70 6F 72 74 61 74 69 6F 6E 61 6C 20 65 |eleportational e|
|6E 65 72 67 69 65 73 2E 00 01 00 00 03 02 00 08 |nergies.........|
|00 00 00 00 00 00 64 00 00 00 00 00 00 00 00 00 |......d.........|
|00 00 00 00 02 03 00 00 13 88 00 00 01 56 36 03 |.............V6.|
|B7 00 00 00 00 00 00 00 00 00 00 00 15 00 00 00 |................|
|04 00 00 00 00 00 00 00 00 00 00 00 00 07 D0 00 |................|
|14 00 01 00 00 00 00 00 00 00 00 00 00 00 00 12 |................|
|44 65 6C 69 63 61 74 65 20 47 61 74 65 73 74 6F |Delicate Gatesto|
|6E 65 00 00 00 07 05 00 05 08 00 0E 09 00 96 06 |ne..............|
|01 FA 0C FF 38 0E FF 38 02 00 01 00 00 31 54 68 |....8..8.....1Th|
|69 73 20 73 74 6F 6E 65 20 73 69 7A 7A 6C 65 73 |is stone sizzles|
|20 77 69 74 68 20 74 65 6C 65 70 6F 72 74 61 74 | with teleportat|
|69 6F 6E 61 6C 20 65 6E 65 72 67 69 65 73 2E 00 |ional energies..|
|01 00 00 03 02 00 08 00 00 00 00 00 00 96 00 00 |................|
|00 00 00 00 00 00 00 00 00 00 00 03 03 00 00 27 |...............'|
|10 00 00 01 56 37 03 B7 00 00 00 00 00 00 00 00 |....V7..........|
|00 00 00 1F 00 00 00 04 00 00 00 00 00 00 00 00 |................|
|00 00 00 00 0F A0 00 14 00 01 00 00 00 00 00 00 |................|
|00 00 00 00 00 00 12 56 69 74 72 65 6F 75 73 20 |.......Vitreous |
|47 61 74 65 73 74 6F 6E 65 00 00 00 07 05 00 05 |Gatestone.......|
|08 00 0E 09 00 C8 06 01 FB 0C FF 38 0E FF 38 02 |...........8..8.|
|00 01 00 00 31 54 68 69 73 20 73 74 6F 6E 65 20 |....1This stone |
|73 69 7A 7A 6C 65 73 20 77 69 74 68 20 74 65 6C |sizzles with tel|
|65 70 6F 72 74 61 74 69 6F 6E 61 6C 20 65 6E 65 |eportational ene|
|72 67 69 65 73 2E 00 01 00 00 03 02 00 08 00 00 |rgies...........|
|00 00 00 00 C8 00 00 00 00 00 00 00 00 00 00 00 |................|
|00 00 04 03 00 00 01 90 00 00 01 56 38 12 57 00 |...........V8.W.|
|00 00 00 00 00 00 00 00 00 00 01 00 00 00 04 00 |................|
|00 00 00 00 00 00 00 00 00 00 00 00 A0 00 14 00 |................|
|01 00 00 00 00 00 00 00 00 00 00 00 00 12 4F 70 |..............Op|
|61 71 75 65 20 50 6F 72 74 61 6C 73 74 6F 6E 65 |aque Portalstone|
|00 00 00 07 05 00 05 08 00 0E 09 00 32 06 01 FC |............2...|
|0C FF 38 0E FF 38 02 00 01 00 00 31 54 68 69 73 |..8..8.....1This|
|20 73 74 6F 6E 65 20 73 69 7A 7A 6C 65 73 20 77 | stone sizzles w|
|69 74 68 20 74 65 6C 65 70 6F 72 74 61 74 69 6F |ith teleportatio|
|6E 61 6C 20 65 6E 65 72 67 69 65 73 2E 00 01 00 |nal energies....|
|00 03 02 00 08 00 00 00 00 00 00 32 00 00 00 00 |...........2....|
|00 00 00 00 00 00 00 00 00 05 03 00 00 0F A0 00 |................|
|00 01 56 39 12 57 00 00 00 00 00 00 00 00 00 00 |..V9.W..........|
|00 0B 00 00 00 04 00 00 00 00 00 00 00 00 00 00 |................|
|00 00 06 40 00 14 00 01 00 00 00 00 00 00 00 00 |...@............|
|00 00 00 00 12 43 6C 6F 75 64 79 20 50 6F 72 74 |.....Cloudy Port|
|61 6C 73 74 6F 6E 65 00 00 00 07 05 00 05 08 00 |alstone.........|
|0E 09 00 64 06 01 FD 0C FF 38 0E FF 38 02 00 01 |...d.....8..8...|
|00 00 31 54 68 69 73 20 73 74 6F 6E 65 20 73 69 |..1This stone si|
|7A 7A 6C 65 73 20 77 69 74 68 20 74 65 6C 65 70 |zzles with telep|
|6F 72 74 61 74 69 6F 6E 61 6C 20 65 6E 65 72 67 |ortational energ|
|69 65 73 2E 00 01 00 00 03 02 00 08 00 00 00 00 |ies.............|
|00 00 64 00 00 00 00 00 00 00 00 00 00 00 00 00 |..d.............|
|06 03 00 00 4E 20 00 00 01 56 3A 12 58 00 00 00 |....N ...V:.X...|
|00 00 00 00 00 00 00 00 15 00 00 00 04 00 00 00 |................|
|00 00 00 00 00 00 00 00 00 1F 40 00 14 00 01 00 |..........@.....|
|00 00 00 00 00 00 00 00 00 00 00 14 44 65 6C 69 |............Deli|
|63 61 74 65 20 50 6F 72 74 61 6C 73 74 6F 6E 65 |cate Portalstone|
|00 00 00 07 05 00 05 08 00 0E 09 00 96 06 01 FE |................|
|0C FF 38 0E FF 38 02 00 01 00 00 31 54 68 69 73 |..8..8.....1This|
|20 73 74 6F 6E 65 20 73 69 7A 7A 6C 65 73 20 77 | stone sizzles w|
|69 74 68 20 74 65 6C 65 70 6F 72 74 61 74 69 6F |ith teleportatio|
|6E 61 6C 20 65 6E 65 72 67 69 65 73 2E 00 01 00 |nal energies....|
|00 03 02 00 08 00 00 00 00 00 00 96 00 00 00 00 |................|
|00 00 00 00 00 00 00 00 00 07 03 00 00 9C 40 00 |..............@.|
|00 01 56 3B 12 58 00 00 00 00 00 00 00 00 00 00 |..V;.X..........|
|00 1F 00 00 00 04 00 00 00 00 00 00 00 00 00 00 |................|
|00 00 3E 80 00 14 00 01 00 00 00 00 00 00 00 00 |..>.............|
|00 00 00 00 14 56 69 74 72 65 6F 75 73 20 50 6F |.....Vitreous Po|
|72 74 61 6C 73 74 6F 6E 65 00 00 00 07 05 00 05 |rtalstone.......|
|08 00 0E 09 00 C8 06 01 FF 0C FF 38 0E FF 38 02 |...........8..8.|
|00 01 00 00 31 54 68 69 73 20 73 74 6F 6E 65 20 |....1This stone |
|73 69 7A 7A 6C 65 73 20 77 69 74 68 20 74 65 6C |sizzles with tel|
|65 70 6F 72 74 61 74 69 6F 6E 61 6C 20 65 6E 65 |eportational ene|
|72 67 69 65 73 2E 00 01 00 00 03 02 00 08 00 00 |rgies...........|
|00 00 00 00 C8 00 00 00 00 00 00 00 00 00 00 00 |................|
|00 00 00                                        |...             |
-------------------------------------------------------------------
[Server] packet : (0xBF) F_INIT_STORE  Size = 2470 
|------------------------------------------------|----------------|
|00 01 02 03 04 05 06 07 08 09 0A 0B 0C 0D 0E 0F |0123456789ABCDEF|
|------------------------------------------------|----------------|
|09 A3 BF 00 00 04 0D 00 01 00 00 03 00 00 00 7D |...............}|
|00 00 0F 43 3D 14 0D 00 00 00 00 00 00 00 00 00 |...C=...........|
|22 00 04 00 00 00 01 00 00 00 00 00 00 00 00 00 |"...............|
|00 00 00 00 32 00 32 00 01 00 00 00 00 00 00 00 |....2.2.........|
|00 00 00 00 00 10 57 61 74 65 72 79 20 5A 6F 69 |......Watery Zoi|
|63 20 42 69 6C 65 00 00 00 05 05 00 04 08 00 12 |c Bile..........|
|09 00 01 0C 00 01 0F 00 01 00 00 53 54 68 69 73 |...........SThis|
|20 6D 65 61 67 65 72 20 69 6E 67 72 65 64 69 65 | meager ingredie|
|6E 74 20 63 61 6E 20 62 65 20 75 73 65 64 20 74 |nt can be used t|
|6F 20 69 6E 63 72 65 61 73 65 20 74 68 65 20 63 |o increase the c|
|68 61 6E 63 65 20 6F 66 20 6D 61 6B 69 6E 67 20 |hance of making |
|62 65 74 74 65 72 20 70 6F 74 69 6F 6E 73 2E 00 |better potions..|
|01 00 00 03 02 00 08 00 00 00 00 00 00 01 00 00 |................|
|00 00 00 00 00 00 00 00 00 00 00 01 03 00 00 00 |................|
|7D 00 00 0F 43 34 06 26 00 00 00 00 00 00 00 00 |}...C4.&........|
|00 22 00 04 00 00 00 01 00 00 00 00 00 00 00 00 |."..............|
|00 00 00 00 00 32 00 32 00 01 00 00 00 00 00 00 |.....2.2........|
|00 00 00 00 00 00 11 43 72 75 73 74 79 20 5A 6F |.......Crusty Zo|
|69 63 20 4F 66 66 61 6C 00 00 00 05 05 00 04 08 |ic Offal........|
|00 04 09 00 01 04 00 02 0F 00 01 00 00 37 54 68 |.............7Th|
|69 73 20 6D 65 61 67 65 72 20 69 6E 67 72 65 64 |is meager ingred|
|69 65 6E 74 20 63 61 6E 20 62 65 20 75 73 65 64 |ient can be used|
|20 74 6F 20 6D 75 6C 74 69 70 6C 79 20 70 6F 74 | to multiply pot|
|69 6F 6E 73 2E 00 01 00 00 03 02 00 08 00 00 00 |ions............|
|00 00 00 01 00 00 00 00 00 00 00 00 00 00 00 00 |................|
|00 02 03 00 00 00 7D 00 00 0F 43 2B 03 08 00 00 |......}...C+....|
|00 00 00 00 00 00 00 22 00 04 00 00 00 01 00 00 |......."........|
|00 00 00 00 00 00 00 00 00 00 00 32 00 32 00 01 |...........2.2..|
|00 00 00 00 00 00 00 00 00 00 00 00 14 57 61 74 |.............Wat|
|65 72 79 20 5A 6F 69 63 20 53 61 6E 67 75 69 6E |ery Zoic Sanguin|
|61 00 00 00 05 05 00 04 08 00 03 09 00 01 03 00 |a...............|
|01 0F 00 01 00 00 35 54 68 69 73 20 6D 65 61 67 |......5This meag|
|65 72 20 69 6E 67 72 65 64 69 65 6E 74 20 63 61 |er ingredient ca|
|6E 20 62 65 20 75 73 65 64 20 74 6F 20 65 78 74 |n be used to ext|
|65 6E 64 20 70 6F 74 69 6F 6E 73 2E 00 01 00 00 |end potions.....|
|03 02 00 08 00 00 00 00 00 00 01 00 00 00 00 00 |................|
|00 00 00 00 00 00 00 00 03 03 00 00 00 7D 00 00 |.............}..|
|0F 42 E3 12 03 00 00 00 00 00 00 00 00 00 22 00 |.B............".|
|04 00 00 00 01 00 00 00 00 00 00 00 00 00 00 00 |................|
|00 00 32 00 32 00 01 00 00 00 00 00 00 00 00 00 |..2.2...........|
|00 00 00 16 46 6F 75 6C 20 43 68 69 72 6F 70 74 |....Foul Chiropt|
|65 72 61 6E 20 48 75 6D 6F 72 00 00 00 07 05 00 |eran Humor......|
|04 08 00 02 09 00 01 06 00 02 02 00 01 01 FF FF |................|
|0F 00 01 00 00 41 54 68 69 73 20 6D 65 61 67 65 |.....AThis meage|
|72 20 69 6E 67 72 65 64 69 65 6E 74 20 63 61 6E |r ingredient can|
|20 62 65 20 75 73 65 64 20 74 6F 20 63 72 65 61 | be used to crea|
|74 65 20 72 65 73 74 6F 72 61 74 69 6F 6E 20 70 |te restoration p|
|6F 74 69 6F 6E 73 2E 00 01 00 00 03 02 00 08 00 |otions..........|
|00 00 00 00 00 01 00 00 00 00 00 00 00 00 00 00 |................|
|00 00 00 04 03 00 00 00 7D 00 00 0F 42 4A 12 05 |........}...BJ..|
|00 00 00 00 00 00 00 00 00 22 00 04 00 00 00 01 |........."......|
|00 00 00 00 00 00 00 00 00 00 00 00 00 32 00 32 |.............2.2|
|00 01 00 00 00 00 00 00 00 00 00 00 00 00 15 57 |...............W|
|61 74 65 72 79 20 57 69 74 63 68 69 6E 67 20 42 |atery Witching B|
|6C 6F 6F 64 00 00 00 07 05 00 04 08 00 02 09 00 |lood............|
|01 06 00 01 02 00 01 01 FF FF 0F 00 01 00 00 3D |...............=|
|54 68 69 73 20 6D 65 61 67 65 72 20 69 6E 67 72 |This meager ingr|
|65 64 69 65 6E 74 20 63 61 6E 20 62 65 20 75 73 |edient can be us|
|65 64 20 74 6F 20 63 72 65 61 74 65 20 68 65 61 |ed to create hea|
|6C 69 6E 67 20 70 6F 74 69 6F 6E 73 2E 00 01 00 |ling potions....|
|00 03 02 00 08 00 00 00 00 00 00 01 00 00 00 00 |................|
|00 00 00 00 00 00 00 00 00 05 03 00 00 00 7D 00 |..............}.|
|00 0F 42 C8 01 E5 00 00 00 00 00 00 00 00 00 22 |..B............"|
|00 04 00 00 00 01 00 00 00 00 00 00 00 00 00 00 |................|
|00 00 00 32 00 32 00 01 00 00 00 00 00 00 00 00 |...2.2..........|
|00 00 00 00 13 53 68 61 74 74 65 72 65 64 20 43 |.....Shattered C|
|61 74 27 73 20 45 79 65 00 00 00 07 05 00 04 08 |at's Eye........|
|00 02 09 00 01 06 00 08 02 00 01 01 FF FF 0F 00 |................|
|01 00 00 45 54 68 69 73 20 6D 65 61 67 65 72 20 |...EThis meager |
|69 6E 67 72 65 64 69 65 6E 74 20 63 61 6E 20 62 |ingredient can b|
|65 20 75 73 65 64 20 74 6F 20 63 72 65 61 74 65 |e used to create|
|20 62 61 6C 6C 69 73 74 69 63 20 73 6B 69 6C 6C | ballistic skill|
|20 70 6F 74 69 6F 6E 73 2E 00 01 00 00 03 02 00 | potions........|
|08 00 00 00 00 00 00 01 00 00 00 00 00 00 00 00 |................|
|00 00 00 00 00 06 03 00 00 00 5C 00 00 01 45 9E |..........\...E.|
|01 7E 00 00 00 00 00 00 00 00 00 22 00 03 00 00 |.~........."....|
|00 01 00 00 00 00 00 00 00 00 00 00 00 00 00 25 |...............%|
|00 32 00 01 00 00 00 00 00 00 00 00 00 00 00 00 |.2..............|
|0C 43 6C 6F 75 64 79 20 57 61 74 65 72 00 00 00 |.Cloudy Water...|
|04 05 00 04 08 00 01 09 00 01 01 00 02 00 00 38 |...............8|
|54 68 69 73 20 6D 65 61 67 65 72 20 69 6E 67 72 |This meager ingr|
|65 64 69 65 6E 74 20 63 61 6E 20 62 65 20 75 73 |edient can be us|
|65 64 20 74 6F 20 73 74 61 62 69 6C 69 7A 65 20 |ed to stabilize |
|70 6F 74 69 6F 6E 73 2E 00 01 00 00 03 02 00 08 |potions.........|
|00 00 00 00 00 00 01 00 00 00 00 00 00 00 00 00 |................|
|00 00 00 00 07 03 00 00 00 1E 00 00 01 4B A5 02 |.............K..|
|36 00 00 00 00 00 00 00 00 00 22 00 01 00 00 00 |6.........".....|
|01 00 00 00 00 00 00 00 00 00 00 00 00 00 0C 00 |................|
|14 00 01 00 00 00 00 00 00 00 00 00 00 00 00 17 |................|
|41 70 70 72 65 6E 74 69 63 65 27 73 20 47 6C 61 |Apprentice's Gla|
|73 73 20 56 69 61 6C 00 00 00 07 05 00 04 08 00 |ss Vial.........|
|05 09 00 01 07 00 04 01 00 00 02 00 00 0F 00 01 |................|
|00 00 35 41 20 76 69 61 6C 20 75 73 65 64 20 62 |..5A vial used b|
|79 20 61 6E 20 61 70 70 72 65 6E 74 69 63 65 20 |y an apprentice |
|6F 66 20 74 68 65 20 41 70 6F 74 68 65 63 61 72 |of the Apothecar|
|79 20 74 72 61 64 65 2E 00 01 00 00 03 02 00 08 |y trade.........|
|00 00 00 00 00 00 01 00 00 00 00 00 00 00 00 00 |................|
|00 00 00 00 08 03 00 00 00 9B 00 00 01 4B A6 02 |.............K..|
|3A 00 00 00 00 00 00 00 00 00 22 00 05 00 00 00 |:.........".....|
|01 00 00 00 00 00 00 00 00 00 00 00 00 00 3E 00 |..............>.|
|14 00 01 00 00 00 00 00 00 00 00 00 00 00 00 17 |................|
|4A 6F 75 72 6E 65 79 6D 61 6E 27 73 20 47 6C 61 |Journeyman's Gla|
|73 73 20 56 69 61 6C 00 00 00 07 05 00 04 08 00 |ss Vial.........|
|05 09 00 32 07 00 04 01 00 01 02 00 00 0F 00 01 |...2............|
|00 00 34 41 20 76 69 61 6C 20 75 73 65 64 20 62 |..4A vial used b|
|79 20 61 20 6A 6F 75 72 6E 65 79 6D 61 6E 20 6F |y a journeyman o|
|66 20 74 68 65 20 41 70 6F 74 68 65 63 61 72 79 |f the Apothecary|
|20 74 72 61 64 65 2E 00 01 00 00 03 02 00 08 00 | trade..........|
|00 00 00 00 00 32 00 00 00 00 00 00 00 00 00 00 |.....2..........|
|00 00 00 09 03 00 00 02 32 00 00 01 4B A7 02 3E |........2...K..>|
|00 00 00 00 00 00 00 00 00 22 00 0F 00 00 00 02 |........."......|
|00 00 00 00 00 00 00 00 00 00 00 00 00 E1 00 14 |................|
|00 01 00 00 00 00 00 00 00 00 00 00 00 00 16 43 |...............C|
|72 61 66 74 73 6D 61 6E 27 73 20 47 6C 61 73 73 |raftsman's Glass|
|20 56 69 61 6C 00 00 00 07 05 00 04 08 00 05 09 | Vial...........|
|00 64 07 00 04 01 00 01 02 00 01 0F 00 01 00 00 |.d..............|
|33 41 20 76 69 61 6C 20 75 73 65 64 20 62 79 20 |3A vial used by |
|61 20 63 72 61 66 74 73 6D 61 6E 20 6F 66 20 74 |a craftsman of t|
|68 65 20 41 70 6F 74 68 65 63 61 72 79 20 74 72 |he Apothecary tr|
|61 64 65 2E 00 01 00 00 03 02 00 08 00 00 00 00 |ade.............|
|00 00 64 00 00 00 00 00 00 00 00 00 00 00 00 00 |..d.............|
|0A 03 00 00 04 C1 00 00 01 4B A8 02 3F 00 00 00 |.........K..?...|
|00 00 00 00 00 00 22 00 1E 00 00 00 03 00 00 00 |......".........|
|00 00 00 00 00 00 00 00 00 01 E7 00 14 00 01 00 |................|
|00 00 00 00 00 00 00 00 00 00 00 14 41 72 74 69 |............Arti|
|73 61 6E 27 73 20 47 6C 61 73 73 20 56 69 61 6C |san's Glass Vial|
|00 00 00 07 05 00 04 08 00 05 09 00 96 07 00 04 |................|
|01 00 02 02 00 01 0F 00 01 00 00 32 41 20 76 69 |...........2A vi|
|61 6C 20 75 73 65 64 20 62 79 20 61 6E 20 61 72 |al used by an ar|
|74 69 73 61 6E 20 6F 66 20 74 68 65 20 41 70 6F |tisan of the Apo|
|74 68 65 63 61 72 79 20 74 72 61 64 65 2E 00 01 |thecary trade...|
|00 00 03 02 00 08 00 00 00 00 00 00 96 00 00 00 |................|
|00 00 00 00 00 00 00 00 00 00 0B 03 00 00 00 1E |................|
|00 00 02 DD A1 12 00 00 00 00 00 00 00 00 00 00 |................|
|22 00 01 00 00 00 01 00 00 00 00 00 00 00 00 00 |"...............|
|00 00 00 00 0C 00 14 00 01 00 00 00 00 00 00 00 |................|
|00 00 00 00 00 11 41 6C 75 6D 20 52 6F 6F 74 20 |......Alum Root |
|45 78 74 72 61 63 74 00 00 00 03 08 00 09 05 00 |Extract.........|
|04 09 00 01 00 00 20 41 20 62 61 73 69 63 20 66 |...... A basic f|
|69 78 65 72 20 75 73 65 64 20 74 6F 20 6D 61 6B |ixer used to mak|
|65 20 64 79 65 73 2E 00 01 00 00 03 02 00 08 00 |e dyes..........|
|00 00 00 00 00 01 00 00 00 00 00 00 00 00 00 00 |................|
|00 00 00 0C 03 00 00 00 0F 00 00 02 DD 99 12 5A |...............Z|
|00 00 00 00 00 00 00 00 00 22 00 01 00 00 00 00 |........."......|
|00 00 00 00 00 00 00 00 00 00 00 00 00 06 00 14 |................|
|00 01 00 00 00 00 00 00 00 00 00 00 00 00 18 57 |...............W|
|6F 6F 64 65 6E 20 4D 6F 72 74 61 72 20 61 6E 64 |ooden Mortar and|
|20 50 65 73 74 6C 65 00 00 00 05 05 00 04 08 00 | Pestle.........|
|06 07 00 02 09 00 01 0F 00 01 00 00 3C 41 20 62 |............<A b|
|61 73 69 63 20 63 6F 6E 74 61 69 6E 65 72 20 75 |asic container u|
|73 65 64 20 69 6E 20 74 68 65 20 41 70 6F 74 68 |sed in the Apoth|
|65 63 61 72 79 20 74 72 61 64 65 20 74 6F 20 6D |ecary trade to m|
|61 6B 65 20 64 79 65 73 2E 00 01 00 00 03 02 00 |ake dyes........|
|08 00 00 00 00 00 00 01 00 00 00 00 00 00 00 00 |................|
|00 00 00 00 00 00                               |......          |
-------------------------------------------------------------------
[Server] packet : (0xC0) F_STORE_BUY_BACK  Size = 5 
|------------------------------------------------|----------------|
|00 01 02 03 04 05 06 07 08 09 0A 0B 0C 0D 0E 0F |0123456789ABCDEF|
|------------------------------------------------|----------------|
|00 02 C0 00 00                                  |.....           |
-------------------------------------------------------------------
[Client] packet : (0x01) UNKNOWN  Size = 32 
|------------------------------------------------|----------------|
|00 01 02 03 04 05 06 07 08 09 0A 0B 0C 0D 0E 0F |0123456789ABCDEF|
|------------------------------------------------|----------------|
|00 14 15 03 00 55 00 00 00 01 00 12 6C D2 20 07 |.....U......l. .|
|2A 68 90 38 40 04 00 23 3D BD 08 18 E9 5A 00 00 |*h.8@..#=....Z..|                                                
-------------------------------------------------------------------
[Server] packet : (0x00) UNKNOWN  Size = 23 
|------------------------------------------------|----------------|
|00 01 02 03 04 05 06 07 08 09 0A 0B 0C 0D 0E 0F |0123456789ABCDEF|
|------------------------------------------------|----------------|
|00 14 00 00 12 6C D2 79 E9 BF F3 00 00 00 00 00 |.....l.y........|
|23 3D BD 08 18 E9 00                            |.......         |
-------------------------------------------------------------------
[Client] packet : (0x0B) F_PING  Size = 32 
|------------------------------------------------|----------------|
|00 01 02 03 04 05 06 07 08 09 0A 0B 0C 0D 0E 0F |0123456789ABCDEF|
|------------------------------------------------|----------------|
|00 14 15 06 00 55 00 00 00 0B 00 12 76 B8 51 98 |.....U......v.Q.|
|02 4C 70 21 2B B4 00 00 00 00 00 00 00 00 8E C1 |.Lp!+...........|                                                
-------------------------------------------------------------------
[Server] packet : (0x81) S_PONG  Size = 23 
|------------------------------------------------|----------------|
|00 01 02 03 04 05 06 07 08 09 0A 0B 0C 0D 0E 0F |0123456789ABCDEF|
|------------------------------------------------|----------------|
|00 14 81 00 12 76 B8 52 74 D7 84 00 00 00 00 00 |.....v.Rt.......|
|00 15 07 00 00 00 00                            |.......         |
-------------------------------------------------------------------
[Client] packet : (0x16) F_REQUEST_INIT_OBJECT  Size = 16 
|------------------------------------------------|----------------|
|00 01 02 03 04 05 06 07 08 09 0A 0B 0C 0D 0E 0F |0123456789ABCDEF|
|------------------------------------------------|----------------|
|00 04 15 0D 00 55 00 00 00 16 15 56 00 00 00 00 |.....U.....V....|                                                
-------------------------------------------------------------------
[Server] packet : (0x1A) F_CAMPAIGN_STATUS  Size = 159 
|------------------------------------------------|----------------|
|00 01 02 03 04 05 06 07 08 09 0A 0B 0C 0D 0E 0F |0123456789ABCDEF|
|------------------------------------------------|----------------|
|00 9C 1A 00 09 00 6D 00 D1 00 00 64 00 00 32 32 |......m....d..22|
|00 00 00 00 32 32 00 64 00 00 32 32 00 32 32 00 |....22.d..22.22.|
|32 32 00 32 00 00 32 32 00 32 32 00 32 32 00 00 |22.2..22.22.22..|
|00 00 00 00 00 00 00 00 00 00 00 00 00 00 00 00 |................|
|00 00 00 00 00 00 00 64 64 00 00 32 00 00 32 00 |.......dd..2..2.|
|32 00 00 32 00 01 00 00 00 01 00 00 00 00 00 00 |2..2............|
|00 00 00 00 00 00 00 00 00 00 00 00 00 00 00 00 |................|
|00 00 00 00 00 00 00 00 00 00 00 00 00 00 00 00 |................|
|00 03 00 02 02 03 03 00 02 02 03 03 00 02 02 03 |................|
|02 FE 64 00 0A 3C 00 00 00 03 84 00 00 00 00    |............... |
-------------------------------------------------------------------
[Server] packet : (0x1A) F_CAMPAIGN_STATUS  Size = 159 
|------------------------------------------------|----------------|
|00 01 02 03 04 05 06 07 08 09 0A 0B 0C 0D 0E 0F |0123456789ABCDEF|
|------------------------------------------------|----------------|
|00 9C 1A 00 09 00 6D 00 D1 00 00 64 00 00 32 32 |......m....d..22|
|00 00 00 00 32 32 00 64 00 00 32 32 00 32 32 00 |....22.d..22.22.|
|32 32 00 32 00 00 32 32 00 32 32 00 32 32 00 00 |22.2..22.22.22..|
|00 00 00 00 00 00 00 00 00 00 00 00 00 00 00 00 |................|
|00 00 00 00 00 00 00 64 64 00 00 32 00 00 32 00 |.......dd..2..2.|
|32 00 00 32 00 01 00 00 00 01 00 00 00 00 00 00 |2..2............|
|00 00 00 00 00 00 00 00 00 00 00 00 00 00 00 00 |................|
|00 00 00 00 00 00 00 00 00 00 00 00 00 00 00 00 |................|
|00 03 00 02 02 03 03 00 02 02 03 03 00 02 02 03 |................|
|02 FE 64 00 0A 3C 00 00 00 03 84 00 00 00 00    |............... |
-------------------------------------------------------------------
[Server] packet : (0x96) F_KEEP_STATUS  Size = 29 
|------------------------------------------------|----------------|
|00 01 02 03 04 05 06 07 08 09 0A 0B 0C 0D 0E 0F |0123456789ABCDEF|
|------------------------------------------------|----------------|
|00 1A 96 03 01 00 01 02 00 64 00 00 00 00 00 00 |.........d......|
|00 00 00 00 00 00 00 00 00 00 00 00 00          |.............   |
-------------------------------------------------------------------
[Server] packet : (0x96) F_KEEP_STATUS  Size = 29 
|------------------------------------------------|----------------|
|00 01 02 03 04 05 06 07 08 09 0A 0B 0C 0D 0E 0F |0123456789ABCDEF|
|------------------------------------------------|----------------|
|00 1A 96 04 01 00 02 02 00 64 00 00 00 00 00 00 |.........d......|
|00 00 00 00 00 00 00 00 00 00 00 00 00          |.............   |
-------------------------------------------------------------------
[Server] packet : (0x96) F_KEEP_STATUS  Size = 29 
|------------------------------------------------|----------------|
|00 01 02 03 04 05 06 07 08 09 0A 0B 0C 0D 0E 0F |0123456789ABCDEF|
|------------------------------------------------|----------------|
|00 1A 96 03 01 00 01 02 00 64 00 00 00 00 00 00 |.........d......|
|00 00 00 00 00 00 00 00 00 00 00 00 00          |.............   |
-------------------------------------------------------------------
[Server] packet : (0x96) F_KEEP_STATUS  Size = 29 
|------------------------------------------------|----------------|
|00 01 02 03 04 05 06 07 08 09 0A 0B 0C 0D 0E 0F |0123456789ABCDEF|
|------------------------------------------------|----------------|
|00 1A 96 04 01 00 02 02 00 64 00 00 00 00 00 00 |.........d......|
|00 00 00 00 00 00 00 00 00 00 00 00 00          |.............   |
-------------------------------------------------------------------
[Server] packet : (0x1A) F_CAMPAIGN_STATUS  Size = 159 
|------------------------------------------------|----------------|
|00 01 02 03 04 05 06 07 08 09 0A 0B 0C 0D 0E 0F |0123456789ABCDEF|
|------------------------------------------------|----------------|
|00 9C 1A 00 09 00 6D 00 D1 00 00 64 00 00 32 32 |......m....d..22|
|00 00 32 00 32 32 00 64 00 00 32 32 00 32 32 00 |..2.22.d..22.22.|
|32 32 00 32 00 00 32 32 00 32 32 00 32 32 00 00 |22.2..22.22.22..|
|00 00 00 00 00 00 00 00 00 00 00 00 00 00 00 00 |................|
|00 00 00 00 00 00 00 64 64 00 00 32 00 00 32 00 |.......dd..2..2.|
|32 00 00 32 00 01 00 00 00 01 00 00 00 00 00 00 |2..2............|
|00 00 00 00 00 00 00 00 00 00 00 00 00 00 00 00 |................|
|00 00 00 00 00 00 00 00 00 00 00 00 00 00 00 00 |................|
|00 03 00 02 02 03 03 00 02 02 03 03 00 02 02 03 |................|
|02 FE 64 00 0A 3C 00 00 00 03 84 00 00 00 00    |............... |
-------------------------------------------------------------------
[Server] packet : (0x1A) F_CAMPAIGN_STATUS  Size = 159 
|------------------------------------------------|----------------|
|00 01 02 03 04 05 06 07 08 09 0A 0B 0C 0D 0E 0F |0123456789ABCDEF|
|------------------------------------------------|----------------|
|00 9C 1A 00 09 00 6D 00 D1 00 00 64 00 00 32 32 |......m....d..22|
|00 32 32 00 32 32 00 64 00 00 32 32 00 32 32 00 |.22.22.d..22.22.|
|32 32 00 32 00 00 32 32 00 32 32 00 32 32 00 00 |22.2..22.22.22..|
|00 00 00 00 00 00 00 00 00 00 00 00 00 00 00 00 |................|
|00 00 00 00 00 00 00 64 64 00 00 32 00 00 32 00 |.......dd..2..2.|
|32 00 00 32 00 01 00 00 00 01 00 00 00 00 00 00 |2..2............|
|00 00 00 00 00 00 00 00 00 00 00 00 00 00 00 00 |................|
|00 00 00 00 00 00 00 00 00 00 00 00 00 00 00 00 |................|
|00 03 00 02 02 03 03 00 02 02 03 03 00 02 02 03 |................|
|02 FE 64 00 0A 3C 00 00 00 03 84 00 00 00 00    |............... |
-------------------------------------------------------------------
[Server] packet : (0x72) F_CREATE_MONSTER  Size = 109 
|------------------------------------------------|----------------|
|00 01 02 03 04 05 06 07 08 09 0A 0B 0C 0D 0E 0F |0123456789ABCDEF|
|------------------------------------------------|----------------|
|00 6A 72 15 56 00 55 01 A8 25 50 00 12 9F 96 00 |.jr.V.U..%P.....|
|0D E0 09 00 00 04 4C 2D 14 01 00 00 00 00 00 00 |......L-........|
|00 00 00 03 E8 00 00 00 00 52 B5 00 00 00 00 01 |.........R......|
|19 00 53 74 65 69 6E 62 72 75 63 6B 20 48 75 6E |..Steinbruck Hun|
|74 65 72 5E 6D 00 01 0A 00 00 00 1A 05 00 15 56 |ter^m..........V|
|1F 96 60 09 25 50 64 01 6C 00 00 00 00 00 55 00 |..`.%Pd.l.....U.|
|00 4D 1E BA 61 58 25 6C 15 56 00 00 00          |.............   |
-------------------------------------------------------------------
[Client] packet : (0x16) F_REQUEST_INIT_OBJECT  Size = 16 
|------------------------------------------------|----------------|
|00 01 02 03 04 05 06 07 08 09 0A 0B 0C 0D 0E 0F |0123456789ABCDEF|
|------------------------------------------------|----------------|
|00 04 15 0F 00 55 00 00 00 16 15 72 00 00 30 F9 |.....U.....r..0.|                                                
-------------------------------------------------------------------
[Server] packet : (0x72) F_CREATE_MONSTER  Size = 107 
|------------------------------------------------|----------------|
|00 01 02 03 04 05 06 07 08 09 0A 0B 0C 0D 0E 0F |0123456789ABCDEF|
|------------------------------------------------|----------------|
|00 68 72 15 72 00 00 0A 13 25 4F 00 12 9F FE 00 |.hr.r....%O.....|
|0D E0 07 00 00 04 4C 2D 13 01 00 00 00 00 00 00 |......L-........|
|00 00 00 03 E8 00 00 00 00 52 B5 00 01 00 00 01 |.........R......|
|19 00 53 74 65 69 6E 62 72 75 63 6B 20 48 75 6E |..Steinbruck Hun|
|74 65 72 5E 6D 00 01 0A 00 00 00 18 05 00 15 72 |ter^m..........r|
|1F FE 60 07 25 4F 64 00 6C 20 00 00 00 00 56 15 |..`.%Od.l ....V.|
|51 00 82 FF FF FF 15 72 00 00 00                |...........     |
-------------------------------------------------------------------
[Client] packet : (0x86) F_MAIL  Size = 16 
|------------------------------------------------|----------------|
|00 01 02 03 04 05 06 07 08 09 0A 0B 0C 0D 0E 0F |0123456789ABCDEF|
|------------------------------------------------|----------------|
|00 04 15 11 00 55 FF FF 00 86 00 00 00 00 00 00 |.....U..........|                                                
-------------------------------------------------------------------
[Client] packet : (0x0B) F_PING  Size = 32 
|------------------------------------------------|----------------|
|00 01 02 03 04 05 06 07 08 09 0A 0B 0C 0D 0E 0F |0123456789ABCDEF|
|------------------------------------------------|----------------|
|00 14 15 14 00 55 00 00 00 0B 00 12 8A 47 2D AF |.....U.......G-.|
|AB EF B4 BE 42 3D 00 00 00 00 00 00 00 00 8E C1 |....B=..........|                                                
-------------------------------------------------------------------
[Server] packet : (0x81) S_PONG  Size = 23 
|------------------------------------------------|----------------|
|00 01 02 03 04 05 06 07 08 09 0A 0B 0C 0D 0E 0F |0123456789ABCDEF|
|------------------------------------------------|----------------|
|00 14 81 00 12 8A 47 52 74 D7 89 00 00 00 00 00 |......GRt.......|
|00 15 15 00 00 00 00                            |.......         |
-------------------------------------------------------------------