
[Client] packet : (0x0B) F_PING  Size = 32 
|------------------------------------------------|----------------|
|00 01 02 03 04 05 06 07 08 09 0A 0B 0C 0D 0E 0F |0123456789ABCDEF|
|------------------------------------------------|----------------|
|00 14 CA 31 00 1F 00 00 00 0B 00 AA 77 53 B2 47 |...1........wS.G|
|7E 78 FF 3A C6 DE 00 00 00 00 00 00 00 00 C0 88 |~x.:............|                                                
-------------------------------------------------------------------
[Server] packet : (0x81) S_PONG  Size = 23 
|------------------------------------------------|----------------|
|00 01 02 03 04 05 06 07 08 09 0A 0B 0C 0D 0E 0F |0123456789ABCDEF|
|------------------------------------------------|----------------|
|00 14 81 00 AA 77 53 52 75 84 F0 00 00 00 00 00 |.....wSRu.......|
|00 CA 32 00 00 00 00                            |.......         |
-------------------------------------------------------------------
[Server] packet : (0x51) F_ANIMATION  Size = 9 
|------------------------------------------------|----------------|
|00 01 02 03 04 05 06 07 08 09 0A 0B 0C 0D 0E 0F |0123456789ABCDEF|
|------------------------------------------------|----------------|
|00 06 51 07 61 00 7D 00 00                      |.........       |
-------------------------------------------------------------------
[Client] packet : (0x16) F_REQUEST_INIT_OBJECT  Size = 16 
|------------------------------------------------|----------------|
|00 01 02 03 04 05 06 07 08 09 0A 0B 0C 0D 0E 0F |0123456789ABCDEF|
|------------------------------------------------|----------------|
|00 04 CA 36 00 1F 00 00 00 16 0A DB 00 00 E1 51 |...6...........Q|                                                
-------------------------------------------------------------------
[Server] packet : (0x72) F_CREATE_MONSTER  Size = 142 
|------------------------------------------------|----------------|
|00 01 02 03 04 05 06 07 08 09 0A 0B 0C 0D 0E 0F |0123456789ABCDEF|
|------------------------------------------------|----------------|
|00 8B 72 0A DB 00 EB 05 77 18 06 00 0C EF B0 00 |..r.....w.......|
|0D B6 BE 00 00 04 BF 32 01 41 00 00 00 00 00 00 |.......2.A......|
|00 00 00 03 E8 00 00 00 00 06 FA 00 02 00 00 01 |................|
|19 00 49 72 6F 6E 6D 61 6E 65 20 4F 61 74 68 67 |..Ironmane Oathg|
|75 61 72 64 5E 66 00 01 0A 00 00 00 1A 25 00 0A |uard^f.......%..|
|DB AF B0 D6 BE 18 06 64 01 0B 00 00 00 00 00 EB |.......d........|
|00 00 2C AE C2 D5 57 18 0B 0A DB 01 08 00 0A 04 |..,...W.........|
|7F 00 0C 04 FA 00 14 07 D1 00 15 07 D3 00 16 07 |................|
|D2 00 18 07 D4 00 19 02 8A 00 1C 07 D0 00       |..............  |
-------------------------------------------------------------------
[Client] packet : (0xD2) F_INTERACT  Size = 24 
|------------------------------------------------|----------------|
|00 01 02 03 04 05 06 07 08 09 0A 0B 0C 0D 0E 0F |0123456789ABCDEF|
|------------------------------------------------|----------------|
|00 0C CA 39 00 1F 00 00 00 D2 00 00 07 6F 00 00 |...9.........o..|
|00 00 00 00 00 00 00 00                         |........        |
-------------------------------------------------------------------
[Client] packet : (0xE8) F_CLIENT_DATA  Size = 20 
|------------------------------------------------|----------------|
|00 01 02 03 04 05 06 07 08 09 0A 0B 0C 0D 0E 0F |0123456789ABCDEF|
|------------------------------------------------|----------------|
|00 08 CA 3B 00 1F 00 00 00 E8 00 34 00 04 6B 21 |...;.......4..k!|
|01 00 00 00                                     |....            |
-------------------------------------------------------------------
[Server] packet : (0x7E) F_SET_ABILITY_TIMER  Size = 15 
|------------------------------------------------|----------------|
|00 01 02 03 04 05 06 07 08 09 0A 0B 0C 0D 0E 0F |0123456789ABCDEF|
|------------------------------------------------|----------------|
|00 0C 7E 00 01 01 00 00 00 00 00 00 00 00 00    |............... |
-------------------------------------------------------------------
[Server] packet : (0xE9) F_INTERACT_RESPONSE  Size = 53 
|------------------------------------------------|----------------|
|00 01 02 03 04 05 06 07 08 09 0A 0B 0C 0D 0E 0F |0123456789ABCDEF|
|------------------------------------------------|----------------|
|00 32 E9 00 07 6F 00 00 00 22 00 28 48 65 79 20 |.2...o...".(Hey |
|62 6F 73 73 2C 20 74 68 65 6D 27 73 20 73 6F 6D |boss, them's som|
|65 20 66 69 6E 65 20 6C 6F 6F 6B 69 6E 27 20 74 |e fine lookin' t|
|65 65 66 21 00                                  |.....           |
-------------------------------------------------------------------
[Server] packet : (0x0A) F_OBJECT_DEATH  Size = 15 
|------------------------------------------------|----------------|
|00 01 02 03 04 05 06 07 08 09 0A 0B 0C 0D 0E 0F |0123456789ABCDEF|
|------------------------------------------------|----------------|
|00 0C 0A 19 51 00 00 00 00 00 00 00 00 00 00    |............... |
-------------------------------------------------------------------
[Client] packet : (0xD2) F_INTERACT  Size = 24 
|------------------------------------------------|----------------|
|00 01 02 03 04 05 06 07 08 09 0A 0B 0C 0D 0E 0F |0123456789ABCDEF|
|------------------------------------------------|----------------|
|00 0C CA 3E 00 1F 00 00 00 D2 00 00 07 6F 00 09 |...>.........o..|
|00 00 00 00 00 00 00 00                         |........        |
-------------------------------------------------------------------
[Server] packet : (0xBF) F_INIT_STORE  Size = 377 
|------------------------------------------------|----------------|
|00 01 02 03 04 05 06 07 08 09 0A 0B 0C 0D 0E 0F |0123456789ABCDEF|
|------------------------------------------------|----------------|
|01 76 BF 00 00 00 03 01 01 00 00 00 03 00 00 00 |.v..............|
|1E 00 00 03 2C 1D 02 CA 00 00 00 00 00 00 00 00 |....,...........|
|00 1F 01 01 00 00 00 01 00 00 00 00 00 00 00 00 |................|
|00 00 00 00 00 0C 00 14 00 01 00 00 00 00 00 00 |................|
|00 00 00 00 00 00 13 44 72 61 6D 20 6F 66 20 52 |.......Dram of R|
|65 73 74 6F 72 61 74 69 6F 6E 00 00 01 00 01 1E |estoration......|
|C7 00 B4 00 00 00 00 00 00 00 01 00 01 03 02 00 |................|
|00 00 00 00 00 00 00 00 00 00 00 00 05 00 00 00 |................|
|00 00 00 00 00 01 03 00 00 00 1E 00 00 03 2C 1E |..............,.|
|02 EE 00 00 00 00 00 00 00 00 00 1F 01 01 00 00 |................|
|00 01 00 00 00 00 00 00 00 00 00 00 00 00 00 0C |................|
|00 14 00 01 00 00 00 00 00 00 00 00 00 00 00 00 |................|
|14 44 72 61 6D 20 6F 66 20 49 6E 76 69 67 6F 72 |.Dram of Invigor|
|61 74 69 6F 6E 00 00 01 00 01 1E D2 00 B4 00 00 |ation...........|
|00 00 00 00 00 01 00 01 03 02 00 00 00 00 00 00 |................|
|00 00 00 00 00 00 00 05 00 00 00 00 00 00 00 00 |................|
|02 03 00 00 00 1E 00 00 03 2C 1F 02 EE 00 00 00 |.........,......|
|00 00 00 00 00 00 1F 01 01 00 00 00 01 00 00 00 |................|
|00 00 00 00 00 00 00 00 00 00 0C 00 14 00 01 00 |................|
|00 00 00 00 00 00 00 00 00 00 00 11 44 72 61 6D |............Dram|
|20 6F 66 20 53 63 72 65 65 6E 69 6E 67 00 00 01 | of Screening...|
|00 01 1E D4 01 2C 00 00 00 00 00 00 00 01 00 01 |.....,..........|
|03 02 00 00 00 00 00 00 00 00 00 00 00 00 00 03 |................|
|00 00 00 00 00 00 00 00 00                      |.........       |
-------------------------------------------------------------------
[Server] packet : (0xC0) F_STORE_BUY_BACK  Size = 5 
|------------------------------------------------|----------------|
|00 01 02 03 04 05 06 07 08 09 0A 0B 0C 0D 0E 0F |0123456789ABCDEF|
|------------------------------------------------|----------------|
|00 02 C0 00 00                                  |.....           |
-------------------------------------------------------------------
[Server] packet : (0x51) F_ANIMATION  Size = 9 
|------------------------------------------------|----------------|
|00 01 02 03 04 05 06 07 08 09 0A 0B 0C 0D 0E 0F |0123456789ABCDEF|
|------------------------------------------------|----------------|
|00 06 51 05 1A 00 E5 00 00                      |.........       |
-------------------------------------------------------------------
[Server] packet : (0x51) F_ANIMATION  Size = 9 
|------------------------------------------------|----------------|
|00 01 02 03 04 05 06 07 08 09 0A 0B 0C 0D 0E 0F |0123456789ABCDEF|
|------------------------------------------------|----------------|
|00 06 51 0C 2D 00 00 00 00                      |.........       |
-------------------------------------------------------------------
[Client] packet : (0x0B) F_PING  Size = 32 
|------------------------------------------------|----------------|
|00 01 02 03 04 05 06 07 08 09 0A 0B 0C 0D 0E 0F |0123456789ABCDEF|
|------------------------------------------------|----------------|
|00 14 CA 41 00 1F 00 00 00 0B 00 AA 8A 6A 00 FF |...A.........j..|
|79 BB DA 7A F2 FF 00 00 00 00 00 00 00 00 C0 88 |y..z............|                                                
-------------------------------------------------------------------
[Server] packet : (0x72) F_CREATE_MONSTER  Size = 136 
|------------------------------------------------|----------------|
|00 01 02 03 04 05 06 07 08 09 0A 0B 0C 0D 0E 0F |0123456789ABCDEF|
|------------------------------------------------|----------------|
|00 85 72 19 AE 00 00 0C AA 1A C8 00 0C DD 60 00 |..r...........`.|
|0D B4 E4 00 00 04 C1 32 02 81 00 00 00 00 00 00 |.......2........|
|00 00 00 03 E8 00 00 00 00 07 99 00 01 00 00 01 |................|
|19 00 42 6C 6F 6F 64 79 20 53 75 6E 20 47 6F 62 |..Bloody Sun Gob|
|62 6F 5E 6D 00 01 0A 00 00 00 12 29 00 19 AE 9D |bo^m.......)....|
|60 D4 E4 1A C8 64 00 0B 00 00 00 00 00 AA 0C 19 |`....d..........|
|AE 00 07 00 0A 04 1F 00 0C 04 33 01 14 08 C7 9B |..........3.....|
|9A 01 15 08 C9 9B 9A 00 16 08 C8 01 18 08 CA 9B |................|
|9A 01 1C 08 C6 9A 9B 00                         |........        |
-------------------------------------------------------------------
[Server] packet : (0x81) S_PONG  Size = 23 
|------------------------------------------------|----------------|
|00 01 02 03 04 05 06 07 08 09 0A 0B 0C 0D 0E 0F |0123456789ABCDEF|
|------------------------------------------------|----------------|
|00 14 81 00 AA 8A 6A 52 75 84 F5 00 00 00 00 00 |......jRu.......|
|00 CA 42 00 00 00 00                            |.......         |
-------------------------------------------------------------------
[Client] packet : (0x86) F_MAIL  Size = 16 
|------------------------------------------------|----------------|
|00 01 02 03 04 05 06 07 08 09 0A 0B 0C 0D 0E 0F |0123456789ABCDEF|
|------------------------------------------------|----------------|
|00 04 CA 43 00 1F FF FF 00 86 00 00 00 00 00 00 |...C............|                                                
-------------------------------------------------------------------
[Server] packet : (0x51) F_ANIMATION  Size = 9 
|------------------------------------------------|----------------|
|00 01 02 03 04 05 06 07 08 09 0A 0B 0C 0D 0E 0F |0123456789ABCDEF|
|------------------------------------------------|----------------|
|00 06 51 0E 42 00 00 00 00                      |.........       |
-------------------------------------------------------------------