
[Server] packet : (0x1A) F_CAMPAIGN_STATUS  Size = 159 
|------------------------------------------------|----------------|
|00 01 02 03 04 05 06 07 08 09 0A 0B 0C 0D 0E 0F |0123456789ABCDEF|
|------------------------------------------------|----------------|
|00 9C 1A 00 03 00 67 00 CD 00 00 64 00 00 32 32 |......g....d..22|
|00 32 32 00 32 32 00 00 00 00 32 32 00 32 32 00 |.22.22....22.22.|
|32 32 00 00 00 00 32 32 00 32 32 00 32 32 00 00 |22....22.22.22..|
|F6 14 F6 14 F6 14 F6 14 F6 14 F6 14 F6 14 F6 14 |................|
|F6 14 F6 14 F6 14 00 4A 3C 00 00 32 13 15 32 1C |.......J<..2..2.|
|32 05 11 32 47 00 00 00 00 00 00 00 00 00 00 00 |2..2G...........|
|00 00 00 00 00 00 00 00 00 00 00 00 00 00 00 00 |................|
|00 00 00 00 00 00 00 00 00 00 00 00 00 00 00 00 |................|
|00 03 01 01 00 03 03 01 01 00 03 03 01 00 02 03 |................|
|00 00 64 00 0A 3C 00 00 00 03 84 00 00 00 00    |............... |
-------------------------------------------------------------------
[Client] packet : (0x16) F_REQUEST_INIT_OBJECT  Size = 16 
|------------------------------------------------|----------------|
|00 01 02 03 04 05 06 07 08 09 0A 0B 0C 0D 0E 0F |0123456789ABCDEF|
|------------------------------------------------|----------------|
|00 04 11 5C 00 2B 00 00 00 16 1B 22 00 00 3F A2 |...\.+....."..?.|                                                
-------------------------------------------------------------------
[Server] packet : (0x72) F_CREATE_MONSTER  Size = 107 
|------------------------------------------------|----------------|
|00 01 02 03 04 05 06 07 08 09 0A 0B 0C 0D 0E 0F |0123456789ABCDEF|
|------------------------------------------------|----------------|
|00 68 72 1B 22 00 55 03 F7 43 EE 00 06 CF ED 00 |.hr.".U..C......|
|02 16 1B 00 00 06 89 32 0B 00 00 00 00 00 00 00 |.......2........|
|00 00 00 03 E8 00 00 00 00 B7 CB 00 08 00 00 02 |................|
|18 19 00 45 6E 72 61 67 65 64 20 53 6F 75 6C 5E |...Enraged Soul^|
|66 00 04 CE 01 0A 00 00 00 1A 05 00 1B 22 8F ED |f............"..|
|96 1B 43 EE 64 01 A1 00 00 00 00 00 55 00 00 19 |..C.d.......U...|
|8F 1E 96 EE 43 A1 1B 22 00 00 00                |...........     |
-------------------------------------------------------------------
[Server] packet : (0xDE) F_OBJECT_EFFECT_STATE  Size = 9 
|------------------------------------------------|----------------|
|00 01 02 03 04 05 06 07 08 09 0A 0B 0C 0D 0E 0F |0123456789ABCDEF|
|------------------------------------------------|----------------|
|00 06 DE 1B 22 01 0C 01 00                      |.........       |
-------------------------------------------------------------------
[Server] packet : (0xA3) F_ACTIVE_EFFECTS  Size = 18 
|------------------------------------------------|----------------|
|00 01 02 03 04 05 06 07 08 09 0A 0B 0C 0D 0E 0F |0123456789ABCDEF|
|------------------------------------------------|----------------|
|00 0F A3 1B 22 01 0D 17 22 1B 01 00 03 01 8D AD |...."...".......|
|FF 00                                           |..              |
-------------------------------------------------------------------
[Client] packet : (0x0B) F_PING  Size = 32 
|------------------------------------------------|----------------|
|00 01 02 03 04 05 06 07 08 09 0A 0B 0C 0D 0E 0F |0123456789ABCDEF|
|------------------------------------------------|----------------|
|00 14 11 5F 00 2B 00 00 00 0B 00 0E 48 1F 6F 1F |..._.+......H.o.|
|EE E9 B5 7E E8 4D 00 00 00 00 00 00 00 00 20 83 |...~.M........ .|                                                
-------------------------------------------------------------------
[Client] packet : (0xD2) F_INTERACT  Size = 24 
|------------------------------------------------|----------------|
|00 01 02 03 04 05 06 07 08 09 0A 0B 0C 0D 0E 0F |0123456789ABCDEF|
|------------------------------------------------|----------------|
|00 0C 11 60 00 2B 00 00 00 D2 00 00 03 8B 00 00 |...`.+..........|
|00 00 00 00 00 00 00 00                         |........        |
-------------------------------------------------------------------
[Server] packet : (0x81) S_PONG  Size = 23 
|------------------------------------------------|----------------|
|00 01 02 03 04 05 06 07 08 09 0A 0B 0C 0D 0E 0F |0123456789ABCDEF|
|------------------------------------------------|----------------|
|00 14 81 00 0E 48 1F 52 75 8D 10 00 00 00 00 00 |.....H.Ru.......|
|00 11 60 00 00 00 00                            |.......         |
-------------------------------------------------------------------
[Server] packet : (0x7E) F_SET_ABILITY_TIMER  Size = 15 
|------------------------------------------------|----------------|
|00 01 02 03 04 05 06 07 08 09 0A 0B 0C 0D 0E 0F |0123456789ABCDEF|
|------------------------------------------------|----------------|
|00 0C 7E 00 01 01 00 00 00 00 00 00 00 00 00    |............... |
-------------------------------------------------------------------
[Server] packet : (0xE9) F_INTERACT_RESPONSE  Size = 84 
|------------------------------------------------|----------------|
|00 01 02 03 04 05 06 07 08 09 0A 0B 0C 0D 0E 0F |0123456789ABCDEF|
|------------------------------------------------|----------------|
|00 51 E9 00 03 8B 00 00 00 22 00 47 47 69 74 20 |.Q.......".GGit |
|64 69 73 20 64 79 65 20 6E 6F 77 20 27 66 6F 72 |dis dye now 'for|
|65 20 69 74 20 67 6F 6E 65 21 20 20 57 61 74 20 |e it gone!  Wat |
|79 6F 75 20 77 61 69 74 69 6E 27 20 66 6F 72 3F |you waitin' for?|
|20 47 69 76 65 20 6D 65 20 6D 6F 6E 65 79 20 6E | Give me money n|
|6F 77 21 00                                     |....            |
-------------------------------------------------------------------
[Client] packet : (0x16) F_REQUEST_INIT_OBJECT  Size = 16 
|------------------------------------------------|----------------|
|00 01 02 03 04 05 06 07 08 09 0A 0B 0C 0D 0E 0F |0123456789ABCDEF|
|------------------------------------------------|----------------|
|00 04 11 62 00 2B 00 00 00 16 01 0C 00 00 EC 22 |...b.+........."|                                                
-------------------------------------------------------------------
[Server] packet : (0x72) F_CREATE_MONSTER  Size = 126 
|------------------------------------------------|----------------|
|00 01 02 03 04 05 06 07 08 09 0A 0B 0C 0D 0E 0F |0123456789ABCDEF|
|------------------------------------------------|----------------|
|00 7B 72 01 0C 00 00 0A 5B 42 78 00 06 A2 9A 00 |.{r.....[Bx.....|
|02 1D DA 00 00 06 06 32 18 80 00 00 00 00 72 00 |.......2......r.|
|00 01 00 03 E8 00 00 00 00 B7 F3 00 08 00 00 01 |................|
|19 00 41 6E 63 69 65 6E 74 20 57 61 6C 6B 65 72 |..Ancient Walker|
|5E 6D 00 00 00 00 08 01 0A 00 00 00 12 1D 00 01 |^m..............|
|0C 62 9A 9D DA 42 78 64 00 A1 00 00 00 00 08 5B |.b...Bxd.......[|
|0A 01 0C 00 06 00 14 11 5A 00 15 11 5C 00 16 11 |........Z...\...|
|5B 00 17 11 5E 00 18 11 5D 00 1C 11 59 00       |..............  |
-------------------------------------------------------------------
[Client] packet : (0xD2) F_INTERACT  Size = 24 
|------------------------------------------------|----------------|
|00 01 02 03 04 05 06 07 08 09 0A 0B 0C 0D 0E 0F |0123456789ABCDEF|
|------------------------------------------------|----------------|
|00 0C 11 65 00 2B 00 00 00 D2 00 00 03 8B 00 09 |...e.+..........|
|00 00 00 00 00 00 00 00                         |........        |
-------------------------------------------------------------------
[Server] packet : (0xBF) F_INIT_STORE  Size = 235 
|------------------------------------------------|----------------|
|00 01 02 03 04 05 06 07 08 09 0A 0B 0C 0D 0E 0F |0123456789ABCDEF|
|------------------------------------------------|----------------|
|00 E8 BF 00 00 00 02 01 00 00 00 00 03 00 00 06 |................|
|59 00 00 02 E2 05 02 F9 00 00 00 00 00 00 00 00 |Y...............|
|00 1B 00 28 00 00 00 03 00 00 00 00 00 00 00 84 |...(............|
|00 00 00 00 02 8A 00 14 00 01 00 00 00 00 00 00 |................|
|00 00 00 00 00 00 11 53 6C 61 61 6E 65 73 68 20 |.......Slaanesh |
|50 69 6E 6B 20 44 79 65 00 00 00 00 00 00 00 00 |Pink Dye........|
|01 00 00 03 00 00 08 00 00 00 00 00 00 00 00 00 |................|
|00 00 00 00 00 00 00 00 00 00 00 01 03 00 00 06 |................|
|59 00 00 02 E2 06 02 F9 00 00 00 00 00 00 00 00 |Y...............|
|00 1B 00 28 00 00 00 03 00 00 00 00 00 00 00 27 |...(...........'|
|00 00 00 00 02 8A 00 14 00 01 00 00 00 00 00 00 |................|
|00 00 00 00 00 00 10 4C 69 67 68 74 20 50 75 72 |.......Light Pur|
|70 6C 65 20 44 79 65 00 00 00 00 00 00 00 00 01 |ple Dye.........|
|00 00 03 00 00 08 00 00 00 00 00 00 00 00 00 00 |................|
|00 00 00 00 00 00 00 00 00 00 00                |...........     |
-------------------------------------------------------------------
[Server] packet : (0xC0) F_STORE_BUY_BACK  Size = 5 
|------------------------------------------------|----------------|
|00 01 02 03 04 05 06 07 08 09 0A 0B 0C 0D 0E 0F |0123456789ABCDEF|
|------------------------------------------------|----------------|
|00 02 C0 00 00                                  |.....           |
-------------------------------------------------------------------
[Client] packet : (0x01) UNKNOWN  Size = 32 
|------------------------------------------------|----------------|
|00 01 02 03 04 05 06 07 08 09 0A 0B 0C 0D 0E 0F |0123456789ABCDEF|
|------------------------------------------------|----------------|
|00 14 11 68 00 2B 00 00 00 01 00 0E 4F 0A 20 07 |...h.+......O. .|
|2A 68 90 38 40 04 00 23 3D B1 08 18 F9 5B 27 2C |*h.8@..#=....[',|                                                
-------------------------------------------------------------------
[Server] packet : (0x00) UNKNOWN  Size = 23 
|------------------------------------------------|----------------|
|00 01 02 03 04 05 06 07 08 09 0A 0B 0C 0D 0E 0F |0123456789ABCDEF|
|------------------------------------------------|----------------|
|00 14 00 00 0E 4F 0A 7C AF 1F F0 00 00 00 00 00 |.....O.|........|
|23 3D B1 08 18 F9 00                            |.......         |
-------------------------------------------------------------------
[Client] packet : (0x86) F_MAIL  Size = 16 
|------------------------------------------------|----------------|
|00 01 02 03 04 05 06 07 08 09 0A 0B 0C 0D 0E 0F |0123456789ABCDEF|
|------------------------------------------------|----------------|
|00 04 11 6D 00 2B FF FF 00 86 00 00 00 00 00 00 |...m.+..........|                                                
-------------------------------------------------------------------
[Client] packet : (0x0B) F_PING  Size = 32 
|------------------------------------------------|----------------|
|00 01 02 03 04 05 06 07 08 09 0A 0B 0C 0D 0E 0F |0123456789ABCDEF|
|------------------------------------------------|----------------|
|00 14 11 6F 00 2B 00 00 00 0B 00 0E 5B A9 1F 98 |...o.+......[...|
|15 84 45 81 82 00 00 00 00 00 00 00 00 00 20 83 |..E........... .|                                                
-------------------------------------------------------------------
[Server] packet : (0x81) S_PONG  Size = 23 
|------------------------------------------------|----------------|
|00 01 02 03 04 05 06 07 08 09 0A 0B 0C 0D 0E 0F |0123456789ABCDEF|
|------------------------------------------------|----------------|
|00 14 81 00 0E 5B A9 52 75 8D 15 00 00 00 00 00 |.....[.Ru.......|
|00 11 70 00 00 00 00                            |.......         |
-------------------------------------------------------------------