
[Client] packet : (0x0B) F_PING  Size = 32 
|------------------------------------------------|----------------|
|00 01 02 03 04 05 06 07 08 09 0A 0B 0C 0D 0E 0F |0123456789ABCDEF|
|------------------------------------------------|----------------|
|00 14 07 F6 00 2F 00 00 00 0B 00 07 9E 9E C7 77 |...../.........w|
|FD B5 3A FD DB 5E 00 00 00 00 00 00 00 00 6F 58 |..:..^........oX|                                                
-------------------------------------------------------------------
[Server] packet : (0x81) S_PONG  Size = 23 
|------------------------------------------------|----------------|
|00 01 02 03 04 05 06 07 08 09 0A 0B 0C 0D 0E 0F |0123456789ABCDEF|
|------------------------------------------------|----------------|
|00 14 81 00 07 9E 9E 52 77 49 17 00 00 00 00 00 |.......RwI......|
|00 07 F7 00 00 00 00                            |.......         |
-------------------------------------------------------------------
[Client] packet : (0x7D) F_REQUEST_INIT_PLAYER  Size = 14 
|------------------------------------------------|----------------|
|00 01 02 03 04 05 06 07 08 09 0A 0B 0C 0D 0E 0F |0123456789ABCDEF|
|------------------------------------------------|----------------|
|00 02 07 F8 00 2F 00 00 00 7D 00 34 00 00       |..............  |
-------------------------------------------------------------------
[Server] packet : (0xE3) F_CREATE_PLAYER  Size = 92 
|------------------------------------------------|----------------|
|00 01 02 03 04 05 06 07 08 09 0A 0B 0C 0D 0E 0F |0123456789ABCDEF|
|------------------------------------------------|----------------|
|00 59 E3 00 34 19 9A 00 2A 00 18 44 34 00 A1 7A |.Y..4...*..D4..z|
|81 C2 99 05 64 28 00 02 08 00 00 01 05 03 01 03 |....d(..........|
|06 00 04 00 00 00 00 00 00 00 00 00 00 00 00 05 |................|
|01 5C 64 00 00 0E 2C 00 00 00 00 08 4C 6F 6C 6C |.\d...,.....Loll|
|74 68 5E 46 0A 4C 6F 6C 6C 69 70 6F 70 5E 4D 08 |th^F.Lollipop^M.|
|4E 65 63 72 6F 73 69 73 00 00 00 00             |............    |
-------------------------------------------------------------------
[Client] packet : (0x16) F_REQUEST_INIT_OBJECT  Size = 16 
|------------------------------------------------|----------------|
|00 01 02 03 04 05 06 07 08 09 0A 0B 0C 0D 0E 0F |0123456789ABCDEF|
|------------------------------------------------|----------------|
|00 04 07 FB 00 2F 00 00 00 16 03 83 00 00 4A 00 |...../........J.|                                                
-------------------------------------------------------------------
[Client] packet : (0x16) F_REQUEST_INIT_OBJECT  Size = 16 
|------------------------------------------------|----------------|
|00 01 02 03 04 05 06 07 08 09 0A 0B 0C 0D 0E 0F |0123456789ABCDEF|
|------------------------------------------------|----------------|
|00 04 07 FC 00 2F 00 00 00 16 03 84 00 00 AC B4 |...../..........|                                                
-------------------------------------------------------------------
[Server] packet : (0x72) F_CREATE_MONSTER  Size = 133 
|------------------------------------------------|----------------|
|00 01 02 03 04 05 06 07 08 09 0A 0B 0C 0D 0E 0F |0123456789ABCDEF|
|------------------------------------------------|----------------|
|00 82 72 03 83 00 EB 03 BD 41 6C 00 06 CE A4 00 |..r......Al.....|
|02 52 59 00 00 04 C1 32 01 80 00 00 00 00 00 00 |.RY....2........|
|00 01 00 03 E8 00 00 00 00 BC 62 00 02 00 00 01 |..........b.....|
|19 00 42 6C 6F 6F 64 79 20 53 75 6E 20 53 69 65 |..Bloody Sun Sie|
|67 65 20 43 72 65 77 5E 6D 00 00 00 00 0F 01 0A |ge Crew^m.......|
|00 00 00 1A 15 00 03 83 8E A4 D2 59 41 6C 64 01 |...........YAld.|
|A1 00 00 00 00 0F EB 00 00 C0 8D 71 D2 6E 41 A1 |...........q.nA.|
|03 83 02 04 00 0B 04 07 00 14 0B CC 00 16 09 04 |................|
|00 18 0B E3 00                                  |.....           |
-------------------------------------------------------------------
[Server] packet : (0x72) F_CREATE_MONSTER  Size = 133 
|------------------------------------------------|----------------|
|00 01 02 03 04 05 06 07 08 09 0A 0B 0C 0D 0E 0F |0123456789ABCDEF|
|------------------------------------------------|----------------|
|00 82 72 03 84 00 EB 03 BD 41 6E 00 06 CE 70 00 |..r......An...p.|
|02 52 5F 00 00 04 C1 32 01 80 00 00 00 00 00 00 |.R_....2........|
|00 01 00 03 E8 00 00 00 00 BC 62 00 03 00 00 01 |..........b.....|
|19 00 42 6C 6F 6F 64 79 20 53 75 6E 20 53 69 65 |..Bloody Sun Sie|
|67 65 20 43 72 65 77 5E 6D 00 00 00 00 0F 01 0A |ge Crew^m.......|
|00 00 00 1A 15 00 03 84 8E 70 D2 5F 41 6E 64 01 |.........p._And.|
|A1 00 00 00 00 0F EB 00 00 C0 8D 71 D2 6E 41 A1 |...........q.nA.|
|03 84 02 04 00 0B 04 07 00 14 0B CC 00 16 09 04 |................|
|00 18 0B E3 00                                  |.....           |
-------------------------------------------------------------------
[Client] packet : (0xD2) F_INTERACT  Size = 24 
|------------------------------------------------|----------------|
|00 01 02 03 04 05 06 07 08 09 0A 0B 0C 0D 0E 0F |0123456789ABCDEF|
|------------------------------------------------|----------------|
|00 0C 08 00 00 2F 00 00 00 D2 00 00 04 20 00 00 |...../....... ..|
|00 00 00 00 00 00 00 00                         |........        |
-------------------------------------------------------------------
[Server] packet : (0x7E) F_SET_ABILITY_TIMER  Size = 15 
|------------------------------------------------|----------------|
|00 01 02 03 04 05 06 07 08 09 0A 0B 0C 0D 0E 0F |0123456789ABCDEF|
|------------------------------------------------|----------------|
|00 0C 7E 00 01 01 00 00 00 00 00 00 00 00 00    |............... |
-------------------------------------------------------------------
[Server] packet : (0xE9) F_INTERACT_RESPONSE  Size = 11 
|------------------------------------------------|----------------|
|00 01 02 03 04 05 06 07 08 09 0A 0B 0C 0D 0E 0F |0123456789ABCDEF|
|------------------------------------------------|----------------|
|00 08 E9 00 04 20 00 00 00 02 00                |...........     |
-------------------------------------------------------------------
[Client] packet : (0xD2) F_INTERACT  Size = 24 
|------------------------------------------------|----------------|
|00 01 02 03 04 05 06 07 08 09 0A 0B 0C 0D 0E 0F |0123456789ABCDEF|
|------------------------------------------------|----------------|
|00 0C 08 02 00 2F 00 00 00 D2 00 00 04 20 00 09 |...../....... ..|
|00 00 00 00 00 00 1F BA                         |........        |
-------------------------------------------------------------------
[Server] packet : (0xBF) F_INIT_STORE  Size = 2550 
|------------------------------------------------|----------------|
|00 01 02 03 04 05 06 07 08 09 0A 0B 0C 0D 0E 0F |0123456789ABCDEF|
|------------------------------------------------|----------------|
|09 F3 BF 00 00 00 0B 01 01 00 00 00 03 00 00 00 |................|
|00 00 00 07 EF 5C 0F 13 00 00 00 00 00 00 00 00 |.....\..........|
|1A 00 00 00 00 00 01 03 00 00 00 00 00 00 00 00 |................|
|00 00 00 00 00 00 00 01 00 01 00 00 00 00 00 00 |................|
|00 00 00 00 00 00 15 4C 65 64 67 65 72 20 6F 66 |.......Ledger of|
|20 4C 65 61 72 6E 65 64 6E 65 73 73 00 01 33 BD | Learnedness..3.|
|00 00 00 00 00 00 00 00 51 45 71 75 69 70 3A 20 |........QEquip: |
|74 68 69 73 20 62 6F 6F 6B 20 77 69 6C 6C 20 64 |this book will d|
|6F 75 62 6C 65 20 65 78 70 65 72 69 65 6E 63 65 |ouble experience|
|20 67 61 69 6E 65 64 20 66 72 6F 6D 20 6B 69 6C | gained from kil|
|6C 69 6E 67 20 6D 6F 6E 73 74 65 72 73 20 61 6E |ling monsters an|
|64 20 70 6C 61 79 65 72 73 2E 01 01 00 00 03 04 |d players.......|
|60 00 00 00 00 00 00 00 00 00 00 00 00 00 00 00 |`...............|
|00 70 80 00 00 01 00 03 2E 56 22 B9 09 57 61 72 |.p.......V"..War|
|20 43 72 65 73 74 00 64 00 00 00 00 00 00 00 00 | Crest.d........|
|00 00 00 00 00 00 00 00 00 00 01 03 00 00 00 00 |................|
|00 00 07 EF 5D 0F B5 00 00 00 00 00 00 00 00 1A |....]...........|
|00 00 00 00 00 01 03 00 00 00 00 00 00 00 00 00 |................|
|00 00 00 00 00 00 01 00 01 00 00 00 00 00 00 00 |................|
|00 00 00 00 00 1A 53 74 61 72 73 77 69 72 6C 20 |......Starswirl |
|54 72 65 61 74 69 73 65 20 6F 6E 20 54 69 6D 65 |Treatise on Time|
|00 01 33 BE 00 00 00 00 00 00 00 00 4F 45 71 75 |..3.........OEqu|
|69 70 3A 20 74 68 69 73 20 62 6F 6F 6B 20 77 69 |ip: this book wi|
|6C 6C 20 73 74 6F 70 20 65 78 70 65 72 69 65 6E |ll stop experien|
|63 65 20 67 61 69 6E 65 64 20 66 72 6F 6D 20 6B |ce gained from k|
|69 6C 6C 69 6E 67 20 6D 6F 6E 73 74 65 72 73 20 |illing monsters |
|61 6E 64 20 70 6C 61 79 65 72 73 2E 01 01 00 00 |and players.....|
|03 04 60 02 00 00 00 00 00 00 00 00 00 00 00 00 |..`.............|
|00 00 00 00 00 00 00 01 00 03 2E 56 22 B9 09 57 |...........V"..W|
|61 72 20 43 72 65 73 74 00 64 00 00 00 00 00 00 |ar Crest.d......|
|00 00 00 00 00 00 00 00 00 00 00 00 02 03 00 00 |................|
|00 00 00 00 07 EF 5E 0F 5F 00 00 00 00 00 00 00 |......^._.......|
|00 1A 00 00 00 00 00 01 03 00 00 00 00 00 00 00 |................|
|00 00 00 00 00 00 00 00 01 00 01 00 00 00 00 00 |................|
|00 00 00 00 00 00 00 10 42 65 63 6F 6D 69 6E 67 |........Becoming|
|20 50 6F 70 75 6C 61 72 00 01 33 BF 00 00 00 00 | Popular..3.....|
|00 00 00 00 40 45 71 75 69 70 3A 20 74 68 69 73 |....@Equip: this|
|20 62 6F 6F 6B 20 77 69 6C 6C 20 64 6F 75 62 6C | book will doubl|
|65 20 72 65 6E 6F 77 6E 20 67 61 69 6E 65 64 20 |e renown gained |
|66 72 6F 6D 20 6B 69 6C 6C 69 6E 67 20 70 6C 61 |from killing pla|
|79 65 72 73 2E 01 01 00 00 03 04 60 02 00 00 00 |yers.......`....|
|00 00 00 00 00 00 00 00 00 00 00 00 70 80 00 00 |............p...|
|01 00 03 2E 56 22 B9 09 57 61 72 20 43 72 65 73 |....V"..War Cres|
|74 00 64 00 00 00 00 00 00 00 00 00 00 00 00 00 |t.d.............|
|00 00 00 00 00 03 03 00 00 00 00 00 00 07 EF 5F |..............._|
|11 C0 00 00 00 00 00 00 00 00 1A 00 00 00 00 00 |................|
|01 03 00 00 00 00 00 00 00 00 00 00 00 00 00 00 |................|
|00 01 00 01 00 00 00 00 00 00 00 00 00 00 00 00 |................|
|22 44 65 6C 61 6E 63 69 65 27 73 20 47 75 69 64 |"Delancie's Guid|
|65 20 74 6F 20 50 75 62 6C 69 63 20 41 66 66 61 |e to Public Affa|
|69 72 73 00 01 33 C0 00 00 00 00 00 00 00 00 50 |irs..3.........P|
|45 71 75 69 70 3A 20 74 68 69 73 20 62 6F 6F 6B |Equip: this book|
|20 77 69 6C 6C 20 64 6F 75 62 6C 65 20 69 6E 66 | will double inf|
|6C 75 65 6E 63 65 20 67 61 69 6E 65 64 20 66 72 |luence gained fr|
|6F 6D 20 6B 69 6C 6C 69 6E 67 20 6D 6F 6E 73 74 |om killing monst|
|65 72 73 20 61 6E 64 20 70 6C 61 79 65 72 73 2E |ers and players.|
|01 01 00 00 03 04 60 02 00 00 00 00 00 00 00 00 |......`.........|
|00 00 00 00 00 00 00 70 80 00 00 01 00 03 2E 56 |.......p.......V|
|22 B9 09 57 61 72 20 43 72 65 73 74 00 64 00 00 |"..War Crest.d..|
|00 00 00 00 00 00 00 00 00 00 00 00 00 00 00 00 |................|
|04 03 00 00 18 E2 00 00 1E 85 48 1F 95 00 00 00 |..........H.....|
|00 00 00 00 00 1B 00 28 34 00 00 00 04 00 00 00 |.......(4.......|
|00 00 00 00 00 00 00 00 00 09 F4 00 01 00 01 00 |................|
|00 00 00 00 00 00 00 00 00 00 00 19 46 75 6E 65 |............Fune|
|72 61 72 79 20 53 68 72 6F 75 64 20 6F 66 20 4B |rary Shroud of K|
|68 75 74 65 70 03 0E 00 AC 00 00 00 00 00 10 00 |hutep...........|
|AC 00 00 00 00 00 0F 00 AC 00 00 00 00 00 00 01 |................|
|00 00 3B 4B 00 78 00 00 00 00 03 00 00 00 00 00 |..;K.x..........|
|00 00 00 00 00 00 00 00 01 01 00 00 03 0E 23 00 |..............#.|
|00 00 00 00 00 00 00 00 00 00 00 00 01 02 15 01 |................|
|6C C8 01 01 01 02 00 00 00 00 00 00 01 00 03 2E |l...............|
|56 22 B9 09 57 61 72 20 43 72 65 73 74 9C 40 00 |V"..War Crest.@.|
|00 00 00 00 00 00 00 00 00 00 00 00 00 00 00 00 |................|
|00 05 03 00 00 18 E2 00 00 1E 85 49 1F 9B 00 00 |...........I....|
|00 00 00 00 00 00 1B 00 28 34 00 00 00 04 00 00 |........(4......|
|00 00 00 00 00 00 00 00 00 00 09 F4 00 01 00 01 |................|
|00 00 00 00 00 00 00 00 00 00 00 00 19 46 75 6E |.............Fun|
|65 72 61 72 79 20 53 68 72 6F 75 64 20 6F 66 20 |erary Shroud of |
|53 65 74 74 72 61 03 0E 00 AC 00 00 00 00 00 10 |Settra..........|
|00 AC 00 00 00 00 00 0F 00 AC 00 00 00 00 00 00 |................|
|01 00 00 3B 4C 01 90 00 00 00 00 03 00 00 00 00 |...;L...........|
|00 00 00 00 00 00 00 00 00 01 01 00 00 03 0E 23 |...............#|
|00 00 00 00 00 00 00 00 00 00 00 00 00 01 02 15 |................|
|01 6C C8 01 01 01 02 00 00 00 00 00 00 01 00 03 |.l..............|
|2E 56 22 B9 09 57 61 72 20 43 72 65 73 74 9C 40 |.V"..War Crest.@|
|00 00 00 00 00 00 00 00 00 00 00 00 00 00 00 00 |................|
|00 00 06 03 00 00 18 E2 00 00 1E 85 4A 1F 9A 00 |............J...|
|00 00 00 00 00 00 00 1B 00 28 34 00 00 00 04 00 |.........(4.....|
|00 00 00 00 00 00 00 00 00 00 00 09 F4 00 01 00 |................|
|01 00 00 00 00 00 00 00 00 00 00 00 00 1A 46 75 |..............Fu|
|6E 65 72 61 72 79 20 53 68 72 6F 75 64 20 6F 66 |nerary Shroud of|
|20 4B 68 61 6C 69 64 61 03 0E 00 AC 00 00 00 00 | Khalida........|
|00 10 00 AC 00 00 00 00 00 0F 00 AC 00 00 00 00 |................|
|00 00 01 00 00 3B 5B 01 90 00 00 00 00 03 00 00 |.....;[.........|
|00 00 00 00 00 00 00 00 00 00 00 01 01 00 00 03 |................|
|0E 23 00 00 00 00 00 00 00 00 00 00 00 00 00 01 |.#..............|
|02 15 01 6C C8 01 01 01 02 00 00 00 00 00 00 01 |...l............|
|00 03 2E 56 22 B9 09 57 61 72 20 43 72 65 73 74 |...V"..War Crest|
|9C 40 00 00 00 00 00 00 00 00 00 00 00 00 00 00 |.@..............|
|00 00 00 00 07 03 00 00 00 00 00 00 03 2E 49 0F |..............I.|
|A1 00 00 00 00 00 00 00 00 00 24 00 00 00 00 00 |..........$.....|
|03 00 00 00 00 00 00 00 00 00 00 00 00 00 00 27 |...............'|
|0F 00 01 00 00 00 00 00 00 00 00 00 00 00 00 16 |................|
|50 72 6F 66 65 73 73 69 6F 6E 61 6C 20 48 65 61 |Professional Hea|
|64 20 53 68 6F 74 00 00 00 00 00 00 6C 54 68 69 |d Shot......lThi|
|73 20 65 78 61 6D 70 6C 65 20 6F 66 20 62 65 61 |s example of bea|
|75 74 79 20 63 61 6E 20 62 65 20 74 75 72 6E 65 |uty can be turne|
|64 20 69 6E 20 61 74 20 61 20 42 61 72 62 65 72 |d in at a Barber|
|73 68 6F 70 20 74 6F 20 61 64 6A 75 73 74 20 74 |shop to adjust t|
|68 65 20 70 68 79 73 69 63 61 6C 20 61 70 70 65 |he physical appe|
|61 72 61 6E 63 65 20 6F 66 20 79 6F 75 72 20 63 |arance of your c|
|68 61 72 61 63 74 65 72 2E 01 01 00 00 03 06 00 |haracter........|
|08 00 00 00 00 00 00 00 00 00 00 00 00 00 00 00 |................|
|00 00 00 00 01 00 03 2E 56 22 B9 09 57 61 72 20 |........V"..War |
|43 72 65 73 74 03 E8 00 00 00 00 00 00 00 00 00 |Crest...........|
|00 00 00 00 00 00 00 00 00 08 00 00 00 00 2A 00 |..............*.|
|00 03 24 C6 1B 7A 00 00 00 00 00 00 00 00 00 00 |..$..z..........|
|01 01 00 00 00 04 00 29 00 00 00 00 00 00 00 00 |.......)........|
|00 00 00 11 00 01 00 01 00 00 00 00 00 00 00 00 |................|
|00 00 00 00 0B 43 61 6C 6C 20 74 6F 20 57 41 52 |.....Call to WAR|
|00 00 01 00 05 3B 45 00 00 00 00 00 00 00 1F 52 |.....;E........R|
|69 67 68 74 2D 63 6C 69 63 6B 20 6F 6E 20 69 74 |ight-click on it|
|65 6D 20 74 6F 20 61 63 74 69 76 61 74 65 01 01 |em to activate..|
|00 05 03 06 20 08 00 00 00 00 00 00 00 00 00 00 |.... ...........|
|00 00 00 00 00 00 00 00 00 01 00 03 2E 56 22 B9 |.............V".|
|09 57 61 72 20 43 72 65 73 74 00 64 00 00 00 00 |.War Crest.d....|
|00 00 00 00 00 00 00 00 00 00 00 00 00 00 09 03 |................|
|00 00 00 2A 00 00 03 24 C7 1B 7A 00 00 00 00 00 |...*...$..z.....|
|00 00 00 00 00 01 01 00 00 00 04 00 56 00 00 00 |............V...|
|00 00 00 00 00 00 00 00 11 00 01 00 01 00 00 00 |................|
|00 00 00 00 00 00 00 00 00 0B 43 61 6C 6C 20 74 |..........Call t|
|6F 20 57 41 52 00 00 01 00 05 3B 46 00 00 00 00 |o WAR.....;F....|
|00 00 00 1F 52 69 67 68 74 2D 63 6C 69 63 6B 20 |....Right-click |
|6F 6E 20 69 74 65 6D 20 74 6F 20 61 63 74 69 76 |on item to activ|
|61 74 65 01 01 00 05 03 06 20 08 00 00 00 00 00 |ate...... ......|
|00 00 00 00 00 00 00 00 00 00 00 00 00 00 01 00 |................|
|03 2E 56 22 B9 09 57 61 72 20 43 72 65 73 74 00 |..V"..War Crest.|
|64 00 00 00 00 00 00 00 00 00 00 00 00 00 00 00 |d...............|
|00 00 00 0A 03 00 00 07 53 00 00 01 00 72 12 4F |........S....r.O|
|00 00 00 00 00 00 00 00 00 00 00 28 00 00 00 05 |...........(....|
|00 00 00 00 00 00 00 00 00 00 00 00 02 EE 00 0A |................|
|00 01 00 00 00 00 00 00 00 00 00 00 00 00 0E 42 |...............B|
|75 72 6E 69 6E 67 20 45 6C 69 78 69 72 00 00 01 |urning Elixir...|
|00 01 5D B5 07 08 00 00 00 00 00 B9 53 6D 75 67 |..].........Smug|
|67 6C 65 64 20 6F 75 74 20 66 72 6F 6D 20 74 68 |gled out from th|
|65 20 64 65 65 70 65 73 74 20 72 65 63 65 73 73 |e deepest recess|
|65 73 20 6F 66 20 74 68 65 20 42 72 69 67 68 74 |es of the Bright|
|20 57 69 7A 61 72 64 20 43 6F 6C 6C 65 67 65 2C | Wizard College,|
|20 74 68 69 73 20 73 74 72 61 6E 67 65 20 67 6C | this strange gl|
|6F 77 69 6E 67 20 6C 69 71 75 69 64 20 73 65 65 |owing liquid see|
|6D 73 20 74 6F 20 62 75 62 62 6C 65 20 61 6E 64 |ms to bubble and|
|20 63 68 75 72 6E 20 6F 66 20 69 74 73 20 6F 77 | churn of its ow|
|6E 20 61 63 63 6F 72 64 2E 0A 0A 45 61 63 68 20 |n accord...Each |
|76 69 6C 65 20 63 6F 6E 74 61 69 6E 73 20 65 6E |vile contains en|
|6F 75 67 68 20 66 6C 75 69 64 20 66 6F 72 20 31 |ough fluid for 1|
|20 75 73 65 2E 00 01 00 01 03 02 60 00 00 00 00 | use.......`....|
|00 00 00 00 00 00 00 00 00 00 00 00 00 00 00 00 |................|
|01 00 03 2E 56 22 B9 09 57 61 72 20 43 72 65 73 |....V"..War Cres|
|74 00 FA 00 00 00 00 00 00 00 00 00 00 00 00 00 |t...............|
|00 00 00 00 00 00                               |......          |
-------------------------------------------------------------------
[Server] packet : (0xBF) F_INIT_STORE  Size = 1617 
|------------------------------------------------|----------------|
|00 01 02 03 04 05 06 07 08 09 0A 0B 0C 0D 0E 0F |0123456789ABCDEF|
|------------------------------------------------|----------------|
|06 4E BF 00 00 01 0B 00 01 00 00 03 00 01 86 A0 |.N..............|
|00 00 02 E1 F5 02 41 00 00 00 00 00 00 00 00 00 |......A.........|
|1B 00 01 00 00 00 04 00 00 00 00 00 00 00 B5 00 |................|
|00 00 00 9C 40 00 14 00 01 00 00 00 00 00 00 00 |....@...........|
|00 00 00 00 00 0F 43 68 61 6F 73 20 42 6C 61 63 |......Chaos Blac|
|6B 20 44 79 65 00 00 00 00 00 00 00 00 01 00 00 |k Dye...........|
|03 02 20 08 00 00 00 00 00 00 00 00 00 00 00 00 |.. .............|
|00 00 00 00 00 00 00 01 00 03 2E 56 22 B9 09 57 |...........V"..W|
|61 72 20 43 72 65 73 74 03 20 00 00 00 00 00 00 |ar Crest. ......|
|00 00 00 00 00 00 00 00 00 00 00 00 01 03 00 01 |................|
|86 A0 00 00 02 E1 F3 02 41 00 00 00 00 00 00 00 |........A.......|
|00 00 1B 00 01 00 00 00 04 00 00 00 00 00 00 00 |................|
|B4 00 00 00 00 9C 40 00 14 00 01 00 00 00 00 00 |......@.........|
|00 00 00 00 00 00 00 0F 53 6B 75 6C 6C 20 57 68 |........Skull Wh|
|69 74 65 20 44 79 65 00 00 00 00 00 00 00 00 01 |ite Dye.........|
|00 00 03 02 00 08 00 00 00 00 00 00 00 00 00 00 |................|
|00 00 00 00 00 00 00 00 00 01 00 03 2E 56 22 B9 |.............V".|
|09 57 61 72 20 43 72 65 73 74 03 20 00 00 00 00 |.War Crest. ....|
|00 00 00 00 00 00 00 00 00 00 00 00 00 00 02 03 |................|
|00 00 C3 50 00 00 02 E1 E6 02 4D 00 00 00 00 00 |...P......M.....|
|00 00 00 00 1B 00 01 00 00 00 03 00 00 00 00 00 |................|
|00 00 D5 00 00 00 00 4E 20 00 14 00 01 00 00 00 |.......N .......|
|00 00 00 00 00 00 00 00 00 0D 41 7A 79 72 20 42 |..........Azyr B|
|6C 75 65 20 44 79 65 00 00 00 00 00 00 00 00 01 |lue Dye.........|
|00 00 03 02 00 08 00 00 00 00 00 00 00 00 00 00 |................|
|00 00 00 00 00 00 00 00 00 01 00 03 2E 56 22 B9 |.............V".|
|09 57 61 72 20 43 72 65 73 74 01 90 00 00 00 00 |.War Crest......|
|00 00 00 00 00 00 00 00 00 00 00 00 00 00 03 03 |................|
|00 00 04 E2 00 00 02 E1 E8 02 BD 00 00 00 00 00 |................|
|00 00 00 00 1B 00 01 00 00 00 01 00 00 00 00 00 |................|
|00 00 CD 00 00 00 00 01 F4 00 14 00 01 00 00 00 |................|
|00 00 00 00 00 00 00 00 00 10 47 6F 62 6C 69 6E |..........Goblin|
|20 47 72 65 65 6E 20 44 79 65 00 00 00 00 00 00 | Green Dye......|
|00 00 01 00 00 03 02 00 08 00 00 00 00 00 00 00 |................|
|00 00 00 00 00 00 00 00 00 00 00 00 01 00 03 2E |................|
|56 22 B9 09 57 61 72 20 43 72 65 73 74 00 0A 00 |V"..War Crest...|
|00 00 00 00 00 00 00 00 00 00 00 00 00 00 00 00 |................|
|00 04 03 00 00 01 F4 00 00 02 E1 E9 02 C9 00 00 |................|
|00 00 00 00 00 00 00 1B 00 01 00 00 00 01 00 00 |................|
|00 00 00 00 00 C5 00 00 00 00 00 C8 00 14 00 01 |................|
|00 00 00 00 00 00 00 00 00 00 00 00 10 42 72 61 |.............Bra|
|7A 65 6E 20 42 72 61 73 73 20 44 79 65 00 00 00 |zen Brass Dye...|
|00 00 00 00 00 01 00 00 03 02 00 08 00 00 00 00 |................|
|00 00 00 00 00 00 00 00 00 00 00 00 00 00 00 01 |................|
|00 03 2E 56 22 B9 09 57 61 72 20 43 72 65 73 74 |...V"..War Crest|
|00 04 00 00 00 00 00 00 00 00 00 00 00 00 00 00 |................|
|00 00 00 00 05 03 00 00 04 E2 00 00 02 E1 EE 02 |................|
|E1 00 00 00 00 00 00 00 00 00 1B 00 01 00 00 00 |................|
|01 00 00 00 00 00 00 00 BC 00 00 00 00 01 F4 00 |................|
|14 00 01 00 00 00 00 00 00 00 00 00 00 00 00 0C |................|
|52 65 64 20 47 6F 72 65 20 44 79 65 00 00 00 00 |Red Gore Dye....|
|00 00 00 00 01 00 00 03 02 00 08 00 00 00 00 00 |................|
|00 00 00 00 00 00 00 00 00 00 00 00 00 00 01 00 |................|
|03 2E 56 22 B9 09 57 61 72 20 43 72 65 73 74 00 |..V"..War Crest.|
|0A 00 00 00 00 00 00 00 00 00 00 00 00 00 00 00 |................|
|00 00 00 06 03 00 00 C3 50 00 00 02 E1 F6 02 4D |........P......M|
|00 00 00 00 00 00 00 00 00 1B 00 01 00 00 00 03 |................|
|00 00 00 00 00 00 00 D6 00 00 00 00 4E 20 00 14 |............N ..|
|00 01 00 00 00 00 00 00 00 00 00 00 00 00 12 45 |...............E|
|6E 63 68 61 6E 74 65 64 20 42 6C 75 65 20 44 79 |nchanted Blue Dy|
|65 00 00 00 00 00 00 00 00 01 00 00 03 02 00 08 |e...............|
|00 00 00 00 00 00 00 00 00 00 00 00 00 00 00 00 |................|
|00 00 00 01 00 03 2E 56 22 B9 09 57 61 72 20 43 |.......V"..War C|
|72 65 73 74 01 90 00 00 00 00 00 00 00 00 00 00 |rest............|
|00 00 00 00 00 00 00 00 07 03 00 00 C3 50 00 00 |.............P..|
|02 E1 F7 02 E1 00 00 00 00 00 00 00 00 00 1B 00 |................|
|01 00 00 00 03 00 00 00 00 00 00 00 BB 00 00 00 |................|
|00 4E 20 00 14 00 01 00 00 00 00 00 00 00 00 00 |.N .............|
|00 00 00 0D 42 6C 6F 6F 64 20 52 65 64 20 44 79 |....Blood Red Dy|
|65 00 00 00 00 00 00 00 00 01 00 00 03 02 00 08 |e...............|
|00 00 00 00 00 00 00 00 00 00 00 00 00 00 00 00 |................|
|00 00 00 01 00 03 2E 56 22 B9 09 57 61 72 20 43 |.......V"..War C|
|72 65 73 74 01 90 00 00 00 00 00 00 00 00 00 00 |rest............|
|00 00 00 00 00 00 00 00 08 03 00 00 C3 50 00 00 |.............P..|
|02 E1 F8 02 C9 00 00 00 00 00 00 00 00 00 1B 00 |................|
|01 00 00 00 03 00 00 00 00 00 00 00 C6 00 00 00 |................|
|00 4E 20 00 14 00 01 00 00 00 00 00 00 00 00 00 |.N .............|
|00 00 00 12 42 6C 61 7A 69 6E 67 20 4F 72 61 6E |....Blazing Oran|
|67 65 20 44 79 65 00 00 00 00 00 00 00 00 01 00 |ge Dye..........|
|00 03 02 00 08 00 00 00 00 00 00 00 00 00 00 00 |................|
|00 00 00 00 00 00 00 00 01 00 03 2E 56 22 B9 09 |............V"..|
|57 61 72 20 43 72 65 73 74 01 90 00 00 00 00 00 |War Crest.......|
|00 00 00 00 00 00 00 00 00 00 00 00 00 09 03 00 |................|
|00 01 F4 00 00 02 E1 FA 02 41 00 00 00 00 00 00 |.........A......|
|00 00 00 1B 00 01 00 00 00 01 00 00 00 00 00 00 |................|
|00 D0 00 00 00 00 00 C8 00 14 00 01 00 00 00 00 |................|
|00 00 00 00 00 00 00 00 0F 53 68 61 64 6F 77 20 |.........Shadow |
|47 72 65 79 20 44 79 65 00 00 00 00 00 00 00 00 |Grey Dye........|
|01 00 00 03 02 00 08 00 00 00 00 00 00 00 00 00 |................|
|00 00 00 00 00 00 00 00 00 00 01 00 03 2E 56 22 |..............V"|
|B9 09 57 61 72 20 43 72 65 73 74 00 04 00 00 00 |..War Crest.....|
|00 00 00 00 00 00 00 00 00 00 00 00 00 00 00 0A |................|
|03 00 00 01 F4 00 00 02 E1 FD 02 BD 00 00 00 00 |................|
|00 00 00 00 00 1B 00 01 00 00 00 01 00 00 00 00 |................|
|00 00 00 CC 00 00 00 00 00 C8 00 14 00 01 00 00 |................|
|00 00 00 00 00 00 00 00 00 00 0E 53 6E 6F 74 20 |...........Snot |
|47 72 65 65 6E 20 44 79 65 00 00 00 00 00 00 00 |Green Dye.......|
|00 01 00 00 03 02 00 08 00 00 00 00 00 00 00 00 |................|
|00 00 00 00 00 00 00 00 00 00 00 01 00 03 2E 56 |...............V|
|22 B9 09 57 61 72 20 43 72 65 73 74 00 04 00 00 |"..War Crest....|
|00 00 00 00 00 00 00 00 00 00 00 00 00 00 00 00 |................|
|00                                              |.               |
-------------------------------------------------------------------
[Server] packet : (0xC0) F_STORE_BUY_BACK  Size = 5 
|------------------------------------------------|----------------|
|00 01 02 03 04 05 06 07 08 09 0A 0B 0C 0D 0E 0F |0123456789ABCDEF|
|------------------------------------------------|----------------|
|00 02 C0 00 00                                  |.....           |
-------------------------------------------------------------------
[Client] packet : (0x5A) F_PING_DATAGRAM  Size = 13 
|------------------------------------------------|----------------|
|00 01 02 03 04 05 06 07 08 09 0A 0B 0C 0D 0E 0F |0123456789ABCDEF|
|------------------------------------------------|----------------|
|00 01 08 03 00 2F FF FF 00 5A 00 1D F6          |.............   |
-------------------------------------------------------------------
[Server] packet : (0x49) F_REMOVE_PLAYER  Size = 7 
|------------------------------------------------|----------------|
|00 01 02 03 04 05 06 07 08 09 0A 0B 0C 0D 0E 0F |0123456789ABCDEF|
|------------------------------------------------|----------------|
|00 04 49 19 9A 00 00                            |.......         |
-------------------------------------------------------------------
[Client] packet : (0x01) UNKNOWN  Size = 32 
|------------------------------------------------|----------------|
|00 01 02 03 04 05 06 07 08 09 0A 0B 0C 0D 0E 0F |0123456789ABCDEF|
|------------------------------------------------|----------------|
|00 14 08 04 00 2F 00 00 00 01 00 07 A3 F6 20 07 |...../........ .|
|2A 68 90 38 40 04 00 23 39 FE 08 18 FB 4F 00 00 |*h.8@..#9....O..|                                                
-------------------------------------------------------------------
[Server] packet : (0x00) UNKNOWN  Size = 23 
|------------------------------------------------|----------------|
|00 01 02 03 04 05 06 07 08 09 0A 0B 0C 0D 0E 0F |0123456789ABCDEF|
|------------------------------------------------|----------------|
|00 14 00 00 07 A3 F6 83 75 A0 1F 00 00 00 00 00 |........u.......|
|23 39 FE 08 18 FB 00                            |.......         |
-------------------------------------------------------------------
[Client] packet : (0x0B) F_PING  Size = 32 
|------------------------------------------------|----------------|
|00 01 02 03 04 05 06 07 08 09 0A 0B 0C 0D 0E 0F |0123456789ABCDEF|
|------------------------------------------------|----------------|
|00 14 08 08 00 2F 00 00 00 0B 00 07 B1 AE 58 77 |...../........Xw|
|BF F7 D8 FF C6 4B 00 00 00 00 00 00 00 00 6F 58 |.....K........oX|                                                
-------------------------------------------------------------------
[Server] packet : (0x81) S_PONG  Size = 23 
|------------------------------------------------|----------------|
|00 01 02 03 04 05 06 07 08 09 0A 0B 0C 0D 0E 0F |0123456789ABCDEF|
|------------------------------------------------|----------------|
|00 14 81 00 07 B1 AE 52 77 49 1C 00 00 00 00 00 |.......RwI......|
|00 08 09 00 00 00 00                            |.......         |
-------------------------------------------------------------------
[Client] packet : (0x86) F_MAIL  Size = 16 
|------------------------------------------------|----------------|
|00 01 02 03 04 05 06 07 08 09 0A 0B 0C 0D 0E 0F |0123456789ABCDEF|
|------------------------------------------------|----------------|
|00 04 08 0C 00 2F FF FF 00 86 00 00 00 00 00 00 |...../..........|                                                
-------------------------------------------------------------------
[Client] packet : (0x7D) F_REQUEST_INIT_PLAYER  Size = 14 
|------------------------------------------------|----------------|
|00 01 02 03 04 05 06 07 08 09 0A 0B 0C 0D 0E 0F |0123456789ABCDEF|
|------------------------------------------------|----------------|
|00 02 08 0D 00 2F 00 00 00 7D 00 1A B8 A6       |..............  |
-------------------------------------------------------------------
[Server] packet : (0xE3) F_CREATE_PLAYER  Size = 75 
|------------------------------------------------|----------------|
|00 01 02 03 04 05 06 07 08 09 0A 0B 0C 0D 0E 0F |0123456789ABCDEF|
|------------------------------------------------|----------------|
|00 48 E3 00 1A 2A 0F 00 1D 00 10 44 20 00 A1 7A |.H...*.....D ..z|
|36 C3 D7 0E 61 28 00 03 08 2C B3 08 0C 01 03 07 |6...a(...,......|
|02 00 00 00 00 00 00 00 00 00 00 00 00 00 00 07 |................|
|01 5B 64 00 00 00 00 00 00 00 00 07 4D 69 6C 79 |.[d.........Mily|
|6C 5E 46 02 5E 4D 00 00 00 00 00                |...........     |
-------------------------------------------------------------------
[Server] packet : (0xA3) F_ACTIVE_EFFECTS  Size = 45 
|------------------------------------------------|----------------|
|00 01 02 03 04 05 06 07 08 09 0A 0B 0C 0D 0E 0F |0123456789ABCDEF|
|------------------------------------------------|----------------|
|00 2A A3 2A 0F 03 2C 21 0F 2A 01 00 03 07 B8 26 |.*.*..,!.*.....&|
|DB 01 0F 2A 02 01 03 02 C0 87 FF 01 07 03 02 C0 |...*............|
|87 FF 01 2A 21 0F 2A 01 00 03 05 B6 00          |.............   |
-------------------------------------------------------------------
[Server] packet : (0xAE) F_MAGUS_DISC_UPDATE  Size = 7 
|------------------------------------------------|----------------|
|00 01 02 03 04 05 06 07 08 09 0A 0B 0C 0D 0E 0F |0123456789ABCDEF|
|------------------------------------------------|----------------|
|00 04 AE 2A 0F 18 00                            |.......         |
-------------------------------------------------------------------