
[Server] packet : (0x5E) F_SET_TARGET  Size = 9 
|------------------------------------------------|----------------|
|00 01 02 03 04 05 06 07 08 09 0A 0B 0C 0D 0E 0F |0123456789ABCDEF|
|------------------------------------------------|----------------|
|00 06 5E 2E 26 12 53 02 00                      |.........       |
-------------------------------------------------------------------
[Client] packet : (0x16) F_REQUEST_INIT_OBJECT  Size = 16 
|------------------------------------------------|----------------|
|00 01 02 03 04 05 06 07 08 09 0A 0B 0C 0D 0E 0F |0123456789ABCDEF|
|------------------------------------------------|----------------|
|00 04 B7 04 00 6E 00 00 00 16 2D B6 00 00 00 00 |.....n....-.....|                                                
-------------------------------------------------------------------
[Server] packet : (0x72) F_CREATE_MONSTER  Size = 121 
|------------------------------------------------|----------------|
|00 01 02 03 04 05 06 07 08 09 0A 0B 0C 0D 0E 0F |0123456789ABCDEF|
|------------------------------------------------|----------------|
|00 76 72 2D B6 00 00 08 7F 4F 46 00 15 A5 3D 00 |.vr-.....OF...=.|
|0B 1E 81 00 00 07 99 32 27 80 00 00 00 00 00 00 |.......2'.......|
|00 01 00 00 00 00 00 00 00 00 00 00 00 00 00 01 |................|
|19 00 42 6C 61 63 6B 2D 46 65 61 74 68 65 72 65 |..Black-Feathere|
|64 20 54 7A 65 65 6E 74 63 68 20 46 61 6D 69 6C |d Tzeentch Famil|
|69 61 72 5E 4E 00 00 00 00 03 01 0A 00 21 F2 12 |iar^N........!..|
|05 00 2D B6 25 3D 9E 81 4F 46 64 40 68 10 00 00 |..-.%=..OFd@h...|
|00 03 7F 08 2D B6 00 00 00                      |.........       |
-------------------------------------------------------------------
[Server] packet : (0x4F) F_MOUNT_UPDATE  Size = 23 
|------------------------------------------------|----------------|
|00 01 02 03 04 05 06 07 08 09 0A 0B 0C 0D 0E 0F |0123456789ABCDEF|
|------------------------------------------------|----------------|
|00 14 4F 34 BB 00 F7 00 00 00 00 00 00 00 00 00 |..O4............|
|00 00 00 00 00 00 00                            |.......         |
-------------------------------------------------------------------
[Server] packet : (0xBD) F_PLAYER_INVENTORY  Size = 12 
|------------------------------------------------|----------------|
|00 01 02 03 04 05 06 07 08 09 0A 0B 0C 0D 0E 0F |0123456789ABCDEF|
|------------------------------------------------|----------------|
|00 09 BD 1D C7 00 01 00 19 01 75 00             |............    |
-------------------------------------------------------------------
[Server] packet : (0x14) F_HIT_PLAYER  Size = 15 
|------------------------------------------------|----------------|
|00 01 02 03 04 05 06 07 08 09 0A 0B 0C 0D 0E 0F |0123456789ABCDEF|
|------------------------------------------------|----------------|
|00 0C 14 00 00 1D C7 00 00 2A BF 60 00 00 00    |............... |
-------------------------------------------------------------------
[Client] packet : (0x5A) F_PING_DATAGRAM  Size = 13 
|------------------------------------------------|----------------|
|00 01 02 03 04 05 06 07 08 09 0A 0B 0C 0D 0E 0F |0123456789ABCDEF|
|------------------------------------------------|----------------|
|00 01 B7 09 00 6E FF FF 00 5A 00 58 C7          |.............   |
-------------------------------------------------------------------
[Server] packet : (0x33) UNKNOWN  Size = 16 
|------------------------------------------------|----------------|
|00 01 02 03 04 05 06 07 08 09 0A 0B 0C 0D 0E 0F |0123456789ABCDEF|
|------------------------------------------------|----------------|
|00 0D 33 01 CC AF 25 07 23 1B AF 0B 4D A0 03 00 |..3...%.#...M...|                                                
-------------------------------------------------------------------
[Client] packet : (0x01) UNKNOWN  Size = 32 
|------------------------------------------------|----------------|
|00 01 02 03 04 05 06 07 08 09 0A 0B 0C 0D 0E 0F |0123456789ABCDEF|
|------------------------------------------------|----------------|
|00 14 B7 0B 00 6E 00 00 00 01 00 A1 DE 1C 00 00 |.....n..........|
|00 00 00 00 00 00 00 00 42 01 00 00 2B B4 00 00 |........B...+...|                                                
-------------------------------------------------------------------
[Server] packet : (0x49) F_REMOVE_PLAYER  Size = 7 
|------------------------------------------------|----------------|
|00 01 02 03 04 05 06 07 08 09 0A 0B 0C 0D 0E 0F |0123456789ABCDEF|
|------------------------------------------------|----------------|
|00 04 49 1A 70 00 00                            |.......         |
-------------------------------------------------------------------
[Server] packet : (0x00) UNKNOWN  Size = 23 
|------------------------------------------------|----------------|
|00 01 02 03 04 05 06 07 08 09 0A 0B 0C 0D 0E 0F |0123456789ABCDEF|
|------------------------------------------------|----------------|
|00 14 00 00 A1 DE 1C A6 1F EA C7 00 00 00 00 00 |................|
|00 42 01 00 00 2B 00                            |.......         |
-------------------------------------------------------------------
[Server] packet : (0xBD) F_PLAYER_INVENTORY  Size = 12 
|------------------------------------------------|----------------|
|00 01 02 03 04 05 06 07 08 09 0A 0B 0C 0D 0E 0F |0123456789ABCDEF|
|------------------------------------------------|----------------|
|00 09 BD 1D C7 00 01 00 19 00 00 00             |............    |
-------------------------------------------------------------------
[Server] packet : (0x5E) F_SET_TARGET  Size = 9 
|------------------------------------------------|----------------|
|00 01 02 03 04 05 06 07 08 09 0A 0B 0C 0D 0E 0F |0123456789ABCDEF|
|------------------------------------------------|----------------|
|00 06 5E 10 B6 34 BB 02 00                      |.........       |
-------------------------------------------------------------------
[Server] packet : (0x0A) F_OBJECT_DEATH  Size = 15 
|------------------------------------------------|----------------|
|00 01 02 03 04 05 06 07 08 09 0A 0B 0C 0D 0E 0F |0123456789ABCDEF|
|------------------------------------------------|----------------|
|00 0C 0A 1A 70 00 00 00 00 00 00 00 00 00 00    |............... |
-------------------------------------------------------------------
[Client] packet : (0x7D) F_REQUEST_INIT_PLAYER  Size = 14 
|------------------------------------------------|----------------|
|00 01 02 03 04 05 06 07 08 09 0A 0B 0C 0D 0E 0F |0123456789ABCDEF|
|------------------------------------------------|----------------|
|00 02 B7 13 00 6E 00 00 00 7D 00 23 00 00       |..............  |
-------------------------------------------------------------------
[Server] packet : (0xE3) F_CREATE_PLAYER  Size = 84 
|------------------------------------------------|----------------|
|00 01 02 03 04 05 06 07 08 09 0A 0B 0C 0D 0E 0F |0123456789ABCDEF|
|------------------------------------------------|----------------|
|00 51 E3 00 23 2E 26 00 2A 00 18 4C B9 00 68 22 |.Q..#.&.*..L..h"|
|B9 B2 CA 00 3A 0F 00 03 0A 00 00 00 00 00 00 00 |....:...........|
|00 00 00 00 00 00 00 00 00 00 00 00 00 00 00 05 |................|
|01 0A 64 00 00 10 86 00 00 00 00 09 57 61 72 65 |..d.........Ware|
|6D 68 75 5E 46 02 5E 4D 07 57 61 72 20 45 6D 75 |mhu^F.^M.War Emu|
|00 00 00 00                                     |....            |
-------------------------------------------------------------------
[Server] packet : (0xBD) F_PLAYER_INVENTORY  Size = 28 
|------------------------------------------------|----------------|
|00 01 02 03 04 05 06 07 08 09 0A 0B 0C 0D 0E 0F |0123456789ABCDEF|
|------------------------------------------------|----------------|
|00 19 BD 2E 26 00 05 00 0A 0D 1C 00 14 0E E1 00 |....&...........|
|15 0E E3 00 16 0E E2 00 19 0F 13 00             |............    |
-------------------------------------------------------------------
[Server] packet : (0xBD) F_PLAYER_INVENTORY  Size = 12 
|------------------------------------------------|----------------|
|00 01 02 03 04 05 06 07 08 09 0A 0B 0C 0D 0E 0F |0123456789ABCDEF|
|------------------------------------------------|----------------|
|00 09 BD 1D C7 00 01 00 19 01 75 00             |............    |
-------------------------------------------------------------------
[Server] packet : (0x33) UNKNOWN  Size = 16 
|------------------------------------------------|----------------|
|00 01 02 03 04 05 06 07 08 09 0A 0B 0C 0D 0E 0F |0123456789ABCDEF|
|------------------------------------------------|----------------|
|00 0D 33 01 CC AF 25 B9 22 CA B2 B9 4C A0 03 00 |..3...%."...L...|                                                
-------------------------------------------------------------------
[Server] packet : (0x49) F_REMOVE_PLAYER  Size = 7 
|------------------------------------------------|----------------|
|00 01 02 03 04 05 06 07 08 09 0A 0B 0C 0D 0E 0F |0123456789ABCDEF|
|------------------------------------------------|----------------|
|00 04 49 12 53 00 00                            |.......         |
-------------------------------------------------------------------
[Client] packet : (0x16) F_REQUEST_INIT_OBJECT  Size = 16 
|------------------------------------------------|----------------|
|00 01 02 03 04 05 06 07 08 09 0A 0B 0C 0D 0E 0F |0123456789ABCDEF|
|------------------------------------------------|----------------|
|00 04 B7 17 00 6E 00 00 00 16 17 E0 00 00 4A 00 |.....n........J.|                                                
-------------------------------------------------------------------
[Server] packet : (0x95) UNKNOWN  Size = 10 
|------------------------------------------------|----------------|
|00 01 02 03 04 05 06 07 08 09 0A 0B 0C 0D 0E 0F |0123456789ABCDEF|
|------------------------------------------------|----------------|
|00 07 95 09 09 32 00 00 00 00                   |..........      |
-------------------------------------------------------------------
[Server] packet : (0x72) F_CREATE_MONSTER  Size = 115 
|------------------------------------------------|----------------|
|00 01 02 03 04 05 06 07 08 09 0A 0B 0C 0D 0E 0F |0123456789ABCDEF|
|------------------------------------------------|----------------|
|00 70 72 17 E0 00 E1 08 8B 4F 49 00 15 A5 81 00 |.pr......OI.....|
|0B 1E 85 00 00 07 96 32 28 80 00 00 00 00 00 00 |.......2(.......|
|00 01 00 00 00 00 00 00 00 00 00 00 00 00 00 01 |................|
|19 00 44 61 72 6B 20 42 6C 75 65 20 54 7A 65 65 |..Dark Blue Tzee|
|6E 74 63 68 20 46 61 6D 69 6C 69 61 72 5E 4E 00 |ntch Familiar^N.|
|00 00 00 03 01 0A 00 12 53 12 05 00 17 E0 25 81 |........S.....%.|
|9E 85 4F 49 64 40 68 10 00 00 00 03 8B 08 17 E0 |..OId@h.........|
|00 00 00                                        |...             |
-------------------------------------------------------------------
[Server] packet : (0x14) F_HIT_PLAYER  Size = 15 
|------------------------------------------------|----------------|
|00 01 02 03 04 05 06 07 08 09 0A 0B 0C 0D 0E 0F |0123456789ABCDEF|
|------------------------------------------------|----------------|
|00 0C 14 00 00 1D C7 00 00 2A BF 60 00 00 00    |............... |
-------------------------------------------------------------------
[Server] packet : (0x33) UNKNOWN  Size = 16 
|------------------------------------------------|----------------|
|00 01 02 03 04 05 06 07 08 09 0A 0B 0C 0D 0E 0F |0123456789ABCDEF|
|------------------------------------------------|----------------|
|00 0D 33 01 1C 32 1B D1 16 31 BF FC 4C A4 2C 00 |..3..2...1..L.,.|                                                
-------------------------------------------------------------------
[Server] packet : (0x14) F_HIT_PLAYER  Size = 15 
|------------------------------------------------|----------------|
|00 01 02 03 04 05 06 07 08 09 0A 0B 0C 0D 0E 0F |0123456789ABCDEF|
|------------------------------------------------|----------------|
|00 0C 14 00 00 32 09 00 00 1A 3C 42 00 00 00    |............... |
-------------------------------------------------------------------
[Server] packet : (0x5E) F_SET_TARGET  Size = 9 
|------------------------------------------------|----------------|
|00 01 02 03 04 05 06 07 08 09 0A 0B 0C 0D 0E 0F |0123456789ABCDEF|
|------------------------------------------------|----------------|
|00 06 5E 20 E9 34 BB 02 00                      |.........       |
-------------------------------------------------------------------
[Server] packet : (0x33) UNKNOWN  Size = 16 
|------------------------------------------------|----------------|
|00 01 02 03 04 05 06 07 08 09 0A 0B 0C 0D 0E 0F |0123456789ABCDEF|
|------------------------------------------------|----------------|
|00 0D 33 01 73 BB 22 67 25 CA 9F 8D 4E FC FA 00 |..3.s."g%...N...|                                                
-------------------------------------------------------------------
[Server] packet : (0x0A) F_OBJECT_DEATH  Size = 15 
|------------------------------------------------|----------------|
|00 01 02 03 04 05 06 07 08 09 0A 0B 0C 0D 0E 0F |0123456789ABCDEF|
|------------------------------------------------|----------------|
|00 0C 0A 27 78 00 00 00 00 00 00 00 00 00 00    |............... |
-------------------------------------------------------------------
[Server] packet : (0x0A) F_OBJECT_DEATH  Size = 15 
|------------------------------------------------|----------------|
|00 01 02 03 04 05 06 07 08 09 0A 0B 0C 0D 0E 0F |0123456789ABCDEF|
|------------------------------------------------|----------------|
|00 0C 0A 17 E0 00 00 00 00 00 00 00 00 00 00    |............... |
-------------------------------------------------------------------
[Server] packet : (0x0A) F_OBJECT_DEATH  Size = 15 
|------------------------------------------------|----------------|
|00 01 02 03 04 05 06 07 08 09 0A 0B 0C 0D 0E 0F |0123456789ABCDEF|
|------------------------------------------------|----------------|
|00 0C 0A 12 53 00 00 00 00 00 00 00 00 00 00    |............... |
-------------------------------------------------------------------
[Server] packet : (0x14) F_HIT_PLAYER  Size = 15 
|------------------------------------------------|----------------|
|00 01 02 03 04 05 06 07 08 09 0A 0B 0C 0D 0E 0F |0123456789ABCDEF|
|------------------------------------------------|----------------|
|00 0C 14 00 00 1D C7 00 00 2C 7E 64 00 00 00    |............... |
-------------------------------------------------------------------
[Client] packet : (0x01) UNKNOWN  Size = 32 
|------------------------------------------------|----------------|
|00 01 02 03 04 05 06 07 08 09 0A 0B 0C 0D 0E 0F |0123456789ABCDEF|
|------------------------------------------------|----------------|
|00 14 B7 23 00 6E 00 00 00 01 00 A2 06 5D 00 00 |...#.n.......]..|
|00 00 00 00 00 00 00 00 15 92 00 00 2D 4A BA A8 |............-J..|                                                
-------------------------------------------------------------------
[Client] packet : (0x25) F_GUILD_COMMAND  Size = 176 
|------------------------------------------------|----------------|
|00 01 02 03 04 05 06 07 08 09 0A 0B 0C 0D 0E 0F |0123456789ABCDEF|
|------------------------------------------------|----------------|
|00 A4 B7 24 00 6E FF FF 00 25 00 00 00 00 00 00 |...$.n...%......|
|00 00 03 00 00 00 00 00 00 00 00 00 00 00 00 00 |................|
|00 00 00 00 00 00 00 00 00 00 00 00 00 00 00 00 |................|
|00 00 00 00 00 00 00 00 00 00 00 00 00 00 00 00 |................|
|00 00 00 00 00 00 00 00 00 00 00 00 00 00 00 00 |................|
|00 00 00 00 00 00 00 00 00 00 00 00 00 00 00 00 |................|
|00 00 00 00 00 00 00 00 00 00 00 00 00 00 00 00 |................|
|00 00 00 00 00 00 00 00 00 00 00 00 00 00 00 00 |................|
|00 00 00 00 00 00 00 00 00 00 00 00 00 00 00 00 |................|
|00 00 00 00 00 00 00 00 00 00 00 00 00 00 00 00 |................|
|00 00 00 00 00 00 00 00 00 00 00 00 00 00 00 00 |................|                                                
-------------------------------------------------------------------
[Server] packet : (0x1D) F_GUILD_DATA  Size = 5 
|------------------------------------------------|----------------|
|00 01 02 03 04 05 06 07 08 09 0A 0B 0C 0D 0E 0F |0123456789ABCDEF|
|------------------------------------------------|----------------|
|00 02 1D 00 00                                  |.....           |
-------------------------------------------------------------------
[Client] packet : (0x25) F_GUILD_COMMAND  Size = 198 
|------------------------------------------------|----------------|
|00 01 02 03 04 05 06 07 08 09 0A 0B 0C 0D 0E 0F |0123456789ABCDEF|
|------------------------------------------------|----------------|
|00 BA B7 25 00 6E FF FF 00 25 00 00 00 6E 00 00 |...%.n...%...n..|
|00 00 2F 00 00 00 00 00 00 00 00 00 00 00 00 00 |../.............|
|00 00 00 00 00 00 00 00 00 00 00 00 00 00 00 00 |................|
|00 00 00 00 00 00 00 00 00 00 00 00 00 00 00 00 |................|
|00 00 00 00 00 00 00 00 00 00 00 00 00 00 00 00 |................|
|00 00 00 00 00 00 00 00 00 00 00 00 00 00 00 00 |................|
|00 00 00 00 00 00 00 00 00 00 00 00 00 00 00 00 |................|
|00 00 00 00 00 00 00 00 00 00 00 00 00 00 00 00 |................|
|00 00 00 00 00 00 00 00 00 00 00 00 00 00 00 00 |................|
|00 00 00 00 00 00 00 00 00 00 00 00 00 00 00 00 |................|
|00 00 00 00 00 00 00 00 00 00 00 00 12 04 00 00 |................|
|00 00 03 00 00 00 00 00 00 00 00 00 00 00 00 00 |................|
|00 00 00 00 00 00                               |......          |
-------------------------------------------------------------------
[Server] packet : (0xB6) F_SOCIAL_NETWORK  Size = 24 
|------------------------------------------------|----------------|
|00 01 02 03 04 05 06 07 08 09 0A 0B 0C 0D 0E 0F |0123456789ABCDEF|
|------------------------------------------------|----------------|
|00 15 B6 00 00 00 00 00 00 00 00 00 00 9C 00 00 |................|
|00 00 00 00 00 00 00 00                         |........        |
-------------------------------------------------------------------
[Server] packet : (0x44) F_ACTION_COUNTER_UPDATE  Size = 11 
|------------------------------------------------|----------------|
|00 01 02 03 04 05 06 07 08 09 0A 0B 0C 0D 0E 0F |0123456789ABCDEF|
|------------------------------------------------|----------------|
|00 08 44 01 63 00 00 00 28 D4 00                |...........     |
-------------------------------------------------------------------
[Server] packet : (0x6F) F_LOCALIZED_STRING  Size = 13 
|------------------------------------------------|----------------|
|00 01 02 03 04 05 06 07 08 09 0A 0B 0C 0D 0E 0F |0123456789ABCDEF|
|------------------------------------------------|----------------|
|00 0A 6F 00 00 00 00 03 D9 00 00 00 00          |.............   |
-------------------------------------------------------------------
[Server] packet : (0x0A) F_OBJECT_DEATH  Size = 15 
|------------------------------------------------|----------------|
|00 01 02 03 04 05 06 07 08 09 0A 0B 0C 0D 0E 0F |0123456789ABCDEF|
|------------------------------------------------|----------------|
|00 0C 0A 25 96 00 00 00 00 00 00 00 00 00 00    |............... |
-------------------------------------------------------------------
[Server] packet : (0x00) UNKNOWN  Size = 23 
|------------------------------------------------|----------------|
|00 01 02 03 04 05 06 07 08 09 0A 0B 0C 0D 0E 0F |0123456789ABCDEF|
|------------------------------------------------|----------------|
|00 14 00 00 A2 06 5D A6 20 12 AE 00 00 00 00 00 |......]. .......|
|00 15 92 00 00 2D 00                            |.......         |
-------------------------------------------------------------------
[Server] packet : (0x0A) F_OBJECT_DEATH  Size = 15 
|------------------------------------------------|----------------|
|00 01 02 03 04 05 06 07 08 09 0A 0B 0C 0D 0E 0F |0123456789ABCDEF|
|------------------------------------------------|----------------|
|00 0C 0A 05 A4 00 00 00 00 00 00 00 00 00 00    |............... |
-------------------------------------------------------------------
[Server] packet : (0x1D) F_GUILD_DATA  Size = 6497 
|------------------------------------------------|----------------|
|00 01 02 03 04 05 06 07 08 09 0A 0B 0C 0D 0E 0F |0123456789ABCDEF|
|------------------------------------------------|----------------|
|19 5E 1D 20 1E 00 00 00 60 0D 00 0D 43 68 61 6F |.^. ....`...Chao|
|73 20 52 65 61 70 65 72 73 00 09 4B 74 68 78 62 |s Reapers..Kthxb|
|79 65 5E 4D 00 00 00 4D 41 20 68 61 6C 66 2D 64 |ye^M...MA half-d|
|65 61 64 20 67 75 69 6C 64 20 77 69 74 68 20 61 |ead guild with a|
|20 67 75 69 6C 64 20 6C 65 76 65 6C 20 6F 66 20 | guild level of |
|31 33 2C 20 6C 6F 6F 6B 69 6E 67 20 66 6F 72 20 |13, looking for |
|67 75 69 6C 64 73 20 74 6F 20 6D 65 72 67 65 20 |guilds to merge |
|77 69 74 68 2E 00 01 00 00 00 01 00 00 00 00 00 |with............|
|00 00 00 00 00 00 1E 00 00 00 13 00 00 00 00 00 |................|
|0D 44 61 72 6B 20 50 61 72 61 64 69 67 6D 00 00 |.Dark Paradigm..|
|00 00 00 00 00 00 D7 21 00 09 4B 69 6C 6C 61 62 |.......!..Killab|
|6F 79 7A 00 09 47 72 7A 79 62 65 6B 5E 4D 00 0D |oyz..Grzybek^M..|
|50 6F 6C 73 6B 61 20 47 69 6C 64 69 61 00 A2 4A |Polska Gildia..J|
|65 73 74 65 73 6D 79 20 70 6F 6C 73 6B 61 20 67 |estesmy polska g|
|75 69 6C 64 69 61 20 73 74 77 6F 72 7A 6F 6E 61 |uildia stworzona|
|20 70 72 7A 65 64 65 20 77 73 7A 79 73 74 6B 69 | przede wszystki|
|6D 20 70 6F 20 74 6F 20 62 79 20 64 6F 62 72 7A |m po to by dobrz|
|65 20 73 69 65 20 62 61 77 69 63 20 70 6F 64 63 |e sie bawic podc|
|7A 61 73 20 6F 64 6B 72 79 77 61 6E 69 61 20 74 |zas odkrywania t|
|65 67 6F 20 63 6F 20 67 72 61 20 6F 66 65 72 75 |ego co gra oferu|
|6A 65 20 22 70 6F 20 34 30 2D 63 65 22 0D 0D 5A |je "po 40-ce"..Z|
|61 70 72 61 73 7A 61 6D 79 20 6B 61 7A 64 61 20 |apraszamy kazda |
|50 6F 6C 6B 65 20 69 20 50 6F 6C 61 6B 61 20 3A |Polke i Polaka :|
|44 00 03 01 FF E0 00 00 00 00 1E 00 00 00 00 00 |D...............|
|00 00 0A 00 00 00 01 00 00 00 00 00 00 01 00 09 |................|
|47 72 7A 79 62 65 6B 5E 4D 00 00 00 00 00 00 01 |Grzybek^M.......|
|9B 28 00 0B 47 6F 64 73 20 6F 66 20 57 61 72 00 |.(..Gods of War.|
|0A 4F 74 74 6F 67 72 69 6D 5E 4D 00 0C 57 41 41 |.Ottogrim^M..WAA|
|41 41 41 52 21 21 21 21 20 00 A3 57 65 20 64 6F |AAAR!!!! ..We do|
|20 6D 6F 73 74 6C 79 20 54 34 20 52 56 52 20 61 | mostly T4 RVR a|
|6E 64 20 65 6E 6A 6F 79 20 73 6F 6D 65 20 50 56 |nd enjoy some PV|
|45 20 69 6E 73 74 61 6E 63 65 73 2F 6C 61 69 72 |E instances/lair|
|73 2E 0D 0D 41 73 20 6D 65 6D 62 65 72 73 20 6F |s...As members o|
|66 20 4C 65 20 4F 6C 64 20 4F 6E 65 73 20 41 6C |f Le Old Ones Al|
|6C 69 61 6E 63 65 20 77 65 20 70 61 72 74 69 63 |liance we partic|
|69 70 61 74 65 20 69 6E 20 61 6C 6C 69 61 6E 63 |ipate in allianc|
|65 20 77 61 72 62 61 6E 64 2C 20 6F 72 20 6D 61 |e warband, or ma|
|6B 65 20 73 6D 61 6C 6C 20 20 73 63 61 6C 65 20 |ke small  scale |
|72 6F 61 6D 20 66 67 2E 0D 0D 0D 0D 0D 0D 00 00 |roam fg.........|
|01 FF E0 00 00 00 00 1C 00 00 00 00 00 00 00 08 |................|
|00 00 00 28 00 00 00 00 00 0B 4C 65 20 4F 6C 64 |...(......Le Old|
|20 4F 6E 65 73 01 00 0A 4F 74 74 6F 67 72 69 6D | Ones...Ottogrim|
|5E 4D 00 00 00 00 00 00 02 01 27 00 0C 44 61 6D |^M........'..Dam|
|6E 65 64 20 53 6F 75 6C 73 00 09 46 65 6E 7A 68 |ned Souls..Fenzh|
|61 72 5E 4D 00 1B 49 6E 74 65 72 6E 61 74 69 6F |ar^M..Internatio|
|6E 61 6C 20 73 65 6D 69 20 68 61 72 64 63 6F 72 |nal semi hardcor|
|65 00 D9 44 61 6D 6E 65 64 20 53 6F 75 6C 73 20 |e..Damned Souls |
|69 73 20 61 20 6D 61 74 75 72 65 20 6D 75 6C 74 |is a mature mult|
|69 6E 61 74 69 6F 6E 61 6C 20 67 75 69 6C 64 20 |inational guild |
|66 6F 75 6E 64 65 64 20 74 68 65 20 66 69 72 73 |founded the firs|
|74 20 64 61 79 20 6F 66 20 74 68 65 20 45 75 72 |t day of the Eur|
|6F 70 65 61 6E 20 6C 61 75 6E 63 68 20 6F 66 20 |opean launch of |
|57 41 52 2E 20 0D 0D 57 65 20 61 72 65 20 72 65 |WAR. ..We are re|
|63 72 75 69 74 69 6E 67 20 61 6E 79 20 63 6C 61 |cruiting any cla|
|73 73 20 61 6E 64 20 6C 65 76 65 6C 20 73 6F 20 |ss and level so |
|70 6C 65 61 73 65 20 73 65 6E 64 20 6F 6E 65 20 |please send one |
|6F 66 20 6F 75 72 20 6F 66 66 69 63 65 72 27 73 |of our officer's|
|20 61 6E 64 20 74 65 6C 6C 20 74 68 65 79 20 62 | and tell they b|
|65 20 64 65 6C 69 67 68 74 65 64 20 74 6F 20 69 |e delighted to i|
|6E 76 69 74 65 20 79 6F 75 0D 0D 0D 00 00 01 FF |nvite you.......|
|E0 00 00 00 00 00 00 00 00 00 00 00 00 1E 00 00 |................|
|00 5A 00 00 00 00 00 12 44 61 6D 65 65 64 20 74 |.Z......Dameed t|
|68 65 20 62 6F 67 6C 69 6E 73 04 00 0A 53 74 6F |he boglins...Sto|
|72 6D 69 65 65 5E 46 00 09 4E 65 6D 69 7A 69 7A |rmiee^F..Nemiziz|
|5E 4D 00 09 41 6C 65 73 68 61 61 5E 46 00 07 53 |^M..Aleshaa^F..S|
|6F 70 69 74 5E 4D 00 00 00 00 00 00 02 26 02 00 |opit^M.......&..|
|0D 55 6E 64 65 72 63 72 61 63 6B 65 72 73 00 08 |.Undercrackers..|
|54 61 68 72 69 6C 5E 4D 00 00 00 00 00 01 00 00 |Tahril^M........|
|00 01 00 00 00 00 00 00 00 00 00 00 00 08 00 00 |................|
|00 07 00 00 00 00 00 00 00 00 00 00 00 00 00 02 |................|
|5E 0A 00 08 54 68 65 20 50 4F 55 41 00 0D 56 61 |^...The POUA..Va|
|6E 6E 61 6D 61 72 63 6B 69 5E 46 00 14 43 61 7A |nnamarcki^F..Caz|
|7A 75 74 69 20 71 75 61 6E 74 6F 20 62 61 73 74 |zuti quanto bast|
|61 00 FB 47 69 6C 64 61 20 49 74 61 6C 69 61 6E |a..Gilda Italian|
|61 20 70 76 70 20 72 69 63 72 65 61 74 61 20 64 |a pvp ricreata d|
|6F 70 6F 20 31 20 61 6E 6E 6F 20 65 20 6F 6C 74 |opo 1 anno e olt|
|72 65 20 64 69 20 61 73 73 65 6E 7A 61 2C 20 28 |re di assenza, (|
|20 67 72 61 6E 64 69 73 73 69 6D 61 20 65 73 70 | grandissima esp|
|65 72 69 65 6E 7A 61 20 69 6E 20 77 61 72 2C 20 |erienza in war, |
|65 72 61 76 61 6D 6F 20 6F 72 64 69 6E 65 20 73 |eravamo ordine s|
|69 6E 20 64 61 6C 6C 27 69 6E 69 7A 69 6F 20 64 |in dall'inizio d|
|65 6C 6C 61 20 62 65 74 61 29 20 63 65 72 63 61 |ella beta) cerca|
|20 70 6C 61 79 65 72 20 61 74 74 69 76 69 20 65 | player attivi e|
|20 6D 61 74 75 72 69 20 70 65 72 20 70 76 70 20 | maturi per pvp |
|65 20 72 76 72 20 64 69 20 71 75 61 6C 69 74 C3 |e rvr di qualit.|
|A0 68 29 20 0D 0D 4E 4F 20 5A 45 52 47 20 53 4F |.h) ..NO ZERG SO|
|4C 4F 20 52 4F 41 4D 49 4E 47 20 44 49 20 41 4C |LO ROAMING DI AL|
|54 49 53 53 49 4D 41 20 51 55 41 4C 49 54 C3 A0 |TISSIMA QUALIT..|
|27 20 21 21 20 4A 4F 49 4E 20 55 53 20 21 00 01 |' !! JOIN US !..|
|00 00 00 01 00 00 00 00 00 00 00 00 00 00 00 08 |................|
|00 00 00 21 00 00 00 00 00 00 00 00 00 00 00 00 |...!............|
|00 04 91 02 00 12 54 68 65 20 42 6C 6F 6F 64 20 |......The Blood |
|42 72 6F 74 68 65 72 73 00 09 42 6C 61 7A 6E 61 |Brothers..Blazna|
|74 5E 4D 00 00 00 00 00 00 01 FF E0 00 00 00 00 |t^M.............|
|1E 00 00 00 00 00 00 00 1E 00 00 00 02 00 00 00 |................|
|00 00 00 00 00 00 00 00 00 00 04 EC 15 00 09 53 |...............S|
|6C 61 75 67 68 74 65 72 00 07 5A 69 7A 65 6C 5E |laughter..Zizel^|
|46 00 1A 53 6C 61 75 67 68 74 65 72 20 69 73 20 |F..Slaughter is |
|67 6F 69 6E 67 20 74 6F 20 77 61 72 21 00 B8 41 |going to war!..A|
|72 65 20 79 6F 75 20 72 65 61 64 79 20 74 6F 20 |re you ready to |
|63 6F 6D 61 6E 64 20 61 20 47 75 69 6C 64 3F 20 |comand a Guild? |
|44 6F 20 79 6F 75 20 77 61 6E 74 20 77 61 72 3F |Do you want war?|
|20 44 6F 20 79 6F 75 20 77 61 6E 74 20 74 6F 20 | Do you want to |
|6D 61 6B 65 20 61 20 64 69 66 66 72 65 6E 63 65 |make a diffrence|
|20 69 6E 20 74 68 65 20 77 61 72 68 61 6D 6D 65 | in the warhamme|
|72 20 77 6F 72 6C 64 3F 20 41 6C 6C 20 61 72 65 |r world? All are|
|20 77 65 6C 63 6F 6D 65 20 74 6F 20 68 61 76 65 | welcome to have|
|20 66 75 6E 2E 20 20 20 20 0D 0D 4C 65 74 20 74 | fun.    ..Let t|
|68 65 20 61 67 65 20 6F 66 20 43 68 61 6F 73 20 |he age of Chaos |
|62 65 67 69 6E 2E 0D 0D 4A 6F 69 6E 20 53 6C 61 |begin...Join Sla|
|75 67 68 74 65 72 20 01 01 01 FF E0 00 00 00 00 |ughter .........|
|1E 00 00 00 00 00 00 00 1E 00 00 00 01 00 00 00 |................|
|00 00 15 46 65 6C 6C 6F 77 53 68 69 70 20 6F 66 |...FellowShip of|
|20 74 68 65 20 47 69 74 00 00 00 00 00 00 00 06 | the Git........|
|14 09 00 10 6C 6F 74 73 20 6F 27 20 63 68 6F 70 |....lots o' chop|
|70 69 6E 27 00 08 49 63 65 74 65 63 5E 46 00 10 |pin'..Icetec^F..|
|4C 6F 74 73 20 6F 27 20 63 68 6F 70 70 69 6E 27 |Lots o' choppin'|
|00 31 46 72 65 73 68 20 61 6E 64 20 61 63 74 69 |.1Fresh and acti|
|76 65 20 70 6C 61 79 65 72 73 20 61 72 65 20 77 |ve players are w|
|65 6C 63 6F 6D 65 20 3A 29 20 61 6E 79 20 6C 65 |elcome :) any le|
|76 65 6C 00 00 01 FF E0 00 00 00 00 1E 00 00 00 |vel.............|
|00 00 00 00 08 00 00 00 41 00 00 00 00 00 00 00 |........A.......|
|00 00 00 00 00 00 06 1A 0A 00 0D 57 61 72 20 4F |...........War O|
|66 20 53 77 65 64 65 6E 00 0A 54 72 6F 6D 69 66 |f Sweden..Tromif|
|6F 72 5E 4D 00 0F 53 77 65 64 69 73 68 20 70 6C |or^M..Swedish pl|
|61 79 65 72 73 00 07 53 77 65 64 69 73 68 00 01 |ayers..Swedish..|
|00 00 00 01 00 00 00 00 00 00 00 00 00 00 00 0A |................|
|00 00 00 2E 00 00 00 00 00 00 00 00 00 00 00 00 |................|
|00 06 91 06 00 0E 44 61 20 27 45 61 64 20 27 55 |......Da 'Ead 'U|
|6E 74 61 7A 00 08 47 6F 6D 75 7A 79 5E 4D 00 00 |ntaz..Gomuzy^M..|
|00 46 57 65 27 7A 20 61 20 73 6D 61 6C 6C 20 66 |.FWe'z a small f|
|72 69 6E 64 6C 79 20 74 72 69 62 65 20 6F 27 20 |rindly tribe o' |
|67 72 65 65 6E 7A 2C 20 27 75 6E 74 69 6E 27 20 |greenz, 'untin' |
|67 75 64 20 74 69 6D 65 7A 20 61 6E 27 20 73 74 |gud timez an' st|
|75 6E 74 69 65 7A 21 0D 04 02 00 01 E0 00 00 00 |untiez!.........|
|00 00 00 00 00 00 00 00 00 0A 00 00 00 05 00 00 |................|
|00 00 00 00 00 00 00 00 00 00 00 07 17 28 00 0D |.............(..|
|43 61 72 70 65 20 4A 75 67 75 6C 75 6D 00 08 49 |Carpe Jugulum..I|
|79 72 65 6C 6C 5E 46 00 1D 41 20 6C 69 67 68 74 |yrell^F..A light|
|20 68 65 61 72 74 65 64 20 50 76 45 2F 52 76 52 | hearted PvE/RvR|
|20 47 75 69 6C 64 01 46 57 65 20 61 72 65 20 61 | Guild.FWe are a|
|20 6C 69 67 68 74 20 68 65 61 72 74 65 64 20 50 | light hearted P|
|76 45 2F 52 76 52 20 67 75 69 6C 64 20 61 6E 64 |vE/RvR guild and|
|20 69 6E 20 61 6C 6C 69 61 6E 63 65 20 77 69 74 | in alliance wit|
|68 20 4D 6F 6F 6E 6C 61 70 73 65 2C 20 77 65 20 |h Moonlapse, we |
|61 63 63 65 70 74 20 61 6E 79 20 6E 75 6D 62 65 |accept any numbe|
|72 20 6F 66 20 61 6C 74 73 2E 20 20 53 6F 20 69 |r of alts.  So i|
|66 20 79 6F 75 20 64 6F 20 68 61 76 65 20 73 6F |f you do have so|
|6D 65 20 61 6C 74 73 20 77 61 6E 64 65 72 69 6E |me alts wanderin|
|67 20 61 72 6F 75 6E 64 20 69 6E 20 74 68 65 20 |g around in the |
|77 69 6C 64 65 72 6E 65 73 73 20 70 6C 65 61 73 |wilderness pleas|
|65 20 66 65 65 6C 20 66 72 65 65 20 74 6F 20 6A |e feel free to j|
|6F 69 6E 2E 20 20 20 57 65 20 61 72 65 20 6F 75 |oin.   We are ou|
|74 20 74 6F 20 68 61 76 65 20 66 75 6E 20 61 6E |t to have fun an|
|64 20 61 6E 64 20 68 6F 70 65 20 79 6F 75 20 65 |d and hope you e|
|6E 6A 6F 79 20 79 6F 75 72 20 74 69 6D 65 20 77 |njoy your time w|
|69 74 68 20 75 73 2E 20 0D 0D 41 6C 6C 20 70 6C |ith us. ..All pl|
|61 79 65 72 73 20 63 61 6E 20 75 73 65 20 6F 75 |ayers can use ou|
|72 20 73 74 61 6E 64 61 72 64 73 0D 0D 54 61 78 |r standards..Tax|
|20 72 61 74 65 20 30 25 0D 0D 4D 61 6E 79 20 54 | rate 0%..Many T|
|68 61 6E 6B 73 20 0D 49 79 72 65 6C 6C 2E 00 00 |hanks .Iyrell...|
|01 FF E0 00 00 00 00 1E 00 00 00 00 00 00 00 1E |................|
|00 00 00 73 00 00 00 00 00 0B 4C 65 20 4F 6C 64 |...s......Le Old|
|20 4F 6E 65 73 04 00 08 49 79 72 65 6C 6C 5E 46 | Ones...Iyrell^F|
|00 0A 52 69 69 6C 74 68 65 72 5E 46 00 09 53 6E |..Riilther^F..Sn|
|6F 74 6C 6F 62 5E 4D 00 0A 4E 61 67 61 69 72 61 |otlob^M..Nagaira|
|79 5E 46 00 00 00 00 00 00 07 AD 04 00 0B 44 65 |y^F...........De|
|63 65 70 74 69 63 6F 6E 73 00 0A 54 72 61 6B 74 |cepticons..Trakt|
|6F 72 6E 5E 4D 00 00 00 00 01 03 01 FB E0 00 00 |orn^M...........|
|00 00 1E 00 00 00 00 00 00 00 08 00 00 00 02 00 |................|
|00 00 00 00 00 00 00 00 00 00 00 00 07 E7 0C 00 |................|
|10 53 6D 6F 6B 65 61 6E 64 61 70 61 6E 63 61 6B |.Smokeandapancak|
|65 00 09 44 72 75 6D 6D 65 6C 5E 46 00 05 53 6D |e..Drummel^F..Sm|
|6F 6B 65 00 00 05 00 00 40 00 00 00 00 00 00 00 |oke.....@.......|
|00 00 00 00 00 00 08 00 00 00 04 00 00 00 00 00 |................|
|00 01 00 09 44 72 75 6D 6D 65 6C 5E 46 00 00 00 |....Drummel^F...|
|00 00 00 09 31 06 00 05 53 70 61 73 6D 00 0E 41 |....1...Spasm..A|
|6C 65 78 64 61 72 6B 73 69 64 65 5E 4D 00 0E 52 |lexdarkside^M..R|
|65 63 72 75 74 65 20 64 65 73 20 46 52 00 5E 52 |ecrute des FR.^R|
|65 63 72 75 74 65 20 64 65 73 20 6A 6F 75 65 75 |ecrute des joueu|
|72 73 20 66 72 0D 0D 2B 32 30 20 61 6E 73 0D 42 |rs fr..+20 ans.B|
|6F 6E 20 6E 69 76 65 61 75 20 72 65 63 6F 6D 6D |on niveau recomm|
|61 6E 64 C3 A9 0D 0D 47 75 69 6C 64 65 20 70 65 |and....Guilde pe|
|74 69 74 20 63 6F 6D 69 74 C3 A9 20 70 6F 75 72 |tit comit.. pour|
|20 73 27 61 6D 75 73 65 72 2E 0D 0D 0D 01 04 01 | s'amuser.......|
|FF E0 00 00 00 00 10 00 00 00 00 00 00 00 0A 00 |................|
|00 00 06 00 00 00 00 00 00 02 00 0A 42 65 6C 6C |............Bell|
|67 6F 73 73 5E 46 00 08 50 6F 6F 63 6B 79 5E 46 |goss^F..Poocky^F|
|00 00 00 00 00 00 09 55 19 00 0F 52 61 79 6F 6E |.......U...Rayon|
|20 42 6F 75 63 68 65 72 69 65 00 0A 48 69 74 68 | Boucherie..Hith|
|61 72 79 73 5E 46 00 04 4C 6F 76 65 00 0C 50 65 |arys^F..Love..Pe|
|61 63 65 20 26 20 4C 6F 76 65 05 01 00 00 00 01 |ace & Love......|
|00 00 00 00 00 00 00 00 00 00 00 08 00 00 00 07 |................|
|00 00 00 00 00 13 62 6F 79 73 20 62 65 66 6F 72 |......boys befor|
|65 20 66 6C 6F 77 65 72 73 03 00 0D 49 6D 73 6F |e flowers...Imso|
|72 72 79 64 75 64 65 5E 4D 00 0A 50 72 75 6E 69 |rrydude^M..Pruni|
|65 72 73 5E 46 00 09 50 72 75 6E 69 65 72 5E 4D |ers^F..Prunier^M|
|00 00 00 00 00 00 09 57 28 00 0D 44 61 20 66 61 |.......W(..Da fa|
|74 20 73 71 75 69 67 73 00 08 53 63 65 70 69 6B |t squigs..Scepik|
|5E 4D 00 20 6C 69 6B 65 20 53 71 75 69 67 73 2C |^M. like Squigs,|
|20 6A 6F 69 6E 20 75 73 20 66 6F 72 20 57 61 61 | join us for Waa|
|61 67 68 21 01 37 57 65 20 61 72 65 20 62 69 67 |agh!.7We are big|
|2C 20 6E 69 63 65 20 67 75 69 6C 64 2C 20 6F 66 |, nice guild, of|
|20 6D 61 6E 79 20 69 6E 74 65 72 65 73 74 73 2E | many interests.|
|20 57 65 20 70 6C 61 79 20 69 6E 20 61 6C 6C 20 | We play in all |
|74 69 65 72 73 2C 20 73 6F 20 65 76 65 72 79 6F |tiers, so everyo|
|6E 65 20 69 73 20 69 6E 76 69 74 65 64 2C 20 61 |ne is invited, a|
|73 20 77 65 6C 6C 20 61 6C 6C 20 63 61 6E 20 75 |s well all can u|
|73 65 20 62 61 6E 6E 65 72 73 2E 0D 57 65 20 66 |se banners..We f|
|6F 63 75 73 20 20 6D 6F 73 74 6C 79 20 6F 6E 20 |ocus  mostly on |
|72 76 72 2C 20 62 6F 74 68 20 73 6D 61 6C 6C 20 |rvr, both small |
|61 6E 64 20 62 69 67 20 73 63 61 6C 65 2E 20 57 |and big scale. W|
|65 20 64 6F 20 61 20 6C 6F 74 20 6F 66 20 70 76 |e do a lot of pv|
|65 20 61 6C 73 6F 20 3A 20 70 71 73 2C 20 64 75 |e also : pqs, du|
|6E 65 67 6F 6E 73 20 61 6E 64 20 4C 6F 74 64 2E |negons and Lotd.|
|0D 4A 6F 69 6E 20 75 73 20 74 6F 20 66 69 67 68 |.Join us to figh|
|74 20 61 67 61 69 6E 73 74 20 6F 72 64 65 72 20 |t against order |
|61 73 20 61 20 6D 69 67 68 74 79 20 46 61 74 20 |as a mighty Fat |
|53 71 75 69 67 20 3A 29 0D 0D 0D 57 65 20 68 61 |Squig :)...We ha|
|76 65 20 76 65 6E 74 72 69 6C 6C 6F 20 61 6E 64 |ve ventrillo and|
|20 6E 69 63 65 20 61 6C 6C 79 3A 29 0D 03 03 01 | nice ally:)....|
|FF E0 00 00 00 00 1E 00 00 00 00 00 00 00 1E 00 |................|
|00 01 F3 00 00 00 01 00 14 54 68 65 20 43 6F 75 |.........The Cou|
|72 74 20 6F 66 20 4D 61 64 6E 65 73 73 04 00 07 |rt of Madness...|
|53 69 6A 65 65 5E 46 00 09 47 72 6F 62 62 6F 6B |Sijee^F..Grobbok|
|5E 4D 00 08 50 69 67 6C 69 74 5E 4D 00 0A 43 79 |^M..Piglit^M..Cy|
|62 65 72 65 6B 6F 5E 4D 00 00 00 00 00 00 09 79 |bereko^M.......y|
|18 00 0A 42 6C 6F 6F 64 20 41 78 65 73 00 07 44 |...Blood Axes..D|
|6F 6E 74 79 5E 4D 00 20 54 68 65 79 20 77 69 6C |onty^M. They wil|
|6C 20 66 61 6C 6C 2E 20 42 72 69 6E 67 20 74 68 |l fall. Bring th|
|65 20 42 6C 6F 6F 64 2E 01 01 57 65 20 61 72 65 |e Blood...We are|
|20 61 20 73 6D 61 6C 6C 20 74 65 61 6D 20 6F 66 | a small team of|
|20 65 78 70 65 72 69 65 6E 63 65 64 20 70 6C 61 | experienced pla|
|79 65 72 73 20 6F 77 6E 69 6E 67 20 6D 75 6C 74 |yers owning mult|
|69 70 6C 65 20 67 75 69 6C 64 73 2E 0D 0D 57 65 |iple guilds...We|
|20 77 61 6E 74 20 74 6F 20 62 75 69 6C 64 20 73 | want to build s|
|74 72 6F 6E 67 20 72 76 72 20 67 72 6F 75 70 73 |trong rvr groups|
|20 61 6E 64 20 73 63 65 6E 61 72 69 6F 20 67 72 | and scenario gr|
|6F 75 70 73 20 66 6F 72 20 61 6C 6C 20 74 69 65 |oups for all tie|
|72 73 20 61 6E 64 20 67 61 69 6E 20 74 68 65 20 |rs and gain the |
|6D 61 6A 6F 72 20 72 65 77 61 72 64 73 20 66 72 |major rewards fr|
|6F 6D 20 74 68 65 20 6C 61 6E 64 20 6F 66 20 74 |om the land of t|
|68 65 20 64 65 61 64 2E 0D 0D 41 6E 79 20 61 6E |he dead...Any an|
|64 20 61 6C 6C 20 72 61 6E 6B 73 20 77 65 6C 63 |d all ranks welc|
|6F 6D 65 2E 0D 0D 42 72 69 6E 67 20 74 68 65 20 |ome...Bring the |
|42 6C 6F 6F 64 2E 20 0D 57 61 61 61 61 67 68 21 |Blood. .Waaaagh!|
|20 0D 47 6F 72 65 67 75 74 7A 61 01 04 01 FF E0 | .Goregutza.....|
|00 00 00 00 1E 00 00 00 00 00 00 00 1E 00 00 00 |................|
|0B 00 00 00 00 00 00 03 00 0B 47 6F 72 65 67 75 |..........Goregu|
|74 7A 61 5E 4D 00 0B 4D 65 70 68 69 73 74 6F 7A |tza^M..Mephistoz|
|5E 4D 00 0F 4C 6F 74 68 65 72 61 6E 65 6C 69 6E |^M..Lotheranelin|
|61 5E 46 00 00 00 00 00 00 09 9F 1A 00 12 45 74 |a^F...........Et|
|65 72 6E 61 6C 20 52 65 66 6C 65 63 74 69 6F 6E |ernal Reflection|
|00 08 4B 69 72 69 6D 69 5E 46 00 0A 48 61 6E 6B |..Kirimi^F..Hank|
|73 20 48 6F 6D 65 00 50 46 75 6C 6C 79 20 65 71 |s Home.PFully eq|
|75 69 70 70 65 64 20 62 61 72 2C 20 4B 61 72 61 |uipped bar, Kara|
|6F 6B 65 20 6D 61 63 68 69 6E 65 2C 20 69 6E 74 |oke machine, int|
|65 72 6E 65 74 20 63 6F 6E 6E 65 63 74 69 6F 6E |ernet connection|
|20 61 6E 64 20 61 20 63 6F 6D 66 6F 72 74 61 62 | and a comfortab|
|6C 65 20 73 6F 66 61 2E 03 01 00 00 00 01 00 00 |le sofa.........|
|00 00 00 00 00 00 00 00 00 08 00 00 00 46 00 00 |.............F..|
|00 00 00 00 00 00 00 00 00 00 00 0A 39 19 00 0A |............9...|
|42 6C 75 65 20 4D 6F 6F 6E 7A 00 0A 43 61 70 72 |Blue Moonz..Capr|
|69 73 6F 6E 5E 4D 00 0E 44 61 20 42 6C 75 65 20 |ison^M..Da Blue |
|4D 6F 6F 6E 7A 20 01 B4 41 20 66 6F 72 75 6D 20 |Moonz ..A forum |
|63 6F 6D 6D 75 6E 69 74 79 20 66 6F 72 20 74 68 |community for th|
|65 20 42 75 72 6C 6F 6B 20 73 65 72 76 65 72 2E |e Burlok server.|
|20 0D 0D 41 20 66 72 69 65 6E 64 6C 79 20 61 6E | ..A friendly an|
|64 20 68 65 6C 70 66 75 6C 20 67 75 69 6C 64 2C |d helpful guild,|
|20 77 68 69 63 68 20 69 73 20 6C 6F 6F 6B 69 6E | which is lookin|
|67 20 66 6F 72 20 61 63 74 69 76 65 20 72 65 63 |g for active rec|
|72 75 69 74 73 20 74 6F 20 68 61 76 65 20 66 75 |ruits to have fu|
|6E 2C 20 72 61 6E 6B 20 74 6F 67 65 74 68 65 72 |n, rank together|
|20 61 6E 64 20 65 76 65 6E 20 64 69 65 20 74 6F | and even die to|
|67 65 74 68 65 72 21 0D 0D 57 65 20 68 61 76 65 |gether!..We have|
|20 65 76 65 6E 74 73 20 65 76 65 72 79 20 64 61 | events every da|
|79 2C 20 68 65 6C 70 69 6E 67 20 72 61 6E 6B 20 |y, helping rank |
|75 70 20 6F 75 72 20 67 75 69 6C 64 20 6D 65 6D |up our guild mem|
|62 65 72 73 21 0D 0D 57 65 20 68 61 76 65 20 4C |bers!..We have L|
|61 6E 64 20 6F 66 20 74 68 65 20 44 65 61 64 20 |and of the Dead |
|72 61 6E 6B 20 75 70 20 65 76 65 6E 74 73 2C 20 |rank up events, |
|61 6E 64 20 64 6F 20 6E 69 63 65 20 73 6D 61 6C |and do nice smal|
|6C 20 73 63 61 6C 65 20 52 76 52 20 65 76 65 6E |l scale RvR even|
|74 73 20 69 6E 20 61 6C 6D 6F 73 74 20 61 6C 6C |ts in almost all|
|20 74 65 69 72 73 21 0D 0D 0D 0D 57 65 20 61 6C | teirs!....We al|
|73 6F 20 64 6F 20 67 75 69 6C 64 20 70 72 65 6D |so do guild prem|
|61 64 65 73 20 61 6E 64 20 50 75 62 6C 69 63 20 |ades and Public |
|51 75 65 73 74 73 21 0D 0D 50 6C 65 61 73 65 20 |Quests!..Please |
|66 65 65 6C 20 66 72 65 65 20 74 6F 20 61 73 6B |feel free to ask|
|20 66 6F 72 20 61 6E 79 20 69 6E 66 6F 72 6D 61 | for any informa|
|74 69 6F 6E 20 6F 6E 20 61 6E 20 69 6E 76 69 74 |tion on an invit|
|65 21 0D 0D 0D 0D 0D 0D 0D 0D 0D 0D 03 03 01 FF |e!..............|
|E0 00 00 00 00 1E 00 00 00 00 00 00 00 1E 00 00 |................|
|00 51 00 00 00 00 00 00 02 00 06 5A 75 62 62 5E |.Q.........Zubb^|
|4D 00 09 44 65 6D 6F 6E 6B 65 5E 4D 00 00 00 00 |M..Demonke^M....|
|00 00 0A 50 01 00 0D 53 71 75 69 67 20 48 65 72 |...P...Squig Her|
|64 65 72 73 00 0D 44 6F 6F 6D 61 67 65 64 64 6F |ders..Doomageddo|
|6E 5E 4D 00 11 53 71 75 69 67 20 48 65 72 64 65 |n^M..Squig Herde|
|72 20 43 6C 75 62 00 38 45 76 65 72 79 62 6F 64 |r Club.8Everybod|
|79 20 73 68 6F 75 6C 64 20 68 61 76 65 20 61 74 |y should have at|
|6C 65 61 73 74 20 61 20 73 71 75 69 67 68 65 72 |least a squigher|
|64 65 72 20 61 6C 74 20 69 6E 20 68 65 72 65 2C |der alt in here,|
|03 01 00 01 00 00 00 00 00 1E 00 00 00 00 00 00 |................|
|00 08 00 00 00 01 00 00 00 00 00 00 01 00 0D 44 |...............D|
|6F 6F 6D 61 67 65 64 64 6F 6E 5E 4D 00 00 00 00 |oomageddon^M....|
|00 00 0C 11 28 00 08 41 6C 6C 73 74 61 72 73 00 |....(..Allstars.|
|07 53 79 63 65 72 5E 4D 00 00 00 0D 64 6F 6E 27 |.Sycer^M....don'|
|74 20 72 65 63 72 75 69 74 01 00 00 00 00 01 00 |t recruit.......|
|00 00 00 00 00 00 00 00 00 00 08 00 00 00 13 00 |................|
|00 00 00 00 08 49 6E 59 61 46 61 63 65 05 00 0A |.....InYaFace...|
|4D 61 6C 61 63 61 72 79 5E 46 00 07 54 6F 64 64 |Malacary^F..Todd|
|69 5E 4D 00 09 4B 72 61 6E 6B 65 73 5E 46 00 07 |i^M..Krankes^F..|
|53 79 63 65 72 5E 4D 00 07 53 79 63 61 68 5E 4D |Sycer^M..Sycah^M|
|00 00 00 00 00 00 0C C5 1F 00 09 45 6C 65 6D 65 |...........Eleme|
|6E 74 7A 7A 00 08 58 65 79 72 6F 6E 5E 4D 00 00 |ntzz..Xeyron^M..|
|00 00 03 00 00 00 00 01 00 00 00 00 00 00 00 00 |................|
|00 00 00 08 00 00 00 03 00 00 00 00 00 0F 43 75 |..............Cu|
|74 65 20 41 6E 64 20 50 72 65 74 74 79 03 00 08 |te And Pretty...|
|58 65 79 72 6F 6E 5E 4D 00 0A 46 75 6E 6E 79 61 |Xeyron^M..Funnya|
|72 6D 5E 4D 00 09 48 69 68 65 61 6C 73 5E 4D 00 |rm^M..Hiheals^M.|
|00 00 00 00 00 0C F9 0B 00 07 4B 20 52 20 55 20 |..........K R U |
|53 00 08 41 6D 69 6E 69 7A 5E 46 00 00 00 00 01 |S..Aminiz^F.....|
|04 00 00 00 01 00 00 00 00 00 00 00 00 00 00 00 |................|
|0C 00 00 00 01 00 00 00 00 00 00 00 00 00 00 00 |................|
|00 00 0C FD 0F 00 0C 41 76 65 20 54 65 6E 65 62 |.......Ave Teneb|
|72 61 65 00 0B 53 74 6F 6E 61 72 6C 69 61 5E 46 |rae..Stonarlia^F|
|00 0B 46 72 65 6E 63 68 20 74 65 61 6D 01 09 41 |..French team..A|
|76 65 20 54 65 6E 65 62 72 61 65 20 69 73 20 61 |ve Tenebrae is a|
|20 66 72 65 6E 63 68 20 74 65 61 6D 2C 20 69 73 | french team, is|
|73 75 65 64 20 66 72 6F 6D 20 41 74 68 65 6C 20 |sued from Athel |
|4C 6F 72 65 6E 2E 20 41 6E 63 69 65 6E 20 6F 75 |Loren. Ancien ou|
|20 6E 6F 75 76 65 61 75 20 6A 6F 75 65 75 72 2C | nouveau joueur,|
|20 76 6F 75 73 20 65 74 65 73 20 74 6F 75 73 20 | vous etes tous |
|6C 65 73 20 62 69 65 6E 76 65 6E 75 73 2E 20 41 |les bienvenus. A|
|6D 62 69 61 6E 63 65 20 66 61 6D 69 6C 69 61 6C |mbiance familial|
|65 20 64 65 63 6F 6E 74 72 61 63 74 C3 A9 65 2E |e decontract..e.|
|0D 50 6F 75 72 20 6E 6F 75 73 20 72 65 6A 6F 69 |.Pour nous rejoi|
|6E 64 72 65 20 63 6F 6E 74 61 63 74 65 7A 20 75 |ndre contactez u|
|6E 20 72 65 63 72 75 74 65 75 72 20 64 65 20 67 |n recruteur de g|
|75 69 6C 64 65 20 6F 75 20 70 72 C3 A9 73 65 6E |uilde ou pr..sen|
|74 65 7A 20 76 6F 75 73 20 73 75 72 20 6E 6F 74 |tez vous sur not|
|72 65 20 66 6F 72 75 6D 20 3A 20 62 61 6E 7A 61 |re forum : banza|
|69 2D 77 61 72 6F 6E 6C 69 6E 65 2E 66 6F 72 75 |i-waronline.foru|
|6D 6F 75 66 2E 63 6F 6D 01 03 01 FF E0 00 00 00 |mouf.com........|
|00 00 00 00 00 00 00 00 00 08 00 00 00 12 00 00 |................|
|00 00 00 08 4F 73 74 20 4E 6F 69 72 02 00 0A 41 |....Ost Noir...A|
|6C 72 61 73 68 61 64 5E 4D 00 0D 41 65 6C 73 61 |lrashad^M..Aelsa|
|69 72 69 6C 6C 65 5E 46 00 00 00 00 00 00 0D 0D |irille^F........|
|06 00 0E 4E 61 63 20 4D 61 63 20 46 65 65 67 6C |...Nac Mac Feegl|
|65 00 06 44 61 66 74 5E 4D 00 17 57 65 20 61 72 |e..Daft^M..We ar|
|65 20 74 68 65 20 57 65 65 20 46 72 65 65 20 4D |e the Wee Free M|
|65 6E 00 7D 54 68 65 79 20 63 61 6E 20 74 61 6B |en.}They can tak|
|27 20 6F 6F 75 72 20 6C 69 76 65 73 20 62 75 74 |' oour lives but|
|20 74 68 65 79 20 63 61 6E 6E 61 65 20 74 61 6B | they cannae tak|
|27 20 6F 6F 75 72 20 74 72 6F 6F 75 73 65 72 73 |' oour troousers|
|21 0D 0D 46 75 6E 20 67 75 69 6C 64 20 61 6E 64 |!..Fun guild and|
|20 77 69 6C 6C 20 62 65 20 73 6F 6F 6E 20 70 61 | will be soon pa|
|72 74 20 6F 66 20 74 68 65 20 62 6C 61 63 6B 20 |rt of the black |
|63 68 61 6C 69 63 65 20 61 6C 6C 69 61 6E 63 65 |chalice alliance|
|20 00 00 00 01 80 00 00 00 00 1E 00 00 00 00 00 | ...............|
|00 00 1E 00 00 00 06 00 00 00 00 00 00 00 00 00 |................|
|00 00 00 00 0D F8 1E 00 0D 53 68 61 64 6F 77 20 |.........Shadow |
|53 69 70 68 6F 6E 00 10 41 67 6E 65 73 6D 6F 6F |Siphon..Agnesmoo|
|72 65 68 65 61 64 5E 46 00 1D 53 69 70 68 6F 6E |rehead^F..Siphon|
|69 6E 67 20 69 6E 74 65 6C 6C 65 63 74 20 73 69 |ing intellect si|
|6E 63 65 20 39 31 38 01 3A 57 65 20 73 69 70 68 |nce 918.:We siph|
|6F 6E 20 69 6E 74 65 6C 6C 65 63 74 20 66 72 6F |on intellect fro|
|6D 20 76 69 63 74 69 6D 73 20 74 6F 20 69 6E 66 |m victims to inf|
|75 73 65 20 6F 75 72 73 65 6C 76 65 73 20 77 69 |use ourselves wi|
|74 68 20 65 76 69 6C 20 70 6F 77 65 72 3A 0D 0D |th evil power:..|
|45 76 65 72 20 6E 6F 74 69 63 65 64 20 61 20 72 |Ever noticed a r|
|61 6E 6B 20 31 32 20 77 69 74 68 20 6E 6F 20 6D |ank 12 with no m|
|6F 75 6E 74 3F 20 57 65 20 6D 61 64 65 20 74 68 |ount? We made th|
|61 74 2E 20 53 65 65 6E 20 61 20 72 61 6E 6B 20 |at. Seen a rank |
|32 35 20 77 69 74 68 20 31 20 67 6F 6C 64 20 73 |25 with 1 gold s|
|61 76 65 64 3F 20 57 65 20 63 61 75 73 65 64 20 |aved? We caused |
|74 68 61 74 2E 20 52 61 6E 6B 20 33 35 20 63 61 |that. Rank 35 ca|
|6E 27 74 20 66 69 6E 64 20 62 61 6E 6B 20 76 61 |n't find bank va|
|75 6C 74 3F 20 55 73 20 61 67 61 69 6E 2E 20 57 |ult? Us again. W|
|65 20 20 64 72 61 69 6E 65 64 20 74 68 65 20 62 |e  drained the b|
|72 61 69 6E 73 20 74 68 61 74 20 64 6F 20 52 61 |rains that do Ra|
|74 73 20 26 20 68 65 61 64 20 74 6F 20 54 34 20 |ts & head to T4 |
|77 69 74 68 20 4F 62 6C 69 74 65 72 61 74 6F 72 |with Obliterator|
|2E 0D 0D 48 61 72 76 65 73 74 69 6E 67 20 6D 69 |...Harvesting mi|
|6E 64 73 2C 20 6C 65 61 76 69 6E 67 20 68 75 73 |nds, leaving hus|
|6B 73 2E 00 00 00 01 00 00 00 00 00 0E 00 00 00 |ks..............|
|00 00 00 00 08 00 00 00 7E 00 00 00 00 00 12 52 |........~......R|
|61 76 69 6E 67 20 4E 75 72 67 20 53 69 70 68 6F |aving Nurg Sipho|
|6E 00 00 00 00 00 00 00 0E 1A 1D 00 0B 43 75 6C |n............Cul|
|69 41 6C 6C 65 67 72 69 00 0C 50 6F 72 6B 65 72 |iAllegri..Porker|
|66 61 63 65 5E 46 00 00 00 00 00 00 00 00 00 01 |face^F..........|
|00 00 00 00 00 00 00 00 00 00 00 08 00 00 00 08 |................|
|00 00 00 00 00 00 00 00 00 00 00 00 00 0E 9C 17 |................|
|00 16 48 61 6D 73 74 65 72 73 20 6F 66 20 61 70 |..Hamsters of ap|
|6F 63 61 6C 79 70 73 65 00 08 42 61 67 6E 65 6C |ocalypse..Bagnel|
|5E 4D 00 00 00 00 01 04 01 FF E0 00 00 00 00 10 |^M..............|
|00 00 00 00 00 00 00 08 00 00 00 06 00 00 00 00 |................|
|00 00 00 00 00 00 00 00 00 0E C5 28 00 09 42 6C |...........(..Bl|
|61 63 6B 6C 69 73 74 00 09 49 73 6D 65 74 74 6F |acklist..Ismetto|
|5E 4D 00 10 47 20 41 20 4D 20 45 20 20 4F 20 56 |^M..G A M E  O V|
|20 45 20 52 00 1B 20 20 20 20 20 20 20 20 20 20 | E R..          |
|20 20 20 20 54 48 45 20 45 4E 44 0D 0D 0D 0D 0D |    THE END.....|
|0D 00 00 00 00 00 01 00 00 00 00 00 00 00 00 00 |................|
|00 00 1E 00 00 00 23 00 00 00 01 00 14 44 61 20 |......#......Da |
|5A 61 6B 73 68 69 20 42 69 67 20 57 61 61 61 67 |Zakshi Big Waaag|
|68 01 00 09 44 61 62 75 62 65 6C 5E 4D 00 00 00 |h...Dabubel^M...|
|00                                              |.               |
-------------------------------------------------------------------
[Server] packet : (0x14) F_HIT_PLAYER  Size = 15 
|------------------------------------------------|----------------|
|00 01 02 03 04 05 06 07 08 09 0A 0B 0C 0D 0E 0F |0123456789ABCDEF|
|------------------------------------------------|----------------|
|00 0C 14 00 00 32 09 00 00 1F 24 4F 00 00 00    |............... |
-------------------------------------------------------------------
[Client] packet : (0x16) F_REQUEST_INIT_OBJECT  Size = 16 
|------------------------------------------------|----------------|
|00 01 02 03 04 05 06 07 08 09 0A 0B 0C 0D 0E 0F |0123456789ABCDEF|
|------------------------------------------------|----------------|
|00 04 B7 29 00 6E 00 00 00 16 2D B6 00 00 00 00 |...).n....-.....|                                                
-------------------------------------------------------------------
[Server] packet : (0x72) F_CREATE_MONSTER  Size = 121 
|------------------------------------------------|----------------|
|00 01 02 03 04 05 06 07 08 09 0A 0B 0C 0D 0E 0F |0123456789ABCDEF|
|------------------------------------------------|----------------|
|00 76 72 2D B6 00 00 08 7F 4F 46 00 15 A5 3D 00 |.vr-.....OF...=.|
|0B 1E 81 00 00 07 99 32 27 80 00 00 00 00 00 00 |.......2'.......|
|00 01 00 00 00 00 00 00 00 00 00 00 00 00 00 01 |................|
|19 00 42 6C 61 63 6B 2D 46 65 61 74 68 65 72 65 |..Black-Feathere|
|64 20 54 7A 65 65 6E 74 63 68 20 46 61 6D 69 6C |d Tzeentch Famil|
|69 61 72 5E 4E 00 00 00 00 03 01 0A 00 21 F2 12 |iar^N........!..|
|05 00 2D B6 25 3D 9E 81 4F 46 64 40 68 10 00 00 |..-.%=..OFd@h...|
|00 03 7F 08 2D B6 00 00 00                      |.........       |
-------------------------------------------------------------------
[Server] packet : (0x0A) F_OBJECT_DEATH  Size = 15 
|------------------------------------------------|----------------|
|00 01 02 03 04 05 06 07 08 09 0A 0B 0C 0D 0E 0F |0123456789ABCDEF|
|------------------------------------------------|----------------|
|00 0C 0A 14 CE 00 00 00 00 00 00 00 00 00 00    |............... |
-------------------------------------------------------------------
[Client] packet : (0x5A) F_PING_DATAGRAM  Size = 13 
|------------------------------------------------|----------------|
|00 01 02 03 04 05 06 07 08 09 0A 0B 0C 0D 0E 0F |0123456789ABCDEF|
|------------------------------------------------|----------------|
|00 01 B7 2E 00 6E FF FF 00 5A 00 00 FE          |.............   |
-------------------------------------------------------------------
[Server] packet : (0x33) UNKNOWN  Size = 16 
|------------------------------------------------|----------------|
|00 01 02 03 04 05 06 07 08 09 0A 0B 0C 0D 0E 0F |0123456789ABCDEF|
|------------------------------------------------|----------------|
|00 0D 33 01 73 BB 22 1B 25 F6 A1 3C 4E D0 8C 00 |..3.s.".%..<N...|                                                
-------------------------------------------------------------------