
[Server] packet : (0x51) F_ANIMATION  Size = 9 
|------------------------------------------------|----------------|
|00 01 02 03 04 05 06 07 08 09 0A 0B 0C 0D 0E 0F |0123456789ABCDEF|
|------------------------------------------------|----------------|
|00 06 51 01 C7 00 9B 00 00                      |.........       |
-------------------------------------------------------------------
[Client] packet : (0x5A) F_PING_DATAGRAM  Size = 13 
|------------------------------------------------|----------------|
|00 01 02 03 04 05 06 07 08 09 0A 0B 0C 0D 0E 0F |0123456789ABCDEF|
|------------------------------------------------|----------------|
|00 01 2A 46 00 41 FF FF 00 5A 00 9A 15          |.............   |
-------------------------------------------------------------------
[Client] packet : (0x01) UNKNOWN  Size = 32 
|------------------------------------------------|----------------|
|00 01 02 03 04 05 06 07 08 09 0A 0B 0C 0D 0E 0F |0123456789ABCDEF|
|------------------------------------------------|----------------|
|00 14 2A 46 00 41 00 00 00 01 00 30 1F FE 20 07 |..*F.A.....0.. .|
|2A 68 90 38 40 04 00 23 7B BA 08 18 FA 6E 00 00 |*h.8@..#{....n..|                                                
-------------------------------------------------------------------
[Server] packet : (0x00) UNKNOWN  Size = 23 
|------------------------------------------------|----------------|
|00 01 02 03 04 05 06 07 08 09 0A 0B 0C 0D 0E 0F |0123456789ABCDEF|
|------------------------------------------------|----------------|
|00 14 00 00 30 1F FE AC C7 EC BB 00 00 00 00 00 |....0...........|
|23 7B BA 08 18 FA 00                            |.......         |
-------------------------------------------------------------------
[Client] packet : (0x16) F_REQUEST_INIT_OBJECT  Size = 16 
|------------------------------------------------|----------------|
|00 01 02 03 04 05 06 07 08 09 0A 0B 0C 0D 0E 0F |0123456789ABCDEF|
|------------------------------------------------|----------------|
|00 04 2A 49 00 41 00 00 00 16 04 CC 00 00 3A 32 |..*I.A........:2|                                                
-------------------------------------------------------------------
[Server] packet : (0x72) F_CREATE_MONSTER  Size = 111 
|------------------------------------------------|----------------|
|00 01 02 03 04 05 06 07 08 09 0A 0B 0C 0D 0E 0F |0123456789ABCDEF|
|------------------------------------------------|----------------|
|00 6C 72 04 CC 00 EB 05 D2 00 00 00 06 BE 02 00 |.lr.............|
|01 F8 7A 00 00 04 48 32 27 81 00 00 00 00 00 00 |..z...H2'.......|
|00 01 00 03 E8 00 00 00 00 BA B8 00 06 00 00 01 |................|
|19 00 4D 6F 6E 6F 6C 69 74 68 20 48 6F 72 72 6F |..Monolith Horro|
|72 5E 6D 00 00 00 00 0F 01 0A 00 00 00 1A 05 00 |r^m.............|
|04 CC 7E 02 78 7A 00 00 64 01 A1 00 00 00 00 0F |..~.xz..d.......|
|EB 00 00 02 7E 7A 78 62 41 A1 04 CC 00 00 00    |............... |
-------------------------------------------------------------------
[Client] packet : (0x16) F_REQUEST_INIT_OBJECT  Size = 16 
|------------------------------------------------|----------------|
|00 01 02 03 04 05 06 07 08 09 0A 0B 0C 0D 0E 0F |0123456789ABCDEF|
|------------------------------------------------|----------------|
|00 04 2A 4C 00 41 00 00 00 16 09 2B 00 00 F9 11 |..*L.A.....+....|                                                
-------------------------------------------------------------------
[Server] packet : (0x72) F_CREATE_MONSTER  Size = 109 
|------------------------------------------------|----------------|
|00 01 02 03 04 05 06 07 08 09 0A 0B 0C 0D 0E 0F |0123456789ABCDEF|
|------------------------------------------------|----------------|
|00 6A 72 09 2B 00 EB 09 39 42 14 00 06 C4 9E 00 |.jr.+...9B......|
|02 1F F3 00 00 06 88 32 0A 00 00 00 00 00 00 00 |.......2........|
|00 00 00 03 E8 00 00 00 00 B7 CA 00 02 00 00 02 |................|
|18 19 00 48 6F 72 72 69 66 69 65 64 20 53 6F 75 |...Horrified Sou|
|6C 5E 6D 00 04 CD 01 0A 00 00 00 1A 05 00 09 2B |l^m............+|
|84 9E 9F F3 42 14 64 01 A1 00 00 00 00 00 EB 00 |....B.d.........|
|00 3C 86 D9 9C 1A 42 A1 09 2B 00 00 00          |.............   |
-------------------------------------------------------------------
[Server] packet : (0xDE) F_OBJECT_EFFECT_STATE  Size = 9 
|------------------------------------------------|----------------|
|00 01 02 03 04 05 06 07 08 09 0A 0B 0C 0D 0E 0F |0123456789ABCDEF|
|------------------------------------------------|----------------|
|00 06 DE 09 2B 01 0C 01 00                      |.........       |
-------------------------------------------------------------------
[Server] packet : (0xA3) F_ACTIVE_EFFECTS  Size = 18 
|------------------------------------------------|----------------|
|00 01 02 03 04 05 06 07 08 09 0A 0B 0C 0D 0E 0F |0123456789ABCDEF|
|------------------------------------------------|----------------|
|00 0F A3 09 2B 01 0C 17 2B 09 01 00 03 01 AC B7 |....+...+.......|
|AA 00                                           |..              |
-------------------------------------------------------------------
[Client] packet : (0x16) F_REQUEST_INIT_OBJECT  Size = 16 
|------------------------------------------------|----------------|
|00 01 02 03 04 05 06 07 08 09 0A 0B 0C 0D 0E 0F |0123456789ABCDEF|
|------------------------------------------------|----------------|
|00 04 2A 4E 00 41 00 00 00 16 12 96 00 00 96 12 |..*N.A..........|                                                
-------------------------------------------------------------------
[Client] packet : (0x0B) F_PING  Size = 32 
|------------------------------------------------|----------------|
|00 01 02 03 04 05 06 07 08 09 0A 0B 0C 0D 0E 0F |0123456789ABCDEF|
|------------------------------------------------|----------------|
|00 14 2A 4F 00 41 00 00 00 0B 00 30 2D 5B F5 FF |..*O.A.....0-[..|
|FB ED F6 7D 58 17 00 00 00 00 00 00 00 00 C5 F0 |...}X...........|                                                
-------------------------------------------------------------------
[Server] packet : (0x72) F_CREATE_MONSTER  Size = 131 
|------------------------------------------------|----------------|
|00 01 02 03 04 05 06 07 08 09 0A 0B 0C 0D 0E 0F |0123456789ABCDEF|
|------------------------------------------------|----------------|
|00 80 72 12 96 00 55 01 3A 41 86 00 06 CF FE 00 |..r...U.:A......|
|02 0C 29 00 00 03 F8 32 13 00 00 00 00 00 00 00 |..)....2........|
|00 00 00 03 E8 00 00 00 00 B9 6B 00 00 00 00 01 |..........k.....|
|19 00 42 6C 6F 6F 64 70 65 6C 74 20 55 6E 67 6F |..Bloodpelt Ungo|
|72 5E 6D 00 01 0A 00 00 00 1A 1D 00 12 96 8F FE |r^m.............|
|8C 29 41 86 64 01 A1 00 00 00 00 00 55 00 00 E3 |.)A.d.......U...|
|8F 5E 8C 86 41 A1 12 96 00 06 00 0A 07 89 00 14 |.^..A...........|
|0B F4 00 15 0B F5 00 16 0B F6 00 18 0B F7 00 1C |................|
|0B F8 00                                        |...             |
-------------------------------------------------------------------
[Server] packet : (0x81) S_PONG  Size = 23 
|------------------------------------------------|----------------|
|00 01 02 03 04 05 06 07 08 09 0A 0B 0C 0D 0E 0F |0123456789ABCDEF|
|------------------------------------------------|----------------|
|00 14 81 00 30 2D 5B 52 81 DD 28 00 00 00 00 00 |....0-[R..(.....|
|00 2A 50 00 00 00 00                            |.......         |
-------------------------------------------------------------------
[Server] packet : (0xDE) F_OBJECT_EFFECT_STATE  Size = 9 
|------------------------------------------------|----------------|
|00 01 02 03 04 05 06 07 08 09 0A 0B 0C 0D 0E 0F |0123456789ABCDEF|
|------------------------------------------------|----------------|
|00 06 DE 10 4F 01 0C 01 00                      |.........       |
-------------------------------------------------------------------
[Server] packet : (0xDE) F_OBJECT_EFFECT_STATE  Size = 9 
|------------------------------------------------|----------------|
|00 01 02 03 04 05 06 07 08 09 0A 0B 0C 0D 0E 0F |0123456789ABCDEF|
|------------------------------------------------|----------------|
|00 06 DE 10 4F 01 0C 00 00                      |.........       |
-------------------------------------------------------------------
[Server] packet : (0x0A) F_OBJECT_DEATH  Size = 15 
|------------------------------------------------|----------------|
|00 01 02 03 04 05 06 07 08 09 0A 0B 0C 0D 0E 0F |0123456789ABCDEF|
|------------------------------------------------|----------------|
|00 0C 0A 10 4F 00 00 00 00 00 00 00 00 00 00    |............... |
-------------------------------------------------------------------
[Server] packet : (0x0A) F_OBJECT_DEATH  Size = 15 
|------------------------------------------------|----------------|
|00 01 02 03 04 05 06 07 08 09 0A 0B 0C 0D 0E 0F |0123456789ABCDEF|
|------------------------------------------------|----------------|
|00 0C 0A 11 5F 00 00 00 00 00 00 00 00 00 00    |............... |
-------------------------------------------------------------------
[Client] packet : (0x16) F_REQUEST_INIT_OBJECT  Size = 16 
|------------------------------------------------|----------------|
|00 01 02 03 04 05 06 07 08 09 0A 0B 0C 0D 0E 0F |0123456789ABCDEF|
|------------------------------------------------|----------------|
|00 04 2A 52 00 41 00 00 00 16 25 9E 00 00 D2 2A |..*R.A....%....*|                                                
-------------------------------------------------------------------
[Client] packet : (0x16) F_REQUEST_INIT_OBJECT  Size = 16 
|------------------------------------------------|----------------|
|00 01 02 03 04 05 06 07 08 09 0A 0B 0C 0D 0E 0F |0123456789ABCDEF|
|------------------------------------------------|----------------|
|00 04 2A 53 00 41 00 00 00 16 28 0D 00 00 83 BC |..*S.A....(.....|                                                
-------------------------------------------------------------------
[Client] packet : (0xE8) F_CLIENT_DATA  Size = 20 
|------------------------------------------------|----------------|
|00 01 02 03 04 05 06 07 08 09 0A 0B 0C 0D 0E 0F |0123456789ABCDEF|
|------------------------------------------------|----------------|
|00 08 2A 54 00 41 00 00 00 E8 00 18 00 04 6E 21 |..*T.A........n!|
|01 00 00 00                                     |....            |
-------------------------------------------------------------------
[Client] packet : (0xE8) F_CLIENT_DATA  Size = 20 
|------------------------------------------------|----------------|
|00 01 02 03 04 05 06 07 08 09 0A 0B 0C 0D 0E 0F |0123456789ABCDEF|
|------------------------------------------------|----------------|
|00 08 2A 55 00 41 00 00 00 E8 00 A4 00 04 4E 38 |..*U.A........N8|
|01 00 30 C7                                     |....            |
-------------------------------------------------------------------
[Client] packet : (0xE8) F_CLIENT_DATA  Size = 20 
|------------------------------------------------|----------------|
|00 01 02 03 04 05 06 07 08 09 0A 0B 0C 0D 0E 0F |0123456789ABCDEF|
|------------------------------------------------|----------------|
|00 08 2A 56 00 41 00 00 00 E8 00 24 00 04 74 21 |..*V.A.....$..t!|
|01 00 C1 EC                                     |....            |
-------------------------------------------------------------------
[Server] packet : (0x72) F_CREATE_MONSTER  Size = 135 
|------------------------------------------------|----------------|
|00 01 02 03 04 05 06 07 08 09 0A 0B 0C 0D 0E 0F |0123456789ABCDEF|
|------------------------------------------------|----------------|
|00 84 72 25 9E 00 55 03 6F 41 F6 00 06 C7 16 00 |..r%..U.oA......|
|02 0B 9E 00 00 03 F8 32 13 00 00 00 00 00 00 00 |.......2........|
|00 00 00 03 E8 00 00 00 00 B9 6C 00 00 00 00 01 |..........l.....|
|19 00 53 6B 75 6C 6C 68 6F 72 6E 20 55 6E 67 6F |..Skullhorn Ungo|
|72 5E 6D 00 01 0A 00 00 00 1A 21 00 25 9E 87 16 |r^m.......!.%...|
|8B 9E 41 F6 64 01 A1 00 00 00 00 00 55 00 00 B0 |..A.d.......U...|
|86 B5 8B F6 41 A1 25 9E 00 07 00 0A 07 7B 00 14 |....A.%......{..|
|0B CC 00 15 0B CD 00 16 0B CE 00 18 0B CF 00 19 |................|
|0C 7A 00 1C 0B D0 00                            |.......         |
-------------------------------------------------------------------
[Server] packet : (0x72) F_CREATE_MONSTER  Size = 103 
|------------------------------------------------|----------------|
|00 01 02 03 04 05 06 07 08 09 0A 0B 0C 0D 0E 0F |0123456789ABCDEF|
|------------------------------------------------|----------------|
|00 64 72 28 0D 00 EB 0C 44 00 00 00 06 C4 3B 00 |.dr(....D.....;.|
|01 F7 F6 00 00 04 49 37 27 85 00 00 00 00 00 00 |......I7'.......|
|00 01 00 03 E9 00 00 00 00 BA B8 00 08 00 00 01 |................|
|19 00 4D 6F 6E 6F 6C 69 74 68 20 46 6C 61 6D 65 |..Monolith Flame|
|72 5E 6D 00 00 00 00 0F 01 0A 00 00 00 12 05 00 |r^m.............|
|28 0D 84 3B 77 F6 00 00 64 00 A1 00 00 00 00 0F |(..;w...d.......|
|44 0C 28 0D 00 00 00                            |.......         |
-------------------------------------------------------------------
[Server] packet : (0x1E) F_MAX_VELOCITY  Size = 7 
|------------------------------------------------|----------------|
|00 01 02 03 04 05 06 07 08 09 0A 0B 0C 0D 0E 0F |0123456789ABCDEF|
|------------------------------------------------|----------------|
|00 04 1E 00 64 01 00                            |.......         |
-------------------------------------------------------------------
[Server] packet : (0xD7) F_INIT_EFFECTS  Size = 14 
|------------------------------------------------|----------------|
|00 01 02 03 04 05 06 07 08 09 0A 0B 0C 0D 0E 0F |0123456789ABCDEF|
|------------------------------------------------|----------------|
|00 0B D7 01 02 00 00 23 2E 19 00 84 3A 00       |..............  |
-------------------------------------------------------------------
[Server] packet : (0x6F) F_LOCALIZED_STRING  Size = 13 
|------------------------------------------------|----------------|
|00 01 02 03 04 05 06 07 08 09 0A 0B 0C 0D 0E 0F |0123456789ABCDEF|
|------------------------------------------------|----------------|
|00 0A 6F 02 1A 00 00 03 0E 00 00 00 00          |.............   |
-------------------------------------------------------------------
[Client] packet : (0x16) F_REQUEST_INIT_OBJECT  Size = 16 
|------------------------------------------------|----------------|
|00 01 02 03 04 05 06 07 08 09 0A 0B 0C 0D 0E 0F |0123456789ABCDEF|
|------------------------------------------------|----------------|
|00 04 2A 58 00 41 00 00 00 16 19 A4 00 00 00 00 |..*X.A..........|                                                
-------------------------------------------------------------------
[Client] packet : (0x16) F_REQUEST_INIT_OBJECT  Size = 16 
|------------------------------------------------|----------------|
|00 01 02 03 04 05 06 07 08 09 0A 0B 0C 0D 0E 0F |0123456789ABCDEF|
|------------------------------------------------|----------------|
|00 04 2A 59 00 41 00 00 00 16 01 EB 00 00 8A B3 |..*Y.A..........|                                                
-------------------------------------------------------------------
[Client] packet : (0x16) F_REQUEST_INIT_OBJECT  Size = 16 
|------------------------------------------------|----------------|
|00 01 02 03 04 05 06 07 08 09 0A 0B 0C 0D 0E 0F |0123456789ABCDEF|
|------------------------------------------------|----------------|
|00 04 2A 5A 00 41 00 00 00 16 01 EE 00 00 C2 6B |..*Z.A.........k|                                                
-------------------------------------------------------------------
[Server] packet : (0xA9) F_UPDATE_HOT_SPOT  Size = 406 
|------------------------------------------------|----------------|
|00 01 02 03 04 05 06 07 08 09 0A 0B 0C 0D 0E 0F |0123456789ABCDEF|
|------------------------------------------------|----------------|
|01 93 A9 50 02 00 01 00 00 00 00 02 00 00 00 00 |...P............|
|03 00 00 00 00 04 00 00 00 00 05 00 00 00 00 06 |................|
|00 00 00 00 07 00 00 00 00 08 00 00 00 00 09 00 |................|
|00 00 00 0A 00 00 00 00 0B 00 00 00 00 1A 00 00 |................|
|00 00 1B 00 00 00 00 44 00 00 00 00 46 00 00 00 |.......D....F...|
|00 47 00 00 00 00 4A 00 00 00 00 4B 00 00 00 00 |.G....J....K....|
|58 00 00 00 00 64 00 00 00 00 65 00 00 00 00 66 |X....d....e....f|
|00 00 00 00 67 00 00 00 00 68 00 00 00 00 69 00 |....g....h....i.|
|00 00 00 6A 00 00 00 00 6B 00 00 00 00 6C 00 00 |...j....k....l..|
|00 00 6D 00 00 00 00 6E 00 00 00 00 75 00 00 00 |..m....n....u...|
|00 76 00 00 00 00 78 00 00 00 00 81 00 00 00 00 |.v....x.........|
|90 00 00 00 00 91 00 00 00 00 A1 00 00 00 00 A2 |................|
|00 00 00 00 AF 00 00 00 00 B2 00 00 00 00 BE 00 |................|
|00 00 00 BF 00 00 00 00 C0 00 00 00 00 C1 00 00 |................|
|00 00 C6 00 00 00 00 C8 00 00 00 00 C9 00 00 00 |................|
|00 CA 00 00 00 00 CB 02 00 00 00 CC 00 00 00 00 |................|
|CD 00 00 00 00 CE 00 00 00 00 CF 00 00 00 00 D0 |................|
|00 00 00 00 D1 00 00 00 00 D2 00 00 00 00 D3 00 |................|
|00 00 00 D5 00 00 00 00 D7 00 00 00 00 D8 00 00 |................|
|00 00 D9 00 00 00 00 DC 00 00 00 00 DD 00 00 00 |................|
|00 DE 00 00 00 00 E3 00 00 00 00 E4 00 00 00 00 |................|
|FA 00 00 00 00 FB 00 00 00 00 FC 00 00 00 00 FD |................|
|00 00 00 01 15 00 00 00 01 16 00 00 00 01 18 00 |................|
|00 00 01 1B 00 00 00 01 1C 00 00 00 01 1D 00 00 |................|
|00 01 1F 00 00 00 01 22 00 00 00 01 23 00 00 00 |......."....#...|
|01 24 00 00 00 00                               |......          |
-------------------------------------------------------------------
[Server] packet : (0x72) F_CREATE_MONSTER  Size = 140 
|------------------------------------------------|----------------|
|00 01 02 03 04 05 06 07 08 09 0A 0B 0C 0D 0E 0F |0123456789ABCDEF|
|------------------------------------------------|----------------|
|00 89 72 19 A4 00 00 09 E9 43 1C 00 06 97 20 00 |..r......C.... .|
|02 11 FC 00 00 04 C4 37 2C 85 00 00 00 00 20 00 |.......7,..... .|
|00 01 00 03 E9 00 00 00 00 B7 DF 00 01 00 00 02 |................|
|18 19 00 4D 6F 6E 6F 6C 69 74 68 20 41 64 68 65 |...Monolith Adhe|
|72 65 6E 74 5E 6D 00 00 00 00 08 09 9E 01 0A 00 |rent^m..........|
|00 00 12 25 00 19 A4 57 20 91 FC 43 1C 64 00 A1 |...%...W ..C.d..|
|00 00 00 00 08 E9 09 19 A4 00 08 00 0A 0C B2 00 |................|
|0B 05 CB 00 14 0B 24 00 15 0B 2C 00 16 0B 2B 00 |......$...,...+.|
|17 0B 40 00 18 0B 2D 00 1C 0B 23 00             |............    |
-------------------------------------------------------------------
[Client] packet : (0x0D) F_DUMP_STATICS  Size = 24 
|------------------------------------------------|----------------|
|00 01 02 03 04 05 06 07 08 09 0A 0B 0C 0D 0E 0F |0123456789ABCDEF|
|------------------------------------------------|----------------|
|00 0C 2A 5C 00 41 00 00 00 0D 00 00 00 00 00 00 |..*\.A..........|
|00 6A 00 00 00 20 18 00                         |........        |
-------------------------------------------------------------------
[Server] packet : (0x7E) F_SET_ABILITY_TIMER  Size = 15 
|------------------------------------------------|----------------|
|00 01 02 03 04 05 06 07 08 09 0A 0B 0C 0D 0E 0F |0123456789ABCDEF|
|------------------------------------------------|----------------|
|00 0C 7E 3A 84 00 00 00 00 00 00 00 00 00 00    |............... |
-------------------------------------------------------------------
[Server] packet : (0x7E) F_SET_ABILITY_TIMER  Size = 15 
|------------------------------------------------|----------------|
|00 01 02 03 04 05 06 07 08 09 0A 0B 0C 0D 0E 0F |0123456789ABCDEF|
|------------------------------------------------|----------------|
|00 0C 7E 3A 84 00 00 00 00 00 00 00 00 00 00    |............... |
-------------------------------------------------------------------
[Server] packet : (0x72) F_CREATE_MONSTER  Size = 106 
|------------------------------------------------|----------------|
|00 01 02 03 04 05 06 07 08 09 0A 0B 0C 0D 0E 0F |0123456789ABCDEF|
|------------------------------------------------|----------------|
|00 67 72 01 EB 00 00 01 8F 44 86 00 06 97 63 00 |.gr......D....c.|
|01 FF 19 00 00 00 4C 32 0A 81 00 00 00 00 00 00 |......L2........|
|00 01 00 03 E8 00 00 00 00 BA 08 00 07 00 00 01 |................|
|19 00 4C 69 67 68 74 20 42 72 6F 77 6E 20 57 61 |..Light Brown Wa|
|72 20 42 6F 61 72 00 00 00 00 08 01 0A 00 00 00 |r Boar..........|
|12 05 00 01 EB 57 63 7F 19 44 86 64 00 A1 00 00 |.....Wc..D.d....|
|00 00 08 8F 01 01 EB 00 00 00                   |..........      |
-------------------------------------------------------------------
[Server] packet : (0x72) F_CREATE_MONSTER  Size = 100 
|------------------------------------------------|----------------|
|00 01 02 03 04 05 06 07 08 09 0A 0B 0C 0D 0E 0F |0123456789ABCDEF|
|------------------------------------------------|----------------|
|00 61 72 01 EE 00 00 0C 76 44 74 00 06 92 25 00 |.ar.....vDt...%.|
|01 FB B5 00 00 00 65 32 0A 81 00 00 00 00 00 00 |......e2........|
|00 01 00 03 E8 00 00 00 00 BA 08 00 09 00 00 01 |................|
|19 00 57 68 69 74 65 20 43 6F 6C 64 20 4F 6E 65 |..White Cold One|
|00 00 00 00 08 01 0A 00 00 00 12 05 00 01 EE 52 |...............R|
|25 7B B5 44 74 64 00 A1 00 00 00 00 08 76 0C 01 |%{.Dtd.......v..|
|EE 00 00 00                                     |....            |
-------------------------------------------------------------------
[Server] packet : (0x71) F_CREATE_STATIC  Size = 54 
|------------------------------------------------|----------------|
|00 01 02 03 04 05 06 07 08 09 0A 0B 0C 0D 0E 0F |0123456789ABCDEF|
|------------------------------------------------|----------------|
|00 33 71 02 EE 00 00 00 00 3F 56 00 06 95 CD 00 |.3q......?V.....|
|02 0A 00 FF FF 1E 00 00 00 BB 86 00 09 04 00 00 |................|
|00 00 64 AA 2E 5C 63 00 00 00 00 05 47 72 61 74 |..d..\c.....Grat|
|65 04 0A 12 7D 00                               |......          |
-------------------------------------------------------------------
[Server] packet : (0x71) F_CREATE_STATIC  Size = 56 
|------------------------------------------------|----------------|
|00 01 02 03 04 05 06 07 08 09 0A 0B 0C 0D 0E 0F |0123456789ABCDEF|
|------------------------------------------------|----------------|
|00 35 71 01 91 00 00 01 E9 42 AF 00 06 98 98 00 |.5q......B......|
|02 06 19 05 D8 1E 00 00 00 B9 75 00 00 20 00 00 |..........u.. ..|
|00 00 64 00 05 C7 27 00 00 00 00 0B 42 6F 69 6C |..d...'.....Boil|
|69 6E 67 20 56 61 74 00                         |........        |
-------------------------------------------------------------------
[Server] packet : (0x71) F_CREATE_STATIC  Size = 59 
|------------------------------------------------|----------------|
|00 01 02 03 04 05 06 07 08 09 0A 0B 0C 0D 0E 0F |0123456789ABCDEF|
|------------------------------------------------|----------------|
|00 38 71 01 92 00 00 0D 6C 42 A7 00 06 96 E7 00 |.8q.....lB......|
|02 06 D9 03 2C 1E 00 00 00 B9 75 00 03 20 00 00 |....,.....u.. ..|
|00 00 64 9D 21 EB 06 00 00 00 00 0E 4B 61 72 74 |..d.!.......Kart|
|68 6F 6B 27 73 20 50 69 6B 65 00                |...........     |
-------------------------------------------------------------------
[Server] packet : (0x71) F_CREATE_STATIC  Size = 59 
|------------------------------------------------|----------------|
|00 01 02 03 04 05 06 07 08 09 0A 0B 0C 0D 0E 0F |0123456789ABCDEF|
|------------------------------------------------|----------------|
|00 38 71 01 93 00 00 0B 49 42 A7 00 06 97 21 00 |.8q.....IB....!.|
|02 06 7E 03 2C 1E 00 00 00 B9 75 00 02 20 00 00 |..~.,.....u.. ..|
|00 00 64 A4 F9 70 D3 00 00 00 00 0E 4B 61 72 74 |..d..p......Kart|
|68 6F 6B 27 73 20 50 69 6B 65 00                |...........     |
-------------------------------------------------------------------
[Server] packet : (0x71) F_CREATE_STATIC  Size = 55 
|------------------------------------------------|----------------|
|00 01 02 03 04 05 06 07 08 09 0A 0B 0C 0D 0E 0F |0123456789ABCDEF|
|------------------------------------------------|----------------|
|00 34 71 01 94 00 00 09 F4 42 A7 00 06 97 66 00 |.4q......B....f.|
|02 06 6F 03 2C 1E 00 00 00 B9 75 00 01 20 00 00 |..o.,.....u.. ..|
|00 00 64 00 05 C7 27 00 00 00 00 0A 45 6D 70 74 |..d...'.....Empt|
|79 20 50 69 6B 65 00                            |.......         |
-------------------------------------------------------------------
[Server] packet : (0x71) F_CREATE_STATIC  Size = 63 
|------------------------------------------------|----------------|
|00 01 02 03 04 05 06 07 08 09 0A 0B 0C 0D 0E 0F |0123456789ABCDEF|
|------------------------------------------------|----------------|
|00 3C 71 01 95 00 00 0D 6C 42 A7 00 06 97 05 00 |.<q.....lB......|
|02 06 AA 01 3E 1E 00 00 00 B9 75 00 04 00 00 00 |....>.....u.....|
|00 00 64 00 05 C7 27 00 00 00 00 12 53 6B 75 6C |..d...'.....Skul|
|6C 2D 61 64 6F 72 6E 65 64 20 50 69 6B 65 00    |............... |
-------------------------------------------------------------------
[Server] packet : (0x71) F_CREATE_STATIC  Size = 51 
|------------------------------------------------|----------------|
|00 01 02 03 04 05 06 07 08 09 0A 0B 0C 0D 0E 0F |0123456789ABCDEF|
|------------------------------------------------|----------------|
|00 30 71 01 A2 00 00 0F DD 43 64 00 06 98 49 00 |.0q......Cd...I.|
|02 10 C8 06 2F 1E 02 00 00 B9 82 00 00 04 00 00 |..../...........|
|00 00 64 00 05 C7 27 00 00 00 00 06 50 6F 72 74 |..d...'.....Port|
|61 6C 00                                        |...             |
-------------------------------------------------------------------
[Server] packet : (0x71) F_CREATE_STATIC  Size = 57 
|------------------------------------------------|----------------|
|00 01 02 03 04 05 06 07 08 09 0A 0B 0C 0D 0E 0F |0123456789ABCDEF|
|------------------------------------------------|----------------|
|00 36 71 04 A4 00 00 0D D2 43 16 00 06 92 C9 00 |.6q......C......|
|02 0B 60 03 A1 1E 02 00 00 B7 E6 00 01 20 00 00 |..`.......... ..|
|00 00 64 00 05 CE 65 00 00 00 00 0C 44 68 61 72 |..d...e.....Dhar|
|27 65 6B 20 43 6F 72 65 00                      |.........       |
-------------------------------------------------------------------
[Server] packet : (0x71) F_CREATE_STATIC  Size = 64 
|------------------------------------------------|----------------|
|00 01 02 03 04 05 06 07 08 09 0A 0B 0C 0D 0E 0F |0123456789ABCDEF|
|------------------------------------------------|----------------|
|00 3D 71 05 45 00 00 06 7D 45 A6 00 06 98 F8 00 |.=q.E...}E......|
|02 11 67 00 00 1E 02 00 00 B7 F5 00 00 20 00 00 |..g.......... ..|
|00 00 64 12 88 73 04 00 00 00 00 13 49 63 6F 6E |..d..s......Icon|
|20 6F 66 20 74 68 65 20 4F 6C 64 20 4F 6E 65 00 | of the Old One.|                                                
-------------------------------------------------------------------
[Server] packet : (0x71) F_CREATE_STATIC  Size = 59 
|------------------------------------------------|----------------|
|00 01 02 03 04 05 06 07 08 09 0A 0B 0C 0D 0E 0F |0123456789ABCDEF|
|------------------------------------------------|----------------|
|00 38 71 06 F0 00 00 0B 3E 43 16 00 06 9F A3 00 |.8q.....>C......|
|02 12 35 15 98 1E 00 00 00 BA 15 00 06 28 00 00 |..5..........(..|
|00 00 64 A9 77 36 8D 00 00 00 00 0E 43 75 72 69 |..d.w6......Curi|
|6F 75 73 20 42 61 72 72 65 6C 00                |...........     |
-------------------------------------------------------------------
[Server] packet : (0x71) F_CREATE_STATIC  Size = 59 
|------------------------------------------------|----------------|
|00 01 02 03 04 05 06 07 08 09 0A 0B 0C 0D 0E 0F |0123456789ABCDEF|
|------------------------------------------------|----------------|
|00 38 71 2D AC 00 00 0E E3 43 28 00 06 91 FA 00 |.8q-.....C(.....|
|02 18 2F 15 98 1E 00 00 00 BA 15 00 09 28 00 00 |../..........(..|
|00 00 64 8B AA 6B F0 00 00 00 00 0E 43 75 72 69 |..d..k......Curi|
|6F 75 73 20 42 61 72 72 65 6C 00                |...........     |
-------------------------------------------------------------------
[Server] packet : (0x71) F_CREATE_STATIC  Size = 53 
|------------------------------------------------|----------------|
|00 01 02 03 04 05 06 07 08 09 0A 0B 0C 0D 0E 0F |0123456789ABCDEF|
|------------------------------------------------|----------------|
|00 32 71 02 67 00 00 05 82 43 16 00 06 90 8D 00 |.2q.g....C......|
|02 0F ED FF FF 1E 00 00 00 BA BB 00 02 04 00 00 |................|
|00 00 64 9D 1F 7F E4 00 00 00 00 04 43 61 72 74 |..d.........Cart|
|04 0A 10 9F 00                                  |.....           |
-------------------------------------------------------------------
[Server] packet : (0x71) F_CREATE_STATIC  Size = 53 
|------------------------------------------------|----------------|
|00 01 02 03 04 05 06 07 08 09 0A 0B 0C 0D 0E 0F |0123456789ABCDEF|
|------------------------------------------------|----------------|
|00 32 71 02 6E 00 00 0A FA 43 16 00 06 9E 9B 00 |.2q.n....C......|
|02 14 C0 FF FF 1E 00 00 00 BA BB 00 00 24 00 00 |.............$..|
|00 00 64 95 B1 A0 EA 00 00 00 00 04 43 61 72 74 |..d.........Cart|
|04 0A 10 9E 00                                  |.....           |
-------------------------------------------------------------------
[Server] packet : (0x71) F_CREATE_STATIC  Size = 59 
|------------------------------------------------|----------------|
|00 01 02 03 04 05 06 07 08 09 0A 0B 0C 0D 0E 0F |0123456789ABCDEF|
|------------------------------------------------|----------------|
|00 38 71 29 44 00 00 0B DD 43 39 00 06 9F 47 00 |.8q)D....C9...G.|
|02 19 71 15 98 1E 00 00 00 BA 15 00 07 28 00 00 |..q..........(..|
|00 00 64 9F 8A 4B EF 00 00 00 00 0E 43 75 72 69 |..d..K......Curi|
|6F 75 73 20 42 61 72 72 65 6C 00                |...........     |
-------------------------------------------------------------------
[Server] packet : (0x71) F_CREATE_STATIC  Size = 57 
|------------------------------------------------|----------------|
|00 01 02 03 04 05 06 07 08 09 0A 0B 0C 0D 0E 0F |0123456789ABCDEF|
|------------------------------------------------|----------------|
|00 36 71 04 A2 00 00 09 DD 43 16 00 06 92 E8 00 |.6q......C......|
|02 16 2C 03 A1 1E 02 00 00 B7 E6 00 00 20 00 00 |..,.......... ..|
|00 00 64 00 05 CE 65 00 00 00 00 0C 44 68 61 72 |..d...e.....Dhar|
|27 65 6B 20 43 6F 72 65 00                      |.........       |
-------------------------------------------------------------------
[Server] packet : (0x71) F_CREATE_STATIC  Size = 57 
|------------------------------------------------|----------------|
|00 01 02 03 04 05 06 07 08 09 0A 0B 0C 0D 0E 0F |0123456789ABCDEF|
|------------------------------------------------|----------------|
|00 36 71 04 A3 00 00 01 BB 43 16 00 06 9D 79 00 |.6q......C....y.|
|02 0B 7C 03 A1 1E 02 00 00 B7 E6 00 02 20 00 00 |..|.......... ..|
|00 00 64 00 05 CE 65 00 00 00 00 0C 44 68 61 72 |..d...e.....Dhar|
|27 65 6B 20 43 6F 72 65 00                      |.........       |
-------------------------------------------------------------------
[Server] packet : (0x7E) F_SET_ABILITY_TIMER  Size = 15 
|------------------------------------------------|----------------|
|00 01 02 03 04 05 06 07 08 09 0A 0B 0C 0D 0E 0F |0123456789ABCDEF|
|------------------------------------------------|----------------|
|00 0C 7E 3A 84 00 00 00 00 00 00 00 00 00 00    |............... |
-------------------------------------------------------------------
[Server] packet : (0xDE) F_OBJECT_EFFECT_STATE  Size = 9 
|------------------------------------------------|----------------|
|00 01 02 03 04 05 06 07 08 09 0A 0B 0C 0D 0E 0F |0123456789ABCDEF|
|------------------------------------------------|----------------|
|00 06 DE 09 88 01 0C 01 00                      |.........       |
-------------------------------------------------------------------
[Server] packet : (0xDE) F_OBJECT_EFFECT_STATE  Size = 9 
|------------------------------------------------|----------------|
|00 01 02 03 04 05 06 07 08 09 0A 0B 0C 0D 0E 0F |0123456789ABCDEF|
|------------------------------------------------|----------------|
|00 06 DE 09 88 01 0C 00 00                      |.........       |
-------------------------------------------------------------------
[Server] packet : (0x0A) F_OBJECT_DEATH  Size = 15 
|------------------------------------------------|----------------|
|00 01 02 03 04 05 06 07 08 09 0A 0B 0C 0D 0E 0F |0123456789ABCDEF|
|------------------------------------------------|----------------|
|00 0C 0A 09 88 00 00 00 00 00 00 00 00 00 00    |............... |
-------------------------------------------------------------------
[Server] packet : (0x1A) F_CAMPAIGN_STATUS  Size = 159 
|------------------------------------------------|----------------|
|00 01 02 03 04 05 06 07 08 09 0A 0B 0C 0D 0E 0F |0123456789ABCDEF|
|------------------------------------------------|----------------|
|00 9C 1A 00 03 00 6D 00 CB 00 00 64 00 00 32 32 |......m....d..22|
|00 32 32 00 32 32 00 22 00 00 32 32 00 32 32 00 |.22.22."..22.22.|
|32 32 00 00 00 00 32 32 00 32 32 00 32 32 68 90 |22....22.22.22h.|
|68 90 68 90 68 90 68 90 68 90 68 90 68 90 68 90 |h.h.h.h.h.h.h.h.|
|68 90 68 90 68 90 00 64 64 00 00 32 00 00 32 00 |h.h.h..dd..2..2.|
|32 00 00 32 64 01 00 00 00 00 00 00 00 00 00 00 |2..2d...........|
|00 00 00 00 00 00 00 00 00 00 00 00 00 00 00 00 |................|
|00 00 00 00 00 00 00 00 00 00 00 00 00 00 00 00 |................|
|00 03 01 01 00 03 03 00 02 02 03 03 01 01 00 03 |................|
|FF 01 64 00 0A 3C 00 00 00 03 84 00 00 00 00    |............... |
-------------------------------------------------------------------