
[Server] packet : (0x81) S_PONG  Size = 23 
|------------------------------------------------|----------------|
|00 01 02 03 04 05 06 07 08 09 0A 0B 0C 0D 0E 0F |0123456789ABCDEF|
|------------------------------------------------|----------------|
|00 14 81 00 0E D5 B1 52 82 86 23 00 00 00 00 00 |.......R..#.....|
|00 09 D6 00 00 00 00                            |.......         |
-------------------------------------------------------------------
[Server] packet : (0x51) F_ANIMATION  Size = 9 
|------------------------------------------------|----------------|
|00 01 02 03 04 05 06 07 08 09 0A 0B 0C 0D 0E 0F |0123456789ABCDEF|
|------------------------------------------------|----------------|
|00 06 51 26 12 00 00 00 00                      |.........       |
-------------------------------------------------------------------
[Client] packet : (0xD2) F_INTERACT  Size = 24 
|------------------------------------------------|----------------|
|00 01 02 03 04 05 06 07 08 09 0A 0B 0C 0D 0E 0F |0123456789ABCDEF|
|------------------------------------------------|----------------|
|00 0C 09 D8 00 49 00 00 00 D2 00 00 04 7A 00 00 |.....I.......z..|
|00 00 00 00 00 00 00 00                         |........        |
-------------------------------------------------------------------
[Server] packet : (0x44) F_ACTION_COUNTER_UPDATE  Size = 11 
|------------------------------------------------|----------------|
|00 01 02 03 04 05 06 07 08 09 0A 0B 0C 0D 0E 0F |0123456789ABCDEF|
|------------------------------------------------|----------------|
|00 08 44 01 D7 00 00 00 00 00 00                |...........     |
-------------------------------------------------------------------
[Server] packet : (0x86) F_MAIL  Size = 6 
|------------------------------------------------|----------------|
|00 01 02 03 04 05 06 07 08 09 0A 0B 0C 0D 0E 0F |0123456789ABCDEF|
|------------------------------------------------|----------------|
|00 03 86 00 00 00                               |......          |
-------------------------------------------------------------------
[Server] packet : (0x86) F_MAIL  Size = 13 
|------------------------------------------------|----------------|
|00 01 02 03 04 05 06 07 08 09 0A 0B 0C 0D 0E 0F |0123456789ABCDEF|
|------------------------------------------------|----------------|
|00 0A 86 0E 00 00 00 00 1E 0A D7 A3 00          |.............   |
-------------------------------------------------------------------
[Server] packet : (0x51) F_ANIMATION  Size = 9 
|------------------------------------------------|----------------|
|00 01 02 03 04 05 06 07 08 09 0A 0B 0C 0D 0E 0F |0123456789ABCDEF|
|------------------------------------------------|----------------|
|00 06 51 01 9A 00 44 00 00                      |.........       |
-------------------------------------------------------------------
[Server] packet : (0x86) F_MAIL  Size = 412 
|------------------------------------------------|----------------|
|00 01 02 03 04 05 06 07 08 09 0A 0B 0C 0D 0E 0F |0123456789ABCDEF|
|------------------------------------------------|----------------|
|01 99 86 0A 00 00 05 00 00 00 00 01 39 DF 2D 00 |............9.-.|
|01 64 FF FF FC F9 FF FF FC F9 00 12 74 64 00 00 |.d..........td..|
|09 48 61 73 61 72 64 5E 46 00 00 08 57 61 72 65 |.Hasard^F...Ware|
|6D 68 75 00 00 0D 63 6F 75 72 69 65 72 20 76 69 |mhu...courier vi|
|64 65 00 00 00 00 00 00 00 00 00 00 00 00 00 00 |de..............|
|00 01 39 DF 36 00 02 64 FF FF FD 9E FF FF FD 9E |..9.6..d........|
|00 27 8A 9E 00 00 09 48 61 73 61 72 64 5E 46 00 |.'.....Hasard^F.|
|00 08 57 61 72 65 6D 68 75 00 00 09 74 65 73 74 |..Waremhu...test|
|20 30 30 32 00 00 00 00 00 00 00 00 00 00 01 00 | 002............|
|00 00 0B 38 00 00 00 00 01 39 DF 3E 00 02 64 FF |...8.....9.>..d.|
|FF FD E3 FF FF FD E3 00 27 8A E3 00 00 09 48 61 |........'.....Ha|
|73 61 72 64 5E 46 00 00 08 57 61 72 65 6D 68 75 |sard^F...Waremhu|
|00 00 09 74 65 73 74 20 30 30 33 00 00 00 00 00 |...test 003.....|
|00 00 07 D0 00 01 00 00 00 1B AE 00 00 00 00 01 |................|
|39 DF 40 00 02 64 FF FF FE 49 FF FF FE 49 00 03 |9.@..d...I...I..|
|F2 C9 00 00 09 48 61 73 61 72 64 5E 46 00 00 08 |.....Hasard^F...|
|57 61 72 65 6D 68 75 00 00 09 74 65 73 74 20 30 |Waremhu...test 0|
|30 34 00 FF FF FF FF FF FF F8 30 00 01 00 00 00 |04........0.....|
|1A 78 00 00 00 00 01 39 DF 47 00 02 64 FF FF FE |.x.....9.G..d...|
|D2 FF FF FE D2 00 27 8B D2 00 00 09 48 61 73 61 |......'.....Hasa|
|72 64 5E 46 00 00 08 57 61 72 65 6D 68 75 00 00 |rd^F...Waremhu..|
|09 74 65 73 74 20 30 30 35 00 00 00 00 00 00 00 |.test 005.......|
|00 00 00 0D 00 00 00 00 0F 38 00 00 01 97 00 00 |.........8......|
|01 87 00 00 1A 66 00 00 10 01 00 00 0F 38 00 00 |.....f.......8..|
|0F 54 00 00 0F 38 00 00 01 97 00 00 0F 21 00 00 |.T...8.......!..|
|0F 54 00 00 0F 21 00 00 03 12 00 00             |............    |
-------------------------------------------------------------------
[Server] packet : (0x86) F_MAIL  Size = 9 
|------------------------------------------------|----------------|
|00 01 02 03 04 05 06 07 08 09 0A 0B 0C 0D 0E 0F |0123456789ABCDEF|
|------------------------------------------------|----------------|
|00 06 86 0A 01 00 00 00 00                      |.........       |
-------------------------------------------------------------------
[Server] packet : (0x51) F_ANIMATION  Size = 9 
|------------------------------------------------|----------------|
|00 01 02 03 04 05 06 07 08 09 0A 0B 0C 0D 0E 0F |0123456789ABCDEF|
|------------------------------------------------|----------------|
|00 06 51 26 12 00 AC 00 00                      |.........       |
-------------------------------------------------------------------
[Server] packet : (0x71) F_CREATE_STATIC  Size = 53 
|------------------------------------------------|----------------|
|00 01 02 03 04 05 06 07 08 09 0A 0B 0C 0D 0E 0F |0123456789ABCDEF|
|------------------------------------------------|----------------|
|00 32 71 17 6F 00 00 00 22 47 13 00 13 0C 71 00 |.2q.o..."G....q.|
|0C E1 20 01 36 1E 00 00 00 57 20 00 01 20 00 00 |.. .6....W .. ..|
|00 00 64 AF 5B EA 29 00 00 00 00 08 46 69 72 65 |..d.[.).....Fire|
|62 61 6C 6C 00                                  |.....           |
-------------------------------------------------------------------
[Client] packet : (0x0B) F_PING  Size = 32 
|------------------------------------------------|----------------|
|00 01 02 03 04 05 06 07 08 09 0A 0B 0C 0D 0E 0F |0123456789ABCDEF|
|------------------------------------------------|----------------|
|00 14 09 E0 00 49 00 00 00 0B 00 0E E8 BC 5F 08 |.....I........_.|
|00 45 05 E4 13 01 00 00 00 00 00 00 00 00 7F 05 |.E..............|                                                
-------------------------------------------------------------------
[Server] packet : (0x81) S_PONG  Size = 23 
|------------------------------------------------|----------------|
|00 01 02 03 04 05 06 07 08 09 0A 0B 0C 0D 0E 0F |0123456789ABCDEF|
|------------------------------------------------|----------------|
|00 14 81 00 0E E8 BC 52 82 86 27 00 00 00 00 00 |.......R..'.....|
|00 09 E1 00 00 00 00                            |.......         |
-------------------------------------------------------------------
[Server] packet : (0x51) F_ANIMATION  Size = 9 
|------------------------------------------------|----------------|
|00 01 02 03 04 05 06 07 08 09 0A 0B 0C 0D 0E 0F |0123456789ABCDEF|
|------------------------------------------------|----------------|
|00 06 51 01 9A 00 AB 00 00                      |.........       |
-------------------------------------------------------------------
[Client] packet : (0x01) UNKNOWN  Size = 32 
|------------------------------------------------|----------------|
|00 01 02 03 04 05 06 07 08 09 0A 0B 0C 0D 0E 0F |0123456789ABCDEF|
|------------------------------------------------|----------------|
|00 14 09 E3 00 49 00 00 00 01 00 0E E8 44 00 00 |.....I.......D..|
|00 00 00 00 00 00 00 00 02 43 00 00 1B 90 2C 47 |.........C....,G|                                                
-------------------------------------------------------------------
[Server] packet : (0x00) UNKNOWN  Size = 23 
|------------------------------------------------|----------------|
|00 01 02 03 04 05 06 07 08 09 0A 0B 0C 0D 0E 0F |0123456789ABCDEF|
|------------------------------------------------|----------------|
|00 14 00 00 0E E8 44 AF 5B F7 6A 00 00 00 00 00 |......D.[.j.....|
|00 02 43 00 00 1B 00                            |.......         |
-------------------------------------------------------------------
[Client] packet : (0x5A) F_PING_DATAGRAM  Size = 13 
|------------------------------------------------|----------------|
|00 01 02 03 04 05 06 07 08 09 0A 0B 0C 0D 0E 0F |0123456789ABCDEF|
|------------------------------------------------|----------------|
|00 01 09 E8 00 49 FF FF 00 5A 00 3D D4          |.............   |
-------------------------------------------------------------------
[Server] packet : (0x51) F_ANIMATION  Size = 9 
|------------------------------------------------|----------------|
|00 01 02 03 04 05 06 07 08 09 0A 0B 0C 0D 0E 0F |0123456789ABCDEF|
|------------------------------------------------|----------------|
|00 06 51 01 9A 00 AA 00 00                      |.........       |
-------------------------------------------------------------------
[Client] packet : (0x0B) F_PING  Size = 32 
|------------------------------------------------|----------------|
|00 01 02 03 04 05 06 07 08 09 0A 0B 0C 0D 0E 0F |0123456789ABCDEF|
|------------------------------------------------|----------------|
|00 14 09 EC 00 49 00 00 00 0B 00 0E FC 48 F5 0C |.....I.......H..|
|00 0D E2 07 27 A4 00 00 00 00 00 00 00 00 7F 05 |....'...........|                                                
-------------------------------------------------------------------
[Server] packet : (0x51) F_ANIMATION  Size = 9 
|------------------------------------------------|----------------|
|00 01 02 03 04 05 06 07 08 09 0A 0B 0C 0D 0E 0F |0123456789ABCDEF|
|------------------------------------------------|----------------|
|00 06 51 01 A2 00 00 00 00                      |.........       |
-------------------------------------------------------------------
[Server] packet : (0x51) F_ANIMATION  Size = 9 
|------------------------------------------------|----------------|
|00 01 02 03 04 05 06 07 08 09 0A 0B 0C 0D 0E 0F |0123456789ABCDEF|
|------------------------------------------------|----------------|
|00 06 51 01 A3 00 00 00 00                      |.........       |
-------------------------------------------------------------------
[Server] packet : (0x51) F_ANIMATION  Size = 9 
|------------------------------------------------|----------------|
|00 01 02 03 04 05 06 07 08 09 0A 0B 0C 0D 0E 0F |0123456789ABCDEF|
|------------------------------------------------|----------------|
|00 06 51 01 A4 00 00 00 00                      |.........       |
-------------------------------------------------------------------
[Server] packet : (0x51) F_ANIMATION  Size = 9 
|------------------------------------------------|----------------|
|00 01 02 03 04 05 06 07 08 09 0A 0B 0C 0D 0E 0F |0123456789ABCDEF|
|------------------------------------------------|----------------|
|00 06 51 01 A5 00 00 00 00                      |.........       |
-------------------------------------------------------------------
[Server] packet : (0x51) F_ANIMATION  Size = 9 
|------------------------------------------------|----------------|
|00 01 02 03 04 05 06 07 08 09 0A 0B 0C 0D 0E 0F |0123456789ABCDEF|
|------------------------------------------------|----------------|
|00 06 51 01 A6 00 00 00 00                      |.........       |
-------------------------------------------------------------------
[Server] packet : (0x51) F_ANIMATION  Size = 9 
|------------------------------------------------|----------------|
|00 01 02 03 04 05 06 07 08 09 0A 0B 0C 0D 0E 0F |0123456789ABCDEF|
|------------------------------------------------|----------------|
|00 06 51 01 A7 00 00 00 00                      |.........       |
-------------------------------------------------------------------
[Server] packet : (0x51) F_ANIMATION  Size = 9 
|------------------------------------------------|----------------|
|00 01 02 03 04 05 06 07 08 09 0A 0B 0C 0D 0E 0F |0123456789ABCDEF|
|------------------------------------------------|----------------|
|00 06 51 01 A8 00 00 00 00                      |.........       |
-------------------------------------------------------------------
[Server] packet : (0x81) S_PONG  Size = 23 
|------------------------------------------------|----------------|
|00 01 02 03 04 05 06 07 08 09 0A 0B 0C 0D 0E 0F |0123456789ABCDEF|
|------------------------------------------------|----------------|
|00 14 81 00 0E FC 48 52 82 86 2D 00 00 00 00 00 |......HR..-.....|
|00 09 ED 00 00 00 00                            |.......         |
-------------------------------------------------------------------
[Server] packet : (0xA9) F_UPDATE_HOT_SPOT  Size = 406 
|------------------------------------------------|----------------|
|00 01 02 03 04 05 06 07 08 09 0A 0B 0C 0D 0E 0F |0123456789ABCDEF|
|------------------------------------------------|----------------|
|01 93 A9 50 02 00 01 00 00 00 00 02 00 00 00 00 |...P............|
|03 00 00 00 00 04 00 00 00 00 05 02 04 00 00 06 |................|
|00 00 00 00 07 00 00 00 00 08 00 00 00 00 09 00 |................|
|00 00 00 0A 00 00 00 00 0B 00 00 00 00 1A 00 00 |................|
|00 00 1B 00 00 00 00 44 00 00 00 00 46 00 00 00 |.......D....F...|
|00 47 00 00 00 00 4A 00 00 00 00 4B 00 00 00 00 |.G....J....K....|
|58 00 00 00 00 64 00 00 00 00 65 00 00 00 00 66 |X....d....e....f|
|00 00 00 00 67 00 00 00 00 68 00 00 00 00 69 00 |....g....h....i.|
|00 00 00 6A 05 00 00 00 6B 00 00 00 00 6C 00 00 |...j....k....l..|
|00 00 6D 00 00 00 00 6E 00 00 00 00 75 00 00 00 |..m....n....u...|
|00 76 00 00 00 00 78 00 00 00 00 81 00 00 00 00 |.v....x.........|
|90 00 00 00 00 91 00 00 00 00 A1 00 00 00 00 A2 |................|
|00 00 00 00 AF 00 00 00 00 B2 00 00 00 00 BE 00 |................|
|00 00 00 BF 00 00 00 00 C0 00 00 00 00 C1 00 00 |................|
|00 00 C6 00 00 00 00 C8 00 00 00 00 C9 00 00 00 |................|
|00 CA 00 00 00 00 CB 03 01 00 00 CC 00 00 00 00 |................|
|CD 00 00 00 00 CE 00 00 00 00 CF 00 00 00 00 D0 |................|
|00 00 00 00 D1 00 00 00 00 D2 00 00 00 00 D3 00 |................|
|00 00 00 D5 00 00 00 00 D7 00 00 00 00 D8 00 00 |................|
|00 00 D9 00 00 00 00 DC 00 00 00 00 DD 00 00 00 |................|
|00 DE 00 00 00 00 E3 00 00 00 00 E4 00 00 00 00 |................|
|FA 00 00 00 00 FB 00 00 00 00 FC 00 00 00 00 FD |................|
|00 00 00 01 15 00 00 00 01 16 00 00 00 01 18 00 |................|
|00 00 01 1B 00 00 00 01 1C 00 00 00 01 1D 00 00 |................|
|00 01 1F 00 00 00 01 22 00 00 00 01 23 00 00 00 |......."....#...|
|01 24 00 00 00 00                               |......          |
-------------------------------------------------------------------
[Server] packet : (0x51) F_ANIMATION  Size = 9 
|------------------------------------------------|----------------|
|00 01 02 03 04 05 06 07 08 09 0A 0B 0C 0D 0E 0F |0123456789ABCDEF|
|------------------------------------------------|----------------|
|00 06 51 01 9A 00 00 00 00                      |.........       |
-------------------------------------------------------------------
[Client] packet : (0x16) F_REQUEST_INIT_OBJECT  Size = 16 
|------------------------------------------------|----------------|
|00 01 02 03 04 05 06 07 08 09 0A 0B 0C 0D 0E 0F |0123456789ABCDEF|
|------------------------------------------------|----------------|
|00 04 09 EF 00 49 00 00 00 16 24 1C 00 00 88 95 |.....I....$.....|                                                
-------------------------------------------------------------------
[Client] packet : (0x86) F_MAIL  Size = 23 
|------------------------------------------------|----------------|
|00 01 02 03 04 05 06 07 08 09 0A 0B 0C 0D 0E 0F |0123456789ABCDEF|
|------------------------------------------------|----------------|
|00 0B 09 F0 00 49 FF FF 00 86 02 00 2D DF 39 01 |.....I......-.9.|
|00 00 00 00 00 00 00                            |.......         |
-------------------------------------------------------------------
[Server] packet : (0x72) F_CREATE_MONSTER  Size = 131 
|------------------------------------------------|----------------|
|00 01 02 03 04 05 06 07 08 09 0A 0B 0C 0D 0E 0F |0123456789ABCDEF|
|------------------------------------------------|----------------|
|00 80 72 24 1C 00 55 01 44 43 B0 00 13 09 A5 00 |..r$..U.DC......|
|0C E0 01 00 00 04 00 39 1B 01 00 00 00 00 00 00 |.......9........|
|00 00 00 03 E8 00 00 00 00 59 2B 00 00 00 00 01 |.........Y+.....|
|19 00 52 61 6C 74 68 61 6E 20 4B 75 6C 5E 4D 00 |..Ralthan Kul^M.|
|01 0A 00 00 00 1A 21 00 24 1C 89 A5 60 01 43 B0 |......!.$...`.C.|
|64 01 66 00 00 00 00 00 55 00 00 22 89 F3 60 B0 |d.f.....U.."..`.|
|43 66 24 1C 00 07 00 0A 06 50 00 0B 05 5B 00 14 |Cf$......P...[..|
|0C 16 00 17 0C 19 00 18 0C 1B 00 19 0C 1A 00 1C |................|
|09 B8 00                                        |...             |
-------------------------------------------------------------------
[Client] packet : (0x86) F_MAIL  Size = 23 
|------------------------------------------------|----------------|
|00 01 02 03 04 05 06 07 08 09 0A 0B 0C 0D 0E 0F |0123456789ABCDEF|
|------------------------------------------------|----------------|
|00 0B 09 F1 00 49 FF FF 00 86 02 00 2D DF 39 01 |.....I......-.9.|
|00 00 00 00 00 A4 44                            |.......         |
-------------------------------------------------------------------
[Server] packet : (0x86) F_MAIL  Size = 6 
|------------------------------------------------|----------------|
|00 01 02 03 04 05 06 07 08 09 0A 0B 0C 0D 0E 0F |0123456789ABCDEF|
|------------------------------------------------|----------------|
|00 03 86 0F 00 00                               |......          |
-------------------------------------------------------------------
[Server] packet : (0x86) F_MAIL  Size = 91 
|------------------------------------------------|----------------|
|00 01 02 03 04 05 06 07 08 09 0A 0B 0C 0D 0E 0F |0123456789ABCDEF|
|------------------------------------------------|----------------|
|00 58 86 0D 00 00 00 00 00 01 39 DF 2D 00 01 64 |.X........9.-..d|
|FF FF FC EF FF FF FC EF 00 12 74 5A 00 00 09 48 |..........tZ...H|
|61 73 61 72 64 5E 46 00 00 08 57 61 72 65 6D 68 |asard^F...Waremh|
|75 00 00 0D 63 6F 75 72 69 65 72 20 76 69 64 65 |u...courier vide|
|00 00 00 00 00 00 00 00 00 00 00 00 0D 63 6F 75 |.............cou|
|72 69 65 72 20 76 69 64 65 00 00                |...........     |
-------------------------------------------------------------------
[Client] packet : (0x16) F_REQUEST_INIT_OBJECT  Size = 16 
|------------------------------------------------|----------------|
|00 01 02 03 04 05 06 07 08 09 0A 0B 0C 0D 0E 0F |0123456789ABCDEF|
|------------------------------------------------|----------------|
|00 04 09 F4 00 49 00 00 00 16 22 C5 00 00 A2 9F |.....I....".....|                                                
-------------------------------------------------------------------
[Server] packet : (0x72) F_CREATE_MONSTER  Size = 109 
|------------------------------------------------|----------------|
|00 01 02 03 04 05 06 07 08 09 0A 0B 0C 0D 0E 0F |0123456789ABCDEF|
|------------------------------------------------|----------------|
|00 6A 72 22 C5 00 55 06 50 43 B6 00 13 09 4E 00 |.jr"..U.PC....N.|
|0C E0 13 00 00 04 00 32 1A 01 00 00 00 00 00 00 |.......2........|
|00 00 00 03 E8 00 00 00 00 59 2B 00 01 00 00 01 |.........Y+.....|
|19 00 4B 75 6C 69 61 6E 20 42 6F 6E 65 6D 61 67 |..Kulian Bonemag|
|65 5E 6D 00 01 0A 00 00 00 18 09 00 22 C5 89 4E |e^m........."..N|
|60 13 43 B6 64 00 66 20 00 00 00 00 1C 24 BD FF |`.C.d.f .....$..|
|A5 FF 06 00 22 C5 00 01 00 14 0B 36 00          |.............   |
-------------------------------------------------------------------
[Client] packet : (0x0B) F_PING  Size = 32 
|------------------------------------------------|----------------|
|00 01 02 03 04 05 06 07 08 09 0A 0B 0C 0D 0E 0F |0123456789ABCDEF|
|------------------------------------------------|----------------|
|00 14 09 FA 00 49 00 00 00 0B 00 0F 0F DF 3A BF |.....I........:.|
|2E 6F B7 BF F2 A6 00 00 00 00 00 00 00 00 7F 05 |.o..............|                                                
-------------------------------------------------------------------
[Server] packet : (0x81) S_PONG  Size = 23 
|------------------------------------------------|----------------|
|00 01 02 03 04 05 06 07 08 09 0A 0B 0C 0D 0E 0F |0123456789ABCDEF|
|------------------------------------------------|----------------|
|00 14 81 00 0F 0F DF 52 82 86 32 00 00 00 00 00 |.......R..2.....|
|00 09 FB 00 00 00 00                            |.......         |
-------------------------------------------------------------------
[Client] packet : (0x01) UNKNOWN  Size = 32 
|------------------------------------------------|----------------|
|00 01 02 03 04 05 06 07 08 09 0A 0B 0C 0D 0E 0F |0123456789ABCDEF|
|------------------------------------------------|----------------|
|00 14 09 FE 00 49 00 00 00 01 00 0F 10 A7 00 23 |.....I.........#|
|39 B0 08 18 C0 4A 20 07 3B 7E 90 38 7B 85 00 00 |9....J .;~.8{...|                                                
-------------------------------------------------------------------
[Server] packet : (0x00) UNKNOWN  Size = 23 
|------------------------------------------------|----------------|
|00 01 02 03 04 05 06 07 08 09 0A 0B 0C 0D 0E 0F |0123456789ABCDEF|
|------------------------------------------------|----------------|
|00 14 00 00 0F 10 A7 AF 5C 1F 85 00 00 00 00 20 |........\...... |
|07 3B 7E 90 38 7B 00                            |.......         |
-------------------------------------------------------------------
[Client] packet : (0xFE) F_PLAY_VOICE_OVER  Size = 16 
|------------------------------------------------|----------------|
|00 01 02 03 04 05 06 07 08 09 0A 0B 0C 0D 0E 0F |0123456789ABCDEF|
|------------------------------------------------|----------------|
|00 04 0A 03 00 49 FF FF 00 FE 02 00 00 00 3D A0 |.....I........=.|                                                
-------------------------------------------------------------------
[Server] packet : (0x74) UNKNOWN  Size = 44 
|------------------------------------------------|----------------|
|00 01 02 03 04 05 06 07 08 09 0A 0B 0C 0D 0E 0F |0123456789ABCDEF|
|------------------------------------------------|----------------|
|00 29 74 01 01 00 00 00 04 02 00 00 01 00 03 00 |.)t.............|
|00 00 00 00 00 00 01 00 01 00 00 01 F4 00 00 00 |................|
|66 02 00 01 00 00 01 F4 00 00 01 00             |............    |
-------------------------------------------------------------------
[Client] packet : (0x86) F_MAIL  Size = 23 
|------------------------------------------------|----------------|
|00 01 02 03 04 05 06 07 08 09 0A 0B 0C 0D 0E 0F |0123456789ABCDEF|
|------------------------------------------------|----------------|
|00 0B 0A 04 00 49 FF FF 00 86 04 00 2D DF 39 01 |.....I......-.9.|
|00 00 00 00 00 00 00                            |.......         |
-------------------------------------------------------------------
[Server] packet : (0x86) F_MAIL  Size = 13 
|------------------------------------------------|----------------|
|00 01 02 03 04 05 06 07 08 09 0A 0B 0C 0D 0E 0F |0123456789ABCDEF|
|------------------------------------------------|----------------|
|00 0A 86 0C 00 00 00 00 00 01 39 DF 00          |.............   |
-------------------------------------------------------------------
[Server] packet : (0x86) F_MAIL  Size = 6 
|------------------------------------------------|----------------|
|00 01 02 03 04 05 06 07 08 09 0A 0B 0C 0D 0E 0F |0123456789ABCDEF|
|------------------------------------------------|----------------|
|00 03 86 0F 00 00                               |......          |
-------------------------------------------------------------------
[Server] packet : (0x51) F_ANIMATION  Size = 9 
|------------------------------------------------|----------------|
|00 01 02 03 04 05 06 07 08 09 0A 0B 0C 0D 0E 0F |0123456789ABCDEF|
|------------------------------------------------|----------------|
|00 06 51 01 B6 00 AC 00 00                      |.........       |
-------------------------------------------------------------------
[Client] packet : (0x0B) F_PING  Size = 32 
|------------------------------------------------|----------------|
|00 01 02 03 04 05 06 07 08 09 0A 0B 0C 0D 0E 0F |0123456789ABCDEF|
|------------------------------------------------|----------------|
|00 14 0A 08 00 49 00 00 00 0B 00 0F 23 6A 01 A3 |.....I......#j..|
|39 F4 78 3B E8 4B 00 00 00 00 00 00 00 00 7F 05 |9.x;.K..........|                                                
-------------------------------------------------------------------
[Server] packet : (0x81) S_PONG  Size = 23 
|------------------------------------------------|----------------|
|00 01 02 03 04 05 06 07 08 09 0A 0B 0C 0D 0E 0F |0123456789ABCDEF|
|------------------------------------------------|----------------|
|00 14 81 00 0F 23 6A 52 82 86 37 00 00 00 00 00 |.....#jR..7.....|
|00 0A 09 00 00 00 00                            |.......         |
-------------------------------------------------------------------