
[Server] packet : (0xD7) F_INIT_EFFECTS  Size = 14 
|------------------------------------------------|----------------|
|00 01 02 03 04 05 06 07 08 09 0A 0B 0C 0D 0E 0F |0123456789ABCDEF|
|------------------------------------------------|----------------|
|00 0B D7 01 02 AD FB 08 84 19 00 7E 37 00       |..............  |
-------------------------------------------------------------------
[Server] packet : (0xD7) F_INIT_EFFECTS  Size = 21 
|------------------------------------------------|----------------|
|00 01 02 03 04 05 06 07 08 09 0A 0B 0C 0D 0E 0F |0123456789ABCDEF|
|------------------------------------------------|----------------|
|00 12 D7 01 01 A5 FF 08 84 13 00 7E 37 00 84 08 |...........~7...|
|01 00 F4 03 00                                  |.....           |
-------------------------------------------------------------------
[Server] packet : (0xD7) F_INIT_EFFECTS  Size = 14 
|------------------------------------------------|----------------|
|00 01 02 03 04 05 06 07 08 09 0A 0B 0C 0D 0E 0F |0123456789ABCDEF|
|------------------------------------------------|----------------|
|00 0B D7 01 02 A5 FF 08 84 13 00 7E 37 00       |..............  |
-------------------------------------------------------------------
[Server] packet : (0xD7) F_INIT_EFFECTS  Size = 21 
|------------------------------------------------|----------------|
|00 01 02 03 04 05 06 07 08 09 0A 0B 0C 0D 0E 0F |0123456789ABCDEF|
|------------------------------------------------|----------------|
|00 12 D7 01 01 A5 FF 08 84 01 00 7E 37 00 84 08 |...........~7...|
|01 00 F4 03 00                                  |.....           |
-------------------------------------------------------------------
[Client] packet : (0xD2) F_INTERACT  Size = 24 
|------------------------------------------------|----------------|
|00 01 02 03 04 05 06 07 08 09 0A 0B 0C 0D 0E 0F |0123456789ABCDEF|
|------------------------------------------------|----------------|
|00 0C 79 09 00 1B 00 00 00 D2 00 00 2B 84 00 00 |..y.........+...|
|00 00 00 00 00 00 00 00                         |........        |
-------------------------------------------------------------------
[Server] packet : (0x1E) F_MAX_VELOCITY  Size = 7 
|------------------------------------------------|----------------|
|00 01 02 03 04 05 06 07 08 09 0A 0B 0C 0D 0E 0F |0123456789ABCDEF|
|------------------------------------------------|----------------|
|00 04 1E 00 64 01 00                            |.......         |
-------------------------------------------------------------------
[Server] packet : (0xD7) F_INIT_EFFECTS  Size = 14 
|------------------------------------------------|----------------|
|00 01 02 03 04 05 06 07 08 09 0A 0B 0C 0D 0E 0F |0123456789ABCDEF|
|------------------------------------------------|----------------|
|00 0B D7 01 02 00 00 08 84 1A 00 94 3A 00       |..............  |
-------------------------------------------------------------------
[Server] packet : (0x6F) F_LOCALIZED_STRING  Size = 13 
|------------------------------------------------|----------------|
|00 01 02 03 04 05 06 07 08 09 0A 0B 0C 0D 0E 0F |0123456789ABCDEF|
|------------------------------------------------|----------------|
|00 0A 6F 02 1A 00 00 03 0E 00 00 00 00          |.............   |
-------------------------------------------------------------------
[Server] packet : (0x7E) F_SET_ABILITY_TIMER  Size = 15 
|------------------------------------------------|----------------|
|00 01 02 03 04 05 06 07 08 09 0A 0B 0C 0D 0E 0F |0123456789ABCDEF|
|------------------------------------------------|----------------|
|00 0C 7E 00 01 01 05 00 00 13 88 2B 84 00 00    |............... |
-------------------------------------------------------------------
[Server] packet : (0x7E) F_SET_ABILITY_TIMER  Size = 15 
|------------------------------------------------|----------------|
|00 01 02 03 04 05 06 07 08 09 0A 0B 0C 0D 0E 0F |0123456789ABCDEF|
|------------------------------------------------|----------------|
|00 0C 7E 3A 94 00 00 00 00 00 00 00 00 00 00    |............... |
-------------------------------------------------------------------
[Server] packet : (0x7E) F_SET_ABILITY_TIMER  Size = 15 
|------------------------------------------------|----------------|
|00 01 02 03 04 05 06 07 08 09 0A 0B 0C 0D 0E 0F |0123456789ABCDEF|
|------------------------------------------------|----------------|
|00 0C 7E 3A 94 00 00 00 00 00 00 00 00 00 00    |............... |
-------------------------------------------------------------------
[Server] packet : (0x7E) F_SET_ABILITY_TIMER  Size = 15 
|------------------------------------------------|----------------|
|00 01 02 03 04 05 06 07 08 09 0A 0B 0C 0D 0E 0F |0123456789ABCDEF|
|------------------------------------------------|----------------|
|00 0C 7E 3A 94 00 00 00 00 00 00 00 00 00 00    |............... |
-------------------------------------------------------------------
[Client] packet : (0x7D) F_REQUEST_INIT_PLAYER  Size = 14 
|------------------------------------------------|----------------|
|00 01 02 03 04 05 06 07 08 09 0A 0B 0C 0D 0E 0F |0123456789ABCDEF|
|------------------------------------------------|----------------|
|00 02 79 0D 00 1B 00 00 00 7D 00 A9 34 54       |..............  |
-------------------------------------------------------------------
[Server] packet : (0x7E) F_SET_ABILITY_TIMER  Size = 15 
|------------------------------------------------|----------------|
|00 01 02 03 04 05 06 07 08 09 0A 0B 0C 0D 0E 0F |0123456789ABCDEF|
|------------------------------------------------|----------------|
|00 0C 7E 3A 94 00 00 00 00 00 00 00 00 00 00    |............... |
-------------------------------------------------------------------
[Server] packet : (0xE3) F_CREATE_PLAYER  Size = 91 
|------------------------------------------------|----------------|
|00 01 02 03 04 05 06 07 08 09 0A 0B 0C 0D 0E 0F |0123456789ABCDEF|
|------------------------------------------------|----------------|
|00 58 E3 00 A9 0C 07 00 24 00 0C 33 B1 00 67 7D |.X......$..3..g}|
|81 AC 78 03 F4 28 2C 03 46 2B 2E 08 00 03 05 00 |..x..(,.F+......|
|00 08 00 00 00 00 00 00 00 00 00 00 00 2D 4D 06 |.............-M.|
|00 52 64 00 00 0E 16 00 00 01 25 0B 57 61 67 61 |.Rd.......%.Waga|
|62 75 6E 64 61 5E 4D 02 5E 4D 0C 54 68 65 20 54 |bunda^M.^M.The T|
|77 69 65 72 64 7A 61 00 00 00 00                |...........     |
-------------------------------------------------------------------
[Server] packet : (0xA3) F_ACTIVE_EFFECTS  Size = 37 
|------------------------------------------------|----------------|
|00 01 02 03 04 05 06 07 08 09 0A 0B 0C 0D 0E 0F |0123456789ABCDEF|
|------------------------------------------------|----------------|
|00 22 A3 0C 07 03 0A 3D 07 0C 01 00 03 07 EA 0C |.".....=........|
|8B 61 07 0C 01 00 03 01 E2 BB 9A 01 46 0C 07 0C |.a..........F...|
|01 00 03 01 00                                  |.....           |
-------------------------------------------------------------------
[Server] packet : (0xD7) F_INIT_EFFECTS  Size = 14 
|------------------------------------------------|----------------|
|00 01 02 03 04 05 06 07 08 09 0A 0B 0C 0D 0E 0F |0123456789ABCDEF|
|------------------------------------------------|----------------|
|00 0B D7 01 02 A5 FF 08 84 01 00 7E 37 00       |..............  |
-------------------------------------------------------------------
[Server] packet : (0xD7) F_INIT_EFFECTS  Size = 21 
|------------------------------------------------|----------------|
|00 01 02 03 04 05 06 07 08 09 0A 0B 0C 0D 0E 0F |0123456789ABCDEF|
|------------------------------------------------|----------------|
|00 12 D7 01 01 A5 FF 08 84 12 00 7E 37 00 84 08 |...........~7...|
|01 00 F4 03 00                                  |.....           |
-------------------------------------------------------------------
[Client] packet : (0x5A) F_PING_DATAGRAM  Size = 13 
|------------------------------------------------|----------------|
|00 01 02 03 04 05 06 07 08 09 0A 0B 0C 0D 0E 0F |0123456789ABCDEF|
|------------------------------------------------|----------------|
|00 01 79 0F 00 1B FF FF 00 5A 00 63 57          |.............   |
-------------------------------------------------------------------
[Client] packet : (0x16) F_REQUEST_INIT_OBJECT  Size = 16 
|------------------------------------------------|----------------|
|00 01 02 03 04 05 06 07 08 09 0A 0B 0C 0D 0E 0F |0123456789ABCDEF|
|------------------------------------------------|----------------|
|00 04 79 0F 00 1B 00 00 00 16 27 8C 00 00 4A 00 |..y.......'...J.|                                                
-------------------------------------------------------------------
[Server] packet : (0x49) F_REMOVE_PLAYER  Size = 7 
|------------------------------------------------|----------------|
|00 01 02 03 04 05 06 07 08 09 0A 0B 0C 0D 0E 0F |0123456789ABCDEF|
|------------------------------------------------|----------------|
|00 04 49 20 50 00 00                            |.......         |
-------------------------------------------------------------------
[Server] packet : (0x72) F_CREATE_MONSTER  Size = 138 
|------------------------------------------------|----------------|
|00 01 02 03 04 05 06 07 08 09 0A 0B 0C 0D 0E 0F |0123456789ABCDEF|
|------------------------------------------------|----------------|
|00 87 72 27 8C 00 55 0E 00 34 48 00 15 D0 0C 00 |..r'..U..4H.....|
|0C 17 C8 00 00 04 C3 32 21 01 00 00 00 00 00 00 |.......2!.......|
|00 00 00 03 E8 00 00 00 00 6D 97 00 03 00 00 01 |.........m......|
|19 00 53 65 61 72 69 6E 67 20 53 71 75 69 72 65 |..Searing Squire|
|5E 66 00 01 0A 00 00 00 1A 25 00 27 8C 50 0C 97 |^f.......%.'.P..|
|C8 34 48 64 01 67 00 00 00 00 00 55 00 00 D9 50 |.4Hd.g.....U...P|
|95 98 77 34 67 27 8C 00 07 00 0A 06 50 01 14 0C |..w4g'......P...|
|1D 1F 9E 00 15 0C 1F 00 16 0C 1E 00 18 0C 22 01 |..............".|
|19 0C 21 1F 9E 00 1C 0C 23 00                   |..........      |
-------------------------------------------------------------------
[Server] packet : (0xD7) F_INIT_EFFECTS  Size = 14 
|------------------------------------------------|----------------|
|00 01 02 03 04 05 06 07 08 09 0A 0B 0C 0D 0E 0F |0123456789ABCDEF|
|------------------------------------------------|----------------|
|00 0B D7 01 02 A5 FF 08 84 12 00 7E 37 00       |..............  |
-------------------------------------------------------------------
[Server] packet : (0xD7) F_INIT_EFFECTS  Size = 21 
|------------------------------------------------|----------------|
|00 01 02 03 04 05 06 07 08 09 0A 0B 0C 0D 0E 0F |0123456789ABCDEF|
|------------------------------------------------|----------------|
|00 12 D7 01 01 00 00 08 84 19 00 7E 37 00 84 08 |...........~7...|
|01 00 F4 03 00                                  |.....           |
-------------------------------------------------------------------
[Server] packet : (0x1B) F_REQ_CAMPAIGN_STATUS  Size = 15 
|------------------------------------------------|----------------|
|00 01 02 03 04 05 06 07 08 09 0A 0B 0C 0D 0E 0F |0123456789ABCDEF|
|------------------------------------------------|----------------|
|00 0C 1B 00 20 32 00 00 16 1D 75 00 0C 0C 00    |............... |
-------------------------------------------------------------------
[Server] packet : (0xD7) F_INIT_EFFECTS  Size = 14 
|------------------------------------------------|----------------|
|00 01 02 03 04 05 06 07 08 09 0A 0B 0C 0D 0E 0F |0123456789ABCDEF|
|------------------------------------------------|----------------|
|00 0B D7 01 02 AD FB 08 84 19 00 7E 37 00       |..............  |
-------------------------------------------------------------------
[Server] packet : (0xD7) F_INIT_EFFECTS  Size = 21 
|------------------------------------------------|----------------|
|00 01 02 03 04 05 06 07 08 09 0A 0B 0C 0D 0E 0F |0123456789ABCDEF|
|------------------------------------------------|----------------|
|00 12 D7 01 01 00 00 08 84 13 00 7E 37 00 84 08 |...........~7...|
|01 00 F4 03 00                                  |.....           |
-------------------------------------------------------------------
[Client] packet : (0x0B) F_PING  Size = 32 
|------------------------------------------------|----------------|
|00 01 02 03 04 05 06 07 08 09 0A 0B 0C 0D 0E 0F |0123456789ABCDEF|
|------------------------------------------------|----------------|
|00 14 79 14 00 1B 00 00 00 0B 00 A8 36 37 3D 47 |..y.........67=G|
|BA FB DC 7D FE 3E 00 00 00 00 00 00 00 00 7E 0C |...}.>........~.|                                                
-------------------------------------------------------------------
[Client] packet : (0x7D) F_REQUEST_INIT_PLAYER  Size = 14 
|------------------------------------------------|----------------|
|00 01 02 03 04 05 06 07 08 09 0A 0B 0C 0D 0E 0F |0123456789ABCDEF|
|------------------------------------------------|----------------|
|00 02 79 15 00 1B 00 00 00 7D 00 42 20 F5       |..............  |
-------------------------------------------------------------------
[Client] packet : (0x7D) F_REQUEST_INIT_PLAYER  Size = 14 
|------------------------------------------------|----------------|
|00 01 02 03 04 05 06 07 08 09 0A 0B 0C 0D 0E 0F |0123456789ABCDEF|
|------------------------------------------------|----------------|
|00 02 79 16 00 1B 00 00 00 7D 00 11 CF E1       |..............  |
-------------------------------------------------------------------
[Server] packet : (0x81) S_PONG  Size = 23 
|------------------------------------------------|----------------|
|00 01 02 03 04 05 06 07 08 09 0A 0B 0C 0D 0E 0F |0123456789ABCDEF|
|------------------------------------------------|----------------|
|00 14 81 00 A8 36 37 52 83 DC 39 00 00 00 00 00 |.....67R..9.....|
|00 79 15 00 00 00 00                            |.......         |
-------------------------------------------------------------------
[Server] packet : (0xE3) F_CREATE_PLAYER  Size = 92 
|------------------------------------------------|----------------|
|00 01 02 03 04 05 06 07 08 09 0A 0B 0C 0D 0E 0F |0123456789ABCDEF|
|------------------------------------------------|----------------|
|00 59 E3 00 42 2D 4D 00 33 00 12 33 A6 00 67 7E |.Y..B-M.3..3..g~|
|77 AE A7 04 1C 28 2C 03 44 2A 72 09 00 01 05 02 |w....(,.D*r.....|
|04 09 05 00 00 00 00 00 00 00 00 00 00 00 00 04 |................|
|01 52 64 00 00 0E 16 00 00 01 25 0C 41 6C 76 65 |.Rd.......%.Alve|
|61 6E 65 72 6C 65 5E 46 02 5E 4D 0C 54 68 65 20 |anerle^F.^M.The |
|54 77 69 65 72 64 7A 61 00 00 00 00             |............    |
-------------------------------------------------------------------
[Server] packet : (0xA3) F_ACTIVE_EFFECTS  Size = 18 
|------------------------------------------------|----------------|
|00 01 02 03 04 05 06 07 08 09 0A 0B 0C 0D 0E 0F |0123456789ABCDEF|
|------------------------------------------------|----------------|
|00 0F A3 2D 4D 01 8B 61 4D 2D 01 00 03 01 DE BB |...-M..aM-......|
|9A 00                                           |..              |
-------------------------------------------------------------------
[Server] packet : (0x93) F_GFX_MOD  Size = 17 
|------------------------------------------------|----------------|
|00 01 02 03 04 05 06 07 08 09 0A 0B 0C 0D 0E 0F |0123456789ABCDEF|
|------------------------------------------------|----------------|
|00 0E 93 02 00 2D 4D 07 70 08 F5 07 71 08 F5 00 |.....-M.p...q...|
|00                                              |.               |
-------------------------------------------------------------------
[Server] packet : (0xE3) F_CREATE_PLAYER  Size = 90 
|------------------------------------------------|----------------|
|00 01 02 03 04 05 06 07 08 09 0A 0B 0C 0D 0E 0F |0123456789ABCDEF|
|------------------------------------------------|----------------|
|00 57 E3 00 11 12 29 00 24 00 0C 33 95 00 67 7D |.W....).$..3..g}|
|2B AC 9F 06 F8 28 00 03 46 2A D2 02 00 06 03 03 |+....(..F*......|
|00 00 02 00 00 00 00 00 00 00 00 00 00 12 29 06 |..............).|
|00 64 64 00 00 0E 16 00 00 01 25 0A 42 61 7A 79 |.dd.......%.Bazy|
|6C 65 75 73 5E 4D 02 5E 4D 0C 54 68 65 20 54 77 |leus^M.^M.The Tw|
|69 65 72 64 7A 61 00 00 00 00                   |..........      |
-------------------------------------------------------------------
[Server] packet : (0xA3) F_ACTIVE_EFFECTS  Size = 40 
|------------------------------------------------|----------------|
|00 01 02 03 04 05 06 07 08 09 0A 0B 0C 0D 0E 0F |0123456789ABCDEF|
|------------------------------------------------|----------------|
|00 25 A3 12 29 03 8B 61 29 12 01 00 03 01 DE BB |.%..)..a).......|
|9A 01 74 49 29 12 01 00 03 07 96 16 30 23 A8 22 |..tI).......0#."|
|01 00 03 05 DE BB 9A 00                         |........        |
-------------------------------------------------------------------
[Server] packet : (0x5E) F_SET_TARGET  Size = 9 
|------------------------------------------------|----------------|
|00 01 02 03 04 05 06 07 08 09 0A 0B 0C 0D 0E 0F |0123456789ABCDEF|
|------------------------------------------------|----------------|
|00 06 5E 38 FA 1F 1A 02 00                      |.........       |
-------------------------------------------------------------------
[Server] packet : (0xD7) F_INIT_EFFECTS  Size = 14 
|------------------------------------------------|----------------|
|00 01 02 03 04 05 06 07 08 09 0A 0B 0C 0D 0E 0F |0123456789ABCDEF|
|------------------------------------------------|----------------|
|00 0B D7 01 02 00 00 08 84 13 00 7E 37 00       |..............  |
-------------------------------------------------------------------
[Server] packet : (0xD7) F_INIT_EFFECTS  Size = 21 
|------------------------------------------------|----------------|
|00 01 02 03 04 05 06 07 08 09 0A 0B 0C 0D 0E 0F |0123456789ABCDEF|
|------------------------------------------------|----------------|
|00 12 D7 01 01 A5 FF 08 84 1A 00 7E 37 00 84 08 |...........~7...|
|01 00 F4 03 00                                  |.....           |
-------------------------------------------------------------------
[Server] packet : (0x49) F_REMOVE_PLAYER  Size = 7 
|------------------------------------------------|----------------|
|00 01 02 03 04 05 06 07 08 09 0A 0B 0C 0D 0E 0F |0123456789ABCDEF|
|------------------------------------------------|----------------|
|00 04 49 22 A8 00 00                            |.......         |
-------------------------------------------------------------------
[Server] packet : (0x5E) F_SET_TARGET  Size = 9 
|------------------------------------------------|----------------|
|00 01 02 03 04 05 06 07 08 09 0A 0B 0C 0D 0E 0F |0123456789ABCDEF|
|------------------------------------------------|----------------|
|00 06 5E 30 08 1F 1A 02 00                      |.........       |
-------------------------------------------------------------------
[Server] packet : (0xD7) F_INIT_EFFECTS  Size = 14 
|------------------------------------------------|----------------|
|00 01 02 03 04 05 06 07 08 09 0A 0B 0C 0D 0E 0F |0123456789ABCDEF|
|------------------------------------------------|----------------|
|00 0B D7 01 02 A5 FF 08 84 1A 00 7E 37 00       |..............  |
-------------------------------------------------------------------
[Server] packet : (0xD7) F_INIT_EFFECTS  Size = 21 
|------------------------------------------------|----------------|
|00 01 02 03 04 05 06 07 08 09 0A 0B 0C 0D 0E 0F |0123456789ABCDEF|
|------------------------------------------------|----------------|
|00 12 D7 01 01 00 00 08 84 01 00 7E 37 00 84 08 |...........~7...|
|01 00 F4 03 00                                  |.....           |
-------------------------------------------------------------------
[Server] packet : (0x7E) F_SET_ABILITY_TIMER  Size = 15 
|------------------------------------------------|----------------|
|00 01 02 03 04 05 06 07 08 09 0A 0B 0C 0D 0E 0F |0123456789ABCDEF|
|------------------------------------------------|----------------|
|00 0C 7E 00 01 01 00 00 00 00 00 00 00 00 00    |............... |
-------------------------------------------------------------------
[Server] packet : (0xAA) F_GET_ITEM  Size = 206 
|------------------------------------------------|----------------|
|00 01 02 03 04 05 06 07 08 09 0A 0B 0C 0D 0E 0F |0123456789ABCDEF|
|------------------------------------------------|----------------|
|00 CB AA 01 00 00 00 01 F4 00 00 00 2E 3D 11 B3 |.............=..|
|00 00 00 00 00 00 00 00 00 24 00 00 00 00 00 02 |.........$......|
|00 00 00 00 00 00 00 00 00 00 00 00 00 00 00 64 |...............d|
|00 4A 00 00 00 00 00 00 00 00 00 00 00 00 08 4F |.J.............O|
|72 64 6E 61 6E 63 65 00 00 00 00 00 00 64 53 63 |rdnance......dSc|
|72 61 70 73 20 6F 66 20 62 61 74 74 6C 65 73 20 |raps of battles |
|70 61 73 74 20 6F 72 20 72 61 77 20 72 65 73 6F |past or raw reso|
|75 72 63 65 73 3B 20 4F 72 64 6E 61 6E 63 65 20 |urces; Ordnance |
|63 61 6E 20 62 65 20 67 61 74 68 65 72 65 64 20 |can be gathered |
|61 6E 64 20 74 72 61 64 65 64 20 66 6F 72 20 75 |and traded for u|
|70 67 72 61 64 65 64 20 65 71 75 69 70 6D 65 6E |pgraded equipmen|
|74 21 00 00 00 00 03 02 20 08 00 00 00 00 00 00 |t!...... .......|
|00 00 00 00 00 00 00 00 00 00 00 00 00 00       |..............  |
-------------------------------------------------------------------
[Server] packet : (0x6F) F_LOCALIZED_STRING  Size = 30 
|------------------------------------------------|----------------|
|00 01 02 03 04 05 06 07 08 09 0A 0B 0C 0D 0E 0F |0123456789ABCDEF|
|------------------------------------------------|----------------|
|00 1B 6F 02 20 00 00 02 1A 00 00 00 02 01 00 09 |..o. ...........|
|4F 72 64 6E 61 6E 63 65 00 01 00 02 31 00       |..............  |
-------------------------------------------------------------------
[Server] packet : (0x0A) F_OBJECT_DEATH  Size = 15 
|------------------------------------------------|----------------|
|00 01 02 03 04 05 06 07 08 09 0A 0B 0C 0D 0E 0F |0123456789ABCDEF|
|------------------------------------------------|----------------|
|00 0C 0A 2B 84 00 00 00 00 00 00 00 00 00 00    |............... |
-------------------------------------------------------------------
[Client] packet : (0x01) UNKNOWN  Size = 32 
|------------------------------------------------|----------------|
|00 01 02 03 04 05 06 07 08 09 0A 0B 0C 0D 0E 0F |0123456789ABCDEF|
|------------------------------------------------|----------------|
|00 14 79 1C 00 1B 00 00 00 01 00 A8 39 F1 00 00 |..y.........9...|
|00 00 00 00 00 00 00 00 15 84 00 00 23 01 00 00 |............#...|                                                
-------------------------------------------------------------------
[Server] packet : (0x0A) F_OBJECT_DEATH  Size = 15 
|------------------------------------------------|----------------|
|00 01 02 03 04 05 06 07 08 09 0A 0B 0C 0D 0E 0F |0123456789ABCDEF|
|------------------------------------------------|----------------|
|00 0C 0A 20 2E 00 00 00 00 00 00 00 00 00 00    |............... |
-------------------------------------------------------------------
[Server] packet : (0x00) UNKNOWN  Size = 23 
|------------------------------------------------|----------------|
|00 01 02 03 04 05 06 07 08 09 0A 0B 0C 0D 0E 0F |0123456789ABCDEF|
|------------------------------------------------|----------------|
|00 14 00 00 A8 39 F1 B4 93 B2 62 00 00 00 00 00 |.....9....b.....|
|00 15 84 00 00 23 00                            |.......         |
-------------------------------------------------------------------
[Server] packet : (0xD7) F_INIT_EFFECTS  Size = 14 
|------------------------------------------------|----------------|
|00 01 02 03 04 05 06 07 08 09 0A 0B 0C 0D 0E 0F |0123456789ABCDEF|
|------------------------------------------------|----------------|
|00 0B D7 01 02 A5 FF 08 84 01 00 7E 37 00       |..............  |
-------------------------------------------------------------------
[Server] packet : (0xD7) F_INIT_EFFECTS  Size = 21 
|------------------------------------------------|----------------|
|00 01 02 03 04 05 06 07 08 09 0A 0B 0C 0D 0E 0F |0123456789ABCDEF|
|------------------------------------------------|----------------|
|00 12 D7 01 01 8B 47 08 84 12 00 7E 37 00 84 08 |......G....~7...|
|01 00 F4 03 00                                  |.....           |
-------------------------------------------------------------------
[Server] packet : (0x49) F_REMOVE_PLAYER  Size = 7 
|------------------------------------------------|----------------|
|00 01 02 03 04 05 06 07 08 09 0A 0B 0C 0D 0E 0F |0123456789ABCDEF|
|------------------------------------------------|----------------|
|00 04 49 2F 8F 00 00                            |.......         |
-------------------------------------------------------------------
[Server] packet : (0x49) F_REMOVE_PLAYER  Size = 7 
|------------------------------------------------|----------------|
|00 01 02 03 04 05 06 07 08 09 0A 0B 0C 0D 0E 0F |0123456789ABCDEF|
|------------------------------------------------|----------------|
|00 04 49 20 50 00 00                            |.......         |
-------------------------------------------------------------------
[Server] packet : (0x0A) F_OBJECT_DEATH  Size = 15 
|------------------------------------------------|----------------|
|00 01 02 03 04 05 06 07 08 09 0A 0B 0C 0D 0E 0F |0123456789ABCDEF|
|------------------------------------------------|----------------|
|00 0C 0A 34 59 00 00 00 00 00 00 00 00 00 00    |............... |
-------------------------------------------------------------------