
[Client] packet : (0x01) UNKNOWN  Size = 32 
|------------------------------------------------|----------------|
|00 01 02 03 04 05 06 07 08 09 0A 0B 0C 0D 0E 0F |0123456789ABCDEF|
|------------------------------------------------|----------------|
|00 14 89 A2 00 1F 00 00 00 01 00 75 DB 18 00 00 |...........u....|
|00 00 00 00 00 00 00 00 04 08 00 00 01 21 21 98 |.............!!.|                                                
-------------------------------------------------------------------
[Server] packet : (0x00) UNKNOWN  Size = 23 
|------------------------------------------------|----------------|
|00 01 02 03 04 05 06 07 08 09 0A 0B 0C 0D 0E 0F |0123456789ABCDEF|
|------------------------------------------------|----------------|
|00 14 00 00 75 DB 18 7C 5A 68 CE 00 00 00 00 00 |....u..|Zh......|
|00 04 08 00 00 01 00                            |.......         |
-------------------------------------------------------------------
[Server] packet : (0x51) F_ANIMATION  Size = 9 
|------------------------------------------------|----------------|
|00 01 02 03 04 05 06 07 08 09 0A 0B 0C 0D 0E 0F |0123456789ABCDEF|
|------------------------------------------------|----------------|
|00 06 51 00 EF 00 00 00 00                      |.........       |
-------------------------------------------------------------------
[Client] packet : (0x0B) F_PING  Size = 32 
|------------------------------------------------|----------------|
|00 01 02 03 04 05 06 07 08 09 0A 0B 0C 0D 0E 0F |0123456789ABCDEF|
|------------------------------------------------|----------------|
|00 14 89 A9 00 1F 00 00 00 0B 00 75 EC 86 C1 E3 |...........u....|
|3D F4 4F 1A D0 DE 00 00 00 00 00 00 00 00 C0 88 |=.O.............|                                                
-------------------------------------------------------------------
[Server] packet : (0x81) S_PONG  Size = 23 
|------------------------------------------------|----------------|
|00 01 02 03 04 05 06 07 08 09 0A 0B 0C 0D 0E 0F |0123456789ABCDEF|
|------------------------------------------------|----------------|
|00 14 81 00 75 EC 86 52 75 77 7D 00 00 00 00 00 |....u..Ruw}.....|
|00 89 AA 00 00 00 00                            |.......         |
-------------------------------------------------------------------
[Client] packet : (0xD2) F_INTERACT  Size = 24 
|------------------------------------------------|----------------|
|00 01 02 03 04 05 06 07 08 09 0A 0B 0C 0D 0E 0F |0123456789ABCDEF|
|------------------------------------------------|----------------|
|00 0C 89 AE 00 1F 00 00 00 D2 00 00 00 92 00 00 |................|
|00 00 00 00 00 00 00 00                         |........        |
-------------------------------------------------------------------
[Client] packet : (0xE8) F_CLIENT_DATA  Size = 20 
|------------------------------------------------|----------------|
|00 01 02 03 04 05 06 07 08 09 0A 0B 0C 0D 0E 0F |0123456789ABCDEF|
|------------------------------------------------|----------------|
|00 08 89 B0 00 1F 00 00 00 E8 00 34 00 04 6B 21 |...........4..k!|
|01 00 00 00                                     |....            |
-------------------------------------------------------------------
[Server] packet : (0x7E) F_SET_ABILITY_TIMER  Size = 15 
|------------------------------------------------|----------------|
|00 01 02 03 04 05 06 07 08 09 0A 0B 0C 0D 0E 0F |0123456789ABCDEF|
|------------------------------------------------|----------------|
|00 0C 7E 00 01 01 00 00 00 00 00 00 00 00 00    |............... |
-------------------------------------------------------------------
[Server] packet : (0xE9) F_INTERACT_RESPONSE  Size = 94 
|------------------------------------------------|----------------|
|00 01 02 03 04 05 06 07 08 09 0A 0B 0C 0D 0E 0F |0123456789ABCDEF|
|------------------------------------------------|----------------|
|00 5B E9 00 00 92 00 00 40 22 00 51 4D 79 73 74 |.[......@".QMyst|
|69 63 61 6C 20 74 61 6C 69 73 6D 61 6E 73 2C 20 |ical talismans, |
|63 72 79 70 74 69 63 20 73 69 67 69 6C 73 20 61 |cryptic sigils a|
|6E 64 20 72 75 6E 65 64 20 61 6D 75 6C 65 74 73 |nd runed amulets|
|2C 20 61 6C 6C 20 63 61 6E 20 62 65 20 68 61 64 |, all can be had|
|20 66 6F 72 20 61 20 70 72 69 63 65 21 00       |..............  |
-------------------------------------------------------------------
[Client] packet : (0xD2) F_INTERACT  Size = 24 
|------------------------------------------------|----------------|
|00 01 02 03 04 05 06 07 08 09 0A 0B 0C 0D 0E 0F |0123456789ABCDEF|
|------------------------------------------------|----------------|
|00 0C 89 B3 00 1F 00 00 00 D2 00 00 00 92 00 09 |................|
|00 00 00 00 00 00 00 00                         |........        |
-------------------------------------------------------------------
[Server] packet : (0xBF) F_INIT_STORE  Size = 2399 
|------------------------------------------------|----------------|
|00 01 02 03 04 05 06 07 08 09 0A 0B 0C 0D 0E 0F |0123456789ABCDEF|
|------------------------------------------------|----------------|
|09 5C BF 00 00 00 08 01 00 00 00 01 03 00 00 00 |.\..............|
|00 00 00 1E 9A 5B 20 98 00 00 00 00 00 00 00 00 |.....[ .........|
|00 17 00 00 00 00 00 04 00 00 00 00 00 00 00 00 |................|
|00 00 00 00 00 00 00 00 00 00 00 14 00 01 00 00 |................|
|00 00 00 00 00 00 00 00 00 00 15 44 65 6D 6F 6E |...........Demon|
|20 4D 79 72 6D 69 64 6F 6E 27 73 20 53 6F 75 6C | Myrmidon's Soul|
|01 01 00 30 00 00 00 70 80 00 00 00 00 00 7F 54 |...0...p.......T|
|68 69 73 20 74 61 6C 69 73 6D 61 6E 20 63 61 6E |his talisman can|
|20 6F 6E 6C 79 20 62 65 20 75 73 65 64 20 77 69 | only be used wi|
|74 68 20 61 20 6E 6F 72 6D 61 6C 20 76 65 73 73 |th a normal vess|
|65 6C 20 77 65 61 70 6F 6E 2E 20 43 54 4C 2B 52 |el weapon. CTL+R|
|69 67 68 74 20 43 6C 69 63 6B 20 74 6F 20 63 6F |ight Click to co|
|6E 76 65 72 74 20 62 65 74 77 65 65 6E 20 6E 6F |nvert between no|
|72 6D 61 6C 20 6F 72 20 6C 61 72 67 65 20 77 65 |rmal or large we|
|61 70 6F 6E 20 76 65 72 73 69 6F 6E 73 2E 01 01 |apon versions...|
|00 00 03 06 A0 00 00 00 00 00 00 00 00 00 00 00 |................|
|00 00 00 00 00 00 00 00 00 01 00 03 2E 19 1E 29 |...............)|
|0D 47 6F 6C 64 65 6E 20 53 63 61 72 61 62 00 FA |.Golden Scarab..|
|00 00 00 00 00 00 00 00 00 00 00 00 00 00 00 00 |................|
|00 00 02 03 00 00 00 00 00 00 1E 9A 5C 20 9B 00 |............\ ..|
|00 00 00 00 00 00 00 00 17 00 00 00 00 00 04 00 |................|
|00 00 00 00 00 00 00 00 00 00 00 00 00 00 00 00 |................|
|00 00 14 00 01 00 00 00 00 00 00 00 00 00 00 00 |................|
|00 1B 49 6E 64 6F 6D 69 6E 61 62 6C 65 20 4D 79 |..Indominable My|
|72 6D 69 64 6F 6E 27 73 20 53 6F 75 6C 01 03 00 |rmidon's Soul...|
|30 00 00 00 70 80 00 00 00 00 00 7F 54 68 69 73 |0...p.......This|
|20 74 61 6C 69 73 6D 61 6E 20 63 61 6E 20 6F 6E | talisman can on|
|6C 79 20 62 65 20 75 73 65 64 20 77 69 74 68 20 |ly be used with |
|61 20 6E 6F 72 6D 61 6C 20 76 65 73 73 65 6C 20 |a normal vessel |
|77 65 61 70 6F 6E 2E 20 43 54 4C 2B 52 69 67 68 |weapon. CTL+Righ|
|74 20 43 6C 69 63 6B 20 74 6F 20 63 6F 6E 76 65 |t Click to conve|
|72 74 20 62 65 74 77 65 65 6E 20 6E 6F 72 6D 61 |rt between norma|
|6C 20 6F 72 20 6C 61 72 67 65 20 77 65 61 70 6F |l or large weapo|
|6E 20 76 65 72 73 69 6F 6E 73 2E 01 01 00 00 03 |n versions......|
|06 A0 00 00 00 00 00 00 00 00 00 00 00 00 00 00 |................|
|00 00 00 00 00 00 01 00 03 2E 19 1E 29 0D 47 6F |............).Go|
|6C 64 65 6E 20 53 63 61 72 61 62 00 FA 00 00 00 |lden Scarab.....|
|00 00 00 00 00 00 00 00 00 00 00 00 00 00 00 03 |................|
|03 00 00 00 00 00 00 1E 9A 5D 20 99 00 00 00 00 |.........] .....|
|00 00 00 00 00 17 00 00 00 00 00 04 00 00 00 00 |................|
|00 00 00 00 00 00 00 00 00 00 00 00 00 00 00 14 |................|
|00 01 00 00 00 00 00 00 00 00 00 00 00 00 14 49 |...............I|
|72 6F 6E 20 4D 79 72 6D 69 64 6F 6E 27 73 20 53 |ron Myrmidon's S|
|6F 75 6C 01 04 00 30 00 00 00 70 80 00 00 00 00 |oul...0...p.....|
|00 7F 54 68 69 73 20 74 61 6C 69 73 6D 61 6E 20 |..This talisman |
|63 61 6E 20 6F 6E 6C 79 20 62 65 20 75 73 65 64 |can only be used|
|20 77 69 74 68 20 61 20 6E 6F 72 6D 61 6C 20 76 | with a normal v|
|65 73 73 65 6C 20 77 65 61 70 6F 6E 2E 20 43 54 |essel weapon. CT|
|4C 2B 52 69 67 68 74 20 43 6C 69 63 6B 20 74 6F |L+Right Click to|
|20 63 6F 6E 76 65 72 74 20 62 65 74 77 65 65 6E | convert between|
|20 6E 6F 72 6D 61 6C 20 6F 72 20 6C 61 72 67 65 | normal or large|
|20 77 65 61 70 6F 6E 20 76 65 72 73 69 6F 6E 73 | weapon versions|
|2E 01 01 00 00 03 06 A0 00 00 00 00 00 00 00 00 |................|
|00 00 00 00 00 00 00 00 00 00 00 00 01 00 03 2E |................|
|19 1E 29 0D 47 6F 6C 64 65 6E 20 53 63 61 72 61 |..).Golden Scara|
|62 00 FA 00 00 00 00 00 00 00 00 00 00 00 00 00 |b...............|
|00 00 00 00 00 04 03 00 00 00 00 00 00 1E 9A 5E |...............^|
|20 9C 00 00 00 00 00 00 00 00 00 17 00 00 00 00 | ...............|
|00 04 00 00 00 00 00 00 00 00 00 00 00 00 00 00 |................|
|00 00 00 00 00 14 00 01 00 00 00 00 00 00 00 00 |................|
|00 00 00 00 1A 43 6F 6E 71 75 65 72 69 6E 67 20 |.....Conquering |
|4D 79 72 6D 69 64 6F 6E 27 73 20 53 6F 75 6C 01 |Myrmidon's Soul.|
|05 00 30 00 00 00 70 80 00 00 00 00 00 7F 54 68 |..0...p.......Th|
|69 73 20 74 61 6C 69 73 6D 61 6E 20 63 61 6E 20 |is talisman can |
|6F 6E 6C 79 20 62 65 20 75 73 65 64 20 77 69 74 |only be used wit|
|68 20 61 20 6E 6F 72 6D 61 6C 20 76 65 73 73 65 |h a normal vesse|
|6C 20 77 65 61 70 6F 6E 2E 20 43 54 4C 2B 52 69 |l weapon. CTL+Ri|
|67 68 74 20 43 6C 69 63 6B 20 74 6F 20 63 6F 6E |ght Click to con|
|76 65 72 74 20 62 65 74 77 65 65 6E 20 6E 6F 72 |vert between nor|
|6D 61 6C 20 6F 72 20 6C 61 72 67 65 20 77 65 61 |mal or large wea|
|70 6F 6E 20 76 65 72 73 69 6F 6E 73 2E 01 01 00 |pon versions....|
|00 03 06 A0 00 00 00 00 00 00 00 00 00 00 00 00 |................|
|00 00 00 00 00 00 00 00 01 00 03 2E 19 1E 29 0D |..............).|
|47 6F 6C 64 65 6E 20 53 63 61 72 61 62 00 FA 00 |Golden Scarab...|
|00 00 00 00 00 00 00 00 00 00 00 00 00 00 00 00 |................|
|00 05 03 00 00 00 00 00 00 1E 9A 5F 20 8D 00 00 |..........._ ...|
|00 00 00 00 00 00 00 17 00 00 00 00 00 04 00 00 |................|
|00 00 00 00 00 00 00 00 00 00 00 00 00 00 00 00 |................|
|00 14 00 01 00 00 00 00 00 00 00 00 00 00 00 00 |................|
|1A 41 6C 61 63 72 69 74 6F 75 73 20 4D 79 72 6D |.Alacritous Myrm|
|69 64 6F 6E 27 73 20 53 6F 75 6C 01 06 00 30 00 |idon's Soul...0.|
|00 00 70 80 00 00 00 00 00 7F 54 68 69 73 20 74 |..p.......This t|
|61 6C 69 73 6D 61 6E 20 63 61 6E 20 6F 6E 6C 79 |alisman can only|
|20 62 65 20 75 73 65 64 20 77 69 74 68 20 61 20 | be used with a |
|6E 6F 72 6D 61 6C 20 76 65 73 73 65 6C 20 77 65 |normal vessel we|
|61 70 6F 6E 2E 20 43 54 4C 2B 52 69 67 68 74 20 |apon. CTL+Right |
|43 6C 69 63 6B 20 74 6F 20 63 6F 6E 76 65 72 74 |Click to convert|
|20 62 65 74 77 65 65 6E 20 6E 6F 72 6D 61 6C 20 | between normal |
|6F 72 20 6C 61 72 67 65 20 77 65 61 70 6F 6E 20 |or large weapon |
|76 65 72 73 69 6F 6E 73 2E 01 01 00 00 03 06 A0 |versions........|
|00 00 00 00 00 00 00 00 00 00 00 00 00 00 00 00 |................|
|00 00 00 00 01 00 03 2E 19 1E 29 0D 47 6F 6C 64 |..........).Gold|
|65 6E 20 53 63 61 72 61 62 00 FA 00 00 00 00 00 |en Scarab.......|
|00 00 00 00 00 00 00 00 00 00 00 00 00 06 03 00 |................|
|00 00 00 00 00 1E 9A 60 20 9A 00 00 00 00 00 00 |.......` .......|
|00 00 00 17 00 00 00 00 00 04 00 00 00 00 00 00 |................|
|00 00 00 00 00 00 00 00 00 00 00 00 00 14 00 01 |................|
|00 00 00 00 00 00 00 00 00 00 00 00 19 4D 61 73 |.............Mas|
|74 65 72 66 75 6C 20 4D 79 72 6D 69 64 6F 6E 27 |terful Myrmidon'|
|73 20 53 6F 75 6C 01 07 00 30 00 00 00 70 80 00 |s Soul...0...p..|
|00 00 00 00 7F 54 68 69 73 20 74 61 6C 69 73 6D |.....This talism|
|61 6E 20 63 61 6E 20 6F 6E 6C 79 20 62 65 20 75 |an can only be u|
|73 65 64 20 77 69 74 68 20 61 20 6E 6F 72 6D 61 |sed with a norma|
|6C 20 76 65 73 73 65 6C 20 77 65 61 70 6F 6E 2E |l vessel weapon.|
|20 43 54 4C 2B 52 69 67 68 74 20 43 6C 69 63 6B | CTL+Right Click|
|20 74 6F 20 63 6F 6E 76 65 72 74 20 62 65 74 77 | to convert betw|
|65 65 6E 20 6E 6F 72 6D 61 6C 20 6F 72 20 6C 61 |een normal or la|
|72 67 65 20 77 65 61 70 6F 6E 20 76 65 72 73 69 |rge weapon versi|
|6F 6E 73 2E 01 01 00 00 03 06 A0 00 00 00 00 00 |ons.............|
|00 00 00 00 00 00 00 00 00 00 00 00 00 00 00 01 |................|
|00 03 2E 19 1E 29 0D 47 6F 6C 64 65 6E 20 53 63 |.....).Golden Sc|
|61 72 61 62 00 FA 00 00 00 00 00 00 00 00 00 00 |arab............|
|00 00 00 00 00 00 00 00 07 03 00 00 00 00 00 00 |................|
|1E 9A 61 20 83 00 00 00 00 00 00 00 00 00 17 00 |..a ............|
|00 00 00 00 04 00 00 00 00 00 00 00 00 00 00 00 |................|
|00 00 00 00 00 00 00 00 14 00 01 00 00 00 00 00 |................|
|00 00 00 00 00 00 00 18 54 72 75 65 73 68 6F 74 |........Trueshot|
|20 4D 79 72 6D 69 64 6F 6E 27 73 20 53 6F 75 6C | Myrmidon's Soul|
|01 08 00 30 00 00 00 70 80 00 00 00 00 00 7F 54 |...0...p.......T|
|68 69 73 20 74 61 6C 69 73 6D 61 6E 20 63 61 6E |his talisman can|
|20 6F 6E 6C 79 20 62 65 20 75 73 65 64 20 77 69 | only be used wi|
|74 68 20 61 20 6E 6F 72 6D 61 6C 20 76 65 73 73 |th a normal vess|
|65 6C 20 77 65 61 70 6F 6E 2E 20 43 54 4C 2B 52 |el weapon. CTL+R|
|69 67 68 74 20 43 6C 69 63 6B 20 74 6F 20 63 6F |ight Click to co|
|6E 76 65 72 74 20 62 65 74 77 65 65 6E 20 6E 6F |nvert between no|
|72 6D 61 6C 20 6F 72 20 6C 61 72 67 65 20 77 65 |rmal or large we|
|61 70 6F 6E 20 76 65 72 73 69 6F 6E 73 2E 01 01 |apon versions...|
|00 00 03 06 A0 00 00 00 00 00 00 00 00 00 00 00 |................|
|00 00 00 00 00 00 00 00 00 01 00 03 2E 19 1E 29 |...............)|
|0D 47 6F 6C 64 65 6E 20 53 63 61 72 61 62 00 FA |.Golden Scarab..|
|00 00 00 00 00 00 00 00 00 00 00 00 00 00 00 00 |................|
|00 00 08 03 00 00 00 00 00 00 1E 9A 62 20 8E 00 |............b ..|
|00 00 00 00 00 00 00 00 17 00 00 00 00 00 04 00 |................|
|00 00 00 00 00 00 00 00 00 00 00 00 00 00 00 00 |................|
|00 00 14 00 01 00 00 00 00 00 00 00 00 00 00 00 |................|
|00 1A 4F 6D 6E 69 70 6F 74 65 6E 74 20 4D 79 72 |..Omnipotent Myr|
|6D 69 64 6F 6E 27 73 20 53 6F 75 6C 01 09 00 30 |midon's Soul...0|
|00 00 00 70 80 00 00 00 00 00 7F 54 68 69 73 20 |...p.......This |
|74 61 6C 69 73 6D 61 6E 20 63 61 6E 20 6F 6E 6C |talisman can onl|
|79 20 62 65 20 75 73 65 64 20 77 69 74 68 20 61 |y be used with a|
|20 6E 6F 72 6D 61 6C 20 76 65 73 73 65 6C 20 77 | normal vessel w|
|65 61 70 6F 6E 2E 20 43 54 4C 2B 52 69 67 68 74 |eapon. CTL+Right|
|20 43 6C 69 63 6B 20 74 6F 20 63 6F 6E 76 65 72 | Click to conver|
|74 20 62 65 74 77 65 65 6E 20 6E 6F 72 6D 61 6C |t between normal|
|20 6F 72 20 6C 61 72 67 65 20 77 65 61 70 6F 6E | or large weapon|
|20 76 65 72 73 69 6F 6E 73 2E 01 01 00 00 03 06 | versions.......|
|A0 00 00 00 00 00 00 00 00 00 00 00 00 00 00 00 |................|
|00 00 00 00 00 01 00 03 2E 19 1E 29 0D 47 6F 6C |...........).Gol|
|64 65 6E 20 53 63 61 72 61 62 00 FA 00 00 00 00 |den Scarab......|
|00 00 00 00 00 00 00 00 00 00 00 00 00 00 00    |............... |
-------------------------------------------------------------------
[Server] packet : (0xBF) F_INIT_STORE  Size = 3822 
|------------------------------------------------|----------------|
|00 01 02 03 04 05 06 07 08 09 0A 0B 0C 0D 0E 0F |0123456789ABCDEF|
|------------------------------------------------|----------------|
|0E EB BF 00 00 01 0D 00 00 00 01 03 00 00 00 00 |................|
|00 00 1E 9A 63 20 84 00 00 00 00 00 00 00 00 00 |....c ..........|
|17 00 00 00 00 00 04 00 00 00 00 00 00 00 00 00 |................|
|00 00 00 00 00 00 00 00 00 00 14 00 01 00 00 00 |................|
|00 00 00 00 00 00 00 00 00 1A 46 65 61 72 6C 65 |..........Fearle|
|73 73 20 48 69 65 72 6F 70 68 61 6E 74 27 73 20 |ss Hierophant's |
|53 6F 75 6C 01 1C 00 08 00 00 00 70 80 00 00 00 |Soul.......p....|
|00 00 30 54 68 69 73 20 69 74 65 6D 20 63 61 6E |..0This item can|
|20 62 65 20 75 73 65 64 20 69 6E 20 61 20 6E 6F | be used in a no|
|72 6D 61 6C 20 76 65 73 73 65 6C 20 77 65 61 70 |rmal vessel weap|
|6F 6E 2E 01 01 00 00 03 06 20 00 00 00 00 00 00 |on....... ......|
|00 00 00 00 00 00 00 00 00 00 00 00 00 00 01 00 |................|
|03 2E 19 1E 29 0D 47 6F 6C 64 65 6E 20 53 63 61 |....).Golden Sca|
|72 61 62 00 FA 00 00 00 00 00 00 00 00 00 00 00 |rab.............|
|00 00 00 00 00 00 00 02 03 00 00 00 00 00 00 1E |................|
|9A 64 20 96 00 00 00 00 00 00 00 00 00 17 00 00 |.d .............|
|00 00 00 04 00 00 00 00 00 00 00 00 00 00 00 00 |................|
|00 00 00 00 00 00 00 14 00 01 00 00 00 00 00 00 |................|
|00 00 00 00 00 00 19 57 61 72 6C 6F 72 64 20 48 |.......Warlord H|
|69 65 72 6F 70 68 61 6E 74 27 73 20 53 6F 75 6C |ierophant's Soul|
|01 1D 00 08 00 00 00 70 80 00 00 00 00 00 7F 54 |.......p.......T|
|68 69 73 20 74 61 6C 69 73 6D 61 6E 20 63 61 6E |his talisman can|
|20 6F 6E 6C 79 20 62 65 20 75 73 65 64 20 77 69 | only be used wi|
|74 68 20 61 20 6E 6F 72 6D 61 6C 20 76 65 73 73 |th a normal vess|
|65 6C 20 77 65 61 70 6F 6E 2E 20 43 54 4C 2B 52 |el weapon. CTL+R|
|69 67 68 74 20 43 6C 69 63 6B 20 74 6F 20 63 6F |ight Click to co|
|6E 76 65 72 74 20 62 65 74 77 65 65 6E 20 6E 6F |nvert between no|
|72 6D 61 6C 20 6F 72 20 6C 61 72 67 65 20 77 65 |rmal or large we|
|61 70 6F 6E 20 76 65 72 73 69 6F 6E 73 2E 01 01 |apon versions...|
|00 00 03 06 A0 00 00 00 00 00 00 00 00 00 00 00 |................|
|00 00 00 00 00 00 00 00 00 01 00 03 2E 19 1E 29 |...............)|
|0D 47 6F 6C 64 65 6E 20 53 63 61 72 61 62 00 FA |.Golden Scarab..|
|00 00 00 00 00 00 00 00 00 00 00 00 00 00 00 00 |................|
|00 00 03 03 00 00 00 00 00 00 1E 9A 65 20 8B 00 |............e ..|
|00 00 00 00 00 00 00 00 17 00 00 00 00 00 04 00 |................|
|00 00 00 00 00 00 00 00 00 00 00 00 00 00 00 00 |................|
|00 00 14 00 01 00 00 00 00 00 00 00 00 00 00 00 |................|
|00 18 53 68 61 64 6F 77 20 48 69 65 72 6F 70 68 |..Shadow Hieroph|
|61 6E 74 27 73 20 53 6F 75 6C 01 1E 00 08 00 00 |ant's Soul......|
|00 70 80 00 00 00 00 00 7F 54 68 69 73 20 74 61 |.p.......This ta|
|6C 69 73 6D 61 6E 20 63 61 6E 20 6F 6E 6C 79 20 |lisman can only |
|62 65 20 75 73 65 64 20 77 69 74 68 20 61 20 6E |be used with a n|
|6F 72 6D 61 6C 20 76 65 73 73 65 6C 20 77 65 61 |ormal vessel wea|
|70 6F 6E 2E 20 43 54 4C 2B 52 69 67 68 74 20 43 |pon. CTL+Right C|
|6C 69 63 6B 20 74 6F 20 63 6F 6E 76 65 72 74 20 |lick to convert |
|62 65 74 77 65 65 6E 20 6E 6F 72 6D 61 6C 20 6F |between normal o|
|72 20 6C 61 72 67 65 20 77 65 61 70 6F 6E 20 76 |r large weapon v|
|65 72 73 69 6F 6E 73 2E 01 01 00 00 03 06 A0 00 |ersions.........|
|00 00 00 00 00 00 00 00 00 00 00 00 00 00 00 00 |................|
|00 00 00 01 00 03 2E 19 1E 29 0D 47 6F 6C 64 65 |.........).Golde|
|6E 20 53 63 61 72 61 62 00 FA 00 00 00 00 00 00 |n Scarab........|
|00 00 00 00 00 00 00 00 00 00 00 00 04 03 00 00 |................|
|00 00 00 00 1E 9A 66 20 8A 00 00 00 00 00 00 00 |......f ........|
|00 00 17 00 00 00 00 00 04 00 00 00 00 00 00 00 |................|
|00 00 00 00 00 00 00 00 00 00 00 00 14 00 01 00 |................|
|00 00 00 00 00 00 00 00 00 00 00 18 53 69 6C 76 |............Silv|
|65 72 20 48 69 65 72 6F 70 68 61 6E 74 27 73 20 |er Hierophant's |
|53 6F 75 6C 01 1F 00 08 00 00 00 70 80 00 00 00 |Soul.......p....|
|00 00 7F 54 68 69 73 20 74 61 6C 69 73 6D 61 6E |...This talisman|
|20 63 61 6E 20 6F 6E 6C 79 20 62 65 20 75 73 65 | can only be use|
|64 20 77 69 74 68 20 61 20 6E 6F 72 6D 61 6C 20 |d with a normal |
|76 65 73 73 65 6C 20 77 65 61 70 6F 6E 2E 20 43 |vessel weapon. C|
|54 4C 2B 52 69 67 68 74 20 43 6C 69 63 6B 20 74 |TL+Right Click t|
|6F 20 63 6F 6E 76 65 72 74 20 62 65 74 77 65 65 |o convert betwee|
|6E 20 6E 6F 72 6D 61 6C 20 6F 72 20 6C 61 72 67 |n normal or larg|
|65 20 77 65 61 70 6F 6E 20 76 65 72 73 69 6F 6E |e weapon version|
|73 2E 01 01 00 00 03 06 A0 00 00 00 00 00 00 00 |s...............|
|00 00 00 00 00 00 00 00 00 00 00 00 00 01 00 03 |................|
|2E 19 1E 29 0D 47 6F 6C 64 65 6E 20 53 63 61 72 |...).Golden Scar|
|61 62 00 FA 00 00 00 00 00 00 00 00 00 00 00 00 |ab..............|
|00 00 00 00 00 00 05 03 00 00 00 00 00 00 1E 9A |................|
|67 20 95 00 00 00 00 00 00 00 00 00 17 00 00 00 |g ..............|
|00 00 04 00 00 00 00 00 00 00 00 1E 00 00 00 00 |................|
|00 00 00 00 00 00 14 00 01 00 00 00 00 00 00 00 |................|
|00 00 00 00 00 19 56 69 63 69 6F 75 73 20 48 69 |......Vicious Hi|
|65 72 6F 70 68 61 6E 74 27 73 20 53 6F 75 6C 01 |erophant's Soul.|
|4C 00 05 00 00 00 70 80 00 00 00 00 00 7F 54 68 |L.....p.......Th|
|69 73 20 74 61 6C 69 73 6D 61 6E 20 63 61 6E 20 |is talisman can |
|6F 6E 6C 79 20 62 65 20 75 73 65 64 20 77 69 74 |only be used wit|
|68 20 61 20 6E 6F 72 6D 61 6C 20 76 65 73 73 65 |h a normal vesse|
|6C 20 77 65 61 70 6F 6E 2E 20 43 54 4C 2B 52 69 |l weapon. CTL+Ri|
|67 68 74 20 43 6C 69 63 6B 20 74 6F 20 63 6F 6E |ght Click to con|
|76 65 72 74 20 62 65 74 77 65 65 6E 20 6E 6F 72 |vert between nor|
|6D 61 6C 20 6F 72 20 6C 61 72 67 65 20 77 65 61 |mal or large wea|
|70 6F 6E 20 76 65 72 73 69 6F 6E 73 2E 01 01 00 |pon versions....|
|00 03 06 A0 00 00 00 00 00 00 00 00 00 00 00 00 |................|
|00 00 00 00 00 00 00 00 01 00 03 2E 19 1E 29 0D |..............).|
|47 6F 6C 64 65 6E 20 53 63 61 72 61 62 00 FA 00 |Golden Scarab...|
|00 00 00 00 00 00 00 00 00 00 00 00 00 00 00 00 |................|
|00 06 03 00 00 00 00 00 00 1E 9A 68 20 95 00 00 |...........h ...|
|00 00 00 00 00 00 00 17 00 00 00 00 00 04 00 00 |................|
|00 00 00 00 00 00 1E 00 00 00 00 00 00 00 00 00 |................|
|00 14 00 01 00 00 00 00 00 00 00 00 00 00 00 00 |................|
|19 52 61 64 69 61 6E 74 20 48 69 65 72 6F 70 68 |.Radiant Hieroph|
|61 6E 74 27 73 20 53 6F 75 6C 01 4E 00 05 00 00 |ant's Soul.N....|
|00 70 80 00 00 00 00 00 7F 54 68 69 73 20 74 61 |.p.......This ta|
|6C 69 73 6D 61 6E 20 63 61 6E 20 6F 6E 6C 79 20 |lisman can only |
|62 65 20 75 73 65 64 20 77 69 74 68 20 61 20 6E |be used with a n|
|6F 72 6D 61 6C 20 76 65 73 73 65 6C 20 77 65 61 |ormal vessel wea|
|70 6F 6E 2E 20 43 54 4C 2B 52 69 67 68 74 20 43 |pon. CTL+Right C|
|6C 69 63 6B 20 74 6F 20 63 6F 6E 76 65 72 74 20 |lick to convert |
|62 65 74 77 65 65 6E 20 6E 6F 72 6D 61 6C 20 6F |between normal o|
|72 20 6C 61 72 67 65 20 77 65 61 70 6F 6E 20 76 |r large weapon v|
|65 72 73 69 6F 6E 73 2E 01 01 00 00 03 06 A0 00 |ersions.........|
|00 00 00 00 00 00 00 00 00 00 00 00 00 00 00 00 |................|
|00 00 00 01 00 03 2E 19 1E 29 0D 47 6F 6C 64 65 |.........).Golde|
|6E 20 53 63 61 72 61 62 00 FA 00 00 00 00 00 00 |n Scarab........|
|00 00 00 00 00 00 00 00 00 00 00 00 07 03 00 00 |................|
|00 00 00 00 1E 9A 69 20 95 00 00 00 00 00 00 00 |......i ........|
|00 00 17 00 00 00 00 00 04 00 00 00 00 00 00 00 |................|
|00 1E 00 00 00 00 00 00 00 00 00 00 14 00 01 00 |................|
|00 00 00 00 00 00 00 00 00 00 00 1A 47 72 61 63 |............Grac|
|69 6F 75 73 20 48 69 65 72 6F 70 68 61 6E 74 27 |ious Hierophant'|
|73 20 53 6F 75 6C 01 59 00 05 00 00 00 70 80 00 |s Soul.Y.....p..|
|00 00 00 00 7F 54 68 69 73 20 74 61 6C 69 73 6D |.....This talism|
|61 6E 20 63 61 6E 20 6F 6E 6C 79 20 62 65 20 75 |an can only be u|
|73 65 64 20 77 69 74 68 20 61 20 6E 6F 72 6D 61 |sed with a norma|
|6C 20 76 65 73 73 65 6C 20 77 65 61 70 6F 6E 2E |l vessel weapon.|
|20 43 54 4C 2B 52 69 67 68 74 20 43 6C 69 63 6B | CTL+Right Click|
|20 74 6F 20 63 6F 6E 76 65 72 74 20 62 65 74 77 | to convert betw|
|65 65 6E 20 6E 6F 72 6D 61 6C 20 6F 72 20 6C 61 |een normal or la|
|72 67 65 20 77 65 61 70 6F 6E 20 76 65 72 73 69 |rge weapon versi|
|6F 6E 73 2E 01 01 00 00 03 06 A0 00 00 00 00 00 |ons.............|
|00 00 00 00 00 00 00 00 00 00 00 00 00 00 00 01 |................|
|00 03 2E 19 1E 29 0D 47 6F 6C 64 65 6E 20 53 63 |.....).Golden Sc|
|61 72 61 62 00 FA 00 00 00 00 00 00 00 00 00 00 |arab............|
|00 00 00 00 00 00 00 00 08 03 00 00 00 00 00 00 |................|
|1E 9A 6A 20 95 00 00 00 00 00 00 00 00 00 17 00 |..j ............|
|00 00 00 00 04 00 00 00 00 00 00 00 00 1E 00 00 |................|
|00 00 00 00 00 00 00 00 14 00 01 00 00 00 00 00 |................|
|00 00 00 00 00 00 00 18 4C 65 74 68 61 6C 20 48 |........Lethal H|
|69 65 72 6F 70 68 61 6E 74 27 73 20 53 6F 75 6C |ierophant's Soul|
|01 4D 00 05 00 00 00 70 80 00 00 00 00 00 7F 54 |.M.....p.......T|
|68 69 73 20 74 61 6C 69 73 6D 61 6E 20 63 61 6E |his talisman can|
|20 6F 6E 6C 79 20 62 65 20 75 73 65 64 20 77 69 | only be used wi|
|74 68 20 61 20 6E 6F 72 6D 61 6C 20 76 65 73 73 |th a normal vess|
|65 6C 20 77 65 61 70 6F 6E 2E 20 43 54 4C 2B 52 |el weapon. CTL+R|
|69 67 68 74 20 43 6C 69 63 6B 20 74 6F 20 63 6F |ight Click to co|
|6E 76 65 72 74 20 62 65 74 77 65 65 6E 20 6E 6F |nvert between no|
|72 6D 61 6C 20 6F 72 20 6C 61 72 67 65 20 77 65 |rmal or large we|
|61 70 6F 6E 20 76 65 72 73 69 6F 6E 73 2E 01 01 |apon versions...|
|00 00 03 06 A0 00 00 00 00 00 00 00 00 00 00 00 |................|
|00 00 00 00 00 00 00 00 00 01 00 03 2E 19 1E 29 |...............)|
|0D 47 6F 6C 64 65 6E 20 53 63 61 72 61 62 00 FA |.Golden Scarab..|
|00 00 00 00 00 00 00 00 00 00 00 00 00 00 00 00 |................|
|00 00 0A 03 00 00 00 00 00 00 1E 9A 6C 20 88 00 |............l ..|
|00 00 00 00 00 00 00 00 17 00 00 00 00 00 04 00 |................|
|00 00 00 00 00 00 00 1E 00 00 00 00 00 00 00 00 |................|
|00 00 14 00 01 00 00 00 00 00 00 00 00 00 00 00 |................|
|00 1A 43 68 61 6D 70 69 6F 6E 20 48 69 65 72 6F |..Champion Hiero|
|70 68 61 6E 74 27 73 20 53 6F 75 6C 01 54 00 05 |phant's Soul.T..|
|00 00 00 70 80 00 00 00 00 00 7F 54 68 69 73 20 |...p.......This |
|74 61 6C 69 73 6D 61 6E 20 63 61 6E 20 6F 6E 6C |talisman can onl|
|79 20 62 65 20 75 73 65 64 20 77 69 74 68 20 61 |y be used with a|
|20 6E 6F 72 6D 61 6C 20 76 65 73 73 65 6C 20 77 | normal vessel w|
|65 61 70 6F 6E 2E 20 43 54 4C 2B 52 69 67 68 74 |eapon. CTL+Right|
|20 43 6C 69 63 6B 20 74 6F 20 63 6F 6E 76 65 72 | Click to conver|
|74 20 62 65 74 77 65 65 6E 20 6E 6F 72 6D 61 6C |t between normal|
|20 6F 72 20 6C 61 72 67 65 20 77 65 61 70 6F 6E | or large weapon|
|20 76 65 72 73 69 6F 6E 73 2E 01 01 00 00 03 06 | versions.......|
|A0 00 00 00 00 00 00 00 00 00 00 00 00 00 00 00 |................|
|00 00 00 00 00 01 00 03 2E 19 1E 29 0D 47 6F 6C |...........).Gol|
|64 65 6E 20 53 63 61 72 61 62 00 FA 00 00 00 00 |den Scarab......|
|00 00 00 00 00 00 00 00 00 00 00 00 00 00 0B 03 |................|
|00 00 00 00 00 00 1E 9A 6D 20 90 00 00 00 00 00 |........m ......|
|00 00 00 00 17 00 00 00 00 00 04 00 00 00 00 00 |................|
|00 00 00 00 00 00 00 00 00 00 00 00 00 00 14 00 |................|
|01 00 00 00 00 00 00 00 00 00 00 00 00 1A 53 61 |..............Sa|
|64 69 73 74 69 63 20 48 69 65 72 6F 70 68 61 6E |distic Hierophan|
|74 27 73 20 53 6F 75 6C 01 50 00 60 00 00 00 70 |t's Soul.P.`...p|
|80 00 00 00 00 00 7F 54 68 69 73 20 74 61 6C 69 |.......This tali|
|73 6D 61 6E 20 63 61 6E 20 6F 6E 6C 79 20 62 65 |sman can only be|
|20 75 73 65 64 20 77 69 74 68 20 61 20 6E 6F 72 | used with a nor|
|6D 61 6C 20 76 65 73 73 65 6C 20 77 65 61 70 6F |mal vessel weapo|
|6E 2E 20 43 54 4C 2B 52 69 67 68 74 20 43 6C 69 |n. CTL+Right Cli|
|63 6B 20 74 6F 20 63 6F 6E 76 65 72 74 20 62 65 |ck to convert be|
|74 77 65 65 6E 20 6E 6F 72 6D 61 6C 20 6F 72 20 |tween normal or |
|6C 61 72 67 65 20 77 65 61 70 6F 6E 20 76 65 72 |large weapon ver|
|73 69 6F 6E 73 2E 01 01 00 00 03 06 A0 00 00 00 |sions...........|
|00 00 00 00 00 00 00 00 00 00 00 00 00 00 00 00 |................|
|00 01 00 03 2E 19 1E 29 0D 47 6F 6C 64 65 6E 20 |.......).Golden |
|53 63 61 72 61 62 00 FA 00 00 00 00 00 00 00 00 |Scarab..........|
|00 00 00 00 00 00 00 00 00 00 0C 03 00 00 00 00 |................|
|00 00 1E 9A 6E 20 8F 00 00 00 00 00 00 00 00 00 |....n ..........|
|17 00 00 00 00 00 04 00 00 00 00 00 00 00 00 00 |................|
|00 00 00 00 00 00 00 00 00 00 14 00 01 00 00 00 |................|
|00 00 00 00 00 00 00 00 00 19 54 77 69 73 74 65 |..........Twiste|
|64 20 48 69 65 72 6F 70 68 61 6E 74 27 73 20 53 |d Hierophant's S|
|6F 75 6C 01 51 00 60 00 00 00 70 80 00 00 00 00 |oul.Q.`...p.....|
|00 7F 54 68 69 73 20 74 61 6C 69 73 6D 61 6E 20 |..This talisman |
|63 61 6E 20 6F 6E 6C 79 20 62 65 20 75 73 65 64 |can only be used|
|20 77 69 74 68 20 61 20 6E 6F 72 6D 61 6C 20 76 | with a normal v|
|65 73 73 65 6C 20 77 65 61 70 6F 6E 2E 20 43 54 |essel weapon. CT|
|4C 2B 52 69 67 68 74 20 43 6C 69 63 6B 20 74 6F |L+Right Click to|
|20 63 6F 6E 76 65 72 74 20 62 65 74 77 65 65 6E | convert between|
|20 6E 6F 72 6D 61 6C 20 6F 72 20 6C 61 72 67 65 | normal or large|
|20 77 65 61 70 6F 6E 20 76 65 72 73 69 6F 6E 73 | weapon versions|
|2E 01 01 00 00 03 06 A0 00 00 00 00 00 00 00 00 |................|
|00 00 00 00 00 00 00 00 00 00 00 00 01 00 03 2E |................|
|19 1E 29 0D 47 6F 6C 64 65 6E 20 53 63 61 72 61 |..).Golden Scara|
|62 00 FA 00 00 00 00 00 00 00 00 00 00 00 00 00 |b...............|
|00 00 00 00 00 0D 03 00 00 00 00 00 00 1E 9A 6F |...............o|
|20 97 00 00 00 00 00 00 00 00 00 17 00 00 00 00 | ...............|
|00 04 00 00 00 00 00 00 00 00 00 00 00 00 00 00 |................|
|00 00 00 00 00 14 00 01 00 00 00 00 00 00 00 00 |................|
|00 00 00 00 1A 50 72 65 64 61 74 6F 72 20 48 69 |.....Predator Hi|
|65 72 6F 70 68 61 6E 74 27 73 20 53 6F 75 6C 01 |erophant's Soul.|
|52 00 60 00 00 00 70 80 00 00 00 00 00 7F 54 68 |R.`...p.......Th|
|69 73 20 74 61 6C 69 73 6D 61 6E 20 63 61 6E 20 |is talisman can |
|6F 6E 6C 79 20 62 65 20 75 73 65 64 20 77 69 74 |only be used wit|
|68 20 61 20 6E 6F 72 6D 61 6C 20 76 65 73 73 65 |h a normal vesse|
|6C 20 77 65 61 70 6F 6E 2E 20 43 54 4C 2B 52 69 |l weapon. CTL+Ri|
|67 68 74 20 43 6C 69 63 6B 20 74 6F 20 63 6F 6E |ght Click to con|
|76 65 72 74 20 62 65 74 77 65 65 6E 20 6E 6F 72 |vert between nor|
|6D 61 6C 20 6F 72 20 6C 61 72 67 65 20 77 65 61 |mal or large wea|
|70 6F 6E 20 76 65 72 73 69 6F 6E 73 2E 01 01 00 |pon versions....|
|00 03 06 A0 00 00 00 00 00 00 00 00 00 00 00 00 |................|
|00 00 00 00 00 00 00 00 01 00 03 2E 19 1E 29 0D |..............).|
|47 6F 6C 64 65 6E 20 53 63 61 72 61 62 00 FA 00 |Golden Scarab...|
|00 00 00 00 00 00 00 00 00 00 00 00 00 00 00 00 |................|
|00 0E 03 00 00 00 00 00 00 1E 9A 70 20 8C 00 00 |...........p ...|
|00 00 00 00 00 00 00 17 00 00 00 00 00 04 00 00 |................|
|00 00 00 00 00 00 00 00 00 00 00 00 00 00 00 00 |................|
|00 14 00 01 00 00 00 00 00 00 00 00 00 00 00 00 |................|
|1A 49 6E 6E 6F 63 65 6E 74 20 48 69 65 72 6F 70 |.Innocent Hierop|
|68 61 6E 74 27 73 20 53 6F 75 6C 01 5E 00 60 00 |hant's Soul.^.`.|
|00 00 70 80 00 00 00 00 00 7F 54 68 69 73 20 74 |..p.......This t|
|61 6C 69 73 6D 61 6E 20 63 61 6E 20 6F 6E 6C 79 |alisman can only|
|20 62 65 20 75 73 65 64 20 77 69 74 68 20 61 20 | be used with a |
|6E 6F 72 6D 61 6C 20 76 65 73 73 65 6C 20 77 65 |normal vessel we|
|61 70 6F 6E 2E 20 43 54 4C 2B 52 69 67 68 74 20 |apon. CTL+Right |
|43 6C 69 63 6B 20 74 6F 20 63 6F 6E 76 65 72 74 |Click to convert|
|20 62 65 74 77 65 65 6E 20 6E 6F 72 6D 61 6C 20 | between normal |
|6F 72 20 6C 61 72 67 65 20 77 65 61 70 6F 6E 20 |or large weapon |
|76 65 72 73 69 6F 6E 73 2E 01 01 00 00 03 06 A0 |versions........|
|00 00 00 00 00 00 00 00 00 00 00 00 00 00 00 00 |................|
|00 00 00 00 01 00 03 2E 19 1E 29 0D 47 6F 6C 64 |..........).Gold|
|65 6E 20 53 63 61 72 61 62 00 FA 00 00 00 00 00 |en Scarab.......|
|00 00 00 00 00 00 00 00 00 00 00 00 00 00       |..............  |
-------------------------------------------------------------------
[Server] packet : (0xBF) F_INIT_STORE  Size = 2393 
|------------------------------------------------|----------------|
|00 01 02 03 04 05 06 07 08 09 0A 0B 0C 0D 0E 0F |0123456789ABCDEF|
|------------------------------------------------|----------------|
|09 56 BF 00 00 02 08 00 00 00 01 03 00 00 00 00 |.V..............|
|00 00 1E 9A 71 20 91 00 00 00 00 00 00 00 00 00 |....q ..........|
|17 00 00 00 00 00 04 00 00 00 00 00 00 00 00 1E |................|
|00 00 00 00 00 00 00 00 00 00 14 00 01 00 00 00 |................|
|00 00 00 00 00 00 00 00 00 17 42 6C 61 7A 69 6E |..........Blazin|
|67 20 4F 76 65 72 6C 6F 72 64 27 73 20 53 6F 75 |g Overlord's Sou|
|6C 00 01 46 5D 00 00 70 80 00 00 00 00 7F 54 68 |l..F]..p......Th|
|69 73 20 74 61 6C 69 73 6D 61 6E 20 63 61 6E 20 |is talisman can |
|6F 6E 6C 79 20 62 65 20 75 73 65 64 20 77 69 74 |only be used wit|
|68 20 61 20 6E 6F 72 6D 61 6C 20 76 65 73 73 65 |h a normal vesse|
|6C 20 77 65 61 70 6F 6E 2E 20 43 54 4C 2B 52 69 |l weapon. CTL+Ri|
|67 68 74 20 43 6C 69 63 6B 20 74 6F 20 63 6F 6E |ght Click to con|
|76 65 72 74 20 62 65 74 77 65 65 6E 20 6E 6F 72 |vert between nor|
|6D 61 6C 20 6F 72 20 6C 61 72 67 65 20 77 65 61 |mal or large wea|
|70 6F 6E 20 76 65 72 73 69 6F 6E 73 2E 01 01 00 |pon versions....|
|00 03 06 A0 00 00 00 00 00 00 00 00 00 00 00 00 |................|
|00 00 00 00 00 00 00 00 01 00 03 2E 19 1E 29 0D |..............).|
|47 6F 6C 64 65 6E 20 53 63 61 72 61 62 00 FA 00 |Golden Scarab...|
|00 00 00 00 00 00 00 00 00 00 00 00 00 00 00 00 |................|
|00 02 03 00 00 00 00 00 00 1E 9A 72 20 92 00 00 |...........r ...|
|00 00 00 00 00 00 00 17 00 00 00 00 00 04 00 00 |................|
|00 00 00 00 00 00 1E 00 00 00 00 00 00 00 00 00 |................|
|00 14 00 01 00 00 00 00 00 00 00 00 00 00 00 00 |................|
|15 44 72 65 61 64 20 4F 76 65 72 6C 6F 72 64 27 |.Dread Overlord'|
|73 20 53 6F 75 6C 00 02 27 6F 00 00 70 80 3D 0D |s Soul..'o..p.=.|
|00 00 70 80 00 00 00 00 7F 54 68 69 73 20 74 61 |..p......This ta|
|6C 69 73 6D 61 6E 20 63 61 6E 20 6F 6E 6C 79 20 |lisman can only |
|62 65 20 75 73 65 64 20 77 69 74 68 20 61 20 6E |be used with a n|
|6F 72 6D 61 6C 20 76 65 73 73 65 6C 20 77 65 61 |ormal vessel wea|
|70 6F 6E 2E 20 43 54 4C 2B 52 69 67 68 74 20 43 |pon. CTL+Right C|
|6C 69 63 6B 20 74 6F 20 63 6F 6E 76 65 72 74 20 |lick to convert |
|62 65 74 77 65 65 6E 20 6E 6F 72 6D 61 6C 20 6F |between normal o|
|72 20 6C 61 72 67 65 20 77 65 61 70 6F 6E 20 76 |r large weapon v|
|65 72 73 69 6F 6E 73 2E 01 01 00 00 03 06 A0 00 |ersions.........|
|00 00 00 00 00 00 00 00 00 00 00 00 00 00 00 00 |................|
|00 00 00 01 00 03 2E 19 1E 29 0D 47 6F 6C 64 65 |.........).Golde|
|6E 20 53 63 61 72 61 62 00 FA 00 00 00 00 00 00 |n Scarab........|
|00 00 00 00 00 00 00 00 00 00 00 00 03 03 00 00 |................|
|00 00 00 00 1E 9A 73 20 88 00 00 00 00 00 00 00 |......s ........|
|00 00 17 00 00 00 00 00 04 00 00 00 00 00 00 00 |................|
|00 1E 00 00 00 00 00 00 00 00 00 00 14 00 01 00 |................|
|00 00 00 00 00 00 00 00 00 00 00 16 41 72 64 65 |............Arde|
|6E 74 20 4F 76 65 72 6C 6F 72 64 27 73 20 53 6F |nt Overlord's So|
|75 6C 00 01 3D 45 00 00 70 80 00 00 00 00 7F 54 |ul..=E..p......T|
|68 69 73 20 74 61 6C 69 73 6D 61 6E 20 63 61 6E |his talisman can|
|20 6F 6E 6C 79 20 62 65 20 75 73 65 64 20 77 69 | only be used wi|
|74 68 20 61 20 6E 6F 72 6D 61 6C 20 76 65 73 73 |th a normal vess|
|65 6C 20 77 65 61 70 6F 6E 2E 20 43 54 4C 2B 52 |el weapon. CTL+R|
|69 67 68 74 20 43 6C 69 63 6B 20 74 6F 20 63 6F |ight Click to co|
|6E 76 65 72 74 20 62 65 74 77 65 65 6E 20 6E 6F |nvert between no|
|72 6D 61 6C 20 6F 72 20 6C 61 72 67 65 20 77 65 |rmal or large we|
|61 70 6F 6E 20 76 65 72 73 69 6F 6E 73 2E 01 01 |apon versions...|
|00 00 03 06 A0 00 00 00 00 00 00 00 00 00 00 00 |................|
|00 00 00 00 00 00 00 00 00 01 00 03 2E 19 1E 29 |...............)|
|0D 47 6F 6C 64 65 6E 20 53 63 61 72 61 62 00 FA |.Golden Scarab..|
|00 00 00 00 00 00 00 00 00 00 00 00 00 00 00 00 |................|
|00 00 04 03 00 00 00 00 00 00 1E 9A 74 20 93 00 |............t ..|
|00 00 00 00 00 00 00 00 17 00 00 00 00 00 04 00 |................|
|00 00 00 00 00 00 00 1E 00 00 00 00 00 00 00 00 |................|
|00 00 14 00 01 00 00 00 00 00 00 00 00 00 00 00 |................|
|00 17 54 65 6D 70 65 73 74 20 4F 76 65 72 6C 6F |..Tempest Overlo|
|72 64 27 73 20 53 6F 75 6C 00 01 46 6B 00 00 A8 |rd's Soul..Fk...|
|C0 00 00 00 00 7F 54 68 69 73 20 74 61 6C 69 73 |......This talis|
|6D 61 6E 20 63 61 6E 20 6F 6E 6C 79 20 62 65 20 |man can only be |
|75 73 65 64 20 77 69 74 68 20 61 20 6E 6F 72 6D |used with a norm|
|61 6C 20 76 65 73 73 65 6C 20 77 65 61 70 6F 6E |al vessel weapon|
|2E 20 43 54 4C 2B 52 69 67 68 74 20 43 6C 69 63 |. CTL+Right Clic|
|6B 20 74 6F 20 63 6F 6E 76 65 72 74 20 62 65 74 |k to convert bet|
|77 65 65 6E 20 6E 6F 72 6D 61 6C 20 6F 72 20 6C |ween normal or l|
|61 72 67 65 20 77 65 61 70 6F 6E 20 76 65 72 73 |arge weapon vers|
|69 6F 6E 73 2E 01 01 00 00 03 06 A0 00 00 00 00 |ions............|
|00 00 00 00 00 00 00 00 00 00 00 00 00 00 00 00 |................|
|01 00 03 2E 19 1E 29 0D 47 6F 6C 64 65 6E 20 53 |......).Golden S|
|63 61 72 61 62 00 FA 00 00 00 00 00 00 00 00 00 |carab...........|
|00 00 00 00 00 00 00 00 00 05 03 00 00 0B 1A 00 |................|
|00 1E 9A 75 20 94 00 00 00 00 00 00 00 00 00 17 |...u ...........|
|00 41 00 00 00 04 00 00 00 00 00 00 00 00 1E 00 |.A..............|
|00 00 00 00 00 00 04 71 00 14 00 01 00 00 00 00 |.......q........|
|00 00 00 00 00 00 00 00 17 50 68 6F 65 6E 69 78 |.........Phoenix|
|20 4F 76 65 72 6C 6F 72 64 27 73 20 53 6F 75 6C | Overlord's Soul|
|00 01 46 65 00 00 70 80 00 00 00 00 7F 54 68 69 |..Fe..p......Thi|
|73 20 74 61 6C 69 73 6D 61 6E 20 63 61 6E 20 6F |s talisman can o|
|6E 6C 79 20 62 65 20 75 73 65 64 20 77 69 74 68 |nly be used with|
|20 61 20 6E 6F 72 6D 61 6C 20 76 65 73 73 65 6C | a normal vessel|
|20 77 65 61 70 6F 6E 2E 20 43 54 4C 2B 52 69 67 | weapon. CTL+Rig|
|68 74 20 43 6C 69 63 6B 20 74 6F 20 63 6F 6E 76 |ht Click to conv|
|65 72 74 20 62 65 74 77 65 65 6E 20 6E 6F 72 6D |ert between norm|
|61 6C 20 6F 72 20 6C 61 72 67 65 20 77 65 61 70 |al or large weap|
|6F 6E 20 76 65 72 73 69 6F 6E 73 2E 01 01 00 00 |on versions.....|
|03 06 A0 08 00 00 00 00 00 00 00 00 00 00 00 00 |................|
|00 00 00 00 00 00 00 01 00 03 2E 19 1E 29 0D 47 |.............).G|
|6F 6C 64 65 6E 20 53 63 61 72 61 62 00 FA 00 00 |olden Scarab....|
|00 00 00 00 00 00 00 00 00 00 00 00 00 00 00 00 |................|
|06 03 00 00 00 00 00 00 1E 9A 79 20 85 00 00 00 |..........y ....|
|00 00 00 00 00 00 17 00 00 00 00 00 04 00 00 00 |................|
|00 00 00 00 00 1E 00 00 00 00 00 00 00 00 00 00 |................|
|14 00 01 00 00 00 00 00 00 00 00 00 00 00 00 1A |................|
|53 61 63 72 69 66 69 63 65 64 20 43 72 75 73 61 |Sacrificed Crusa|
|64 65 72 27 73 20 53 6F 75 6C 00 01 28 36 00 00 |der's Soul..(6..|
|70 80 00 00 00 00 7F 54 68 69 73 20 74 61 6C 69 |p......This tali|
|73 6D 61 6E 20 63 61 6E 20 6F 6E 6C 79 20 62 65 |sman can only be|
|20 75 73 65 64 20 77 69 74 68 20 61 20 6E 6F 72 | used with a nor|
|6D 61 6C 20 76 65 73 73 65 6C 20 77 65 61 70 6F |mal vessel weapo|
|6E 2E 20 43 54 4C 2B 52 69 67 68 74 20 43 6C 69 |n. CTL+Right Cli|
|63 6B 20 74 6F 20 63 6F 6E 76 65 72 74 20 62 65 |ck to convert be|
|74 77 65 65 6E 20 6E 6F 72 6D 61 6C 20 6F 72 20 |tween normal or |
|6C 61 72 67 65 20 77 65 61 70 6F 6E 20 76 65 72 |large weapon ver|
|73 69 6F 6E 73 2E 01 01 00 00 03 06 A0 00 00 00 |sions...........|
|00 00 00 00 00 00 00 00 00 00 00 00 00 00 00 00 |................|
|00 01 00 03 2E 19 1E 29 0D 47 6F 6C 64 65 6E 20 |.......).Golden |
|53 63 61 72 61 62 00 FA 00 00 00 00 00 00 00 00 |Scarab..........|
|00 00 00 00 00 00 00 00 00 00 07 03 00 00 00 00 |................|
|00 00 1E 9A 7A 20 86 00 00 00 00 00 00 00 00 00 |....z ..........|
|17 00 00 00 00 00 04 00 00 00 00 00 00 00 00 1E |................|
|00 00 00 00 00 00 00 00 00 00 14 00 01 00 00 00 |................|
|00 00 00 00 00 00 00 00 00 1C 49 6D 70 65 6E 65 |..........Impene|
|74 72 61 62 6C 65 20 43 72 75 73 61 64 65 72 27 |trable Crusader'|
|73 20 53 6F 75 6C 00 02 28 42 00 00 70 80 3C BE |s Soul..(B..p.<.|
|00 00 70 80 00 00 00 00 7F 54 68 69 73 20 74 61 |..p......This ta|
|6C 69 73 6D 61 6E 20 63 61 6E 20 6F 6E 6C 79 20 |lisman can only |
|62 65 20 75 73 65 64 20 77 69 74 68 20 61 20 6E |be used with a n|
|6F 72 6D 61 6C 20 76 65 73 73 65 6C 20 77 65 61 |ormal vessel wea|
|70 6F 6E 2E 20 43 54 4C 2B 52 69 67 68 74 20 43 |pon. CTL+Right C|
|6C 69 63 6B 20 74 6F 20 63 6F 6E 76 65 72 74 20 |lick to convert |
|62 65 74 77 65 65 6E 20 6E 6F 72 6D 61 6C 20 6F |between normal o|
|72 20 6C 61 72 67 65 20 77 65 61 70 6F 6E 20 76 |r large weapon v|
|65 72 73 69 6F 6E 73 2E 01 01 00 00 03 06 A0 00 |ersions.........|
|00 00 00 00 00 00 00 00 00 00 00 00 00 00 00 00 |................|
|00 00 00 01 00 03 2E 19 1E 29 0D 47 6F 6C 64 65 |.........).Golde|
|6E 20 53 63 61 72 61 62 00 FA 00 00 00 00 00 00 |n Scarab........|
|00 00 00 00 00 00 00 00 00 00 00 00 08 03 00 00 |................|
|00 00 00 00 1E 9A 7B 20 87 00 00 00 00 00 00 00 |......{ ........|
|00 00 17 00 00 00 00 00 04 00 00 00 00 00 00 00 |................|
|00 1E 00 00 00 00 00 00 00 00 00 00 14 00 01 00 |................|
|00 00 00 00 00 00 00 00 00 00 00 16 50 6C 61 67 |............Plag|
|75 65 20 43 72 75 73 61 64 65 72 27 73 20 53 6F |ue Crusader's So|
|75 6C 00 02 3D 0E 00 00 70 80 27 FA 00 00 70 80 |ul..=...p.'...p.|
|00 00 00 00 7F 54 68 69 73 20 74 61 6C 69 73 6D |.....This talism|
|61 6E 20 63 61 6E 20 6F 6E 6C 79 20 62 65 20 75 |an can only be u|
|73 65 64 20 77 69 74 68 20 61 20 6E 6F 72 6D 61 |sed with a norma|
|6C 20 76 65 73 73 65 6C 20 77 65 61 70 6F 6E 2E |l vessel weapon.|
|20 43 54 4C 2B 52 69 67 68 74 20 43 6C 69 63 6B | CTL+Right Click|
|20 74 6F 20 63 6F 6E 76 65 72 74 20 62 65 74 77 | to convert betw|
|65 65 6E 20 6E 6F 72 6D 61 6C 20 6F 72 20 6C 61 |een normal or la|
|72 67 65 20 77 65 61 70 6F 6E 20 76 65 72 73 69 |rge weapon versi|
|6F 6E 73 2E 01 01 00 00 03 06 A0 00 00 00 00 00 |ons.............|
|00 00 00 00 00 00 00 00 00 00 00 00 00 00 00 01 |................|
|00 03 2E 19 1E 29 0D 47 6F 6C 64 65 6E 20 53 63 |.....).Golden Sc|
|61 72 61 62 00 FA 00 00 00 00 00 00 00 00 00 00 |arab............|
|00 00 00 00 00 00 00 00 00                      |.........       |
-------------------------------------------------------------------
[Server] packet : (0xC0) F_STORE_BUY_BACK  Size = 5 
|------------------------------------------------|----------------|
|00 01 02 03 04 05 06 07 08 09 0A 0B 0C 0D 0E 0F |0123456789ABCDEF|
|------------------------------------------------|----------------|
|00 02 C0 00 00                                  |.....           |
-------------------------------------------------------------------
[Client] packet : (0x0B) F_PING  Size = 32 
|------------------------------------------------|----------------|
|00 01 02 03 04 05 06 07 08 09 0A 0B 0C 0D 0E 0F |0123456789ABCDEF|
|------------------------------------------------|----------------|
|00 14 89 B7 00 1F 00 00 00 0B 00 75 FF 93 A0 D7 |...........u....|
|3F FD BE FB 6C 97 00 00 00 00 00 00 00 00 C0 88 |?...l...........|                                                
-------------------------------------------------------------------
[Server] packet : (0x81) S_PONG  Size = 23 
|------------------------------------------------|----------------|
|00 01 02 03 04 05 06 07 08 09 0A 0B 0C 0D 0E 0F |0123456789ABCDEF|
|------------------------------------------------|----------------|
|00 14 81 00 75 FF 93 52 75 77 82 00 00 00 00 00 |....u..Ruw......|
|00 89 B8 00 00 00 00                            |.......         |
-------------------------------------------------------------------
[Server] packet : (0x51) F_ANIMATION  Size = 9 
|------------------------------------------------|----------------|
|00 01 02 03 04 05 06 07 08 09 0A 0B 0C 0D 0E 0F |0123456789ABCDEF|
|------------------------------------------------|----------------|
|00 06 51 00 F4 00 00 00 00                      |.........       |
-------------------------------------------------------------------
[Client] packet : (0x01) UNKNOWN  Size = 32 
|------------------------------------------------|----------------|
|00 01 02 03 04 05 06 07 08 09 0A 0B 0C 0D 0E 0F |0123456789ABCDEF|
|------------------------------------------------|----------------|
|00 14 89 BC 00 1F 00 00 00 01 00 76 02 D0 00 00 |...........v....|
|00 00 00 00 00 00 00 00 04 46 00 00 2F 81 99 AB |.........F../...|                                                
-------------------------------------------------------------------
[Server] packet : (0x00) UNKNOWN  Size = 23 
|------------------------------------------------|----------------|
|00 01 02 03 04 05 06 07 08 09 0A 0B 0C 0D 0E 0F |0123456789ABCDEF|
|------------------------------------------------|----------------|
|00 14 00 00 76 02 D0 7C 5A 90 1D 00 00 00 00 00 |....v..|Z.......|
|00 04 46 00 00 2F 00                            |.......         |
-------------------------------------------------------------------
[Client] packet : (0xFE) F_PLAY_VOICE_OVER  Size = 16 
|------------------------------------------------|----------------|
|00 01 02 03 04 05 06 07 08 09 0A 0B 0C 0D 0E 0F |0123456789ABCDEF|
|------------------------------------------------|----------------|
|00 04 89 C0 00 1F FF FF 00 FE 02 00 00 00 26 F9 |..............&.|                                                
-------------------------------------------------------------------
[Server] packet : (0x74) UNKNOWN  Size = 44 
|------------------------------------------------|----------------|
|00 01 02 03 04 05 06 07 08 09 0A 0B 0C 0D 0E 0F |0123456789ABCDEF|
|------------------------------------------------|----------------|
|00 29 74 01 01 00 00 00 04 02 00 17 02 00 03 00 |.)t.............|
|00 00 00 00 00 00 01 00 01 00 00 01 F4 00 00 01 |................|
|3F 02 00 01 00 00 01 F4 00 00 00 00             |............    |
-------------------------------------------------------------------
[Server] packet : (0x51) F_ANIMATION  Size = 9 
|------------------------------------------------|----------------|
|00 01 02 03 04 05 06 07 08 09 0A 0B 0C 0D 0E 0F |0123456789ABCDEF|
|------------------------------------------------|----------------|
|00 06 51 00 F4 00 00 00 00                      |.........       |
-------------------------------------------------------------------
[Client] packet : (0x5A) F_PING_DATAGRAM  Size = 13 
|------------------------------------------------|----------------|
|00 01 02 03 04 05 06 07 08 09 0A 0B 0C 0D 0E 0F |0123456789ABCDEF|
|------------------------------------------------|----------------|
|00 01 89 C3 00 1F FF FF 00 5A 00 D4 10          |.............   |
-------------------------------------------------------------------
[Client] packet : (0x0B) F_PING  Size = 32 
|------------------------------------------------|----------------|
|00 01 02 03 04 05 06 07 08 09 0A 0B 0C 0D 0E 0F |0123456789ABCDEF|
|------------------------------------------------|----------------|
|00 14 89 C4 00 1F 00 00 00 0B 00 76 13 26 73 23 |...........v.&s#|
|BF F9 59 5B C1 CF 00 00 00 00 00 00 00 00 C0 88 |..Y[............|                                                
-------------------------------------------------------------------
[Server] packet : (0x81) S_PONG  Size = 23 
|------------------------------------------------|----------------|
|00 01 02 03 04 05 06 07 08 09 0A 0B 0C 0D 0E 0F |0123456789ABCDEF|
|------------------------------------------------|----------------|
|00 14 81 00 76 13 26 52 75 77 87 00 00 00 00 00 |....v.&Ruw......|
|00 89 C5 00 00 00 00                            |.......         |
-------------------------------------------------------------------
[Client] packet : (0x0B) F_PING  Size = 32 
|------------------------------------------------|----------------|
|00 01 02 03 04 05 06 07 08 09 0A 0B 0C 0D 0E 0F |0123456789ABCDEF|
|------------------------------------------------|----------------|
|00 14 89 CF 00 1F 00 00 00 0B 00 76 27 27 AF 0F |...........v''..|
|2F 68 D5 7C D6 76 00 00 00 00 00 00 00 00 C0 88 |/h.|.v..........|                                                
-------------------------------------------------------------------
[Server] packet : (0x81) S_PONG  Size = 23 
|------------------------------------------------|----------------|
|00 01 02 03 04 05 06 07 08 09 0A 0B 0C 0D 0E 0F |0123456789ABCDEF|
|------------------------------------------------|----------------|
|00 14 81 00 76 27 27 52 75 77 8C 00 00 00 00 00 |....v''Ruw......|
|00 89 D0 00 00 00 00                            |.......         |
-------------------------------------------------------------------
[Server] packet : (0x51) F_ANIMATION  Size = 9 
|------------------------------------------------|----------------|
|00 01 02 03 04 05 06 07 08 09 0A 0B 0C 0D 0E 0F |0123456789ABCDEF|
|------------------------------------------------|----------------|
|00 06 51 00 EF 00 00 00 00                      |.........       |
-------------------------------------------------------------------
[Server] packet : (0x51) F_ANIMATION  Size = 9 
|------------------------------------------------|----------------|
|00 01 02 03 04 05 06 07 08 09 0A 0B 0C 0D 0E 0F |0123456789ABCDEF|
|------------------------------------------------|----------------|
|00 06 51 00 F4 00 00 00 00                      |.........       |
-------------------------------------------------------------------
[Client] packet : (0x01) UNKNOWN  Size = 32 
|------------------------------------------------|----------------|
|00 01 02 03 04 05 06 07 08 09 0A 0B 0C 0D 0E 0F |0123456789ABCDEF|
|------------------------------------------------|----------------|
|00 14 89 D4 00 1F 00 00 00 01 00 76 2A CB 00 23 |...........v*..#|
|39 B0 08 18 C0 4A 20 07 6A EB 90 38 74 1D 00 00 |9....J .j..8t...|                                                
-------------------------------------------------------------------
[Server] packet : (0x00) UNKNOWN  Size = 23 
|------------------------------------------------|----------------|
|00 01 02 03 04 05 06 07 08 09 0A 0B 0C 0D 0E 0F |0123456789ABCDEF|
|------------------------------------------------|----------------|
|00 14 00 00 76 2A CB 7C 5A B7 E8 00 00 00 00 20 |....v*.|Z...... |
|07 6A EB 90 38 74 00                            |.......         |
-------------------------------------------------------------------
[Client] packet : (0x0B) F_PING  Size = 32 
|------------------------------------------------|----------------|
|00 01 02 03 04 05 06 07 08 09 0A 0B 0C 0D 0E 0F |0123456789ABCDEF|
|------------------------------------------------|----------------|
|00 14 89 DC 00 1F 00 00 00 0B 00 76 3A B0 1B 88 |...........v:...|
|C2 0E 46 04 08 00 00 00 00 00 00 00 00 00 C0 88 |..F.............|                                                
-------------------------------------------------------------------
[Server] packet : (0x81) S_PONG  Size = 23 
|------------------------------------------------|----------------|
|00 01 02 03 04 05 06 07 08 09 0A 0B 0C 0D 0E 0F |0123456789ABCDEF|
|------------------------------------------------|----------------|
|00 14 81 00 76 3A B0 52 75 77 91 00 00 00 00 00 |....v:.Ruw......|
|00 89 DD 00 00 00 00                            |.......         |
-------------------------------------------------------------------
[Server] packet : (0x51) F_ANIMATION  Size = 9 
|------------------------------------------------|----------------|
|00 01 02 03 04 05 06 07 08 09 0A 0B 0C 0D 0E 0F |0123456789ABCDEF|
|------------------------------------------------|----------------|
|00 06 51 00 EF 00 00 00 00                      |.........       |
-------------------------------------------------------------------
[Server] packet : (0x51) F_ANIMATION  Size = 9 
|------------------------------------------------|----------------|
|00 01 02 03 04 05 06 07 08 09 0A 0B 0C 0D 0E 0F |0123456789ABCDEF|
|------------------------------------------------|----------------|
|00 06 51 00 F4 00 00 00 00                      |.........       |
-------------------------------------------------------------------
[Client] packet : (0x5A) F_PING_DATAGRAM  Size = 13 
|------------------------------------------------|----------------|
|00 01 02 03 04 05 06 07 08 09 0A 0B 0C 0D 0E 0F |0123456789ABCDEF|
|------------------------------------------------|----------------|
|00 01 89 E5 00 1F FF FF 00 5A 00 7E 40          |.............   |
-------------------------------------------------------------------
[Client] packet : (0x0B) F_PING  Size = 32 
|------------------------------------------------|----------------|
|00 01 02 03 04 05 06 07 08 09 0A 0B 0C 0D 0E 0F |0123456789ABCDEF|
|------------------------------------------------|----------------|
|00 14 89 E6 00 1F 00 00 00 0B 00 76 4E E8 1D D0 |...........vN...|
|C0 44 65 42 10 A4 00 00 00 00 00 00 00 00 00 00 |.DeB............|                                                
-------------------------------------------------------------------
[Server] packet : (0x81) S_PONG  Size = 23 
|------------------------------------------------|----------------|
|00 01 02 03 04 05 06 07 08 09 0A 0B 0C 0D 0E 0F |0123456789ABCDEF|
|------------------------------------------------|----------------|
|00 14 81 00 76 4E E8 52 75 77 96 00 00 00 00 00 |....vN.Ruw......|
|00 89 E7 00 00 00 00                            |.......         |
-------------------------------------------------------------------
[Client] packet : (0x86) F_MAIL  Size = 16 
|------------------------------------------------|----------------|
|00 01 02 03 04 05 06 07 08 09 0A 0B 0C 0D 0E 0F |0123456789ABCDEF|
|------------------------------------------------|----------------|
|00 04 89 E9 00 1F FF FF 00 86 00 00 00 00 00 00 |................|                                                
-------------------------------------------------------------------