
[Client] packet : (0x16) F_REQUEST_INIT_OBJECT  Size = 16 
|------------------------------------------------|----------------|
|00 01 02 03 04 05 06 07 08 09 0A 0B 0C 0D 0E 0F |0123456789ABCDEF|
|------------------------------------------------|----------------|
|00 04 1C 13 00 05 00 00 00 16 34 E0 00 00 BA 00 |..........4.....|                                                
-------------------------------------------------------------------
[Server] packet : (0x72) F_CREATE_MONSTER  Size = 108 
|------------------------------------------------|----------------|
|00 01 02 03 04 05 06 07 08 09 0A 0B 0C 0D 0E 0F |0123456789ABCDEF|
|------------------------------------------------|----------------|
|00 69 72 34 E0 00 EB 00 A4 24 20 00 0F D9 50 00 |.ir4.....$ ...P.|
|10 40 02 FF FC 04 3C 32 07 61 00 00 00 00 00 00 |.@....<2.a......|
|00 00 00 03 E8 00 00 00 00 89 74 00 05 00 00 01 |..........t.....|
|19 00 47 6F 6C 64 65 6E 77 69 6E 67 20 45 61 67 |..Goldenwing Eag|
|6C 65 5E 6D 00 01 0A 00 00 00 1A 05 00 34 E0 59 |le^m.........4.Y|
|50 C0 02 24 20 64 21 C8 00 00 00 00 00 EB 00 81 |P..$ d!.........|
|14 59 ED C0 1C 24 C8 34 E0 00 00 00             |............    |
-------------------------------------------------------------------
[Client] packet : (0x01) UNKNOWN  Size = 32 
|------------------------------------------------|----------------|
|00 01 02 03 04 05 06 07 08 09 0A 0B 0C 0D 0E 0F |0123456789ABCDEF|
|------------------------------------------------|----------------|
|00 14 1C 15 00 05 00 00 00 01 00 22 90 41 00 00 |...........".A..|
|00 00 00 00 00 00 00 00 55 17 00 00 33 71 F9 1D |........U...3q..|                                                
-------------------------------------------------------------------
[Server] packet : (0x00) UNKNOWN  Size = 23 
|------------------------------------------------|----------------|
|00 01 02 03 04 05 06 07 08 09 0A 0B 0C 0D 0E 0F |0123456789ABCDEF|
|------------------------------------------------|----------------|
|00 14 00 00 22 90 41 AA EB BD 77 00 00 00 00 00 |....".A...w.....|
|00 55 17 00 00 33 00                            |.......         |
-------------------------------------------------------------------
[Client] packet : (0x0B) F_PING  Size = 32 
|------------------------------------------------|----------------|
|00 01 02 03 04 05 06 07 08 09 0A 0B 0C 0D 0E 0F |0123456789ABCDEF|
|------------------------------------------------|----------------|
|00 14 1C 19 00 05 00 00 00 0B 00 22 9B D5 90 48 |..........."...H|
|05 14 6E 87 33 43 00 00 00 00 00 00 00 00 F0 ED |..n.3C..........|                                                
-------------------------------------------------------------------
[Server] packet : (0x81) S_PONG  Size = 23 
|------------------------------------------------|----------------|
|00 01 02 03 04 05 06 07 08 09 0A 0B 0C 0D 0E 0F |0123456789ABCDEF|
|------------------------------------------------|----------------|
|00 14 81 00 22 9B D5 52 81 63 50 00 00 00 00 00 |...."..R.cP.....|
|00 1C 1A 00 00 00 00                            |.......         |
-------------------------------------------------------------------
[Client] packet : (0x16) F_REQUEST_INIT_OBJECT  Size = 16 
|------------------------------------------------|----------------|
|00 01 02 03 04 05 06 07 08 09 0A 0B 0C 0D 0E 0F |0123456789ABCDEF|
|------------------------------------------------|----------------|
|00 04 1C 1C 00 05 00 00 00 16 11 6A 00 00 BD AB |...........j....|                                                
-------------------------------------------------------------------
[Server] packet : (0x72) F_CREATE_MONSTER  Size = 108 
|------------------------------------------------|----------------|
|00 01 02 03 04 05 06 07 08 09 0A 0B 0C 0D 0E 0F |0123456789ABCDEF|
|------------------------------------------------|----------------|
|00 69 72 11 6A 00 EB 0C FA 2B E6 00 0F D0 22 00 |.ir.j....+....".|
|10 41 AF 00 00 04 3C 32 07 61 00 00 00 00 00 00 |.A....<2.a......|
|00 00 00 03 E8 00 00 00 00 89 66 00 08 00 00 01 |..........f.....|
|19 00 47 6F 6C 64 65 6E 77 69 6E 67 20 46 6C 69 |..Goldenwing Fli|
|65 72 5E 6D 00 01 0A 00 00 00 1A 05 00 11 6A 50 |er^m..........jP|
|22 C1 AF 2B E6 64 21 C8 00 00 00 00 00 EB 00 00 |"..+.d!.........|
|23 51 17 C2 E6 2B C8 11 6A 00 00 00             |............    |
-------------------------------------------------------------------
[Client] packet : (0x5A) F_PING_DATAGRAM  Size = 13 
|------------------------------------------------|----------------|
|00 01 02 03 04 05 06 07 08 09 0A 0B 0C 0D 0E 0F |0123456789ABCDEF|
|------------------------------------------------|----------------|
|00 01 1C 1E 00 05 FF FF 00 5A 00 6D 9E          |.............   |
-------------------------------------------------------------------
[Server] packet : (0x51) F_ANIMATION  Size = 9 
|------------------------------------------------|----------------|
|00 01 02 03 04 05 06 07 08 09 0A 0B 0C 0D 0E 0F |0123456789ABCDEF|
|------------------------------------------------|----------------|
|00 06 51 01 3C 00 E5 00 00                      |.........       |
-------------------------------------------------------------------
[Client] packet : (0x07) F_TEXT  Size = 40 
|------------------------------------------------|----------------|
|00 01 02 03 04 05 06 07 08 09 0A 0B 0C 0D 0E 0F |0123456789ABCDEF|
|------------------------------------------------|----------------|
|00 1C 1C 21 00 05 FF FF 00 07 00 26 77 62 63 20 |...!.......&wbc |
|70 72 6F 6D 6F 74 65 20 44 72 6F 6C 65 64 65 66 |promote Droledef|
|65 6D 6D 65 00 00 00 00                         |........        |
-------------------------------------------------------------------
[Server] packet : (0xD8) F_GROUP_STATUS  Size = 17 
|------------------------------------------------|----------------|
|00 01 02 03 04 05 06 07 08 09 0A 0B 0C 0D 0E 0F |0123456789ABCDEF|
|------------------------------------------------|----------------|
|00 0E D8 00 00 00 00 0E 02 EA A1 86 01 CC DF 96 |................|
|00                                              |.               |
-------------------------------------------------------------------
[Client] packet : (0x0B) F_PING  Size = 32 
|------------------------------------------------|----------------|
|00 01 02 03 04 05 06 07 08 09 0A 0B 0C 0D 0E 0F |0123456789ABCDEF|
|------------------------------------------------|----------------|
|00 14 1C 25 00 05 00 00 00 0B 00 22 AE E7 BF C7 |...%......."....|
|3E EC BC 3F C6 D4 00 00 00 00 00 00 00 00 F0 ED |>..?............|                                                
-------------------------------------------------------------------
[Server] packet : (0x81) S_PONG  Size = 23 
|------------------------------------------------|----------------|
|00 01 02 03 04 05 06 07 08 09 0A 0B 0C 0D 0E 0F |0123456789ABCDEF|
|------------------------------------------------|----------------|
|00 14 81 00 22 AE E7 52 81 63 55 00 00 00 00 00 |...."..R.cU.....|
|00 1C 26 00 00 00 00                            |.......         |
-------------------------------------------------------------------
[Client] packet : (0x07) F_TEXT  Size = 35 
|------------------------------------------------|----------------|
|00 01 02 03 04 05 06 07 08 09 0A 0B 0C 0D 0E 0F |0123456789ABCDEF|
|------------------------------------------------|----------------|
|00 17 1C 29 00 05 FF FF 00 07 00 26 77 62 63 20 |...).......&wbc |
|70 72 6F 6D 6F 74 65 20 44 61 73 63 6F 75 62 00 |promote Dascoub.|
|00 00 00                                        |...             |
-------------------------------------------------------------------
[Server] packet : (0xD8) F_GROUP_STATUS  Size = 20 
|------------------------------------------------|----------------|
|00 01 02 03 04 05 06 07 08 09 0A 0B 0C 0D 0E 0F |0123456789ABCDEF|
|------------------------------------------------|----------------|
|00 11 D8 00 00 00 00 0E 03 9C E4 6C EA A1 86 01 |...........l....|
|CC DF 96 00                                     |....            |
-------------------------------------------------------------------
[Client] packet : (0x01) UNKNOWN  Size = 32 
|------------------------------------------------|----------------|
|00 01 02 03 04 05 06 07 08 09 0A 0B 0C 0D 0E 0F |0123456789ABCDEF|
|------------------------------------------------|----------------|
|00 14 1C 2E 00 05 00 00 00 01 00 22 B8 4A 20 07 |...........".J .|
|2A 68 90 38 40 04 00 23 79 F0 08 18 E0 5E 00 00 |*h.8@..#y....^..|                                                
-------------------------------------------------------------------
[Server] packet : (0x00) UNKNOWN  Size = 23 
|------------------------------------------------|----------------|
|00 01 02 03 04 05 06 07 08 09 0A 0B 0C 0D 0E 0F |0123456789ABCDEF|
|------------------------------------------------|----------------|
|00 14 00 00 22 B8 4A AA EB E5 13 00 00 00 00 00 |....".J.........|
|23 79 F0 08 18 E0 00                            |.......         |
-------------------------------------------------------------------
[Client] packet : (0x0B) F_PING  Size = 32 
|------------------------------------------------|----------------|
|00 01 02 03 04 05 06 07 08 09 0A 0B 0C 0D 0E 0F |0123456789ABCDEF|
|------------------------------------------------|----------------|
|00 14 1C 32 00 05 00 00 00 0B 00 22 C2 70 06 40 |...2.......".p.@|
|02 02 D2 E1 17 00 00 00 00 00 00 00 00 00 F0 ED |................|                                                
-------------------------------------------------------------------
[Server] packet : (0x81) S_PONG  Size = 23 
|------------------------------------------------|----------------|
|00 01 02 03 04 05 06 07 08 09 0A 0B 0C 0D 0E 0F |0123456789ABCDEF|
|------------------------------------------------|----------------|
|00 14 81 00 22 C2 70 52 81 63 5A 00 00 00 00 00 |....".pR.cZ.....|
|00 1C 33 00 00 00 00                            |.......         |
-------------------------------------------------------------------