
[Server] packet : (0x6F) F_LOCALIZED_STRING  Size = 18 
|------------------------------------------------|----------------|
|00 01 02 03 04 05 06 07 08 09 0A 0B 0C 0D 0E 0F |0123456789ABCDEF|
|------------------------------------------------|----------------|
|00 0F 6F 00 00 00 00 05 E8 00 00 00 01 01 00 02 |..o.............|
|30 00                                           |..              |
-------------------------------------------------------------------
[Server] packet : (0xD8) F_GROUP_STATUS  Size = 23 
|------------------------------------------------|----------------|
|00 01 02 03 04 05 06 07 08 09 0A 0B 0C 0D 0E 0F |0123456789ABCDEF|
|------------------------------------------------|----------------|
|00 14 D8 3E C8 01 03 00 02 00 00 00 00 00 00 00 |...>............|
|1B 32 1C 00 25 AF 00                            |.......         |
-------------------------------------------------------------------
[Client] packet : (0x16) F_REQUEST_INIT_OBJECT  Size = 16 
|------------------------------------------------|----------------|
|00 01 02 03 04 05 06 07 08 09 0A 0B 0C 0D 0E 0F |0123456789ABCDEF|
|------------------------------------------------|----------------|
|00 04 64 51 00 DD 00 00 00 16 39 61 00 00 BA 00 |..dQ......9a....|                                                
-------------------------------------------------------------------
[Server] packet : (0x72) F_CREATE_MONSTER  Size = 108 
|------------------------------------------------|----------------|
|00 01 02 03 04 05 06 07 08 09 0A 0B 0C 0D 0E 0F |0123456789ABCDEF|
|------------------------------------------------|----------------|
|00 69 72 39 61 00 EB 0D A8 27 C2 00 0F D8 BB 00 |.ir9a....'......|
|10 40 1F FF 88 04 3C 32 07 61 00 00 00 00 00 00 |.@....<2.a......|
|00 00 00 03 E8 00 00 00 00 89 66 00 05 00 00 01 |..........f.....|
|19 00 47 6F 6C 64 65 6E 77 69 6E 67 20 46 6C 69 |..Goldenwing Fli|
|65 72 5E 6D 00 01 0A 00 00 00 1A 05 00 39 61 58 |er^m.........9aX|
|BB C0 1F 27 C2 64 21 C8 00 00 00 00 00 EB 00 9E |...'.d!.........|
|45 5A 4C C1 B9 26 C8 39 61 00 00 00             |............    |
-------------------------------------------------------------------
[Server] packet : (0x51) F_ANIMATION  Size = 9 
|------------------------------------------------|----------------|
|00 01 02 03 04 05 06 07 08 09 0A 0B 0C 0D 0E 0F |0123456789ABCDEF|
|------------------------------------------------|----------------|
|00 06 51 0D 2B 00 6C 00 00                      |.........       |
-------------------------------------------------------------------
[Server] packet : (0x51) F_ANIMATION  Size = 9 
|------------------------------------------------|----------------|
|00 01 02 03 04 05 06 07 08 09 0A 0B 0C 0D 0E 0F |0123456789ABCDEF|
|------------------------------------------------|----------------|
|00 06 51 01 3C 00 B0 00 00                      |.........       |
-------------------------------------------------------------------
[Client] packet : (0x01) UNKNOWN  Size = 32 
|------------------------------------------------|----------------|
|00 01 02 03 04 05 06 07 08 09 0A 0B 0C 0D 0E 0F |0123456789ABCDEF|
|------------------------------------------------|----------------|
|00 14 64 56 00 DD 00 00 00 01 00 61 48 59 00 00 |..dV.......aHY..|
|00 00 00 00 00 00 00 00 10 17 00 00 04 62 B3 E2 |.............b..|                                                
-------------------------------------------------------------------
[Server] packet : (0x00) UNKNOWN  Size = 23 
|------------------------------------------------|----------------|
|00 01 02 03 04 05 06 07 08 09 0A 0B 0C 0D 0E 0F |0123456789ABCDEF|
|------------------------------------------------|----------------|
|00 14 00 00 61 48 59 AA E7 AB 89 00 00 00 00 00 |....aHY.........|
|00 10 17 00 00 04 00                            |.......         |
-------------------------------------------------------------------
[Server] packet : (0x51) F_ANIMATION  Size = 9 
|------------------------------------------------|----------------|
|00 01 02 03 04 05 06 07 08 09 0A 0B 0C 0D 0E 0F |0123456789ABCDEF|
|------------------------------------------------|----------------|
|00 06 51 01 3B 00 AC 00 00                      |.........       |
-------------------------------------------------------------------
[Server] packet : (0x6F) F_LOCALIZED_STRING  Size = 18 
|------------------------------------------------|----------------|
|00 01 02 03 04 05 06 07 08 09 0A 0B 0C 0D 0E 0F |0123456789ABCDEF|
|------------------------------------------------|----------------|
|00 0F 6F 00 00 00 00 05 E8 00 00 00 01 01 00 02 |..o.............|
|31 00                                           |..              |
-------------------------------------------------------------------
[Server] packet : (0xD8) F_GROUP_STATUS  Size = 23 
|------------------------------------------------|----------------|
|00 01 02 03 04 05 06 07 08 09 0A 0B 0C 0D 0E 0F |0123456789ABCDEF|
|------------------------------------------------|----------------|
|00 14 D8 3E C8 01 03 00 02 00 00 00 00 00 01 00 |...>............|
|1B 32 1C 00 25 AF 00                            |.......         |
-------------------------------------------------------------------