
[Server] packet : (0x72) F_CREATE_MONSTER  Size = 138 
|------------------------------------------------|----------------|
|00 01 02 03 04 05 06 07 08 09 0A 0B 0C 0D 0E 0F |0123456789ABCDEF|
|------------------------------------------------|----------------|
|00 87 72 08 D4 00 55 01 38 12 B4 00 10 2E A7 00 |..r...U.8.......|
|0D 8E 89 00 00 04 C1 32 14 81 00 00 00 00 00 00 |.......2........|
|00 00 00 03 E8 00 00 00 00 0F 42 00 00 00 00 01 |..........B.....|
|19 00 47 75 7A 7A 6C 65 27 73 20 53 63 6F 75 74 |..Guzzle's Scout|
|5E 4D 00 01 0A 00 00 00 1A 25 00 08 D4 6E A7 6E |^M.......%...n.n|
|89 12 B4 64 01 01 00 00 00 00 00 55 00 00 13 6C |...d.......U...l|
|7F 73 A8 12 01 08 D4 00 08 00 0A 04 20 00 0C 04 |.s.......... ...|
|34 00 14 08 CD 00 15 08 CF 00 16 08 CE 00 17 08 |4...............|
|D1 00 18 08 D0 00 1C 08 CC 00                   |..........      |
-------------------------------------------------------------------
[Client] packet : (0x16) F_REQUEST_INIT_OBJECT  Size = 16 
|------------------------------------------------|----------------|
|00 01 02 03 04 05 06 07 08 09 0A 0B 0C 0D 0E 0F |0123456789ABCDEF|
|------------------------------------------------|----------------|
|00 04 B4 44 00 1F 00 00 00 16 00 6E 00 00 F7 40 |...D.......n...@|                                                
-------------------------------------------------------------------
[Server] packet : (0x72) F_CREATE_MONSTER  Size = 149 
|------------------------------------------------|----------------|
|00 01 02 03 04 05 06 07 08 09 0A 0B 0C 0D 0E 0F |0123456789ABCDEF|
|------------------------------------------------|----------------|
|00 92 72 00 6E 00 55 0C 28 16 71 00 10 27 3D 00 |..r.n.U.(.q..'=.|
|0D 70 8C 00 00 04 C1 32 0B 81 00 00 00 00 00 00 |.p.....2........|
|00 00 00 03 E8 00 00 00 00 0C 03 00 04 00 00 01 |................|
|19 00 42 6C 61 63 6B 20 53 6B 75 6C 6C 20 4C 6F |..Black Skull Lo|
|6F 6B 6F 75 74 5E 6D 00 01 0A 00 00 00 1A 2B 00 |okout^m.......+.|
|00 6E 67 3D 50 8C 16 71 64 01 01 00 00 00 00 00 |.ng=P..qd.......|
|55 00 00 FE 67 98 50 6E 16 01 00 6E 00 07 00 0A |U...g.Pn...n....|
|04 20 00 0C 04 34 01 14 08 CD 76 5A 01 15 08 CF |. ...4....vZ....|
|76 5A 01 16 08 CE 76 5A 01 18 08 D0 76 5A 01 1C |vZ....vZ....vZ..|
|08 CC 76 5A 00                                  |.....           |
-------------------------------------------------------------------
[Client] packet : (0x0B) F_PING  Size = 32 
|------------------------------------------------|----------------|
|00 01 02 03 04 05 06 07 08 09 0A 0B 0C 0D 0E 0F |0123456789ABCDEF|
|------------------------------------------------|----------------|
|00 14 B4 49 00 1F 00 00 00 0B 00 9B D9 24 8E D0 |...I.........$..|
|C6 47 17 C1 39 85 00 00 00 00 00 00 00 00 C0 88 |.G..9...........|                                                
-------------------------------------------------------------------
[Server] packet : (0x81) S_PONG  Size = 23 
|------------------------------------------------|----------------|
|00 01 02 03 04 05 06 07 08 09 0A 0B 0C 0D 0E 0F |0123456789ABCDEF|
|------------------------------------------------|----------------|
|00 14 81 00 9B D9 24 52 75 81 33 00 00 00 00 00 |......$Ru.3.....|
|00 B4 4A 00 00 00 00                            |.......         |
-------------------------------------------------------------------
[Client] packet : (0x01) UNKNOWN  Size = 32 
|------------------------------------------------|----------------|
|00 01 02 03 04 05 06 07 08 09 0A 0B 0C 0D 0E 0F |0123456789ABCDEF|
|------------------------------------------------|----------------|
|00 14 B4 4B 00 1F 00 00 00 01 00 9B D8 45 00 00 |...K.........E..|
|00 00 00 00 00 00 00 00 01 01 00 00 29 41 3D EF |............)A=.|                                                
-------------------------------------------------------------------
[Server] packet : (0x00) UNKNOWN  Size = 23 
|------------------------------------------------|----------------|
|00 01 02 03 04 05 06 07 08 09 0A 0B 0C 0D 0E 0F |0123456789ABCDEF|
|------------------------------------------------|----------------|
|00 14 00 00 9B D8 45 7C 80 AC 66 00 00 00 00 00 |......E|..f.....|
|00 01 01 00 00 29 00                            |.......         |
-------------------------------------------------------------------
[Client] packet : (0xE8) F_CLIENT_DATA  Size = 20 
|------------------------------------------------|----------------|
|00 01 02 03 04 05 06 07 08 09 0A 0B 0C 0D 0E 0F |0123456789ABCDEF|
|------------------------------------------------|----------------|
|00 08 B4 4F 00 1F 00 00 00 E8 00 34 00 04 6B 21 |...O.......4..k!|
|01 00 00 00                                     |....            |
-------------------------------------------------------------------
[Server] packet : (0xC5) F_OBJECTIVE_STATE  Size = 19 
|------------------------------------------------|----------------|
|00 01 02 03 04 05 06 07 08 09 0A 0B 0C 0D 0E 0F |0123456789ABCDEF|
|------------------------------------------------|----------------|
|00 10 C5 00 00 02 69 FF FF FF FF FF FF 00 00 02 |......i.........|
|03 00 00                                        |...             |
-------------------------------------------------------------------
[Server] packet : (0xC6) F_REALM_BONUS  Size = 6 
|------------------------------------------------|----------------|
|00 01 02 03 04 05 06 07 08 09 0A 0B 0C 0D 0E 0F |0123456789ABCDEF|
|------------------------------------------------|----------------|
|00 03 C6 02 00 00                               |......          |
-------------------------------------------------------------------
[Server] packet : (0xC5) F_OBJECTIVE_STATE  Size = 19 
|------------------------------------------------|----------------|
|00 01 02 03 04 05 06 07 08 09 0A 0B 0C 0D 0E 0F |0123456789ABCDEF|
|------------------------------------------------|----------------|
|00 10 C5 00 00 02 69 FF FF FF FF FF FF 00 00 02 |......i.........|
|03 00 00                                        |...             |
-------------------------------------------------------------------
[Server] packet : (0xC6) F_REALM_BONUS  Size = 6 
|------------------------------------------------|----------------|
|00 01 02 03 04 05 06 07 08 09 0A 0B 0C 0D 0E 0F |0123456789ABCDEF|
|------------------------------------------------|----------------|
|00 03 C6 02 00 00                               |......          |
-------------------------------------------------------------------
[Client] packet : (0xD2) F_INTERACT  Size = 24 
|------------------------------------------------|----------------|
|00 01 02 03 04 05 06 07 08 09 0A 0B 0C 0D 0E 0F |0123456789ABCDEF|
|------------------------------------------------|----------------|
|00 0C B4 51 00 1F 00 00 00 D2 00 00 00 F7 00 00 |...Q............|
|00 00 00 00 00 00 00 00                         |........        |
-------------------------------------------------------------------
[Server] packet : (0x7E) F_SET_ABILITY_TIMER  Size = 15 
|------------------------------------------------|----------------|
|00 01 02 03 04 05 06 07 08 09 0A 0B 0C 0D 0E 0F |0123456789ABCDEF|
|------------------------------------------------|----------------|
|00 0C 7E 00 01 01 00 00 00 00 00 00 00 00 00    |............... |
-------------------------------------------------------------------
[Server] packet : (0xE9) F_INTERACT_RESPONSE  Size = 78 
|------------------------------------------------|----------------|
|00 01 02 03 04 05 06 07 08 09 0A 0B 0C 0D 0E 0F |0123456789ABCDEF|
|------------------------------------------------|----------------|
|00 4B E9 00 00 F7 00 00 00 22 00 41 54 68 65 6D |.K.......".AThem|
|20 45 6D 70 69 72 65 20 73 6F 6C 64 69 65 72 73 | Empire soldiers|
|20 64 6F 6E 27 74 20 64 65 73 65 72 76 65 20 66 | don't deserve f|
|69 6E 65 20 77 65 61 70 6F 6E 73 2C 20 6E 6F 74 |ine weapons, not|
|20 6C 69 6B 65 20 79 6F 75 20 64 6F 2E 00       |..............  |
-------------------------------------------------------------------
[Client] packet : (0xD2) F_INTERACT  Size = 24 
|------------------------------------------------|----------------|
|00 01 02 03 04 05 06 07 08 09 0A 0B 0C 0D 0E 0F |0123456789ABCDEF|
|------------------------------------------------|----------------|
|00 0C B4 54 00 1F 00 00 00 D2 00 00 00 F7 00 09 |...T............|
|00 00 00 00 00 00 00 00                         |........        |
-------------------------------------------------------------------
[Server] packet : (0xBF) F_INIT_STORE  Size = 22 
|------------------------------------------------|----------------|
|00 01 02 03 04 05 06 07 08 09 0A 0B 0C 0D 0E 0F |0123456789ABCDEF|
|------------------------------------------------|----------------|
|00 13 BF 01 00 00 00 01 01 00 01 01 08 53 68 6F |.............Sho|
|77 20 41 6C 6C 00                               |......          |
-------------------------------------------------------------------
[Server] packet : (0xBF) F_INIT_STORE  Size = 22 
|------------------------------------------------|----------------|
|00 01 02 03 04 05 06 07 08 09 0A 0B 0C 0D 0E 0F |0123456789ABCDEF|
|------------------------------------------------|----------------|
|00 13 BF 01 00 00 00 01 01 00 01 01 08 53 68 6F |.............Sho|
|77 20 41 6C 6C 00                               |......          |
-------------------------------------------------------------------
[Server] packet : (0xBF) F_INIT_STORE  Size = 726 
|------------------------------------------------|----------------|
|00 01 02 03 04 05 06 07 08 09 0A 0B 0C 0D 0E 0F |0123456789ABCDEF|
|------------------------------------------------|----------------|
|02 D3 BF 01 00 00 03 00 01 00 00 03 00 00 4E 20 |..............N |
|00 00 02 DD 38 18 2C 00 00 00 00 00 00 00 00 0E |....8.,.........|
|1A 00 01 00 00 00 01 00 56 00 00 00 00 00 00 00 |........V.......|
|00 00 00 1F 40 00 01 00 01 00 00 00 00 00 00 00 |....@...........|
|00 00 00 00 00 16 57 61 72 70 65 64 20 42 61 74 |......Warped Bat|
|74 6C 65 20 53 74 61 6E 64 61 72 64 00 00 02 00 |tle Standard....|
|00 38 A4 00 00 00 00 00 00 38 A7 00 00 00 00 00 |.8.......8......|
|00 00 5F 54 6F 20 61 63 74 69 76 61 74 65 20 74 |.._To activate t|
|68 69 73 20 53 74 61 6E 64 61 72 64 2C 20 65 71 |his Standard, eq|
|75 69 70 20 69 74 20 61 6E 64 20 74 68 65 6E 20 |uip it and then |
|64 72 61 67 20 69 74 20 66 72 6F 6D 20 79 6F 75 |drag it from you|
|72 20 43 68 61 72 61 63 74 65 72 20 57 69 6E 64 |r Character Wind|
|6F 77 20 74 6F 20 79 6F 75 72 20 68 6F 74 62 61 |ow to your hotba|
|72 2E 01 01 00 00 03 06 00 08 00 00 00 00 00 00 |r...............|
|00 00 00 00 00 00 01 02 15 01 6C C8 01 01 01 02 |..........l.....|
|00 00 00 00 00 00 00 01 03 00 00 4E 20 00 00 02 |...........N ...|
|DD 39 18 2D 00 00 00 00 00 00 00 00 0E 1A 00 01 |.9.-............|
|00 00 00 01 00 56 00 00 00 00 00 00 00 00 00 00 |.....V..........|
|1F 40 00 01 00 01 00 00 00 00 00 00 00 00 00 00 |.@..............|
|00 00 18 42 6C 6F 6F 64 69 65 64 20 42 61 74 74 |...Bloodied Batt|
|6C 65 20 53 74 61 6E 64 61 72 64 00 00 02 00 00 |le Standard.....|
|38 A5 00 00 00 00 00 00 38 A8 00 00 00 00 00 00 |8.......8.......|
|00 5F 54 6F 20 61 63 74 69 76 61 74 65 20 74 68 |._To activate th|
|69 73 20 53 74 61 6E 64 61 72 64 2C 20 65 71 75 |is Standard, equ|
|69 70 20 69 74 20 61 6E 64 20 74 68 65 6E 20 64 |ip it and then d|
|72 61 67 20 69 74 20 66 72 6F 6D 20 79 6F 75 72 |rag it from your|
|20 43 68 61 72 61 63 74 65 72 20 57 69 6E 64 6F | Character Windo|
|77 20 74 6F 20 79 6F 75 72 20 68 6F 74 62 61 72 |w to your hotbar|
|2E 01 01 00 00 03 06 00 08 00 00 00 00 00 00 00 |................|
|00 00 00 00 00 01 02 15 01 6C C8 01 01 01 02 00 |.........l......|
|00 00 00 00 00 00 02 03 00 00 4E 20 00 00 02 DD |..........N ....|
|3A 18 2E 00 00 00 00 00 00 00 00 0E 1A 00 01 00 |:...............|
|00 00 01 00 56 00 00 00 00 00 00 00 00 00 00 1F |....V...........|
|40 00 01 00 01 00 00 00 00 00 00 00 00 00 00 00 |@...............|
|00 18 43 6F 72 72 75 70 74 65 72 27 73 20 57 61 |..Corrupter's Wa|
|72 20 53 74 61 6E 64 61 72 64 00 00 02 00 00 38 |r Standard.....8|
|A6 00 00 00 00 00 00 38 A9 00 00 00 00 00 00 00 |.......8........|
|5F 54 6F 20 61 63 74 69 76 61 74 65 20 74 68 69 |_To activate thi|
|73 20 53 74 61 6E 64 61 72 64 2C 20 65 71 75 69 |s Standard, equi|
|70 20 69 74 20 61 6E 64 20 74 68 65 6E 20 64 72 |p it and then dr|
|61 67 20 69 74 20 66 72 6F 6D 20 79 6F 75 72 20 |ag it from your |
|43 68 61 72 61 63 74 65 72 20 57 69 6E 64 6F 77 |Character Window|
|20 74 6F 20 79 6F 75 72 20 68 6F 74 62 61 72 2E | to your hotbar.|
|01 01 00 00 03 06 00 08 00 00 00 00 00 00 00 00 |................|
|00 00 00 00 01 02 15 01 6C C8 01 01 01 02 00 00 |........l.......|
|00 00 00 00 00 00                               |......          |
-------------------------------------------------------------------
[Server] packet : (0xBF) F_INIT_STORE  Size = 681 
|------------------------------------------------|----------------|
|00 01 02 03 04 05 06 07 08 09 0A 0B 0C 0D 0E 0F |0123456789ABCDEF|
|------------------------------------------------|----------------|
|02 A6 BF 01 00 07 05 00 01 00 00 03 00 00 09 F6 |................|
|00 00 5A 07 3A 0B 2A 00 00 00 00 00 00 00 00 14 |..Z.:.*.........|
|06 10 11 00 00 00 02 00 00 00 00 40 00 00 00 00 |...........@....|
|00 00 00 03 FC 00 01 00 01 00 00 00 00 00 00 00 |................|
|20 00 55 00 00 1B 43 61 72 63 61 73 73 2D 47 75 | .U...Carcass-Gu|
|61 72 64 20 6F 66 20 44 69 73 63 69 70 6C 69 6E |ard of Disciplin|
|65 02 03 00 14 00 00 00 00 00 05 00 09 00 00 00 |e...............|
|00 00 00 00 00 00 00 00 01 01 00 00 03 04 03 00 |................|
|00 00 00 00 00 00 00 00 00 00 00 00 00 00 00 00 |................|
|00 00 00 00 01 03 00 00 07 F8 00 00 5A 07 52 0B |............Z.R.|
|2C 00 00 00 00 00 00 00 00 15 06 10 11 00 00 00 |,...............|
|02 00 00 00 00 40 00 00 00 00 00 00 00 03 30 00 |.....@........0.|
|01 00 01 00 00 00 00 00 00 00 20 00 44 00 00 17 |.......... .D...|
|48 61 6E 64 77 72 61 70 73 20 6F 66 20 44 69 73 |Handwraps of Dis|
|63 69 70 6C 69 6E 65 02 03 00 10 00 00 00 00 00 |cipline.........|
|05 00 07 00 00 00 00 00 00 00 00 00 00 00 01 01 |................|
|00 00 03 04 03 00 00 00 00 00 00 00 00 00 00 00 |................|
|00 00 00 00 00 00 00 00 00 00 02 03 00 00 07 F8 |................|
|00 00 5A 07 6A 0B 2B 00 00 00 00 00 00 00 00 16 |..Z.j.+.........|
|06 10 11 00 00 00 02 00 00 00 00 40 00 00 00 00 |...........@....|
|00 00 00 03 30 00 01 00 01 00 00 00 00 00 00 00 |....0...........|
|20 00 44 00 00 17 46 6F 6F 74 77 72 61 70 73 20 | .D...Footwraps |
|6F 66 20 44 69 73 63 69 70 6C 69 6E 65 02 03 00 |of Discipline...|
|10 00 00 00 00 00 05 00 07 00 00 00 00 00 00 00 |................|
|00 00 00 00 01 01 00 00 03 04 03 00 00 00 00 00 |................|
|00 00 00 00 00 00 00 00 00 00 00 00 00 00 00 00 |................|
|03 03 00 00 08 F7 00 00 5A 07 82 0B 2E 00 00 00 |........Z.......|
|00 00 00 00 00 17 06 10 11 00 00 00 02 00 00 00 |................|
|00 40 00 00 00 00 00 00 00 03 96 00 01 00 01 00 |.@..............|
|00 00 00 00 00 00 20 00 4D 00 00 12 43 6F 77 6C |...... .M...Cowl|
|20 6F 66 20 44 69 73 63 69 70 6C 69 6E 65 02 03 | of Discipline..|
|00 12 00 00 00 00 00 05 00 08 00 00 00 00 00 00 |................|
|00 00 00 00 00 01 01 00 00 03 04 03 00 00 00 00 |................|
|00 00 00 00 00 00 00 00 00 00 00 00 00 00 00 00 |................|
|00 04 03 00 00 08 F7 00 00 5A 07 9A 0B 2D 00 00 |.........Z...-..|
|00 00 00 00 00 00 18 06 10 11 00 00 00 02 00 00 |................|
|00 00 40 00 00 00 00 00 00 00 03 96 00 01 00 01 |..@.............|
|00 00 00 00 00 00 00 20 00 4D 00 00 18 57 69 6E |....... .M...Win|
|67 6D 61 6E 74 6C 65 20 6F 66 20 44 69 73 63 69 |gmantle of Disci|
|70 6C 69 6E 65 02 03 00 12 00 00 00 00 00 05 00 |pline...........|
|08 00 00 00 00 00 00 00 00 00 00 00 01 01 00 00 |................|
|03 04 03 00 00 00 00 00 00 00 00 00 00 00 00 00 |................|
|00 00 00 00 00 00 00 00 00                      |.........       |
-------------------------------------------------------------------
[Server] packet : (0xBF) F_INIT_STORE  Size = 1931 
|------------------------------------------------|----------------|
|00 01 02 03 04 05 06 07 08 09 0A 0B 0C 0D 0E 0F |0123456789ABCDEF|
|------------------------------------------------|----------------|
|07 88 BF 01 00 0D 08 00 01 00 00 03 00 00 00 70 |...............p|
|00 00 03 2D 8F 02 B7 00 00 00 00 00 00 00 00 00 |...-............|
|1F 00 1C 15 00 00 03 00 00 00 00 00 00 00 00 00 |................|
|00 00 00 00 2D 00 14 00 01 00 00 00 00 00 00 00 |....-...........|
|00 00 00 00 00 19 53 6F 6C 64 69 65 72 27 73 20 |......Soldier's |
|48 65 61 6C 69 6E 67 20 44 72 61 75 67 68 74 00 |Healing Draught.|
|00 01 00 01 1E C0 00 B4 00 00 00 00 00 36 53 74 |.............6St|
|61 6E 64 61 72 64 20 69 73 73 75 65 2C 20 73 65 |andard issue, se|
|63 6F 6E 64 20 63 6C 61 73 73 2E 20 44 6F 6E 27 |cond class. Don'|
|74 20 64 69 65 20 75 6E 74 69 6C 20 74 68 65 79 |t die until they|
|20 64 6F 2E 00 01 00 01 03 02 20 00 00 00 00 00 | do....... .....|
|00 00 00 00 00 00 00 07 00 00 00 00 00 00 00 01 |................|
|00 03 2E 11 1E 21 11 53 63 6F 75 74 27 73 20 4D |.....!.Scout's M|
|65 64 61 6C 6C 69 6F 6E 00 01 00 00 00 00 00 00 |edallion........|
|00 00 00 00 00 00 00 00 00 00 00 00 01 03 00 00 |................|
|00 70 00 00 03 2D 8F 02 B7 00 00 00 00 00 00 00 |.p...-..........|
|00 00 1F 00 1C 15 00 00 03 00 00 00 00 00 00 00 |................|
|00 00 00 00 00 00 2D 00 14 00 01 00 00 00 00 00 |......-.........|
|00 00 00 00 00 00 00 19 53 6F 6C 64 69 65 72 27 |........Soldier'|
|73 20 48 65 61 6C 69 6E 67 20 44 72 61 75 67 68 |s Healing Draugh|
|74 00 00 01 00 01 1E C0 00 B4 00 00 00 00 00 36 |t..............6|
|53 74 61 6E 64 61 72 64 20 69 73 73 75 65 2C 20 |Standard issue, |
|73 65 63 6F 6E 64 20 63 6C 61 73 73 2E 20 44 6F |second class. Do|
|6E 27 74 20 64 69 65 20 75 6E 74 69 6C 20 74 68 |n't die until th|
|65 79 20 64 6F 2E 00 01 00 01 03 02 20 00 00 00 |ey do....... ...|
|00 00 00 00 00 00 00 00 00 07 00 00 00 00 00 00 |................|
|00 01 00 03 2E 30 22 7C 0E 53 63 6F 75 74 27 73 |.....0"|.Scout's|
|20 45 6D 62 6C 65 6D 00 01 00 00 00 00 00 00 00 | Emblem.........|
|00 00 00 00 00 00 00 00 00 00 00 02 03 00 00 00 |................|
|70 00 00 03 2D 85 02 B5 00 00 00 00 00 00 00 00 |p...-...........|
|00 1F 00 14 0B 00 00 03 00 00 00 00 00 00 00 00 |................|
|00 00 00 00 00 2D 00 14 00 01 00 00 00 00 00 00 |.....-..........|
|00 00 00 00 00 00 17 53 63 6F 75 74 27 73 20 52 |.......Scout's R|
|65 63 6F 76 65 72 79 20 50 6F 74 69 6F 6E 00 00 |ecovery Potion..|
|01 00 01 1E C0 00 B4 00 00 00 00 00 37 53 74 61 |............7Sta|
|6E 64 61 72 64 20 69 73 73 75 65 2C 20 74 68 69 |ndard issue, thi|
|72 64 20 63 6C 61 73 73 2E 20 42 65 73 74 20 69 |rd class. Best i|
|66 20 75 73 65 64 20 62 65 66 6F 72 65 20 64 65 |f used before de|
|61 74 68 2E 00 01 00 01 03 02 20 00 00 00 00 00 |ath....... .....|
|00 00 00 00 00 00 00 07 00 00 00 00 00 00 00 01 |................|
|00 03 2E 11 1E 21 11 53 63 6F 75 74 27 73 20 4D |.....!.Scout's M|
|65 64 61 6C 6C 69 6F 6E 00 01 00 00 00 00 00 00 |edallion........|
|00 00 00 00 00 00 00 00 00 00 00 00 03 03 00 00 |................|
|00 70 00 00 03 2D 85 02 B5 00 00 00 00 00 00 00 |.p...-..........|
|00 00 1F 00 14 0B 00 00 03 00 00 00 00 00 00 00 |................|
|00 00 00 00 00 00 2D 00 14 00 01 00 00 00 00 00 |......-.........|
|00 00 00 00 00 00 00 17 53 63 6F 75 74 27 73 20 |........Scout's |
|52 65 63 6F 76 65 72 79 20 50 6F 74 69 6F 6E 00 |Recovery Potion.|
|00 01 00 01 1E C0 00 B4 00 00 00 00 00 37 53 74 |.............7St|
|61 6E 64 61 72 64 20 69 73 73 75 65 2C 20 74 68 |andard issue, th|
|69 72 64 20 63 6C 61 73 73 2E 20 42 65 73 74 20 |ird class. Best |
|69 66 20 75 73 65 64 20 62 65 66 6F 72 65 20 64 |if used before d|
|65 61 74 68 2E 00 01 00 01 03 02 20 00 00 00 00 |eath....... ....|
|00 00 00 00 00 00 00 00 07 00 00 00 00 00 00 00 |................|
|01 00 03 2E 30 22 7C 0E 53 63 6F 75 74 27 73 20 |....0"|.Scout's |
|45 6D 62 6C 65 6D 00 01 00 00 00 00 00 00 00 00 |Emblem..........|
|00 00 00 00 00 00 00 00 00 00 04 03 00 00 00 70 |...............p|
|00 00 03 2D 90 02 F3 00 00 00 00 00 00 00 00 00 |...-............|
|1F 00 1C 15 00 00 03 00 00 00 00 00 00 00 00 00 |................|
|00 00 00 00 2D 00 14 00 01 00 00 00 00 00 00 00 |....-...........|
|00 00 00 00 00 1A 53 6F 6C 64 69 65 72 27 73 20 |......Soldier's |
|53 74 69 6D 75 6C 61 6E 74 20 50 6F 74 69 6F 6E |Stimulant Potion|
|00 00 01 00 01 1E D2 00 3C 00 00 00 00 00 52 53 |........<.....RS|
|74 61 6E 64 61 72 64 20 69 73 73 75 65 2C 20 73 |tandard issue, s|
|65 63 6F 6E 64 20 63 6C 61 73 73 2E 20 4B 65 65 |econd class. Kee|
|70 20 73 77 69 6E 67 69 6E 67 2C 20 74 68 61 74 |p swinging, that|
|20 61 72 6D 79 20 69 73 6E 27 74 20 67 6F 69 6E | army isn't goin|
|67 20 74 6F 20 6B 69 6C 6C 20 69 74 73 65 6C 66 |g to kill itself|
|2E 00 01 00 01 03 02 20 00 00 00 00 00 00 00 00 |....... ........|
|00 00 00 00 08 00 00 00 00 00 00 00 01 00 03 2E |................|
|11 1E 21 11 53 63 6F 75 74 27 73 20 4D 65 64 61 |..!.Scout's Meda|
|6C 6C 69 6F 6E 00 01 00 00 00 00 00 00 00 00 00 |llion...........|
|00 00 00 00 00 00 00 00 00 05 03 00 00 00 70 00 |..............p.|
|00 03 2D 90 02 F3 00 00 00 00 00 00 00 00 00 1F |..-.............|
|00 1C 15 00 00 03 00 00 00 00 00 00 00 00 00 00 |................|
|00 00 00 2D 00 14 00 01 00 00 00 00 00 00 00 00 |...-............|
|00 00 00 00 1A 53 6F 6C 64 69 65 72 27 73 20 53 |.....Soldier's S|
|74 69 6D 75 6C 61 6E 74 20 50 6F 74 69 6F 6E 00 |timulant Potion.|
|00 01 00 01 1E D2 00 3C 00 00 00 00 00 52 53 74 |.......<.....RSt|
|61 6E 64 61 72 64 20 69 73 73 75 65 2C 20 73 65 |andard issue, se|
|63 6F 6E 64 20 63 6C 61 73 73 2E 20 4B 65 65 70 |cond class. Keep|
|20 73 77 69 6E 67 69 6E 67 2C 20 74 68 61 74 20 | swinging, that |
|61 72 6D 79 20 69 73 6E 27 74 20 67 6F 69 6E 67 |army isn't going|
|20 74 6F 20 6B 69 6C 6C 20 69 74 73 65 6C 66 2E | to kill itself.|
|00 01 00 01 03 02 20 00 00 00 00 00 00 00 00 00 |...... .........|
|00 00 00 08 00 00 00 00 00 00 00 01 00 03 2E 30 |...............0|
|22 7C 0E 53 63 6F 75 74 27 73 20 45 6D 62 6C 65 |"|.Scout's Emble|
|6D 00 01 00 00 00 00 00 00 00 00 00 00 00 00 00 |m...............|
|00 00 00 00 00 06 03 00 00 00 70 00 00 03 2D 86 |..........p...-.|
|02 F1 00 00 00 00 00 00 00 00 00 1F 00 14 0B 00 |................|
|00 03 00 00 00 00 00 00 00 00 00 00 00 00 00 2D |...............-|
|00 14 00 01 00 00 00 00 00 00 00 00 00 00 00 00 |................|
|19 53 63 6F 75 74 27 73 20 51 75 69 63 6B 65 6E |.Scout's Quicken|
|69 6E 67 20 50 6F 74 69 6F 6E 00 00 01 00 01 1E |ing Potion......|
|D2 00 3C 00 00 00 00 00 58 53 74 61 6E 64 61 72 |..<.....XStandar|
|64 20 69 73 73 75 65 2C 20 74 68 69 72 64 20 63 |d issue, third c|
|6C 61 73 73 2E 20 59 6F 75 72 20 64 65 61 74 68 |lass. Your death|
|20 69 73 20 61 20 70 72 69 63 65 2C 20 74 68 65 | is a price, the|
|69 72 73 20 69 73 20 61 20 62 6F 6E 75 73 2E 20 |irs is a bonus. |
|54 61 6B 65 20 65 6D 20 77 69 74 68 20 79 6F 75 |Take em with you|
|2E 00 01 00 01 03 02 20 00 00 00 00 00 00 00 00 |....... ........|
|00 00 00 00 08 00 00 00 00 00 00 00 01 00 03 2E |................|
|11 1E 21 11 53 63 6F 75 74 27 73 20 4D 65 64 61 |..!.Scout's Meda|
|6C 6C 69 6F 6E 00 01 00 00 00 00 00 00 00 00 00 |llion...........|
|00 00 00 00 00 00 00 00 00 07 03 00 00 00 70 00 |..............p.|
|00 03 2D 86 02 F1 00 00 00 00 00 00 00 00 00 1F |..-.............|
|00 14 0B 00 00 03 00 00 00 00 00 00 00 00 00 00 |................|
|00 00 00 2D 00 14 00 01 00 00 00 00 00 00 00 00 |...-............|
|00 00 00 00 19 53 63 6F 75 74 27 73 20 51 75 69 |.....Scout's Qui|
|63 6B 65 6E 69 6E 67 20 50 6F 74 69 6F 6E 00 00 |ckening Potion..|
|01 00 01 1E D2 00 3C 00 00 00 00 00 58 53 74 61 |......<.....XSta|
|6E 64 61 72 64 20 69 73 73 75 65 2C 20 74 68 69 |ndard issue, thi|
|72 64 20 63 6C 61 73 73 2E 20 59 6F 75 72 20 64 |rd class. Your d|
|65 61 74 68 20 69 73 20 61 20 70 72 69 63 65 2C |eath is a price,|
|20 74 68 65 69 72 73 20 69 73 20 61 20 62 6F 6E | theirs is a bon|
|75 73 2E 20 54 61 6B 65 20 65 6D 20 77 69 74 68 |us. Take em with|
|20 79 6F 75 2E 00 01 00 01 03 02 20 00 00 00 00 | you....... ....|
|00 00 00 00 00 00 00 00 08 00 00 00 00 00 00 00 |................|
|01 00 03 2E 30 22 7C 0E 53 63 6F 75 74 27 73 20 |....0"|.Scout's |
|45 6D 62 6C 65 6D 00 01 00 00 00 00 00 00 00 00 |Emblem..........|
|00 00 00 00 00 00 00 00 00 00 00                |...........     |
-------------------------------------------------------------------
[Server] packet : (0xC0) F_STORE_BUY_BACK  Size = 5 
|------------------------------------------------|----------------|
|00 01 02 03 04 05 06 07 08 09 0A 0B 0C 0D 0E 0F |0123456789ABCDEF|
|------------------------------------------------|----------------|
|00 02 C0 00 00                                  |.....           |
-------------------------------------------------------------------
[Client] packet : (0xC8) F_INTERFACE_COMMAND  Size = 26 
|------------------------------------------------|----------------|
|00 01 02 03 04 05 06 07 08 09 0A 0B 0C 0D 0E 0F |0123456789ABCDEF|
|------------------------------------------------|----------------|
|00 0E B4 55 00 1F FF FF 00 C8 12 02 00 00 2E 11 |...U............|
|03 00 30 2E 03 00 00 00 FE FF                   |..........      |
-------------------------------------------------------------------
[Server] packet : (0xAA) F_GET_ITEM  Size = 451 
|------------------------------------------------|----------------|
|00 01 02 03 04 05 06 07 08 09 0A 0B 0C 0D 0E 0F |0123456789ABCDEF|
|------------------------------------------------|----------------|
|01 C0 AA 02 00 00 00 00 FE 00 00 03 2E 11 1E 21 |...............!|
|00 00 00 00 00 00 00 00 00 24 00 00 00 00 00 02 |.........$......|
|00 00 00 00 00 00 00 00 00 00 00 00 00 00 27 0F |..............'.|
|00 01 00 00 00 00 00 00 00 00 00 00 00 00 11 53 |...............S|
|63 6F 75 74 27 73 20 4D 65 64 61 6C 6C 69 6F 6E |cout's Medallion|
|00 00 00 00 00 00 75 41 6E 20 65 6E 65 6D 79 20 |......uAn enemy |
|73 63 6F 75 74 27 73 20 6D 65 64 61 6C 2E 20 54 |scout's medal. T|
|68 65 73 65 20 63 61 6E 20 62 65 20 75 73 65 64 |hese can be used|
|20 74 6F 20 74 72 61 64 65 20 66 6F 72 20 65 71 | to trade for eq|
|75 69 70 6D 65 6E 74 20 61 6E 64 20 73 75 70 70 |uipment and supp|
|6C 69 65 73 20 61 74 20 74 68 65 20 53 63 6F 75 |lies at the Scou|
|74 27 73 20 4D 65 64 61 6C 6C 69 6F 6E 20 51 75 |t's Medallion Qu|
|61 72 74 65 72 6D 61 73 74 65 72 2E 01 01 00 00 |artermaster.....|
|03 06 80 08 00 00 00 00 00 00 00 00 00 00 00 00 |................|
|00 00 00 00 00 00 00 00 FE 00 00 03 2E 30 22 7C |.............0"||
|00 00 00 00 00 00 00 00 00 24 00 00 00 00 00 02 |.........$......|
|00 00 00 00 00 00 00 00 00 00 00 00 00 00 27 0F |..............'.|
|00 01 00 00 00 00 00 00 00 00 00 00 00 00 0E 53 |...............S|
|63 6F 75 74 27 73 20 45 6D 62 6C 65 6D 00 00 00 |cout's Emblem...|
|00 00 00 73 41 6E 20 65 6E 65 6D 79 20 73 63 6F |...sAn enemy sco|
|75 74 27 73 20 65 6D 62 6C 65 6D 2E 20 54 68 65 |ut's emblem. The|
|73 65 20 63 61 6E 20 62 65 20 75 73 65 64 20 74 |se can be used t|
|6F 20 74 72 61 64 65 20 66 6F 72 20 65 71 75 69 |o trade for equi|
|70 6D 65 6E 74 20 61 6E 64 20 73 75 70 70 6C 69 |pment and suppli|
|65 73 20 61 74 20 74 68 65 20 53 63 6F 75 74 27 |es at the Scout'|
|73 20 45 6D 62 6C 65 6D 20 51 75 61 72 74 65 72 |s Emblem Quarter|
|6D 61 73 74 65 72 2E 01 01 00 00 03 06 80 08 00 |master..........|
|00 00 00 00 00 00 00 00 00 00 00 00 00 00 00 00 |................|
|00 00 00                                        |...             |
-------------------------------------------------------------------
[Client] packet : (0x5A) F_PING_DATAGRAM  Size = 13 
|------------------------------------------------|----------------|
|00 01 02 03 04 05 06 07 08 09 0A 0B 0C 0D 0E 0F |0123456789ABCDEF|
|------------------------------------------------|----------------|
|00 01 B4 58 00 1F FF FF 00 5A 00 60 0A          |.............   |
-------------------------------------------------------------------
[Client] packet : (0x0B) F_PING  Size = 32 
|------------------------------------------------|----------------|
|00 01 02 03 04 05 06 07 08 09 0A 0B 0C 0D 0E 0F |0123456789ABCDEF|
|------------------------------------------------|----------------|
|00 14 B4 5A 00 1F 00 00 00 0B 00 9B EC AF FA 9F |...Z............|
|3A FA F9 3E 4F E6 00 00 00 00 00 00 00 00 C0 88 |:..>O...........|                                                
-------------------------------------------------------------------
[Server] packet : (0x81) S_PONG  Size = 23 
|------------------------------------------------|----------------|
|00 01 02 03 04 05 06 07 08 09 0A 0B 0C 0D 0E 0F |0123456789ABCDEF|
|------------------------------------------------|----------------|
|00 14 81 00 9B EC AF 52 75 81 38 00 00 00 00 00 |.......Ru.8.....|
|00 B4 5B 00 00 00 00                            |.......         |
-------------------------------------------------------------------
[Client] packet : (0x86) F_MAIL  Size = 16 
|------------------------------------------------|----------------|
|00 01 02 03 04 05 06 07 08 09 0A 0B 0C 0D 0E 0F |0123456789ABCDEF|
|------------------------------------------------|----------------|
|00 04 B4 5C 00 1F FF FF 00 86 00 00 00 00 00 00 |...\............|                                                
-------------------------------------------------------------------