
[Client] packet : (0x5A) F_PING_DATAGRAM  Size = 13 
|------------------------------------------------|----------------|
|00 01 02 03 04 05 06 07 08 09 0A 0B 0C 0D 0E 0F |0123456789ABCDEF|
|------------------------------------------------|----------------|
|00 01 5E 37 00 DD FF FF 00 5A 00 33 A9          |.............   |
-------------------------------------------------------------------
[Server] packet : (0x6F) F_LOCALIZED_STRING  Size = 13 
|------------------------------------------------|----------------|
|00 01 02 03 04 05 06 07 08 09 0A 0B 0C 0D 0E 0F |0123456789ABCDEF|
|------------------------------------------------|----------------|
|00 0A 6F 00 00 00 00 04 56 00 00 00 00          |.............   |
-------------------------------------------------------------------
[Server] packet : (0x6F) F_LOCALIZED_STRING  Size = 26 
|------------------------------------------------|----------------|
|00 01 02 03 04 05 06 07 08 09 0A 0B 0C 0D 0E 0F |0123456789ABCDEF|
|------------------------------------------------|----------------|
|00 17 6F 00 00 00 00 04 57 00 00 00 01 01 00 0A |..o.....W.......|
|44 61 73 63 6F 75 62 5E 4D 00                   |..........      |
-------------------------------------------------------------------
[Server] packet : (0xBE) F_CHARACTER_INFO  Size = 30 
|------------------------------------------------|----------------|
|00 01 02 03 04 05 06 07 08 09 0A 0B 0C 0D 0E 0F |0123456789ABCDEF|
|------------------------------------------------|----------------|
|00 1B BE 06 04 C4 7D 9C E4 6C 94 4F 00 EA A1 86 |......}..l.O....|
|01 BD 72 00 CC DF 96 01 F5 17 00 00 00 00       |..............  |
-------------------------------------------------------------------
[Server] packet : (0xD8) F_GROUP_STATUS  Size = 23 
|------------------------------------------------|----------------|
|00 01 02 03 04 05 06 07 08 09 0A 0B 0C 0D 0E 0F |0123456789ABCDEF|
|------------------------------------------------|----------------|
|00 14 D8 3E C4 01 FF 00 02 00 00 00 00 00 01 00 |...>............|
|25 AF CC 00 1B 32 00                            |.......         |
-------------------------------------------------------------------
[Server] packet : (0xD8) F_GROUP_STATUS  Size = 11 
|------------------------------------------------|----------------|
|00 01 02 03 04 05 06 07 08 09 0A 0B 0C 0D 0E 0F |0123456789ABCDEF|
|------------------------------------------------|----------------|
|00 08 D8 3E C4 02 FF 01 00 00 00                |...........     |
-------------------------------------------------------------------
[Server] packet : (0xD8) F_GROUP_STATUS  Size = 11 
|------------------------------------------------|----------------|
|00 01 02 03 04 05 06 07 08 09 0A 0B 0C 0D 0E 0F |0123456789ABCDEF|
|------------------------------------------------|----------------|
|00 08 D8 3E C4 02 FF 01 00 00 00                |...........     |
-------------------------------------------------------------------
[Client] packet : (0x01) UNKNOWN  Size = 32 
|------------------------------------------------|----------------|
|00 01 02 03 04 05 06 07 08 09 0A 0B 0C 0D 0E 0F |0123456789ABCDEF|
|------------------------------------------------|----------------|
|00 14 5E 47 00 DD 00 00 00 01 00 56 B4 67 00 23 |..^G.......V.g.#|
|39 B0 08 18 C0 4A 20 07 3E EB 90 38 6B 55 00 00 |9....J .>..8kU..|                                                
-------------------------------------------------------------------
[Server] packet : (0x00) UNKNOWN  Size = 23 
|------------------------------------------------|----------------|
|00 01 02 03 04 05 06 07 08 09 0A 0B 0C 0D 0E 0F |0123456789ABCDEF|
|------------------------------------------------|----------------|
|00 14 00 00 56 B4 67 AA DD 17 67 00 00 00 00 20 |....V.g...g.... |
|07 3E EB 90 38 6B 00                            |.......         |
-------------------------------------------------------------------
[Server] packet : (0x51) F_ANIMATION  Size = 9 
|------------------------------------------------|----------------|
|00 01 02 03 04 05 06 07 08 09 0A 0B 0C 0D 0E 0F |0123456789ABCDEF|
|------------------------------------------------|----------------|
|00 06 51 01 3C 00 E5 00 00                      |.........       |
-------------------------------------------------------------------
[Server] packet : (0x51) F_ANIMATION  Size = 9 
|------------------------------------------------|----------------|
|00 01 02 03 04 05 06 07 08 09 0A 0B 0C 0D 0E 0F |0123456789ABCDEF|
|------------------------------------------------|----------------|
|00 06 51 01 3B 00 AC 00 00                      |.........       |
-------------------------------------------------------------------
[Server] packet : (0x1A) F_CAMPAIGN_STATUS  Size = 159 
|------------------------------------------------|----------------|
|00 01 02 03 04 05 06 07 08 09 0A 0B 0C 0D 0E 0F |0123456789ABCDEF|
|------------------------------------------------|----------------|
|00 9C 1A 00 09 00 67 00 CB 00 00 64 00 00 32 32 |......g....d..22|
|00 32 32 00 32 32 00 00 43 00 32 32 00 32 32 00 |.22.22..C.22.22.|
|32 32 00 00 00 00 64 00 00 32 32 00 32 32 00 00 |22....d..22.22..|
|00 00 00 00 00 00 00 00 00 00 00 00 00 00 00 00 |................|
|00 00 00 00 00 00 00 42 64 00 00 00 21 00 00 48 |.......Bd...!..H|
|00 00 00 00 1B 01 00 00 00 00 00 00 00 00 00 00 |................|
|00 00 00 00 00 00 00 00 00 00 00 00 00 00 00 00 |................|
|00 00 00 00 00 00 00 00 00 00 00 00 00 00 00 00 |................|
|00 03 00 02 02 03 03 01 01 00 03 03 01 01 00 03 |................|
|FF 01 3C 28 0A 3C 00 00 00 03 84 00 00 01 00    |............... |
-------------------------------------------------------------------