
[Server] packet : (0x33) UNKNOWN  Size = 16 
|------------------------------------------------|----------------|
|00 01 02 03 04 05 06 07 08 09 0A 0B 0C 0D 0E 0F |0123456789ABCDEF|
|------------------------------------------------|----------------|
|00 0D 33 01 1C 32 1B FA 68 FA DD 5C 12 D6 BC 00 |..3..2..h..\....|                                                
-------------------------------------------------------------------
[Client] packet : (0xD2) F_INTERACT  Size = 24 
|------------------------------------------------|----------------|
|00 01 02 03 04 05 06 07 08 09 0A 0B 0C 0D 0E 0F |0123456789ABCDEF|
|------------------------------------------------|----------------|
|00 0C 26 8A 00 05 00 00 00 D2 00 00 03 5C 00 00 |..&..........\..|
|00 00 00 00 00 00 00 00                         |........        |
-------------------------------------------------------------------
[Client] packet : (0xB6) F_SOCIAL_NETWORK  Size = 17 
|------------------------------------------------|----------------|
|00 01 02 03 04 05 06 07 08 09 0A 0B 0C 0D 0E 0F |0123456789ABCDEF|
|------------------------------------------------|----------------|
|00 05 26 8D 00 05 FF FF 00 B6 0D 00 00 00 00 00 |..&.............|
|00                                              |.               |
-------------------------------------------------------------------
[Server] packet : (0xB6) F_SOCIAL_NETWORK  Size = 95 
|------------------------------------------------|----------------|
|00 01 02 03 04 05 06 07 08 09 0A 0B 0C 0D 0E 0F |0123456789ABCDEF|
|------------------------------------------------|----------------|
|00 5C B6 00 00 0A 01 00 00 00 0C 44 72 6F 6C 65 |.\.........Drole|
|64 65 66 65 6D 6D 65 01 01 00 00 01 28 00 18 00 |defemme.....(...|
|C8 00 00 00 02 08 08 00 00 00 3D 52 00 00 03 03 |..........=R....|
|00 0C 44 72 6F 6C 65 64 65 66 65 6D 6D 65 28 01 |..Droledefemme(.|
|00 18 01 00 07 57 61 72 65 6D 68 75 0F 01 00 18 |.....Waremhu....|
|01 00 07 44 61 73 63 6F 75 62 28 00 00 0E 00    |............... |
-------------------------------------------------------------------
[Client] packet : (0x0B) F_PING  Size = 32 
|------------------------------------------------|----------------|
|00 01 02 03 04 05 06 07 08 09 0A 0B 0C 0D 0E 0F |0123456789ABCDEF|
|------------------------------------------------|----------------|
|00 14 26 8F 00 05 00 00 00 0B 00 33 5A C2 FA EB |..&........3Z...|
|FD B1 2F FA E0 4F 00 00 00 00 00 00 00 00 F0 ED |../..O..........|                                                
-------------------------------------------------------------------
[Server] packet : (0x81) S_PONG  Size = 23 
|------------------------------------------------|----------------|
|00 01 02 03 04 05 06 07 08 09 0A 0B 0C 0D 0E 0F |0123456789ABCDEF|
|------------------------------------------------|----------------|
|00 14 81 00 33 5A C2 52 81 67 99 00 00 00 00 00 |....3Z.R.g......|
|00 26 90 00 00 00 00                            |.......         |
-------------------------------------------------------------------
[Client] packet : (0x07) F_TEXT  Size = 33 
|------------------------------------------------|----------------|
|00 01 02 03 04 05 06 07 08 09 0A 0B 0C 0D 0E 0F |0123456789ABCDEF|
|------------------------------------------------|----------------|
|00 15 26 91 00 05 FF FF 00 07 00 26 6A 6F 69 6E |..&........&join|
|20 44 72 6F 6C 65 64 65 66 65 6D 6D 65 00 00 00 | Droledefemme...|
|00                                              |.               |
-------------------------------------------------------------------
[Server] packet : (0x6F) F_LOCALIZED_STRING  Size = 13 
|------------------------------------------------|----------------|
|00 01 02 03 04 05 06 07 08 09 0A 0B 0C 0D 0E 0F |0123456789ABCDEF|
|------------------------------------------------|----------------|
|00 0A 6F 00 00 00 00 01 B8 00 00 00 00          |.............   |
-------------------------------------------------------------------
[Client] packet : (0x16) F_REQUEST_INIT_OBJECT  Size = 16 
|------------------------------------------------|----------------|
|00 01 02 03 04 05 06 07 08 09 0A 0B 0C 0D 0E 0F |0123456789ABCDEF|
|------------------------------------------------|----------------|
|00 04 26 94 00 05 00 00 00 16 37 BB 00 00 00 00 |..&.......7.....|                                                
-------------------------------------------------------------------
[Client] packet : (0x16) F_REQUEST_INIT_OBJECT  Size = 16 
|------------------------------------------------|----------------|
|00 01 02 03 04 05 06 07 08 09 0A 0B 0C 0D 0E 0F |0123456789ABCDEF|
|------------------------------------------------|----------------|
|00 04 26 95 00 05 00 00 00 16 36 51 00 00 DC F5 |..&.......6Q....|                                                
-------------------------------------------------------------------
[Server] packet : (0x72) F_CREATE_MONSTER  Size = 108 
|------------------------------------------------|----------------|
|00 01 02 03 04 05 06 07 08 09 0A 0B 0C 0D 0E 0F |0123456789ABCDEF|
|------------------------------------------------|----------------|
|00 69 72 37 BB 00 EB 03 95 29 D6 00 0F D7 5D 00 |.ir7.....)....].|
|10 40 0B 00 03 04 3C 32 07 61 00 00 00 00 00 00 |.@....<2.a......|
|00 00 00 03 E8 00 00 00 00 89 68 00 03 00 00 01 |..........h.....|
|19 00 47 6F 6C 64 65 6E 77 69 6E 67 20 46 6C 69 |..Goldenwing Fli|
|65 72 5E 6D 00 01 0A 00 00 00 1A 05 00 37 BB 57 |er^m.........7.W|
|5D C0 0B 29 D6 64 21 C8 00 00 00 00 00 EB 00 00 |]..).d!.........|
|2B 57 14 C0 D7 29 C8 37 BB 00 00 00             |............    |
-------------------------------------------------------------------
[Server] packet : (0x72) F_CREATE_MONSTER  Size = 108 
|------------------------------------------------|----------------|
|00 01 02 03 04 05 06 07 08 09 0A 0B 0C 0D 0E 0F |0123456789ABCDEF|
|------------------------------------------------|----------------|
|00 69 72 36 51 00 EB 0F F6 25 F2 00 0F D8 04 00 |.ir6Q....%......|
|10 41 6D 00 00 04 3C 32 07 61 00 00 00 00 00 00 |.Am...<2.a......|
|00 00 00 03 E8 00 00 00 00 89 65 00 00 00 00 01 |..........e.....|
|19 00 47 6F 6C 64 65 6E 77 69 6E 67 20 46 6C 69 |..Goldenwing Fli|
|65 72 5E 6D 00 01 0A 00 00 00 1A 05 00 36 51 58 |er^m.........6QX|
|04 C1 6D 25 F2 64 21 C8 00 00 00 00 00 EB 00 00 |..m%.d!.........|
|08 58 3E C2 F2 25 C8 36 51 00 00 00             |............    |
-------------------------------------------------------------------
[Client] packet : (0x5A) F_PING_DATAGRAM  Size = 13 
|------------------------------------------------|----------------|
|00 01 02 03 04 05 06 07 08 09 0A 0B 0C 0D 0E 0F |0123456789ABCDEF|
|------------------------------------------------|----------------|
|00 01 26 98 00 05 FF FF 00 5A 00 EB A1          |.............   |
-------------------------------------------------------------------