
[Server] packet : (0x51) F_ANIMATION  Size = 9 
|------------------------------------------------|----------------|
|00 01 02 03 04 05 06 07 08 09 0A 0B 0C 0D 0E 0F |0123456789ABCDEF|
|------------------------------------------------|----------------|
|00 06 51 01 3B 00 AC 00 00                      |.........       |
-------------------------------------------------------------------
[Server] packet : (0x51) F_ANIMATION  Size = 9 
|------------------------------------------------|----------------|
|00 01 02 03 04 05 06 07 08 09 0A 0B 0C 0D 0E 0F |0123456789ABCDEF|
|------------------------------------------------|----------------|
|00 06 51 01 3C 00 B0 00 00                      |.........       |
-------------------------------------------------------------------
[Client] packet : (0x01) UNKNOWN  Size = 32 
|------------------------------------------------|----------------|
|00 01 02 03 04 05 06 07 08 09 0A 0B 0C 0D 0E 0F |0123456789ABCDEF|
|------------------------------------------------|----------------|
|00 14 70 C6 00 DD 00 00 00 01 00 75 67 BE 20 07 |..p........ug. .|
|2A 68 90 38 40 04 00 23 39 BF 08 18 DE 6F 6B 42 |*h.8@..#9....okB|                                                
-------------------------------------------------------------------
[Server] packet : (0x00) UNKNOWN  Size = 23 
|------------------------------------------------|----------------|
|00 01 02 03 04 05 06 07 08 09 0A 0B 0C 0D 0E 0F |0123456789ABCDEF|
|------------------------------------------------|----------------|
|00 14 00 00 75 67 BE AA FB CA B4 00 00 00 00 00 |....ug..........|
|23 39 BF 08 18 DE 00                            |.......         |
-------------------------------------------------------------------
[Client] packet : (0xB6) F_SOCIAL_NETWORK  Size = 17 
|------------------------------------------------|----------------|
|00 01 02 03 04 05 06 07 08 09 0A 0B 0C 0D 0E 0F |0123456789ABCDEF|
|------------------------------------------------|----------------|
|00 05 70 C7 00 DD FF FF 00 B6 0D 00 00 00 00 00 |..p.............|
|00                                              |.               |
-------------------------------------------------------------------
[Server] packet : (0xB6) F_SOCIAL_NETWORK  Size = 81 
|------------------------------------------------|----------------|
|00 01 02 03 04 05 06 07 08 09 0A 0B 0C 0D 0E 0F |0123456789ABCDEF|
|------------------------------------------------|----------------|
|00 4E B6 00 00 0A 01 00 00 00 0C 44 72 6F 6C 65 |.N.........Drole|
|64 65 66 65 6D 6D 65 01 01 00 00 01 28 00 18 00 |defemme.....(...|
|C8 00 00 00 02 08 08 00 00 00 3D 52 00 00 02 02 |..........=R....|
|00 0C 44 72 6F 6C 65 64 65 66 65 6D 6D 65 28 01 |..Droledefemme(.|
|00 18 01 00 07 57 61 72 65 6D 68 75 0F 01 00 18 |.....Waremhu....|
|00                                              |.               |
-------------------------------------------------------------------
[Server] packet : (0x5E) F_SET_TARGET  Size = 9 
|------------------------------------------------|----------------|
|00 01 02 03 04 05 06 07 08 09 0A 0B 0C 0D 0E 0F |0123456789ABCDEF|
|------------------------------------------------|----------------|
|00 06 5E 27 94 39 3D 02 00                      |.........       |
-------------------------------------------------------------------
[Client] packet : (0x07) F_TEXT  Size = 33 
|------------------------------------------------|----------------|
|00 01 02 03 04 05 06 07 08 09 0A 0B 0C 0D 0E 0F |0123456789ABCDEF|
|------------------------------------------------|----------------|
|00 15 70 D3 00 DD FF FF 00 07 00 26 6A 6F 69 6E |..p........&join|
|20 44 72 6F 6C 65 64 65 66 65 6D 6D 65 00 00 38 | Droledefemme..8|
|50                                              |.               |
-------------------------------------------------------------------
[Server] packet : (0x1D) F_GUILD_DATA  Size = 62 
|------------------------------------------------|----------------|
|00 01 02 03 04 05 06 07 08 09 0A 0B 0C 0D 0E 0F |0123456789ABCDEF|
|------------------------------------------------|----------------|
|00 3B 1D 02 01 00 1B 32 1C 00 C8 00 00 07 00 0F |.;.....2........|
|4C 61 6D 65 20 64 75 20 44 65 73 74 69 6E 00 00 |Lame du Destin..|
|00 0A 44 61 73 63 6F 75 62 5E 4D 00 28 00 41 00 |..Dascoub^M.(.A.|
|52 81 54 7A 00 01 02 01 00 01 00 00 01 00       |..............  |
-------------------------------------------------------------------
[Server] packet : (0xBE) F_CHARACTER_INFO  Size = 182 
|------------------------------------------------|----------------|
|00 01 02 03 04 05 06 07 08 09 0A 0B 0C 0D 0E 0F |0123456789ABCDEF|
|------------------------------------------------|----------------|
|00 B3 BE 06 02 D5 7D 03 EA A1 86 01 0F 2A 03 28 |......}......*.(|
|00 18 02 01 00 01 0C 00 00 00 44 72 6F 6C 65 64 |..........Droled|
|65 66 65 6D 6D 65 08 00 00 00 56 6F 78 20 49 72 |efemme....Vox Ir|
|61 65 F7 D2 01 86 BC 03 EA 24 8C 27 87 3F 01 02 |ae.......$.'.?..|
|90 03 01 64 64 00 CC DF 96 01 0F 2A 03 0F 00 18 |...dd......*....|
|02 01 00 01 07 00 00 00 57 61 72 65 6D 68 75 07 |........Waremhu.|
|00 00 00 57 61 72 20 45 6D 75 97 D2 01 A3 BD 03 |...War Emu......|
|DE 24 F3 51 40 40 01 02 90 03 01 64 64 00 9C E4 |.$.Q@@.....dd...|
|6C 0F 19 03 28 00 0E 02 00 00 01 07 00 00 00 44 |l...(..........D|
|61 73 63 6F 75 62 08 00 00 00 56 6F 78 20 49 72 |ascoub....Vox Ir|
|61 65 E0 D1 01 FC BB 03 DC 24 89 1C 9A 40 01 02 |ae.......$...@..|
|90 03 01 64 64 00                               |......          |
-------------------------------------------------------------------
[Server] packet : (0x33) UNKNOWN  Size = 32 
|------------------------------------------------|----------------|
|00 01 02 03 04 05 06 07 08 09 0A 0B 0C 0D 0E 0F |0123456789ABCDEF|
|------------------------------------------------|----------------|
|00 1D 33 07 EA 90 21 77 69 06 DE 6A 12 04 2B 01 |..3...!wi..j..+.|
|00 00 00 01 00 00 00 C8 00 00 00 01 64 64 00 00 |............dd..|                                                
-------------------------------------------------------------------
[Server] packet : (0x33) UNKNOWN  Size = 32 
|------------------------------------------------|----------------|
|00 01 02 03 04 05 06 07 08 09 0A 0B 0C 0D 0E 0F |0123456789ABCDEF|
|------------------------------------------------|----------------|
|00 1D 33 07 CC AF 25 17 69 A3 DE 5E 12 6E 7A 01 |..3...%.i..^.nz.|
|00 00 00 01 00 00 00 C8 00 00 00 01 64 64 00 00 |............dd..|                                                
-------------------------------------------------------------------
[Server] packet : (0x33) UNKNOWN  Size = 32 
|------------------------------------------------|----------------|
|00 01 02 03 04 05 06 07 08 09 0A 0B 0C 0D 0E 0F |0123456789ABCDEF|
|------------------------------------------------|----------------|
|00 1D 33 07 1C 32 1B E0 68 FC DD 5C 12 36 C4 01 |..3..2..h..\.6..|
|00 00 00 01 00 00 00 C8 00 00 00 01 64 64 00 00 |............dd..|                                                
-------------------------------------------------------------------
[Server] packet : (0x33) UNKNOWN  Size = 49 
|------------------------------------------------|----------------|
|00 01 02 03 04 05 06 07 08 09 0A 0B 0C 0D 0E 0F |0123456789ABCDEF|
|------------------------------------------------|----------------|
|00 2E 33 18 EA 90 21 0F 00 2A 00 03 00 28 00 18 |..3...!..*...(..|
|02 01 00 01 0C 00 0D 08 00 09 44 72 6F 6C 65 64 |..........Droled|
|65 66 65 6D 6D 65 00 56 6F 78 20 49 72 61 65 00 |efemme.Vox Irae.|
|00                                              |.               |
-------------------------------------------------------------------
[Server] packet : (0x33) UNKNOWN  Size = 43 
|------------------------------------------------|----------------|
|00 01 02 03 04 05 06 07 08 09 0A 0B 0C 0D 0E 0F |0123456789ABCDEF|
|------------------------------------------------|----------------|
|00 28 33 18 CC AF 25 0F 00 2A 00 03 00 0F 00 18 |.(3...%..*......|
|02 01 00 01 07 00 08 07 00 08 57 61 72 65 6D 68 |..........Waremh|
|75 00 57 61 72 20 45 6D 75 00 00                |...........     |
-------------------------------------------------------------------
[Server] packet : (0x33) UNKNOWN  Size = 44 
|------------------------------------------------|----------------|
|00 01 02 03 04 05 06 07 08 09 0A 0B 0C 0D 0E 0F |0123456789ABCDEF|
|------------------------------------------------|----------------|
|00 29 33 18 1C 32 1B 0F 00 19 00 03 00 28 00 0E |.)3..2.......(..|
|02 00 00 01 07 00 08 08 00 09 44 61 73 63 6F 75 |..........Dascou|
|62 00 56 6F 78 20 49 72 61 65 00 00             |............    |
-------------------------------------------------------------------
[Server] packet : (0xBE) F_CHARACTER_INFO  Size = 30 
|------------------------------------------------|----------------|
|00 01 02 03 04 05 06 07 08 09 0A 0B 0C 0D 0E 0F |0123456789ABCDEF|
|------------------------------------------------|----------------|
|00 1B BE 06 04 D5 7D EA A1 86 01 BD 72 00 CC DF |......}.....r...|
|96 01 D3 07 00 9C E4 6C 94 4F 00 00 00 00       |..............  |
-------------------------------------------------------------------
[Server] packet : (0xD8) F_GROUP_STATUS  Size = 23 
|------------------------------------------------|----------------|
|00 01 02 03 04 05 06 07 08 09 0A 0B 0C 0D 0E 0F |0123456789ABCDEF|
|------------------------------------------------|----------------|
|00 14 D8 3E D5 01 FF 00 02 00 00 00 00 00 01 00 |...>............|
|21 90 EA 00 21 90 00                            |.......         |
-------------------------------------------------------------------
[Server] packet : (0xD8) F_GROUP_STATUS  Size = 11 
|------------------------------------------------|----------------|
|00 01 02 03 04 05 06 07 08 09 0A 0B 0C 0D 0E 0F |0123456789ABCDEF|
|------------------------------------------------|----------------|
|00 08 D8 3E D5 02 FF 00 00 00 00                |...........     |
-------------------------------------------------------------------
[Server] packet : (0xD8) F_GROUP_STATUS  Size = 11 
|------------------------------------------------|----------------|
|00 01 02 03 04 05 06 07 08 09 0A 0B 0C 0D 0E 0F |0123456789ABCDEF|
|------------------------------------------------|----------------|
|00 08 D8 3E D5 02 FF 01 00 00 00                |...........     |
-------------------------------------------------------------------
[Server] packet : (0x6F) F_LOCALIZED_STRING  Size = 13 
|------------------------------------------------|----------------|
|00 01 02 03 04 05 06 07 08 09 0A 0B 0C 0D 0E 0F |0123456789ABCDEF|
|------------------------------------------------|----------------|
|00 0A 6F 00 00 00 00 00 F1 00 00 00 00          |.............   |
-------------------------------------------------------------------
[Server] packet : (0x6F) F_LOCALIZED_STRING  Size = 13 
|------------------------------------------------|----------------|
|00 01 02 03 04 05 06 07 08 09 0A 0B 0C 0D 0E 0F |0123456789ABCDEF|
|------------------------------------------------|----------------|
|00 0A 6F 00 00 00 00 03 B9 00 00 00 00          |.............   |
-------------------------------------------------------------------
[Client] packet : (0x16) F_REQUEST_INIT_OBJECT  Size = 16 
|------------------------------------------------|----------------|
|00 01 02 03 04 05 06 07 08 09 0A 0B 0C 0D 0E 0F |0123456789ABCDEF|
|------------------------------------------------|----------------|
|00 04 70 D5 00 DD 00 00 00 16 10 C2 00 00 16 00 |..p.............|                                                
-------------------------------------------------------------------
[Server] packet : (0x72) F_CREATE_MONSTER  Size = 108 
|------------------------------------------------|----------------|
|00 01 02 03 04 05 06 07 08 09 0A 0B 0C 0D 0E 0F |0123456789ABCDEF|
|------------------------------------------------|----------------|
|00 69 72 10 C2 00 EB 0B 93 29 FA 00 0F D0 0A 00 |.ir......)......|
|10 40 4B 00 00 04 3C 32 07 61 00 00 00 00 00 00 |.@K...<2.a......|
|00 00 00 03 E8 00 00 00 00 89 66 00 04 00 00 01 |..........f.....|
|19 00 47 6F 6C 64 65 6E 77 69 6E 67 20 46 6C 69 |..Goldenwing Fli|
|65 72 5E 6D 00 01 0A 00 00 00 1A 05 00 10 C2 50 |er^m...........P|
|0A C0 4B 29 FA 64 21 C8 00 00 00 00 00 EB 00 00 |..K).d!.........|
|AD 59 AE BE FA 29 C8 10 C2 00 00 00             |............    |
-------------------------------------------------------------------