
[Server] packet : (0x81) S_PONG  Size = 23 
|------------------------------------------------|----------------|
|00 01 02 03 04 05 06 07 08 09 0A 0B 0C 0D 0E 0F |0123456789ABCDEF|
|------------------------------------------------|----------------|
|00 14 81 00 01 36 3D 52 75 89 B7 00 00 00 00 00 |.....6=Ru.......|
|00 01 D5 00 00 00 00                            |.......         |
-------------------------------------------------------------------
[Server] packet : (0x72) F_CREATE_MONSTER  Size = 105 
|------------------------------------------------|----------------|
|00 01 02 03 04 05 06 07 08 09 0A 0B 0C 0D 0E 0F |0123456789ABCDEF|
|------------------------------------------------|----------------|
|00 66 72 07 A7 00 00 0C FA 00 00 00 06 8E 42 00 |.fr...........B.|
|02 00 3A 00 00 04 4A 37 27 85 00 00 00 00 00 00 |..:...J7'.......|
|00 01 00 03 E9 00 00 00 00 BA B8 00 04 00 00 01 |................|
|19 00 4D 6F 6E 6F 6C 69 74 68 20 53 63 72 65 61 |..Monolith Screa|
|6D 65 72 5E 6D 00 00 00 00 0F 01 0A 00 00 00 12 |mer^m...........|
|05 00 07 A7 4E 42 80 3A 00 00 64 00 A1 00 00 00 |....NB.:..d.....|
|00 0F FA 0C 07 A7 00 00 00                      |.........       |
-------------------------------------------------------------------
[Client] packet : (0xD2) F_INTERACT  Size = 24 
|------------------------------------------------|----------------|
|00 01 02 03 04 05 06 07 08 09 0A 0B 0C 0D 0E 0F |0123456789ABCDEF|
|------------------------------------------------|----------------|
|00 0C 01 DA 00 2B 00 00 00 D2 00 00 02 79 00 00 |.....+.......y..|
|00 00 00 00 00 00 00 00                         |........        |
-------------------------------------------------------------------
[Server] packet : (0x7E) F_SET_ABILITY_TIMER  Size = 15 
|------------------------------------------------|----------------|
|00 01 02 03 04 05 06 07 08 09 0A 0B 0C 0D 0E 0F |0123456789ABCDEF|
|------------------------------------------------|----------------|
|00 0C 7E 00 01 01 00 00 00 00 00 00 00 00 00    |............... |
-------------------------------------------------------------------
[Server] packet : (0xE9) F_INTERACT_RESPONSE  Size = 11 
|------------------------------------------------|----------------|
|00 01 02 03 04 05 06 07 08 09 0A 0B 0C 0D 0E 0F |0123456789ABCDEF|
|------------------------------------------------|----------------|
|00 08 E9 00 02 79 00 00 00 02 00                |...........     |
-------------------------------------------------------------------
[Client] packet : (0xD2) F_INTERACT  Size = 24 
|------------------------------------------------|----------------|
|00 01 02 03 04 05 06 07 08 09 0A 0B 0C 0D 0E 0F |0123456789ABCDEF|
|------------------------------------------------|----------------|
|00 0C 01 DC 00 2B 00 00 00 D2 00 00 02 79 00 09 |.....+.......y..|
|00 00 00 00 00 00 FB 6D                         |........        |
-------------------------------------------------------------------
[Server] packet : (0xBF) F_INIT_STORE  Size = 2954 
|------------------------------------------------|----------------|
|00 01 02 03 04 05 06 07 08 09 0A 0B 0C 0D 0E 0F |0123456789ABCDEF|
|------------------------------------------------|----------------|
|0B 87 BF 00 00 00 0F 01 01 00 00 00 01 00 02 49 |...............I|
|F0 00 00 02 D9 B7 24 59 00 00 00 00 00 00 00 00 |......$Y........|
|00 00 14 01 00 00 00 01 00 04 00 00 00 00 00 00 |................|
|00 00 00 00 EA 60 00 01 00 01 00 00 00 00 00 00 |.....`..........|
|00 00 00 00 00 00 10 47 72 65 79 20 52 69 64 69 |.......Grey Ridi|
|6E 27 20 57 75 6C 66 00 00 01 00 00 39 0E 00 00 |n' Wulf.....9...|
|00 00 00 00 00 48 54 68 69 73 20 69 74 65 6D 20 |.....HThis item |
|77 69 6C 6C 20 73 75 6D 6D 6F 6E 20 79 6F 75 72 |will summon your|
|20 6D 69 67 68 74 79 20 73 74 65 65 64 2E 20 54 | mighty steed. T|
|6F 20 64 69 73 6D 6F 75 6E 74 2C 20 61 63 74 69 |o dismount, acti|
|76 61 74 65 20 74 68 65 20 69 74 65 6D 2E 01 01 |vate the item...|
|00 00 03 06 40 08 00 00 00 00 00 00 00 00 00 00 |....@...........|
|00 00 00 00 00 00 00 00 00 00 01 01 00 02 49 F0 |..............I.|
|00 00 02 D9 B8 24 59 00 00 00 00 00 00 00 00 00 |.....$Y.........|
|00 14 01 00 00 00 01 00 04 00 00 00 00 00 00 00 |................|
|00 00 00 EA 60 00 01 00 01 00 00 00 00 00 00 00 |....`...........|
|00 00 00 00 00 12 41 75 74 75 6D 6E 20 52 69 64 |......Autumn Rid|
|69 6E 27 20 57 75 6C 66 00 00 01 00 00 39 0F 00 |in' Wulf.....9..|
|00 00 00 00 00 00 48 54 68 69 73 20 69 74 65 6D |......HThis item|
|20 77 69 6C 6C 20 73 75 6D 6D 6F 6E 20 79 6F 75 | will summon you|
|72 20 6D 69 67 68 74 79 20 73 74 65 65 64 2E 20 |r mighty steed. |
|54 6F 20 64 69 73 6D 6F 75 6E 74 2C 20 61 63 74 |To dismount, act|
|69 76 61 74 65 20 74 68 65 20 69 74 65 6D 2E 01 |ivate the item..|
|01 00 00 03 06 40 08 00 00 00 00 00 00 00 00 00 |.....@..........|
|00 00 00 00 00 00 00 00 00 00 00 02 01 00 02 49 |...............I|
|F0 00 00 02 D9 B9 24 59 00 00 00 00 00 00 00 00 |......$Y........|
|00 00 14 01 00 00 00 01 00 04 00 00 00 00 00 00 |................|
|00 00 00 00 EA 60 00 01 00 01 00 00 00 00 00 00 |.....`..........|
|00 00 00 00 00 00 18 42 6C 61 63 6B 20 54 69 6D |.......Black Tim|
|62 65 72 20 52 69 64 69 6E 27 20 57 75 6C 66 00 |ber Ridin' Wulf.|
|00 01 00 00 39 10 00 00 00 00 00 00 00 48 54 68 |....9........HTh|
|69 73 20 69 74 65 6D 20 77 69 6C 6C 20 73 75 6D |is item will sum|
|6D 6F 6E 20 79 6F 75 72 20 6D 69 67 68 74 79 20 |mon your mighty |
|73 74 65 65 64 2E 20 54 6F 20 64 69 73 6D 6F 75 |steed. To dismou|
|6E 74 2C 20 61 63 74 69 76 61 74 65 20 74 68 65 |nt, activate the|
|20 69 74 65 6D 2E 01 01 00 00 03 06 40 08 00 00 | item.......@...|
|00 00 00 00 00 00 00 00 00 00 00 00 00 00 00 00 |................|
|00 00 03 01 00 02 49 F0 00 00 02 D9 BD 24 5A 00 |......I......$Z.|
|00 00 00 00 00 00 00 00 00 14 01 00 00 00 01 00 |................|
|02 00 00 00 00 00 00 00 00 00 00 EA 60 00 01 00 |............`...|
|01 00 00 00 00 00 00 00 00 00 00 00 00 17 4C 69 |..............Li|
|67 68 74 20 42 72 6F 77 6E 20 52 69 64 69 6E 27 |ght Brown Ridin'|
|20 42 6F 61 72 00 00 01 00 00 39 14 00 00 00 00 | Boar.....9.....|
|00 00 00 48 54 68 69 73 20 69 74 65 6D 20 77 69 |...HThis item wi|
|6C 6C 20 73 75 6D 6D 6F 6E 20 79 6F 75 72 20 6D |ll summon your m|
|69 67 68 74 79 20 73 74 65 65 64 2E 20 54 6F 20 |ighty steed. To |
|64 69 73 6D 6F 75 6E 74 2C 20 61 63 74 69 76 61 |dismount, activa|
|74 65 20 74 68 65 20 69 74 65 6D 2E 01 01 00 00 |te the item.....|
|03 06 40 08 00 00 00 00 00 00 00 00 00 00 00 00 |..@.............|
|00 00 00 00 00 00 00 00 04 01 00 02 49 F0 00 00 |............I...|
|02 D9 BE 24 5A 00 00 00 00 00 00 00 00 00 00 14 |...$Z...........|
|01 00 00 00 01 00 02 00 00 00 00 00 00 00 00 00 |................|
|00 EA 60 00 01 00 01 00 00 00 00 00 00 00 00 00 |..`.............|
|00 00 00 1A 53 74 72 69 70 65 64 20 4D 6F 75 73 |....Striped Mous|
|73 65 20 52 69 64 69 6E 27 20 42 6F 61 72 00 00 |se Ridin' Boar..|
|01 00 00 39 15 00 00 00 00 00 00 00 48 54 68 69 |...9........HThi|
|73 20 69 74 65 6D 20 77 69 6C 6C 20 73 75 6D 6D |s item will summ|
|6F 6E 20 79 6F 75 72 20 6D 69 67 68 74 79 20 73 |on your mighty s|
|74 65 65 64 2E 20 54 6F 20 64 69 73 6D 6F 75 6E |teed. To dismoun|
|74 2C 20 61 63 74 69 76 61 74 65 20 74 68 65 20 |t, activate the |
|69 74 65 6D 2E 01 01 00 00 03 06 40 08 00 00 00 |item.......@....|
|00 00 00 00 00 00 00 00 00 00 00 00 00 00 00 00 |................|
|00 05 01 00 02 49 F0 00 00 02 D9 BF 24 5A 00 00 |.....I......$Z..|
|00 00 00 00 00 00 00 00 14 01 00 00 00 01 00 02 |................|
|00 00 00 00 00 00 00 00 00 00 EA 60 00 01 00 01 |...........`....|
|00 00 00 00 00 00 00 00 00 00 00 00 11 43 72 65 |.............Cre|
|61 6D 20 52 69 64 69 6E 27 20 42 6F 61 72 00 00 |am Ridin' Boar..|
|01 00 00 39 16 00 00 00 00 00 00 00 48 54 68 69 |...9........HThi|
|73 20 69 74 65 6D 20 77 69 6C 6C 20 73 75 6D 6D |s item will summ|
|6F 6E 20 79 6F 75 72 20 6D 69 67 68 74 79 20 73 |on your mighty s|
|74 65 65 64 2E 20 54 6F 20 64 69 73 6D 6F 75 6E |teed. To dismoun|
|74 2C 20 61 63 74 69 76 61 74 65 20 74 68 65 20 |t, activate the |
|69 74 65 6D 2E 01 01 00 00 03 06 40 08 00 00 00 |item.......@....|
|00 00 00 00 00 00 00 00 00 00 00 00 00 00 00 00 |................|
|00 06 03 00 02 49 F0 00 00 02 D9 C9 24 57 00 00 |.....I......$W..|
|00 00 00 00 00 00 00 00 14 01 00 00 00 01 00 00 |................|
|00 00 70 00 00 00 00 00 00 00 EA 60 00 01 00 01 |..p........`....|
|00 00 00 00 00 00 00 00 00 00 00 00 12 42 6C 61 |.............Bla|
|63 6B 20 4D 61 72 6B 65 64 20 53 74 65 65 64 00 |ck Marked Steed.|
|00 01 00 00 39 20 00 00 00 00 00 00 00 48 54 68 |....9 .......HTh|
|69 73 20 69 74 65 6D 20 77 69 6C 6C 20 73 75 6D |is item will sum|
|6D 6F 6E 20 79 6F 75 72 20 6D 69 67 68 74 79 20 |mon your mighty |
|73 74 65 65 64 2E 20 54 6F 20 64 69 73 6D 6F 75 |steed. To dismou|
|6E 74 2C 20 61 63 74 69 76 61 74 65 20 74 68 65 |nt, activate the|
|20 69 74 65 6D 2E 01 01 00 00 03 06 40 08 00 00 | item.......@...|
|00 00 00 00 00 00 00 00 00 00 00 00 00 00 00 00 |................|
|00 00 07 03 00 02 49 F0 00 00 02 D9 CC 24 57 00 |......I......$W.|
|00 00 00 00 00 00 00 00 00 14 01 00 00 00 01 00 |................|
|00 00 00 70 00 00 00 00 00 00 00 EA 60 00 01 00 |...p........`...|
|01 00 00 00 00 00 00 00 00 00 00 00 00 13 4D 61 |..............Ma|
|72 6F 6F 6E 20 4D 61 72 6B 65 64 20 53 74 65 65 |roon Marked Stee|
|64 00 00 01 00 00 39 23 00 00 00 00 00 00 00 48 |d.....9#.......H|
|54 68 69 73 20 69 74 65 6D 20 77 69 6C 6C 20 73 |This item will s|
|75 6D 6D 6F 6E 20 79 6F 75 72 20 6D 69 67 68 74 |ummon your might|
|79 20 73 74 65 65 64 2E 20 54 6F 20 64 69 73 6D |y steed. To dism|
|6F 75 6E 74 2C 20 61 63 74 69 76 61 74 65 20 74 |ount, activate t|
|68 65 20 69 74 65 6D 2E 01 01 00 00 03 06 40 08 |he item.......@.|
|00 00 00 00 00 00 00 00 00 00 00 00 00 00 00 00 |................|
|00 00 00 00 08 03 00 02 49 F0 00 00 02 D9 CE 24 |........I......$|
|57 00 00 00 00 00 00 00 00 00 00 14 01 00 00 00 |W...............|
|01 00 00 00 00 70 00 00 00 00 00 00 00 EA 60 00 |.....p........`.|
|01 00 01 00 00 00 00 00 00 00 00 00 00 00 00 1A |................|
|44 65 63 61 79 65 64 20 46 6C 65 73 68 20 4D 61 |Decayed Flesh Ma|
|72 6B 65 64 20 53 74 65 65 64 00 00 01 00 00 39 |rked Steed.....9|
|25 00 00 00 00 00 00 00 48 54 68 69 73 20 69 74 |%.......HThis it|
|65 6D 20 77 69 6C 6C 20 73 75 6D 6D 6F 6E 20 79 |em will summon y|
|6F 75 72 20 6D 69 67 68 74 79 20 73 74 65 65 64 |our mighty steed|
|2E 20 54 6F 20 64 69 73 6D 6F 75 6E 74 2C 20 61 |. To dismount, a|
|63 74 69 76 61 74 65 20 74 68 65 20 69 74 65 6D |ctivate the item|
|2E 01 01 00 00 03 06 40 08 00 00 00 00 00 00 00 |.......@........|
|00 00 00 00 00 00 00 00 00 00 00 00 00 09 01 00 |................|
|02 49 F0 00 00 02 D9 D5 24 58 00 00 00 00 00 00 |.I......$X......|
|00 00 00 00 14 01 00 00 00 01 00 10 00 00 00 00 |................|
|00 00 00 00 00 00 EA 60 00 01 00 01 00 00 00 00 |.......`........|
|00 00 00 00 00 00 00 00 12 52 65 64 20 46 65 72 |.........Red Fer|
|61 6C 20 43 6F 6C 64 20 4F 6E 65 00 00 01 00 00 |al Cold One.....|
|39 2C 00 00 00 00 00 00 00 48 54 68 69 73 20 69 |9,.......HThis i|
|74 65 6D 20 77 69 6C 6C 20 73 75 6D 6D 6F 6E 20 |tem will summon |
|79 6F 75 72 20 6D 69 67 68 74 79 20 73 74 65 65 |your mighty stee|
|64 2E 20 54 6F 20 64 69 73 6D 6F 75 6E 74 2C 20 |d. To dismount, |
|61 63 74 69 76 61 74 65 20 74 68 65 20 69 74 65 |activate the ite|
|6D 2E 01 01 00 00 03 06 40 08 00 00 00 00 00 00 |m.......@.......|
|00 00 00 00 00 00 00 00 00 00 00 00 00 00 0A 01 |................|
|00 02 49 F0 00 00 02 D9 D7 24 58 00 00 00 00 00 |..I......$X.....|
|00 00 00 00 00 14 01 00 00 00 01 00 10 00 00 00 |................|
|00 00 00 00 00 00 00 EA 60 00 01 00 01 00 00 00 |........`.......|
|00 00 00 00 00 00 00 00 00 1B 4D 6F 6F 6E 6C 69 |..........Moonli|
|74 20 42 6C 75 65 20 46 65 72 61 6C 20 43 6F 6C |t Blue Feral Col|
|64 20 4F 6E 65 00 00 01 00 00 39 2E 00 00 00 00 |d One.....9.....|
|00 00 00 48 54 68 69 73 20 69 74 65 6D 20 77 69 |...HThis item wi|
|6C 6C 20 73 75 6D 6D 6F 6E 20 79 6F 75 72 20 6D |ll summon your m|
|69 67 68 74 79 20 73 74 65 65 64 2E 20 54 6F 20 |ighty steed. To |
|64 69 73 6D 6F 75 6E 74 2C 20 61 63 74 69 76 61 |dismount, activa|
|74 65 20 74 68 65 20 69 74 65 6D 2E 01 01 00 00 |te the item.....|
|03 06 40 08 00 00 00 00 00 00 00 00 00 00 00 00 |..@.............|
|00 00 00 00 00 00 00 00 0B 01 00 02 49 F0 00 00 |............I...|
|02 D9 DA 24 58 00 00 00 00 00 00 00 00 00 00 14 |...$X...........|
|01 00 00 00 01 00 10 00 00 00 00 00 00 00 00 00 |................|
|00 EA 60 00 01 00 01 00 00 00 00 00 00 00 00 00 |..`.............|
|00 00 00 14 47 72 65 65 6E 20 46 65 72 61 6C 20 |....Green Feral |
|43 6F 6C 64 20 4F 6E 65 00 00 01 00 00 39 31 00 |Cold One.....91.|
|00 00 00 00 00 00 48 54 68 69 73 20 69 74 65 6D |......HThis item|
|20 77 69 6C 6C 20 73 75 6D 6D 6F 6E 20 79 6F 75 | will summon you|
|72 20 6D 69 67 68 74 79 20 73 74 65 65 64 2E 20 |r mighty steed. |
|54 6F 20 64 69 73 6D 6F 75 6E 74 2C 20 61 63 74 |To dismount, act|
|69 76 61 74 65 20 74 68 65 20 69 74 65 6D 2E 01 |ivate the item..|
|01 00 00 03 06 40 08 00 00 00 00 00 00 00 00 00 |.....@..........|
|00 00 00 00 00 00 00 00 00 00 00 0C 01 00 02 49 |...............I|
|F0 00 00 02 D9 DB 24 5B 00 00 00 00 00 00 00 00 |......$[........|
|00 00 14 01 00 00 00 01 00 00 00 00 80 00 00 00 |................|
|00 00 00 00 EA 60 00 01 00 01 00 00 00 00 00 00 |.....`..........|
|00 00 00 00 00 00 12 42 6C 75 65 20 45 6E 73 6C |.......Blue Ensl|
|61 76 65 64 20 44 69 73 63 00 00 01 00 00 39 02 |aved Disc.....9.|
|00 00 00 00 00 00 00 48 54 68 69 73 20 69 74 65 |.......HThis ite|
|6D 20 77 69 6C 6C 20 73 75 6D 6D 6F 6E 20 79 6F |m will summon yo|
|75 72 20 6D 69 67 68 74 79 20 73 74 65 65 64 2E |ur mighty steed.|
|20 54 6F 20 64 69 73 6D 6F 75 6E 74 2C 20 61 63 | To dismount, ac|
|74 69 76 61 74 65 20 74 68 65 20 69 74 65 6D 2E |tivate the item.|
|01 01 00 00 03 06 40 08 00 00 00 00 00 00 00 00 |......@.........|
|00 00 00 00 00 00 00 00 00 00 00 00 0D 01 00 02 |................|
|49 F0 00 00 02 D9 DC 24 5C 00 00 00 00 00 00 00 |I......$\.......|
|00 00 00 14 01 00 00 00 01 00 00 00 00 80 00 00 |................|
|00 00 00 00 00 EA 60 00 01 00 01 00 00 00 00 00 |......`.........|
|00 00 00 00 00 00 00 17 44 61 72 6B 20 42 6C 75 |........Dark Blu|
|65 20 45 6E 73 6C 61 76 65 64 20 44 69 73 63 00 |e Enslaved Disc.|
|00 01 00 00 39 03 00 00 00 00 00 00 00 48 54 68 |....9........HTh|
|69 73 20 69 74 65 6D 20 77 69 6C 6C 20 73 75 6D |is item will sum|
|6D 6F 6E 20 79 6F 75 72 20 6D 69 67 68 74 79 20 |mon your mighty |
|73 74 65 65 64 2E 20 54 6F 20 64 69 73 6D 6F 75 |steed. To dismou|
|6E 74 2C 20 61 63 74 69 76 61 74 65 20 74 68 65 |nt, activate the|
|20 69 74 65 6D 2E 01 01 00 00 03 06 40 08 00 00 | item.......@...|
|00 00 00 00 00 00 00 00 00 00 00 00 00 00 00 00 |................|
|00 00 0E 01 00 02 49 F0 00 00 02 D9 DD 24 5D 00 |......I......$].|
|00 00 00 00 00 00 00 00 00 14 01 00 00 00 01 00 |................|
|00 00 00 80 00 00 00 00 00 00 00 EA 60 00 01 00 |............`...|
|01 00 00 00 00 00 00 00 00 00 00 00 00 18 44 61 |..............Da|
|65 6D 6F 6E 20 52 65 64 20 45 6E 73 6C 61 76 65 |emon Red Enslave|
|64 20 44 69 73 63 00 00 01 00 00 39 04 00 00 00 |d Disc.....9....|
|00 00 00 00 48 54 68 69 73 20 69 74 65 6D 20 77 |....HThis item w|
|69 6C 6C 20 73 75 6D 6D 6F 6E 20 79 6F 75 72 20 |ill summon your |
|6D 69 67 68 74 79 20 73 74 65 65 64 2E 20 54 6F |mighty steed. To|
|20 64 69 73 6D 6F 75 6E 74 2C 20 61 63 74 69 76 | dismount, activ|
|61 74 65 20 74 68 65 20 69 74 65 6D 2E 01 01 00 |ate the item....|
|00 03 06 42 08 00 00 00 00 00 00 00 00 00 00 00 |...B............|
|00 00 00 00 00 00 00 00 00 00                   |..........      |
-------------------------------------------------------------------
[Server] packet : (0xBF) F_INIT_STORE  Size = 721 
|------------------------------------------------|----------------|
|00 01 02 03 04 05 06 07 08 09 0A 0B 0C 0D 0E 0F |0123456789ABCDEF|
|------------------------------------------------|----------------|
|02 CE BF 00 00 01 03 00 01 00 00 03 00 00 06 59 |...............Y|
|00 00 02 D9 E5 24 7E 00 00 00 00 00 00 00 00 00 |.....$~.........|
|00 28 28 3C 00 00 03 00 00 00 00 00 00 00 00 00 |.((<............|
|00 00 00 02 8A 00 01 00 01 00 00 00 00 00 00 00 |................|
|00 00 00 00 00 1A 45 78 6F 74 69 63 20 42 6C 61 |......Exotic Bla|
|63 6B 20 41 72 61 62 69 61 6E 20 53 74 65 65 64 |ck Arabian Steed|
|00 00 01 00 00 3A E2 00 00 00 00 00 00 00 48 54 |.....:........HT|
|68 69 73 20 69 74 65 6D 20 77 69 6C 6C 20 73 75 |his item will su|
|6D 6D 6F 6E 20 79 6F 75 72 20 6D 69 67 68 74 79 |mmon your mighty|
|20 73 74 65 65 64 2E 20 54 6F 20 64 69 73 6D 6F | steed. To dismo|
|75 6E 74 2C 20 61 63 74 69 76 61 74 65 20 74 68 |unt, activate th|
|65 20 69 74 65 6D 2E 01 01 00 00 03 04 20 08 00 |e item....... ..|
|00 00 00 00 00 00 00 00 00 00 00 00 00 27 8D 00 |.............'..|
|00 00 01 00 03 2E 56 22 B9 09 57 61 72 20 43 72 |......V"..War Cr|
|65 73 74 00 1E 00 00 00 00 00 00 00 00 00 00 00 |est.............|
|00 00 00 00 00 00 00 01 03 00 00 06 59 00 00 02 |............Y...|
|D9 E6 24 80 00 00 00 00 00 00 00 00 00 00 28 28 |..$...........((|
|3C 00 00 03 00 00 00 00 00 00 00 00 00 00 00 00 |<...............|
|02 8A 00 01 00 01 00 00 00 00 00 00 00 00 00 00 |................|
|00 00 19 45 78 6F 74 69 63 20 47 72 65 79 20 41 |...Exotic Grey A|
|72 61 62 69 61 6E 20 53 74 65 65 64 00 00 01 00 |rabian Steed....|
|00 3A E3 00 00 00 00 00 00 00 48 54 68 69 73 20 |.:........HThis |
|69 74 65 6D 20 77 69 6C 6C 20 73 75 6D 6D 6F 6E |item will summon|
|20 79 6F 75 72 20 6D 69 67 68 74 79 20 73 74 65 | your mighty ste|
|65 64 2E 20 54 6F 20 64 69 73 6D 6F 75 6E 74 2C |ed. To dismount,|
|20 61 63 74 69 76 61 74 65 20 74 68 65 20 69 74 | activate the it|
|65 6D 2E 01 01 00 00 03 04 20 08 00 00 00 00 00 |em....... ......|
|00 00 00 00 00 00 00 00 00 27 8D 00 00 00 01 00 |.........'......|
|03 2E 56 22 B9 09 57 61 72 20 43 72 65 73 74 00 |..V"..War Crest.|
|1E 00 00 00 00 00 00 00 00 00 00 00 00 00 00 00 |................|
|00 00 00 02 03 00 00 06 59 00 00 02 D9 E7 24 7F |........Y.....$.|
|00 00 00 00 00 00 00 00 00 00 28 28 3C 00 00 03 |..........((<...|
|00 00 00 00 00 00 00 00 00 00 00 00 02 8A 00 01 |................|
|00 01 00 00 00 00 00 00 00 00 00 00 00 00 1A 45 |...............E|
|78 6F 74 69 63 20 50 69 6E 74 6F 20 41 72 61 62 |xotic Pinto Arab|
|69 61 6E 20 53 74 65 65 64 00 00 01 00 00 3A E4 |ian Steed.....:.|
|00 00 00 00 00 00 00 48 54 68 69 73 20 69 74 65 |.......HThis ite|
|6D 20 77 69 6C 6C 20 73 75 6D 6D 6F 6E 20 79 6F |m will summon yo|
|75 72 20 6D 69 67 68 74 79 20 73 74 65 65 64 2E |ur mighty steed.|
|20 54 6F 20 64 69 73 6D 6F 75 6E 74 2C 20 61 63 | To dismount, ac|
|74 69 76 61 74 65 20 74 68 65 20 69 74 65 6D 2E |tivate the item.|
|01 01 00 00 03 04 20 08 00 00 00 00 00 00 00 00 |...... .........|
|00 00 00 00 00 00 27 8D 00 00 00 01 00 03 2E 56 |......'........V|
|22 B9 09 57 61 72 20 43 72 65 73 74 00 1E 00 00 |"..War Crest....|
|00 00 00 00 00 00 00 00 00 00 00 00 00 00 00 00 |................|
|00                                              |.               |
-------------------------------------------------------------------
[Server] packet : (0xC0) F_STORE_BUY_BACK  Size = 5 
|------------------------------------------------|----------------|
|00 01 02 03 04 05 06 07 08 09 0A 0B 0C 0D 0E 0F |0123456789ABCDEF|
|------------------------------------------------|----------------|
|00 02 C0 00 00                                  |.....           |
-------------------------------------------------------------------
[Client] packet : (0x16) F_REQUEST_INIT_OBJECT  Size = 16 
|------------------------------------------------|----------------|
|00 01 02 03 04 05 06 07 08 09 0A 0B 0C 0D 0E 0F |0123456789ABCDEF|
|------------------------------------------------|----------------|
|00 04 01 DF 00 2B 00 00 00 16 38 31 00 00 C7 ED |.....+....81....|                                                
-------------------------------------------------------------------
[Server] packet : (0x72) F_CREATE_MONSTER  Size = 121 
|------------------------------------------------|----------------|
|00 01 02 03 04 05 06 07 08 09 0A 0B 0C 0D 0E 0F |0123456789ABCDEF|
|------------------------------------------------|----------------|
|00 76 72 38 31 00 00 08 19 41 FC 00 06 B2 1F 00 |.vr81....A......|
|02 0D 44 00 00 07 99 32 29 80 00 00 00 00 00 00 |..D....2).......|
|00 01 00 00 00 00 00 00 00 00 00 00 00 00 00 01 |................|
|19 00 42 6C 61 63 6B 2D 46 65 61 74 68 65 72 65 |..Black-Feathere|
|64 20 54 7A 65 65 6E 74 63 68 20 46 61 6D 69 6C |d Tzeentch Famil|
|69 61 72 5E 4E 00 00 00 00 03 01 0A 00 13 68 12 |iar^N.........h.|
|05 00 38 31 72 1F 8D 44 41 FC 64 40 A1 10 00 00 |..81r..DA.d@....|
|00 03 19 08 38 31 00 00 00                      |.........       |
-------------------------------------------------------------------
[Client] packet : (0x0B) F_PING  Size = 32 
|------------------------------------------------|----------------|
|00 01 02 03 04 05 06 07 08 09 0A 0B 0C 0D 0E 0F |0123456789ABCDEF|
|------------------------------------------------|----------------|
|00 14 01 E0 00 2B 00 00 00 0B 00 01 49 4C B2 5C |.....+......IL.\|
|82 00 A0 C0 0C 35 00 00 00 00 00 00 00 00 20 83 |.....5........ .|                                                
-------------------------------------------------------------------
[Server] packet : (0x81) S_PONG  Size = 23 
|------------------------------------------------|----------------|
|00 01 02 03 04 05 06 07 08 09 0A 0B 0C 0D 0E 0F |0123456789ABCDEF|
|------------------------------------------------|----------------|
|00 14 81 00 01 49 4C 52 75 89 BC 00 00 00 00 00 |.....ILRu.......|
|00 01 E1 00 00 00 00                            |.......         |
-------------------------------------------------------------------
[Client] packet : (0x5A) F_PING_DATAGRAM  Size = 13 
|------------------------------------------------|----------------|
|00 01 02 03 04 05 06 07 08 09 0A 0B 0C 0D 0E 0F |0123456789ABCDEF|
|------------------------------------------------|----------------|
|00 01 01 E7 00 2B FF FF 00 5A 00 C2 80          |.............   |
-------------------------------------------------------------------
[Client] packet : (0x16) F_REQUEST_INIT_OBJECT  Size = 16 
|------------------------------------------------|----------------|
|00 01 02 03 04 05 06 07 08 09 0A 0B 0C 0D 0E 0F |0123456789ABCDEF|
|------------------------------------------------|----------------|
|00 04 01 E7 00 2B 00 00 00 16 04 80 00 00 1E B8 |.....+..........|                                                
-------------------------------------------------------------------
[Server] packet : (0x72) F_CREATE_MONSTER  Size = 158 
|------------------------------------------------|----------------|
|00 01 02 03 04 05 06 07 08 09 0A 0B 0C 0D 0E 0F |0123456789ABCDEF|
|------------------------------------------------|----------------|
|00 9B 72 04 80 00 55 08 3F 43 16 00 06 9E 0D 00 |..r...U.?C......|
|02 0D 61 00 00 04 C6 32 28 91 00 00 00 00 00 00 |..a....2(.......|
|00 01 00 03 E8 00 00 00 00 B7 A4 00 01 00 00 02 |................|
|19 1D 00 44 72 65 61 64 20 53 65 6E 74 72 79 00 |...Dread Sentry.|
|00 00 03 04 01 06 02 00 00 00 00 00 00 00 00 00 |................|
|00 20 00 01 0A 00 00 00 00 00 00 00 1A 25 00 04 |. ...........%..|
|80 5E 0D 8D 61 43 16 64 01 A1 00 00 00 20 00 55 |.^..aC.d..... .U|
|00 00 45 5E 29 8B 16 43 A1 04 80 00 08 00 0A 07 |..E^)..C........|
|16 00 0B 07 76 00 14 0A DE 00 15 0A E0 00 16 16 |....v...........|
|2F 00 17 16 DD 00 18 16 DA 00 1C 0A DD 00       |..............  |
-------------------------------------------------------------------
[Client] packet : (0x86) F_MAIL  Size = 16 
|------------------------------------------------|----------------|
|00 01 02 03 04 05 06 07 08 09 0A 0B 0C 0D 0E 0F |0123456789ABCDEF|
|------------------------------------------------|----------------|
|00 04 01 E9 00 2B FF FF 00 86 00 00 00 00 00 00 |.....+..........|                                                
-------------------------------------------------------------------
[Client] packet : (0x01) UNKNOWN  Size = 32 
|------------------------------------------------|----------------|
|00 01 02 03 04 05 06 07 08 09 0A 0B 0C 0D 0E 0F |0123456789ABCDEF|
|------------------------------------------------|----------------|
|00 14 01 EB 00 2B 00 00 00 01 00 01 54 24 00 00 |.....+......T$..|
|00 00 00 00 00 00 00 00 40 02 00 00 03 A4 00 00 |........@.......|                                                
-------------------------------------------------------------------
[Server] packet : (0x00) UNKNOWN  Size = 23 
|------------------------------------------------|----------------|
|00 01 02 03 04 05 06 07 08 09 0A 0B 0C 0D 0E 0F |0123456789ABCDEF|
|------------------------------------------------|----------------|
|00 14 00 00 01 54 24 7C A2 25 77 00 00 00 00 00 |.....T$|.%w.....|
|00 40 02 00 00 03 00                            |.......         |
-------------------------------------------------------------------
[Server] packet : (0x51) F_ANIMATION  Size = 9 
|------------------------------------------------|----------------|
|00 01 02 03 04 05 06 07 08 09 0A 0B 0C 0D 0E 0F |0123456789ABCDEF|
|------------------------------------------------|----------------|
|00 06 51 02 03 00 7B 00 00                      |.........       |
-------------------------------------------------------------------