
[Server] packet : (0x1D) F_GUILD_DATA  Size = 125 
|------------------------------------------------|----------------|
|00 01 02 03 04 05 06 07 08 09 0A 0B 0C 0D 0E 0F |0123456789ABCDEF|
|------------------------------------------------|----------------|
|00 7A 1D 09 0A 00 00 00 41 00 00 00 B8 00 00 00 |.z......A.......|
|03 00 00 00 C3 00 00 00 84 00 00 00 00 00 00 01 |................|
|9B 00 00 00 26 00 00 00 02 00 00 06 DB 00 00 00 |....&...........|
|53 00 00 00 02 00 00 07 17 00 00 00 74 00 00 00 |S...........t...|
|01 00 00 07 C0 00 00 00 D3 00 00 00 03 00 00 08 |................|
|0C 00 00 00 39 00 00 00 00 00 00 0D 39 00 00 00 |....9.......9...|
|39 00 00 00 01 00 00 0D 46 00 00 00 1C 00 00 00 |9.......F.......|
|00 00 00 0E 12 00 00 00 12 00 00 00 00          |.............   |
-------------------------------------------------------------------
[Server] packet : (0x1D) F_GUILD_DATA  Size = 460 
|------------------------------------------------|----------------|
|00 01 02 03 04 05 06 07 08 09 0A 0B 0C 0D 0E 0F |0123456789ABCDEF|
|------------------------------------------------|----------------|
|01 C9 1D 11 06 00 01 00 00 07 C0 00 10 C1 33 52 |..............3R|
|B0 AD 40 52 B0 C9 60 01 00 00 10 6F 6E 65 20 6C |..@R..`....one l|
|61 73 74 20 68 75 72 72 61 68 00 00 3E 6F 6E 65 |ast hurrah..>one|
|20 6C 61 73 74 20 6E 61 6B 65 64 20 72 76 72 20 | last naked rvr |
|72 75 6E 20 70 6C 75 73 20 63 68 69 63 6B 65 6E |run plus chicken|
|20 72 61 63 65 20 69 6E 20 6E 6F 72 64 6C 61 6E | race in nordlan|
|64 20 6C 61 6B 65 20 78 78 78 00 00 02 00 00 07 |d lake xxx......|
|C0 00 10 C1 33 52 9E 2A 30 52 9E 54 60 01 00 00 |....3R.*0R.T`...|
|07 47 75 6E 62 61 64 00 00 2F 6C 65 74 73 20 6B |.Gunbad../lets k|
|69 63 6B 20 64 65 6D 20 72 65 64 65 79 65 73 20 |ick dem redeyes |
|62 65 66 6F 72 65 20 74 68 65 79 20 70 75 6C 6C |before they pull|
|20 70 6C 75 67 20 78 78 00 00 03 00 00 07 C0 00 | plug xx........|
|10 C1 33 52 9F 7B B0 52 9F B3 F0 01 00 00 0F 42 |..3R.{.R.......B|
|61 73 74 69 6F 6E 20 73 74 61 69 72 73 00 00 30 |astion stairs..0|
|6B 69 63 6B 65 20 74 68 65 6D 20 62 72 61 73 73 |kicke them brass|
|20 6C 65 67 69 6F 6E 20 61 72 6F 75 6E 64 20 6F | legion around o|
|6E 65 20 6C 61 73 74 20 74 69 6D 65 20 78 78 00 |ne last time xx.|
|00 04 00 00 07 C0 00 10 C1 33 52 A0 CD 30 52 A1 |.........3R..0R.|
|05 70 01 00 00 0A 6C 6F 73 74 20 76 61 6C 65 00 |.p....lost vale.|
|00 26 6C 6F 73 74 20 76 61 6C 65 20 6F 6E 65 20 |.&lost vale one |
|6C 61 73 74 20 74 69 6D 65 20 62 75 67 73 20 6E |last time bugs n|
|20 61 6C 6C 20 78 78 00 00 05 00 00 07 C0 00 10 | all xx.........|
|C1 33 52 A2 1E B0 52 A2 56 F0 01 00 00 05 54 6F |.3R...R.V.....To|
|76 6C 00 00 12 54 4F 56 4C 20 6C 65 74 73 20 64 |vl...TOVL lets d|
|6F 20 69 74 21 21 00 00 06 00 00 07 C0 00 10 C1 |o it!!..........|
|33 52 A3 0D C0 52 A3 0D C0 01 00 00 0D 48 75 6E |3R...R.......Hun|
|74 65 72 73 20 56 61 6C 65 00 00 20 61 77 77 20 |ters Vale.. aww |
|6D 79 20 66 69 72 73 74 20 65 76 65 72 20 64 75 |my first ever du|
|6E 67 65 6F 6E 20 3A 28 20 78 78 00             |............    |
-------------------------------------------------------------------
[Client] packet : (0x0B) F_PING  Size = 32 
|------------------------------------------------|----------------|
|00 01 02 03 04 05 06 07 08 09 0A 0B 0C 0D 0E 0F |0123456789ABCDEF|
|------------------------------------------------|----------------|
|00 14 07 25 00 33 00 00 00 0B 00 08 4B EF BB 9F |...%.3......K...|
|6A E8 F8 BB CA B7 00 00 00 00 00 00 00 00 D1 37 |j..............7|                                                
-------------------------------------------------------------------
[Server] packet : (0x05) F_PLAYER_HEALTH  Size = 19 
|------------------------------------------------|----------------|
|00 01 02 03 04 05 06 07 08 09 0A 0B 0C 0D 0E 0F |0123456789ABCDEF|
|------------------------------------------------|----------------|
|00 10 05 00 00 30 2A 00 00 30 2A 00 61 01 2C 00 |.....0*..0*.a.,.|
|00 0E 00                                        |...             |
-------------------------------------------------------------------
[Server] packet : (0x1B) F_REQ_CAMPAIGN_STATUS  Size = 15 
|------------------------------------------------|----------------|
|00 01 02 03 04 05 06 07 08 09 0A 0B 0C 0D 0E 0F |0123456789ABCDEF|
|------------------------------------------------|----------------|
|00 0C 1B 00 2F E3 00 00 15 78 96 00 0E 69 00    |............... |
-------------------------------------------------------------------
[Client] packet : (0x62) F_PLAYER_STATE2  Size = 20 
|------------------------------------------------|----------------|
|00 01 02 03 04 05 06 07 08 09 0A 0B 0C 0D 0E 0F |0123456789ABCDEF|
|------------------------------------------------|----------------|
|00 08 07 26 00 33 FF FF 00 62 33 00 FE 40 1F 80 |...&.3...b3..@..|
|02 00 FB 7C                                     |....            |
-------------------------------------------------------------------
[Server] packet : (0x81) S_PONG  Size = 23 
|------------------------------------------------|----------------|
|00 01 02 03 04 05 06 07 08 09 0A 0B 0C 0D 0E 0F |0123456789ABCDEF|
|------------------------------------------------|----------------|
|00 14 81 00 08 4B EF 52 9D C2 A6 00 00 00 00 00 |.....K.R........|
|00 07 26 00 00 00 00                            |.......         |
-------------------------------------------------------------------
[Server] packet : (0xD7) F_INIT_EFFECTS  Size = 14 
|------------------------------------------------|----------------|
|00 01 02 03 04 05 06 07 08 09 0A 0B 0C 0D 0E 0F |0123456789ABCDEF|
|------------------------------------------------|----------------|
|00 0B D7 01 02 E0 42 2D 1B 25 00 78 37 00       |..............  |
-------------------------------------------------------------------
[Server] packet : (0xD7) F_INIT_EFFECTS  Size = 21 
|------------------------------------------------|----------------|
|00 01 02 03 04 05 06 07 08 09 0A 0B 0C 0D 0E 0F |0123456789ABCDEF|
|------------------------------------------------|----------------|
|00 12 D7 01 01 00 00 2D 1B 03 00 80 37 00 1B 2D |.......-....7..-|
|01 00 F4 03 00                                  |.....           |
-------------------------------------------------------------------
[Server] packet : (0xD7) F_INIT_EFFECTS  Size = 14 
|------------------------------------------------|----------------|
|00 01 02 03 04 05 06 07 08 09 0A 0B 0C 0D 0E 0F |0123456789ABCDEF|
|------------------------------------------------|----------------|
|00 0B D7 01 02 E0 42 2D 1B 03 00 80 37 00       |..............  |
-------------------------------------------------------------------
[Server] packet : (0xD7) F_INIT_EFFECTS  Size = 21 
|------------------------------------------------|----------------|
|00 01 02 03 04 05 06 07 08 09 0A 0B 0C 0D 0E 0F |0123456789ABCDEF|
|------------------------------------------------|----------------|
|00 12 D7 01 01 00 00 2D 1B 22 00 78 37 00 1B 2D |.......-.".x7..-|
|01 00 F4 03 00                                  |.....           |
-------------------------------------------------------------------
[Server] packet : (0xD7) F_INIT_EFFECTS  Size = 14 
|------------------------------------------------|----------------|
|00 01 02 03 04 05 06 07 08 09 0A 0B 0C 0D 0E 0F |0123456789ABCDEF|
|------------------------------------------------|----------------|
|00 0B D7 01 02 E0 42 2D 1B 22 00 78 37 00       |..............  |
-------------------------------------------------------------------
[Server] packet : (0xD7) F_INIT_EFFECTS  Size = 21 
|------------------------------------------------|----------------|
|00 01 02 03 04 05 06 07 08 09 0A 0B 0C 0D 0E 0F |0123456789ABCDEF|
|------------------------------------------------|----------------|
|00 12 D7 01 01 00 00 2D 1B 24 00 78 37 00 1B 2D |.......-.$.x7..-|
|01 00 F4 03 00                                  |.....           |
-------------------------------------------------------------------
[Server] packet : (0xD7) F_INIT_EFFECTS  Size = 14 
|------------------------------------------------|----------------|
|00 01 02 03 04 05 06 07 08 09 0A 0B 0C 0D 0E 0F |0123456789ABCDEF|
|------------------------------------------------|----------------|
|00 0B D7 01 02 E0 42 2D 1B 24 00 78 37 00       |..............  |
-------------------------------------------------------------------
[Server] packet : (0xD7) F_INIT_EFFECTS  Size = 21 
|------------------------------------------------|----------------|
|00 01 02 03 04 05 06 07 08 09 0A 0B 0C 0D 0E 0F |0123456789ABCDEF|
|------------------------------------------------|----------------|
|00 12 D7 01 01 00 00 2D 1B 23 00 78 37 00 1B 2D |.......-.#.x7..-|
|01 00 F4 03 00                                  |.....           |
-------------------------------------------------------------------
[Server] packet : (0xD7) F_INIT_EFFECTS  Size = 14 
|------------------------------------------------|----------------|
|00 01 02 03 04 05 06 07 08 09 0A 0B 0C 0D 0E 0F |0123456789ABCDEF|
|------------------------------------------------|----------------|
|00 0B D7 01 02 E0 42 2D 1B 23 00 78 37 00       |..............  |
-------------------------------------------------------------------
[Server] packet : (0xD7) F_INIT_EFFECTS  Size = 21 
|------------------------------------------------|----------------|
|00 01 02 03 04 05 06 07 08 09 0A 0B 0C 0D 0E 0F |0123456789ABCDEF|
|------------------------------------------------|----------------|
|00 12 D7 01 01 00 00 2D 1B 01 00 78 37 00 1B 2D |.......-...x7..-|
|01 00 F4 03 00                                  |.....           |
-------------------------------------------------------------------
[Server] packet : (0x1B) F_REQ_CAMPAIGN_STATUS  Size = 15 
|------------------------------------------------|----------------|
|00 01 02 03 04 05 06 07 08 09 0A 0B 0C 0D 0E 0F |0123456789ABCDEF|
|------------------------------------------------|----------------|
|00 0C 1B 00 31 CB 00 00 15 55 FC 00 0E 6F 00    |............... |
-------------------------------------------------------------------
[Client] packet : (0x62) F_PLAYER_STATE2  Size = 20 
|------------------------------------------------|----------------|
|00 01 02 03 04 05 06 07 08 09 0A 0B 0C 0D 0E 0F |0123456789ABCDEF|
|------------------------------------------------|----------------|
|00 08 07 27 00 33 FF FF 00 62 33 00 FE 40 1F 00 |...'.3...b3..@..|
|03 00 02 3A                                     |....            |
-------------------------------------------------------------------
[Server] packet : (0xDA) F_USE_ABILITY  Size = 23 
|------------------------------------------------|----------------|
|00 01 02 03 04 05 06 07 08 09 0A 0B 0C 0D 0E 0F |0123456789ABCDEF|
|------------------------------------------------|----------------|
|00 14 DA 00 00 60 A0 31 F2 12 1E 31 F2 01 01 00 |.....`.1...1....|
|00 00 00 00 00 00 00                            |.......         |
-------------------------------------------------------------------
[Server] packet : (0xB3) F_CAST_PLAYER_EFFECT  Size = 13 
|------------------------------------------------|----------------|
|00 01 02 03 04 05 06 07 08 09 0A 0B 0C 0D 0E 0F |0123456789ABCDEF|
|------------------------------------------------|----------------|
|00 0A B3 31 F2 31 F2 60 A0 00 00 00 00          |.............   |
-------------------------------------------------------------------
[Server] packet : (0xB3) F_CAST_PLAYER_EFFECT  Size = 13 
|------------------------------------------------|----------------|
|00 01 02 03 04 05 06 07 08 09 0A 0B 0C 0D 0E 0F |0123456789ABCDEF|
|------------------------------------------------|----------------|
|00 0A B3 31 F2 31 F2 60 A0 00 00 01 00          |.............   |
-------------------------------------------------------------------
[Server] packet : (0xDA) F_USE_ABILITY  Size = 23 
|------------------------------------------------|----------------|
|00 01 02 03 04 05 06 07 08 09 0A 0B 0C 0D 0E 0F |0123456789ABCDEF|
|------------------------------------------------|----------------|
|00 14 DA 00 00 60 A0 31 F2 12 1E 31 F2 02 01 00 |.....`.1...1....|
|00 00 00 00 00 00 00                            |.......         |
-------------------------------------------------------------------
[Server] packet : (0x05) F_PLAYER_HEALTH  Size = 19 
|------------------------------------------------|----------------|
|00 01 02 03 04 05 06 07 08 09 0A 0B 0C 0D 0E 0F |0123456789ABCDEF|
|------------------------------------------------|----------------|
|00 10 05 00 00 30 2A 00 00 30 2A 00 73 01 2C 00 |.....0*..0*.s.,.|
|00 0E 00                                        |...             |
-------------------------------------------------------------------
[Server] packet : (0xD7) F_INIT_EFFECTS  Size = 14 
|------------------------------------------------|----------------|
|00 01 02 03 04 05 06 07 08 09 0A 0B 0C 0D 0E 0F |0123456789ABCDEF|
|------------------------------------------------|----------------|
|00 0B D7 01 02 00 00 2D 1B 01 00 78 37 00       |..............  |
-------------------------------------------------------------------
[Server] packet : (0xD7) F_INIT_EFFECTS  Size = 21 
|------------------------------------------------|----------------|
|00 01 02 03 04 05 06 07 08 09 0A 0B 0C 0D 0E 0F |0123456789ABCDEF|
|------------------------------------------------|----------------|
|00 12 D7 01 01 B5 FF 2D 1B 28 00 80 37 00 1B 2D |.......-.(..7..-|
|01 00 F4 03 00                                  |.....           |
-------------------------------------------------------------------
[Server] packet : (0xD7) F_INIT_EFFECTS  Size = 14 
|------------------------------------------------|----------------|
|00 01 02 03 04 05 06 07 08 09 0A 0B 0C 0D 0E 0F |0123456789ABCDEF|
|------------------------------------------------|----------------|
|00 0B D7 01 02 00 00 2D 1B 28 00 80 37 00       |..............  |
-------------------------------------------------------------------
[Server] packet : (0xD7) F_INIT_EFFECTS  Size = 21 
|------------------------------------------------|----------------|
|00 01 02 03 04 05 06 07 08 09 0A 0B 0C 0D 0E 0F |0123456789ABCDEF|
|------------------------------------------------|----------------|
|00 12 D7 01 01 B5 FF 2D 1B 26 00 78 37 00 1B 2D |.......-.&.x7..-|
|01 00 F4 03 00                                  |.....           |
-------------------------------------------------------------------
[Server] packet : (0xD7) F_INIT_EFFECTS  Size = 14 
|------------------------------------------------|----------------|
|00 01 02 03 04 05 06 07 08 09 0A 0B 0C 0D 0E 0F |0123456789ABCDEF|
|------------------------------------------------|----------------|
|00 0B D7 01 02 00 00 2D 1B 26 00 78 37 00       |..............  |
-------------------------------------------------------------------
[Server] packet : (0xD7) F_INIT_EFFECTS  Size = 21 
|------------------------------------------------|----------------|
|00 01 02 03 04 05 06 07 08 09 0A 0B 0C 0D 0E 0F |0123456789ABCDEF|
|------------------------------------------------|----------------|
|00 12 D7 01 01 B5 FF 2D 1B 25 00 78 37 00 1B 2D |.......-.%.x7..-|
|01 00 F4 03 00                                  |.....           |
-------------------------------------------------------------------
[Server] packet : (0xD7) F_INIT_EFFECTS  Size = 14 
|------------------------------------------------|----------------|
|00 01 02 03 04 05 06 07 08 09 0A 0B 0C 0D 0E 0F |0123456789ABCDEF|
|------------------------------------------------|----------------|
|00 0B D7 01 02 00 00 2D 1B 25 00 78 37 00       |..............  |
-------------------------------------------------------------------
[Server] packet : (0xD7) F_INIT_EFFECTS  Size = 21 
|------------------------------------------------|----------------|
|00 01 02 03 04 05 06 07 08 09 0A 0B 0C 0D 0E 0F |0123456789ABCDEF|
|------------------------------------------------|----------------|
|00 12 D7 01 01 B5 FF 2D 1B 03 00 78 37 00 1B 2D |.......-...x7..-|
|01 00 F4 03 00                                  |.....           |
-------------------------------------------------------------------
[Server] packet : (0xD7) F_INIT_EFFECTS  Size = 14 
|------------------------------------------------|----------------|
|00 01 02 03 04 05 06 07 08 09 0A 0B 0C 0D 0E 0F |0123456789ABCDEF|
|------------------------------------------------|----------------|
|00 0B D7 01 02 00 00 2D 1B 03 00 78 37 00       |..............  |
-------------------------------------------------------------------
[Server] packet : (0xD7) F_INIT_EFFECTS  Size = 21 
|------------------------------------------------|----------------|
|00 01 02 03 04 05 06 07 08 09 0A 0B 0C 0D 0E 0F |0123456789ABCDEF|
|------------------------------------------------|----------------|
|00 12 D7 01 01 B5 FF 2D 1B 22 00 78 37 00 1B 2D |.......-.".x7..-|
|01 00 F4 03 00                                  |.....           |
-------------------------------------------------------------------
[Server] packet : (0x05) F_PLAYER_HEALTH  Size = 19 
|------------------------------------------------|----------------|
|00 01 02 03 04 05 06 07 08 09 0A 0B 0C 0D 0E 0F |0123456789ABCDEF|
|------------------------------------------------|----------------|
|00 10 05 00 00 30 2A 00 00 30 2A 00 91 01 2C 00 |.....0*..0*...,.|
|00 0E 00                                        |...             |
-------------------------------------------------------------------
[Client] packet : (0x62) F_PLAYER_STATE2  Size = 20 
|------------------------------------------------|----------------|
|00 01 02 03 04 05 06 07 08 09 0A 0B 0C 0D 0E 0F |0123456789ABCDEF|
|------------------------------------------------|----------------|
|00 08 07 28 00 33 FF FF 00 62 33 00 FE 40 1F 80 |...(.3...b3..@..|
|03 00 41 10                                     |....            |
-------------------------------------------------------------------
[Server] packet : (0xD7) F_INIT_EFFECTS  Size = 14 
|------------------------------------------------|----------------|
|00 01 02 03 04 05 06 07 08 09 0A 0B 0C 0D 0E 0F |0123456789ABCDEF|
|------------------------------------------------|----------------|
|00 0B D7 01 02 00 00 2D 1B 22 00 78 37 00       |..............  |
-------------------------------------------------------------------
[Server] packet : (0xD7) F_INIT_EFFECTS  Size = 21 
|------------------------------------------------|----------------|
|00 01 02 03 04 05 06 07 08 09 0A 0B 0C 0D 0E 0F |0123456789ABCDEF|
|------------------------------------------------|----------------|
|00 12 D7 01 01 B5 FF 2D 1B 24 00 80 37 00 1B 2D |.......-.$..7..-|
|01 00 F4 03 00                                  |.....           |
-------------------------------------------------------------------
[Server] packet : (0xD7) F_INIT_EFFECTS  Size = 14 
|------------------------------------------------|----------------|
|00 01 02 03 04 05 06 07 08 09 0A 0B 0C 0D 0E 0F |0123456789ABCDEF|
|------------------------------------------------|----------------|
|00 0B D7 01 02 00 00 2D 1B 24 00 80 37 00       |..............  |
-------------------------------------------------------------------
[Server] packet : (0xD7) F_INIT_EFFECTS  Size = 21 
|------------------------------------------------|----------------|
|00 01 02 03 04 05 06 07 08 09 0A 0B 0C 0D 0E 0F |0123456789ABCDEF|
|------------------------------------------------|----------------|
|00 12 D7 01 01 B5 FF 2D 1B 23 00 78 37 00 1B 2D |.......-.#.x7..-|
|01 00 F4 03 00                                  |.....           |
-------------------------------------------------------------------
[Server] packet : (0xD7) F_INIT_EFFECTS  Size = 14 
|------------------------------------------------|----------------|
|00 01 02 03 04 05 06 07 08 09 0A 0B 0C 0D 0E 0F |0123456789ABCDEF|
|------------------------------------------------|----------------|
|00 0B D7 01 02 00 00 2D 1B 23 00 78 37 00       |..............  |
-------------------------------------------------------------------
[Server] packet : (0xD7) F_INIT_EFFECTS  Size = 21 
|------------------------------------------------|----------------|
|00 01 02 03 04 05 06 07 08 09 0A 0B 0C 0D 0E 0F |0123456789ABCDEF|
|------------------------------------------------|----------------|
|00 12 D7 01 01 B5 FF 2D 1B 01 00 78 37 00 1B 2D |.......-...x7..-|
|01 00 F4 03 00                                  |.....           |
-------------------------------------------------------------------
[Server] packet : (0xD7) F_INIT_EFFECTS  Size = 14 
|------------------------------------------------|----------------|
|00 01 02 03 04 05 06 07 08 09 0A 0B 0C 0D 0E 0F |0123456789ABCDEF|
|------------------------------------------------|----------------|
|00 0B D7 01 02 00 00 2D 1B 01 00 78 37 00       |..............  |
-------------------------------------------------------------------
[Server] packet : (0xD7) F_INIT_EFFECTS  Size = 21 
|------------------------------------------------|----------------|
|00 01 02 03 04 05 06 07 08 09 0A 0B 0C 0D 0E 0F |0123456789ABCDEF|
|------------------------------------------------|----------------|
|00 12 D7 01 01 B5 FF 2D 1B 28 00 78 37 00 1B 2D |.......-.(.x7..-|
|01 00 F4 03 00                                  |.....           |
-------------------------------------------------------------------
[Server] packet : (0xD7) F_INIT_EFFECTS  Size = 14 
|------------------------------------------------|----------------|
|00 01 02 03 04 05 06 07 08 09 0A 0B 0C 0D 0E 0F |0123456789ABCDEF|
|------------------------------------------------|----------------|
|00 0B D7 01 02 00 00 2D 1B 28 00 78 37 00       |..............  |
-------------------------------------------------------------------
[Server] packet : (0xD7) F_INIT_EFFECTS  Size = 21 
|------------------------------------------------|----------------|
|00 01 02 03 04 05 06 07 08 09 0A 0B 0C 0D 0E 0F |0123456789ABCDEF|
|------------------------------------------------|----------------|
|00 12 D7 01 01 B5 FF 2D 1B 26 00 78 37 00 1B 2D |.......-.&.x7..-|
|01 00 F4 03 00                                  |.....           |
-------------------------------------------------------------------
[Server] packet : (0xDA) F_USE_ABILITY  Size = 23 
|------------------------------------------------|----------------|
|00 01 02 03 04 05 06 07 08 09 0A 0B 0C 0D 0E 0F |0123456789ABCDEF|
|------------------------------------------------|----------------|
|00 14 DA 00 00 60 A0 31 F2 12 1E 31 F2 01 01 00 |.....`.1...1....|
|00 00 00 00 00 00 00                            |.......         |
-------------------------------------------------------------------
[Server] packet : (0xB3) F_CAST_PLAYER_EFFECT  Size = 13 
|------------------------------------------------|----------------|
|00 01 02 03 04 05 06 07 08 09 0A 0B 0C 0D 0E 0F |0123456789ABCDEF|
|------------------------------------------------|----------------|
|00 0A B3 31 F2 31 F2 60 A0 00 00 00 00          |.............   |
-------------------------------------------------------------------
[Server] packet : (0xB3) F_CAST_PLAYER_EFFECT  Size = 13 
|------------------------------------------------|----------------|
|00 01 02 03 04 05 06 07 08 09 0A 0B 0C 0D 0E 0F |0123456789ABCDEF|
|------------------------------------------------|----------------|
|00 0A B3 31 F2 31 F2 60 A0 00 00 01 00          |.............   |
-------------------------------------------------------------------
[Server] packet : (0xDA) F_USE_ABILITY  Size = 23 
|------------------------------------------------|----------------|
|00 01 02 03 04 05 06 07 08 09 0A 0B 0C 0D 0E 0F |0123456789ABCDEF|
|------------------------------------------------|----------------|
|00 14 DA 00 00 60 A0 31 F2 12 1E 31 F2 02 01 00 |.....`.1...1....|
|00 00 00 00 00 00 00                            |.......         |
-------------------------------------------------------------------
[Client] packet : (0x62) F_PLAYER_STATE2  Size = 29 
|------------------------------------------------|----------------|
|00 01 02 03 04 05 06 07 08 09 0A 0B 0C 0D 0E 0F |0123456789ABCDEF|
|------------------------------------------------|----------------|
|00 11 07 29 00 33 FF FF 00 62 33 00 FE 40 1F 00 |...).3...b3..@..|
|94 26 E7 A1 7E 04 0B A0 9D 00 00 36 8D          |.............   |
-------------------------------------------------------------------
[Server] packet : (0x05) F_PLAYER_HEALTH  Size = 19 
|------------------------------------------------|----------------|
|00 01 02 03 04 05 06 07 08 09 0A 0B 0C 0D 0E 0F |0123456789ABCDEF|
|------------------------------------------------|----------------|
|00 10 05 00 00 30 2A 00 00 30 2A 00 9D 01 2C 00 |.....0*..0*...,.|
|00 0E 00                                        |...             |
-------------------------------------------------------------------
[Client] packet : (0x18) F_PLAYER_INFO  Size = 20 
|------------------------------------------------|----------------|
|00 01 02 03 04 05 06 07 08 09 0A 0B 0C 0D 0E 0F |0123456789ABCDEF|
|------------------------------------------------|----------------|
|00 08 07 2A 00 33 00 00 00 18 00 00 31 F2 60 03 |...*.3......1.`.|
|00 00 00 00                                     |....            |
-------------------------------------------------------------------
[Client] packet : (0xD2) F_INTERACT  Size = 24 
|------------------------------------------------|----------------|
|00 01 02 03 04 05 06 07 08 09 0A 0B 0C 0D 0E 0F |0123456789ABCDEF|
|------------------------------------------------|----------------|
|00 0C 07 2B 00 33 00 00 00 D2 00 00 31 F2 00 00 |...+.3......1...|
|00 00 00 00 00 00 00 00                         |........        |
-------------------------------------------------------------------
[Client] packet : (0x01) UNKNOWN  Size = 32 
|------------------------------------------------|----------------|
|00 01 02 03 04 05 06 07 08 09 0A 0B 0C 0D 0E 0F |0123456789ABCDEF|
|------------------------------------------------|----------------|
|00 14 07 2C 00 33 00 00 00 01 00 08 50 B7 00 23 |...,.3......P..#|
|39 B0 08 18 C0 4A 20 07 3E FD 90 38 47 3C 7A BE |9....J .>..8G<z.|                                                
-------------------------------------------------------------------
[Client] packet : (0x62) F_PLAYER_STATE2  Size = 29 
|------------------------------------------------|----------------|
|00 01 02 03 04 05 06 07 08 09 0A 0B 0C 0D 0E 0F |0123456789ABCDEF|
|------------------------------------------------|----------------|
|00 11 07 2D 00 33 FF FF 00 62 33 00 FE 40 1F 00 |...-.3...b3..@..|
|94 26 E7 A1 7E 04 0B A0 9D 00 00 DC 1E          |.............   |
-------------------------------------------------------------------
[Server] packet : (0xD7) F_INIT_EFFECTS  Size = 14 
|------------------------------------------------|----------------|
|00 01 02 03 04 05 06 07 08 09 0A 0B 0C 0D 0E 0F |0123456789ABCDEF|
|------------------------------------------------|----------------|
|00 0B D7 01 02 B5 FF 2D 1B 26 00 78 37 00       |..............  |
-------------------------------------------------------------------
[Server] packet : (0xD7) F_INIT_EFFECTS  Size = 21 
|------------------------------------------------|----------------|
|00 01 02 03 04 05 06 07 08 09 0A 0B 0C 0D 0E 0F |0123456789ABCDEF|
|------------------------------------------------|----------------|
|00 12 D7 01 01 0C 33 2D 1B 25 00 80 37 00 1B 2D |......3-.%..7..-|
|01 00 F4 03 00                                  |.....           |
-------------------------------------------------------------------
[Server] packet : (0xD7) F_INIT_EFFECTS  Size = 14 
|------------------------------------------------|----------------|
|00 01 02 03 04 05 06 07 08 09 0A 0B 0C 0D 0E 0F |0123456789ABCDEF|
|------------------------------------------------|----------------|
|00 0B D7 01 02 B5 FF 2D 1B 25 00 80 37 00       |..............  |
-------------------------------------------------------------------
[Server] packet : (0xD7) F_INIT_EFFECTS  Size = 21 
|------------------------------------------------|----------------|
|00 01 02 03 04 05 06 07 08 09 0A 0B 0C 0D 0E 0F |0123456789ABCDEF|
|------------------------------------------------|----------------|
|00 12 D7 01 01 0C 33 2D 1B 03 00 78 37 00 1B 2D |......3-...x7..-|
|01 00 F4 03 00                                  |.....           |
-------------------------------------------------------------------
[Server] packet : (0xD7) F_INIT_EFFECTS  Size = 14 
|------------------------------------------------|----------------|
|00 01 02 03 04 05 06 07 08 09 0A 0B 0C 0D 0E 0F |0123456789ABCDEF|
|------------------------------------------------|----------------|
|00 0B D7 01 02 B5 FF 2D 1B 03 00 78 37 00       |..............  |
-------------------------------------------------------------------
[Server] packet : (0xD7) F_INIT_EFFECTS  Size = 21 
|------------------------------------------------|----------------|
|00 01 02 03 04 05 06 07 08 09 0A 0B 0C 0D 0E 0F |0123456789ABCDEF|
|------------------------------------------------|----------------|
|00 12 D7 01 01 0C 33 2D 1B 22 00 78 37 00 1B 2D |......3-.".x7..-|
|01 00 F4 03 00                                  |.....           |
-------------------------------------------------------------------
[Server] packet : (0xD7) F_INIT_EFFECTS  Size = 14 
|------------------------------------------------|----------------|
|00 01 02 03 04 05 06 07 08 09 0A 0B 0C 0D 0E 0F |0123456789ABCDEF|
|------------------------------------------------|----------------|
|00 0B D7 01 02 B5 FF 2D 1B 22 00 78 37 00       |..............  |
-------------------------------------------------------------------
[Server] packet : (0xD7) F_INIT_EFFECTS  Size = 21 
|------------------------------------------------|----------------|
|00 01 02 03 04 05 06 07 08 09 0A 0B 0C 0D 0E 0F |0123456789ABCDEF|
|------------------------------------------------|----------------|
|00 12 D7 01 01 0C 33 2D 1B 24 00 78 37 00 1B 2D |......3-.$.x7..-|
|01 00 F4 03 00                                  |.....           |
-------------------------------------------------------------------
[Server] packet : (0xD7) F_INIT_EFFECTS  Size = 14 
|------------------------------------------------|----------------|
|00 01 02 03 04 05 06 07 08 09 0A 0B 0C 0D 0E 0F |0123456789ABCDEF|
|------------------------------------------------|----------------|
|00 0B D7 01 02 B5 FF 2D 1B 24 00 78 37 00       |..............  |
-------------------------------------------------------------------
[Server] packet : (0xD7) F_INIT_EFFECTS  Size = 21 
|------------------------------------------------|----------------|
|00 01 02 03 04 05 06 07 08 09 0A 0B 0C 0D 0E 0F |0123456789ABCDEF|
|------------------------------------------------|----------------|
|00 12 D7 01 01 0C 33 2D 1B 23 00 78 37 00 1B 2D |......3-.#.x7..-|
|01 00 F4 03 00                                  |.....           |
-------------------------------------------------------------------
[Server] packet : (0xE4) F_UPDATE_STATE  Size = 13 
|------------------------------------------------|----------------|
|00 01 02 03 04 05 06 07 08 09 0A 0B 0C 0D 0E 0F |0123456789ABCDEF|
|------------------------------------------------|----------------|
|00 0A E4 2D 1B 1B 00 00 00 00 00 00 00          |.............   |
-------------------------------------------------------------------
[Server] packet : (0x7E) F_SET_ABILITY_TIMER  Size = 15 
|------------------------------------------------|----------------|
|00 01 02 03 04 05 06 07 08 09 0A 0B 0C 0D 0E 0F |0123456789ABCDEF|
|------------------------------------------------|----------------|
|00 0C 7E 00 01 01 00 00 00 00 00 00 00 00 00    |............... |
-------------------------------------------------------------------
[Server] packet : (0x6F) F_LOCALIZED_STRING  Size = 77 
|------------------------------------------------|----------------|
|00 01 02 03 04 05 06 07 08 09 0A 0B 0C 0D 0E 0F |0123456789ABCDEF|
|------------------------------------------------|----------------|
|00 4A 6F 02 11 00 00 00 44 00 00 00 01 01 00 3D |.Jo.....D......=|
|52 65 73 6F 75 72 63 65 20 43 61 72 72 69 65 72 |Resource Carrier|
|20 61 74 20 44 6F 6F 6D 73 74 72 69 6B 65 72 20 | at Doomstriker |
|56 65 69 6E 20 68 61 73 20 62 65 65 6E 20 69 73 |Vein has been is|
|73 75 65 64 20 6F 72 64 65 72 73 21 00          |.............   |
-------------------------------------------------------------------
[Server] packet : (0x6F) F_LOCALIZED_STRING  Size = 77 
|------------------------------------------------|----------------|
|00 01 02 03 04 05 06 07 08 09 0A 0B 0C 0D 0E 0F |0123456789ABCDEF|
|------------------------------------------------|----------------|
|00 4A 6F 01 16 00 00 00 44 00 00 00 01 01 00 3D |.Jo.....D......=|
|52 65 73 6F 75 72 63 65 20 43 61 72 72 69 65 72 |Resource Carrier|
|20 61 74 20 44 6F 6F 6D 73 74 72 69 6B 65 72 20 | at Doomstriker |
|56 65 69 6E 20 68 61 73 20 62 65 65 6E 20 69 73 |Vein has been is|
|73 75 65 64 20 6F 72 64 65 72 73 21 00          |.............   |
-------------------------------------------------------------------
[Server] packet : (0xD7) F_INIT_EFFECTS  Size = 20 
|------------------------------------------------|----------------|
|00 01 02 03 04 05 06 07 08 09 0A 0B 0C 0D 0E 0F |0123456789ABCDEF|
|------------------------------------------------|----------------|
|00 11 D7 01 01 B8 22 31 F2 05 00 7A 60 00 1B 2D |......"1...z`..-|
|01 00 02 00                                     |....            |
-------------------------------------------------------------------
[Server] packet : (0x09) F_OBJECT_STATE  Size = 29 
|------------------------------------------------|----------------|
|00 01 02 03 04 05 06 07 08 09 0A 0B 0C 0D 0E 0F |0123456789ABCDEF|
|------------------------------------------------|----------------|
|00 1A 09 31 F2 50 F0 82 16 27 66 64 01 05 00 00 |...1.P...'fd....|
|02 80 00 EB 00 00 E9 5D CA 83 60 28 00          |.............   |
-------------------------------------------------------------------
[Server] packet : (0x1B) F_REQ_CAMPAIGN_STATUS  Size = 15 
|------------------------------------------------|----------------|
|00 01 02 03 04 05 06 07 08 09 0A 0B 0C 0D 0E 0F |0123456789ABCDEF|
|------------------------------------------------|----------------|
|00 0C 1B 00 31 F2 00 00 15 31 25 00 0E 22 00    |............... |
-------------------------------------------------------------------
[Server] packet : (0x00) UNKNOWN  Size = 23 
|------------------------------------------------|----------------|
|00 01 02 03 04 05 06 07 08 09 0A 0B 0C 0D 0E 0F |0123456789ABCDEF|
|------------------------------------------------|----------------|
|00 14 00 00 08 50 B7 41 DB 42 F5 00 00 00 00 20 |.....P.A.B..... |
|07 3E FD 90 38 47 00                            |.......         |
-------------------------------------------------------------------
[Client] packet : (0x62) F_PLAYER_STATE2  Size = 20 
|------------------------------------------------|----------------|
|00 01 02 03 04 05 06 07 08 09 0A 0B 0C 0D 0E 0F |0123456789ABCDEF|
|------------------------------------------------|----------------|
|00 08 07 2E 00 33 FF FF 00 62 33 00 FE 40 1F 00 |.....3...b3..@..|
|01 00 28 0C                                     |....            |
-------------------------------------------------------------------
[Server] packet : (0xD7) F_INIT_EFFECTS  Size = 88 
|------------------------------------------------|----------------|
|00 01 02 03 04 05 06 07 08 09 0A 0B 0C 0D 0E 0F |0123456789ABCDEF|
|------------------------------------------------|----------------|
|00 55 D7 06 00 00 00 31 F2 01 00 DA 60 FC B4 85 |.U.....1....`...|
|03 F2 31 01 00 02 05 00 7A 60 FC B4 85 03 1B 2D |..1.....z`.....-|
|01 00 02 04 00 DE 60 FC B4 85 03 F2 31 01 00 00 |......`.....1...|
|03 00 DD 60 FC B4 85 03 F2 31 01 00 02 07 00 DB |...`.....1......|
|60 FC B4 85 03 F2 31 01 00 00 02 00 A0 60 FC B4 |`.....1......`..|
|85 03 F2 31 01 00 02 00                         |........        |
-------------------------------------------------------------------
[Server] packet : (0x05) F_PLAYER_HEALTH  Size = 19 
|------------------------------------------------|----------------|
|00 01 02 03 04 05 06 07 08 09 0A 0B 0C 0D 0E 0F |0123456789ABCDEF|
|------------------------------------------------|----------------|
|00 10 05 00 00 30 2A 00 00 30 2A 00 C2 01 2C 00 |.....0*..0*...,.|
|00 0E 00                                        |...             |
-------------------------------------------------------------------
[Server] packet : (0xE4) F_UPDATE_STATE  Size = 13 
|------------------------------------------------|----------------|
|00 01 02 03 04 05 06 07 08 09 0A 0B 0C 0D 0E 0F |0123456789ABCDEF|
|------------------------------------------------|----------------|
|00 0A E4 06 52 05 00 00 00 00 00 00 00          |.............   |
-------------------------------------------------------------------
[Server] packet : (0xE4) F_UPDATE_STATE  Size = 13 
|------------------------------------------------|----------------|
|00 01 02 03 04 05 06 07 08 09 0A 0B 0C 0D 0E 0F |0123456789ABCDEF|
|------------------------------------------------|----------------|
|00 0A E4 38 19 05 01 00 00 00 00 00 00          |.............   |
-------------------------------------------------------------------
[Server] packet : (0xE4) F_UPDATE_STATE  Size = 13 
|------------------------------------------------|----------------|
|00 01 02 03 04 05 06 07 08 09 0A 0B 0C 0D 0E 0F |0123456789ABCDEF|
|------------------------------------------------|----------------|
|00 0A E4 03 5F 05 01 00 00 00 00 00 00          |.............   |
-------------------------------------------------------------------
[Server] packet : (0xE4) F_UPDATE_STATE  Size = 13 
|------------------------------------------------|----------------|
|00 01 02 03 04 05 06 07 08 09 0A 0B 0C 0D 0E 0F |0123456789ABCDEF|
|------------------------------------------------|----------------|
|00 0A E4 37 B8 05 01 00 00 00 00 00 00          |.............   |
-------------------------------------------------------------------
[Server] packet : (0xE4) F_UPDATE_STATE  Size = 13 
|------------------------------------------------|----------------|
|00 01 02 03 04 05 06 07 08 09 0A 0B 0C 0D 0E 0F |0123456789ABCDEF|
|------------------------------------------------|----------------|
|00 0A E4 35 28 05 01 00 00 00 00 00 00          |.............   |
-------------------------------------------------------------------
[Server] packet : (0x1B) F_REQ_CAMPAIGN_STATUS  Size = 15 
|------------------------------------------------|----------------|
|00 01 02 03 04 05 06 07 08 09 0A 0B 0C 0D 0E 0F |0123456789ABCDEF|
|------------------------------------------------|----------------|
|00 0C 1B 00 18 ED 00 00 15 56 DA 00 0E 6B 00    |............... |
-------------------------------------------------------------------
[Server] packet : (0xD7) F_INIT_EFFECTS  Size = 14 
|------------------------------------------------|----------------|
|00 01 02 03 04 05 06 07 08 09 0A 0B 0C 0D 0E 0F |0123456789ABCDEF|
|------------------------------------------------|----------------|
|00 0B D7 01 02 00 00 2D 1B 23 00 78 37 00       |..............  |
-------------------------------------------------------------------
[Server] packet : (0xD7) F_INIT_EFFECTS  Size = 21 
|------------------------------------------------|----------------|
|00 01 02 03 04 05 06 07 08 09 0A 0B 0C 0D 0E 0F |0123456789ABCDEF|
|------------------------------------------------|----------------|
|00 12 D7 01 01 00 00 2D 1B 01 00 80 37 00 1B 2D |.......-....7..-|
|01 00 F4 03 00                                  |.....           |
-------------------------------------------------------------------
[Server] packet : (0xD7) F_INIT_EFFECTS  Size = 14 
|------------------------------------------------|----------------|
|00 01 02 03 04 05 06 07 08 09 0A 0B 0C 0D 0E 0F |0123456789ABCDEF|
|------------------------------------------------|----------------|
|00 0B D7 01 02 00 00 2D 1B 01 00 80 37 00       |..............  |
-------------------------------------------------------------------
[Server] packet : (0xD7) F_INIT_EFFECTS  Size = 21 
|------------------------------------------------|----------------|
|00 01 02 03 04 05 06 07 08 09 0A 0B 0C 0D 0E 0F |0123456789ABCDEF|
|------------------------------------------------|----------------|
|00 12 D7 01 01 00 00 2D 1B 28 00 78 37 00 1B 2D |.......-.(.x7..-|
|01 00 F4 03 00                                  |.....           |
-------------------------------------------------------------------
[Server] packet : (0xD7) F_INIT_EFFECTS  Size = 14 
|------------------------------------------------|----------------|
|00 01 02 03 04 05 06 07 08 09 0A 0B 0C 0D 0E 0F |0123456789ABCDEF|
|------------------------------------------------|----------------|
|00 0B D7 01 02 00 00 2D 1B 28 00 78 37 00       |..............  |
-------------------------------------------------------------------
[Server] packet : (0xD7) F_INIT_EFFECTS  Size = 21 
|------------------------------------------------|----------------|
|00 01 02 03 04 05 06 07 08 09 0A 0B 0C 0D 0E 0F |0123456789ABCDEF|
|------------------------------------------------|----------------|
|00 12 D7 01 01 00 00 2D 1B 26 00 78 37 00 1B 2D |.......-.&.x7..-|
|01 00 F4 03 00                                  |.....           |
-------------------------------------------------------------------
[Server] packet : (0xD7) F_INIT_EFFECTS  Size = 14 
|------------------------------------------------|----------------|
|00 01 02 03 04 05 06 07 08 09 0A 0B 0C 0D 0E 0F |0123456789ABCDEF|
|------------------------------------------------|----------------|
|00 0B D7 01 02 00 00 2D 1B 26 00 78 37 00       |..............  |
-------------------------------------------------------------------
[Server] packet : (0xD7) F_INIT_EFFECTS  Size = 21 
|------------------------------------------------|----------------|
|00 01 02 03 04 05 06 07 08 09 0A 0B 0C 0D 0E 0F |0123456789ABCDEF|
|------------------------------------------------|----------------|
|00 12 D7 01 01 00 00 2D 1B 25 00 78 37 00 1B 2D |.......-.%.x7..-|
|01 00 F4 03 00                                  |.....           |
-------------------------------------------------------------------
[Server] packet : (0xD7) F_INIT_EFFECTS  Size = 14 
|------------------------------------------------|----------------|
|00 01 02 03 04 05 06 07 08 09 0A 0B 0C 0D 0E 0F |0123456789ABCDEF|
|------------------------------------------------|----------------|
|00 0B D7 01 02 00 00 2D 1B 25 00 78 37 00       |..............  |
-------------------------------------------------------------------
[Server] packet : (0xD7) F_INIT_EFFECTS  Size = 21 
|------------------------------------------------|----------------|
|00 01 02 03 04 05 06 07 08 09 0A 0B 0C 0D 0E 0F |0123456789ABCDEF|
|------------------------------------------------|----------------|
|00 12 D7 01 01 00 00 2D 1B 03 00 78 37 00 1B 2D |.......-...x7..-|
|01 00 F4 03 00                                  |.....           |
-------------------------------------------------------------------
[Client] packet : (0x62) F_PLAYER_STATE2  Size = 20 
|------------------------------------------------|----------------|
|00 01 02 03 04 05 06 07 08 09 0A 0B 0C 0D 0E 0F |0123456789ABCDEF|
|------------------------------------------------|----------------|
|00 08 07 2F 00 33 FF FF 00 62 33 00 FE 40 1F 80 |.../.3...b3..@..|
|01 00 26 5E                                     |....            |
-------------------------------------------------------------------
[Server] packet : (0x09) F_OBJECT_STATE  Size = 21 
|------------------------------------------------|----------------|
|00 01 02 03 04 05 06 07 08 09 0A 0B 0C 0D 0E 0F |0123456789ABCDEF|
|------------------------------------------------|----------------|
|00 12 09 08 61 60 CE 85 E3 28 61 64 00 05 04 00 |....a`...(ad....|
|01 02 3F 66 00                                  |.....           |
-------------------------------------------------------------------
[Client] packet : (0x62) F_PLAYER_STATE2  Size = 20 
|------------------------------------------------|----------------|
|00 01 02 03 04 05 06 07 08 09 0A 0B 0C 0D 0E 0F |0123456789ABCDEF|
|------------------------------------------------|----------------|
|00 08 07 30 00 33 FF FF 00 62 33 00 FE 40 1F 00 |...0.3...b3..@..|
|02 00 67 B0                                     |....            |
-------------------------------------------------------------------
[Client] packet : (0x0B) F_PING  Size = 32 
|------------------------------------------------|----------------|
|00 01 02 03 04 05 06 07 08 09 0A 0B 0C 0D 0E 0F |0123456789ABCDEF|
|------------------------------------------------|----------------|
|00 14 07 31 00 33 00 00 00 0B 00 08 5F 4F 28 1F |...1.3......_O(.|
|3F FF F6 3F 65 1C 00 00 00 00 00 00 00 00 D1 37 |?..?e..........7|                                                
-------------------------------------------------------------------
[Server] packet : (0x05) F_PLAYER_HEALTH  Size = 19 
|------------------------------------------------|----------------|
|00 01 02 03 04 05 06 07 08 09 0A 0B 0C 0D 0E 0F |0123456789ABCDEF|
|------------------------------------------------|----------------|
|00 10 05 00 00 30 2A 00 00 30 2A 00 D4 01 2C 00 |.....0*..0*...,.|
|00 0E 00                                        |...             |
-------------------------------------------------------------------
[Server] packet : (0xDA) F_USE_ABILITY  Size = 23 
|------------------------------------------------|----------------|
|00 01 02 03 04 05 06 07 08 09 0A 0B 0C 0D 0E 0F |0123456789ABCDEF|
|------------------------------------------------|----------------|
|00 14 DA 00 00 60 A0 31 F2 12 1E 31 F2 01 01 00 |.....`.1...1....|
|00 00 00 00 00 00 00                            |.......         |
-------------------------------------------------------------------
[Server] packet : (0xB3) F_CAST_PLAYER_EFFECT  Size = 13 
|------------------------------------------------|----------------|
|00 01 02 03 04 05 06 07 08 09 0A 0B 0C 0D 0E 0F |0123456789ABCDEF|
|------------------------------------------------|----------------|
|00 0A B3 31 F2 31 F2 60 A0 00 00 00 00          |.............   |
-------------------------------------------------------------------
[Server] packet : (0xD7) F_INIT_EFFECTS  Size = 14 
|------------------------------------------------|----------------|
|00 01 02 03 04 05 06 07 08 09 0A 0B 0C 0D 0E 0F |0123456789ABCDEF|
|------------------------------------------------|----------------|
|00 0B D7 01 02 00 00 31 F2 02 00 A0 60 00       |..............  |
-------------------------------------------------------------------
[Server] packet : (0xB3) F_CAST_PLAYER_EFFECT  Size = 13 
|------------------------------------------------|----------------|
|00 01 02 03 04 05 06 07 08 09 0A 0B 0C 0D 0E 0F |0123456789ABCDEF|
|------------------------------------------------|----------------|
|00 0A B3 31 F2 31 F2 60 A0 00 00 01 00          |.............   |
-------------------------------------------------------------------
[Server] packet : (0xD7) F_INIT_EFFECTS  Size = 20 
|------------------------------------------------|----------------|
|00 01 02 03 04 05 06 07 08 09 0A 0B 0C 0D 0E 0F |0123456789ABCDEF|
|------------------------------------------------|----------------|
|00 11 D7 01 01 B5 FF 31 F2 06 00 A0 60 00 F2 31 |.......1....`..1|
|01 00 02 00                                     |....            |
-------------------------------------------------------------------
[Server] packet : (0xDA) F_USE_ABILITY  Size = 23 
|------------------------------------------------|----------------|
|00 01 02 03 04 05 06 07 08 09 0A 0B 0C 0D 0E 0F |0123456789ABCDEF|
|------------------------------------------------|----------------|
|00 14 DA 00 00 60 A0 31 F2 12 1E 31 F2 02 01 00 |.....`.1...1....|
|00 00 00 00 00 00 00                            |.......         |
-------------------------------------------------------------------
[Server] packet : (0x81) S_PONG  Size = 23 
|------------------------------------------------|----------------|
|00 01 02 03 04 05 06 07 08 09 0A 0B 0C 0D 0E 0F |0123456789ABCDEF|
|------------------------------------------------|----------------|
|00 14 81 00 08 5F 4F 52 9D C2 AB 00 00 00 00 00 |....._OR........|
|00 07 32 00 00 00 00                            |.......         |
-------------------------------------------------------------------
[Server] packet : (0xD7) F_INIT_EFFECTS  Size = 14 
|------------------------------------------------|----------------|
|00 01 02 03 04 05 06 07 08 09 0A 0B 0C 0D 0E 0F |0123456789ABCDEF|
|------------------------------------------------|----------------|
|00 0B D7 01 02 3A 4C 2D 1B 03 00 78 37 00       |..............  |
-------------------------------------------------------------------
[Server] packet : (0xD7) F_INIT_EFFECTS  Size = 21 
|------------------------------------------------|----------------|
|00 01 02 03 04 05 06 07 08 09 0A 0B 0C 0D 0E 0F |0123456789ABCDEF|
|------------------------------------------------|----------------|
|00 12 D7 01 01 00 00 2D 1B 22 00 80 37 00 1B 2D |.......-."..7..-|
|01 00 F4 03 00                                  |.....           |
-------------------------------------------------------------------
[Server] packet : (0xD7) F_INIT_EFFECTS  Size = 14 
|------------------------------------------------|----------------|
|00 01 02 03 04 05 06 07 08 09 0A 0B 0C 0D 0E 0F |0123456789ABCDEF|
|------------------------------------------------|----------------|
|00 0B D7 01 02 3A 4C 2D 1B 22 00 80 37 00       |..............  |
-------------------------------------------------------------------
[Server] packet : (0xD7) F_INIT_EFFECTS  Size = 21 
|------------------------------------------------|----------------|
|00 01 02 03 04 05 06 07 08 09 0A 0B 0C 0D 0E 0F |0123456789ABCDEF|
|------------------------------------------------|----------------|
|00 12 D7 01 01 00 00 2D 1B 24 00 78 37 00 1B 2D |.......-.$.x7..-|
|01 00 F4 03 00                                  |.....           |
-------------------------------------------------------------------
[Server] packet : (0xD7) F_INIT_EFFECTS  Size = 14 
|------------------------------------------------|----------------|
|00 01 02 03 04 05 06 07 08 09 0A 0B 0C 0D 0E 0F |0123456789ABCDEF|
|------------------------------------------------|----------------|
|00 0B D7 01 02 3A 4C 2D 1B 24 00 78 37 00       |..............  |
-------------------------------------------------------------------
[Server] packet : (0xD7) F_INIT_EFFECTS  Size = 21 
|------------------------------------------------|----------------|
|00 01 02 03 04 05 06 07 08 09 0A 0B 0C 0D 0E 0F |0123456789ABCDEF|
|------------------------------------------------|----------------|
|00 12 D7 01 01 00 00 2D 1B 23 00 78 37 00 1B 2D |.......-.#.x7..-|
|01 00 F4 03 00                                  |.....           |
-------------------------------------------------------------------
[Server] packet : (0xD7) F_INIT_EFFECTS  Size = 14 
|------------------------------------------------|----------------|
|00 01 02 03 04 05 06 07 08 09 0A 0B 0C 0D 0E 0F |0123456789ABCDEF|
|------------------------------------------------|----------------|
|00 0B D7 01 02 3A 4C 2D 1B 23 00 78 37 00       |..............  |
-------------------------------------------------------------------
[Server] packet : (0xD7) F_INIT_EFFECTS  Size = 21 
|------------------------------------------------|----------------|
|00 01 02 03 04 05 06 07 08 09 0A 0B 0C 0D 0E 0F |0123456789ABCDEF|
|------------------------------------------------|----------------|
|00 12 D7 01 01 00 00 2D 1B 01 00 78 37 00 1B 2D |.......-...x7..-|
|01 00 F4 03 00                                  |.....           |
-------------------------------------------------------------------
[Server] packet : (0xD7) F_INIT_EFFECTS  Size = 14 
|------------------------------------------------|----------------|
|00 01 02 03 04 05 06 07 08 09 0A 0B 0C 0D 0E 0F |0123456789ABCDEF|
|------------------------------------------------|----------------|
|00 0B D7 01 02 3A 4C 2D 1B 01 00 78 37 00       |..............  |
-------------------------------------------------------------------
[Server] packet : (0xD7) F_INIT_EFFECTS  Size = 21 
|------------------------------------------------|----------------|
|00 01 02 03 04 05 06 07 08 09 0A 0B 0C 0D 0E 0F |0123456789ABCDEF|
|------------------------------------------------|----------------|
|00 12 D7 01 01 00 00 2D 1B 28 00 78 37 00 1B 2D |.......-.(.x7..-|
|01 00 F4 03 00                                  |.....           |
-------------------------------------------------------------------
[Client] packet : (0x62) F_PLAYER_STATE2  Size = 20 
|------------------------------------------------|----------------|
|00 01 02 03 04 05 06 07 08 09 0A 0B 0C 0D 0E 0F |0123456789ABCDEF|
|------------------------------------------------|----------------|
|00 08 07 32 00 33 FF FF 00 62 33 00 FE 40 1F 80 |...2.3...b3..@..|
|02 00 3B 31                                     |....            |
-------------------------------------------------------------------
[Server] packet : (0x1B) F_REQ_CAMPAIGN_STATUS  Size = 15 
|------------------------------------------------|----------------|
|00 01 02 03 04 05 06 07 08 09 0A 0B 0C 0D 0E 0F |0123456789ABCDEF|
|------------------------------------------------|----------------|
|00 0C 1B 00 31 CB 00 00 15 55 68 00 0E 74 00    |............... |
-------------------------------------------------------------------
[Client] packet : (0x62) F_PLAYER_STATE2  Size = 20 
|------------------------------------------------|----------------|
|00 01 02 03 04 05 06 07 08 09 0A 0B 0C 0D 0E 0F |0123456789ABCDEF|
|------------------------------------------------|----------------|
|00 08 07 33 00 33 FF FF 00 62 33 00 FE 40 1F 00 |...3.3...b3..@..|
|03 00 C2 8A                                     |....            |
-------------------------------------------------------------------
[Server] packet : (0x05) F_PLAYER_HEALTH  Size = 19 
|------------------------------------------------|----------------|
|00 01 02 03 04 05 06 07 08 09 0A 0B 0C 0D 0E 0F |0123456789ABCDEF|
|------------------------------------------------|----------------|
|00 10 05 00 00 30 2A 00 00 30 2A 00 E6 01 2C 00 |.....0*..0*...,.|
|00 0E 00                                        |...             |
-------------------------------------------------------------------
[Server] packet : (0x1B) F_REQ_CAMPAIGN_STATUS  Size = 15 
|------------------------------------------------|----------------|
|00 01 02 03 04 05 06 07 08 09 0A 0B 0C 0D 0E 0F |0123456789ABCDEF|
|------------------------------------------------|----------------|
|00 0C 1B 00 2F E3 00 00 15 73 56 00 0E 69 00    |............... |
-------------------------------------------------------------------
[Server] packet : (0xD7) F_INIT_EFFECTS  Size = 14 
|------------------------------------------------|----------------|
|00 01 02 03 04 05 06 07 08 09 0A 0B 0C 0D 0E 0F |0123456789ABCDEF|
|------------------------------------------------|----------------|
|00 0B D7 01 02 00 00 2D 1B 28 00 78 37 00       |..............  |
-------------------------------------------------------------------
[Server] packet : (0xD7) F_INIT_EFFECTS  Size = 21 
|------------------------------------------------|----------------|
|00 01 02 03 04 05 06 07 08 09 0A 0B 0C 0D 0E 0F |0123456789ABCDEF|
|------------------------------------------------|----------------|
|00 12 D7 01 01 61 00 2D 1B 26 00 80 37 00 1B 2D |.....a.-.&..7..-|
|01 00 F4 03 00                                  |.....           |
-------------------------------------------------------------------
[Server] packet : (0xD7) F_INIT_EFFECTS  Size = 14 
|------------------------------------------------|----------------|
|00 01 02 03 04 05 06 07 08 09 0A 0B 0C 0D 0E 0F |0123456789ABCDEF|
|------------------------------------------------|----------------|
|00 0B D7 01 02 00 00 2D 1B 26 00 80 37 00       |..............  |
-------------------------------------------------------------------
[Server] packet : (0xD7) F_INIT_EFFECTS  Size = 21 
|------------------------------------------------|----------------|
|00 01 02 03 04 05 06 07 08 09 0A 0B 0C 0D 0E 0F |0123456789ABCDEF|
|------------------------------------------------|----------------|
|00 12 D7 01 01 61 00 2D 1B 25 00 78 37 00 1B 2D |.....a.-.%.x7..-|
|01 00 F4 03 00                                  |.....           |
-------------------------------------------------------------------
[Server] packet : (0xD7) F_INIT_EFFECTS  Size = 14 
|------------------------------------------------|----------------|
|00 01 02 03 04 05 06 07 08 09 0A 0B 0C 0D 0E 0F |0123456789ABCDEF|
|------------------------------------------------|----------------|
|00 0B D7 01 02 00 00 2D 1B 25 00 78 37 00       |..............  |
-------------------------------------------------------------------
[Server] packet : (0xD7) F_INIT_EFFECTS  Size = 21 
|------------------------------------------------|----------------|
|00 01 02 03 04 05 06 07 08 09 0A 0B 0C 0D 0E 0F |0123456789ABCDEF|
|------------------------------------------------|----------------|
|00 12 D7 01 01 61 00 2D 1B 03 00 78 37 00 1B 2D |.....a.-...x7..-|
|01 00 F4 03 00                                  |.....           |
-------------------------------------------------------------------
[Server] packet : (0xD7) F_INIT_EFFECTS  Size = 14 
|------------------------------------------------|----------------|
|00 01 02 03 04 05 06 07 08 09 0A 0B 0C 0D 0E 0F |0123456789ABCDEF|
|------------------------------------------------|----------------|
|00 0B D7 01 02 00 00 2D 1B 03 00 78 37 00       |..............  |
-------------------------------------------------------------------
[Server] packet : (0xD7) F_INIT_EFFECTS  Size = 21 
|------------------------------------------------|----------------|
|00 01 02 03 04 05 06 07 08 09 0A 0B 0C 0D 0E 0F |0123456789ABCDEF|
|------------------------------------------------|----------------|
|00 12 D7 01 01 61 00 2D 1B 22 00 78 37 00 1B 2D |.....a.-.".x7..-|
|01 00 F4 03 00                                  |.....           |
-------------------------------------------------------------------
[Server] packet : (0xD7) F_INIT_EFFECTS  Size = 14 
|------------------------------------------------|----------------|
|00 01 02 03 04 05 06 07 08 09 0A 0B 0C 0D 0E 0F |0123456789ABCDEF|
|------------------------------------------------|----------------|
|00 0B D7 01 02 00 00 2D 1B 22 00 78 37 00       |..............  |
-------------------------------------------------------------------
[Server] packet : (0xD7) F_INIT_EFFECTS  Size = 21 
|------------------------------------------------|----------------|
|00 01 02 03 04 05 06 07 08 09 0A 0B 0C 0D 0E 0F |0123456789ABCDEF|
|------------------------------------------------|----------------|
|00 12 D7 01 01 61 00 2D 1B 24 00 78 37 00 1B 2D |.....a.-.$.x7..-|
|01 00 F4 03 00                                  |.....           |
-------------------------------------------------------------------
[Client] packet : (0x62) F_PLAYER_STATE2  Size = 20 
|------------------------------------------------|----------------|
|00 01 02 03 04 05 06 07 08 09 0A 0B 0C 0D 0E 0F |0123456789ABCDEF|
|------------------------------------------------|----------------|
|00 08 07 34 00 33 FF FF 00 62 33 00 FE 40 1F 80 |...4.3...b3..@..|
|03 00 81 E3                                     |....            |
-------------------------------------------------------------------
[Client] packet : (0x62) F_PLAYER_STATE2  Size = 29 
|------------------------------------------------|----------------|
|00 01 02 03 04 05 06 07 08 09 0A 0B 0C 0D 0E 0F |0123456789ABCDEF|
|------------------------------------------------|----------------|
|00 11 07 35 00 33 FF FF 00 62 33 00 FE 40 1F 00 |...5.3...b3..@..|
|94 26 E7 A1 7E 04 0B A0 9D 00 00 D8 58          |.............   |
-------------------------------------------------------------------
[Server] packet : (0x05) F_PLAYER_HEALTH  Size = 19 
|------------------------------------------------|----------------|
|00 01 02 03 04 05 06 07 08 09 0A 0B 0C 0D 0E 0F |0123456789ABCDEF|
|------------------------------------------------|----------------|
|00 10 05 00 00 30 2A 00 00 30 2A 01 0B 01 2C 00 |.....0*..0*...,.|
|00 0E 00                                        |...             |
-------------------------------------------------------------------
[Server] packet : (0xDA) F_USE_ABILITY  Size = 23 
|------------------------------------------------|----------------|
|00 01 02 03 04 05 06 07 08 09 0A 0B 0C 0D 0E 0F |0123456789ABCDEF|
|------------------------------------------------|----------------|
|00 14 DA 00 00 60 A0 31 F2 12 1E 31 F2 01 01 00 |.....`.1...1....|
|00 00 00 00 00 00 00                            |.......         |
-------------------------------------------------------------------
[Server] packet : (0xB3) F_CAST_PLAYER_EFFECT  Size = 13 
|------------------------------------------------|----------------|
|00 01 02 03 04 05 06 07 08 09 0A 0B 0C 0D 0E 0F |0123456789ABCDEF|
|------------------------------------------------|----------------|
|00 0A B3 31 F2 31 F2 60 A0 00 00 00 00          |.............   |
-------------------------------------------------------------------
[Server] packet : (0xD7) F_INIT_EFFECTS  Size = 14 
|------------------------------------------------|----------------|
|00 01 02 03 04 05 06 07 08 09 0A 0B 0C 0D 0E 0F |0123456789ABCDEF|
|------------------------------------------------|----------------|
|00 0B D7 01 02 00 00 31 F2 06 00 A0 60 00       |..............  |
-------------------------------------------------------------------
[Server] packet : (0xB3) F_CAST_PLAYER_EFFECT  Size = 13 
|------------------------------------------------|----------------|
|00 01 02 03 04 05 06 07 08 09 0A 0B 0C 0D 0E 0F |0123456789ABCDEF|
|------------------------------------------------|----------------|
|00 0A B3 31 F2 31 F2 60 A0 00 00 01 00          |.............   |
-------------------------------------------------------------------
[Server] packet : (0xD7) F_INIT_EFFECTS  Size = 20 
|------------------------------------------------|----------------|
|00 01 02 03 04 05 06 07 08 09 0A 0B 0C 0D 0E 0F |0123456789ABCDEF|
|------------------------------------------------|----------------|
|00 11 D7 01 01 B5 FF 31 F2 02 00 A0 60 00 F2 31 |.......1....`..1|
|01 00 02 00                                     |....            |
-------------------------------------------------------------------
[Server] packet : (0xDA) F_USE_ABILITY  Size = 23 
|------------------------------------------------|----------------|
|00 01 02 03 04 05 06 07 08 09 0A 0B 0C 0D 0E 0F |0123456789ABCDEF|
|------------------------------------------------|----------------|
|00 14 DA 00 00 60 A0 31 F2 12 1E 31 F2 02 01 00 |.....`.1...1....|
|00 00 00 00 00 00 00                            |.......         |
-------------------------------------------------------------------
[Server] packet : (0xD7) F_INIT_EFFECTS  Size = 14 
|------------------------------------------------|----------------|
|00 01 02 03 04 05 06 07 08 09 0A 0B 0C 0D 0E 0F |0123456789ABCDEF|
|------------------------------------------------|----------------|
|00 0B D7 01 02 64 49 2D 1B 24 00 78 37 00       |..............  |
-------------------------------------------------------------------
[Server] packet : (0xD7) F_INIT_EFFECTS  Size = 21 
|------------------------------------------------|----------------|
|00 01 02 03 04 05 06 07 08 09 0A 0B 0C 0D 0E 0F |0123456789ABCDEF|
|------------------------------------------------|----------------|
|00 12 D7 01 01 00 00 2D 1B 23 00 80 37 00 1B 2D |.......-.#..7..-|
|01 00 F4 03 00                                  |.....           |
-------------------------------------------------------------------
[Server] packet : (0xD7) F_INIT_EFFECTS  Size = 14 
|------------------------------------------------|----------------|
|00 01 02 03 04 05 06 07 08 09 0A 0B 0C 0D 0E 0F |0123456789ABCDEF|
|------------------------------------------------|----------------|
|00 0B D7 01 02 64 49 2D 1B 23 00 80 37 00       |..............  |
-------------------------------------------------------------------
[Server] packet : (0xD7) F_INIT_EFFECTS  Size = 21 
|------------------------------------------------|----------------|
|00 01 02 03 04 05 06 07 08 09 0A 0B 0C 0D 0E 0F |0123456789ABCDEF|
|------------------------------------------------|----------------|
|00 12 D7 01 01 00 00 2D 1B 01 00 78 37 00 1B 2D |.......-...x7..-|
|01 00 F4 03 00                                  |.....           |
-------------------------------------------------------------------
[Server] packet : (0xD7) F_INIT_EFFECTS  Size = 14 
|------------------------------------------------|----------------|
|00 01 02 03 04 05 06 07 08 09 0A 0B 0C 0D 0E 0F |0123456789ABCDEF|
|------------------------------------------------|----------------|
|00 0B D7 01 02 64 49 2D 1B 01 00 78 37 00       |..............  |
-------------------------------------------------------------------
[Server] packet : (0xD7) F_INIT_EFFECTS  Size = 21 
|------------------------------------------------|----------------|
|00 01 02 03 04 05 06 07 08 09 0A 0B 0C 0D 0E 0F |0123456789ABCDEF|
|------------------------------------------------|----------------|
|00 12 D7 01 01 00 00 2D 1B 28 00 78 37 00 1B 2D |.......-.(.x7..-|
|01 00 F4 03 00                                  |.....           |
-------------------------------------------------------------------
[Server] packet : (0xD7) F_INIT_EFFECTS  Size = 14 
|------------------------------------------------|----------------|
|00 01 02 03 04 05 06 07 08 09 0A 0B 0C 0D 0E 0F |0123456789ABCDEF|
|------------------------------------------------|----------------|
|00 0B D7 01 02 64 49 2D 1B 28 00 78 37 00       |..............  |
-------------------------------------------------------------------
[Server] packet : (0xD7) F_INIT_EFFECTS  Size = 21 
|------------------------------------------------|----------------|
|00 01 02 03 04 05 06 07 08 09 0A 0B 0C 0D 0E 0F |0123456789ABCDEF|
|------------------------------------------------|----------------|
|00 12 D7 01 01 00 00 2D 1B 26 00 78 37 00 1B 2D |.......-.&.x7..-|
|01 00 F4 03 00                                  |.....           |
-------------------------------------------------------------------
[Server] packet : (0xD7) F_INIT_EFFECTS  Size = 14 
|------------------------------------------------|----------------|
|00 01 02 03 04 05 06 07 08 09 0A 0B 0C 0D 0E 0F |0123456789ABCDEF|
|------------------------------------------------|----------------|
|00 0B D7 01 02 64 49 2D 1B 26 00 78 37 00       |..............  |
-------------------------------------------------------------------
[Server] packet : (0xD7) F_INIT_EFFECTS  Size = 21 
|------------------------------------------------|----------------|
|00 01 02 03 04 05 06 07 08 09 0A 0B 0C 0D 0E 0F |0123456789ABCDEF|
|------------------------------------------------|----------------|
|00 12 D7 01 01 00 00 2D 1B 25 00 78 37 00 1B 2D |.......-.%.x7..-|
|01 00 F4 03 00                                  |.....           |
-------------------------------------------------------------------
[Client] packet : (0x62) F_PLAYER_STATE2  Size = 20 
|------------------------------------------------|----------------|
|00 01 02 03 04 05 06 07 08 09 0A 0B 0C 0D 0E 0F |0123456789ABCDEF|
|------------------------------------------------|----------------|
|00 08 07 36 00 33 FF FF 00 62 33 00 FE 40 1F 80 |...6.3...b3..@..|
|00 00 28 0C                                     |....            |
-------------------------------------------------------------------
[Client] packet : (0x62) F_PLAYER_STATE2  Size = 20 
|------------------------------------------------|----------------|
|00 01 02 03 04 05 06 07 08 09 0A 0B 0C 0D 0E 0F |0123456789ABCDEF|
|------------------------------------------------|----------------|
|00 08 07 37 00 33 FF FF 00 62 33 00 FE 40 1F 00 |...7.3...b3..@..|
|01 00 83 0D                                     |....            |
-------------------------------------------------------------------
[Server] packet : (0x05) F_PLAYER_HEALTH  Size = 19 
|------------------------------------------------|----------------|
|00 01 02 03 04 05 06 07 08 09 0A 0B 0C 0D 0E 0F |0123456789ABCDEF|
|------------------------------------------------|----------------|
|00 10 05 00 00 30 2A 00 00 30 2A 01 1D 01 2C 00 |.....0*..0*...,.|
|00 0E 00                                        |...             |
-------------------------------------------------------------------
[Server] packet : (0xD7) F_INIT_EFFECTS  Size = 14 
|------------------------------------------------|----------------|
|00 01 02 03 04 05 06 07 08 09 0A 0B 0C 0D 0E 0F |0123456789ABCDEF|
|------------------------------------------------|----------------|
|00 0B D7 01 02 00 00 2D 1B 25 00 78 37 00       |..............  |
-------------------------------------------------------------------
[Server] packet : (0xD7) F_INIT_EFFECTS  Size = 21 
|------------------------------------------------|----------------|
|00 01 02 03 04 05 06 07 08 09 0A 0B 0C 0D 0E 0F |0123456789ABCDEF|
|------------------------------------------------|----------------|
|00 12 D7 01 01 00 00 2D 1B 03 00 80 37 00 1B 2D |.......-....7..-|
|01 00 F4 03 00                                  |.....           |
-------------------------------------------------------------------
[Server] packet : (0xD7) F_INIT_EFFECTS  Size = 14 
|------------------------------------------------|----------------|
|00 01 02 03 04 05 06 07 08 09 0A 0B 0C 0D 0E 0F |0123456789ABCDEF|
|------------------------------------------------|----------------|
|00 0B D7 01 02 00 00 2D 1B 03 00 80 37 00       |..............  |
-------------------------------------------------------------------
[Server] packet : (0xD7) F_INIT_EFFECTS  Size = 21 
|------------------------------------------------|----------------|
|00 01 02 03 04 05 06 07 08 09 0A 0B 0C 0D 0E 0F |0123456789ABCDEF|
|------------------------------------------------|----------------|
|00 12 D7 01 01 00 00 2D 1B 22 00 78 37 00 1B 2D |.......-.".x7..-|
|01 00 F4 03 00                                  |.....           |
-------------------------------------------------------------------
[Server] packet : (0xD7) F_INIT_EFFECTS  Size = 14 
|------------------------------------------------|----------------|
|00 01 02 03 04 05 06 07 08 09 0A 0B 0C 0D 0E 0F |0123456789ABCDEF|
|------------------------------------------------|----------------|
|00 0B D7 01 02 00 00 2D 1B 22 00 78 37 00       |..............  |
-------------------------------------------------------------------
[Server] packet : (0xD7) F_INIT_EFFECTS  Size = 21 
|------------------------------------------------|----------------|
|00 01 02 03 04 05 06 07 08 09 0A 0B 0C 0D 0E 0F |0123456789ABCDEF|
|------------------------------------------------|----------------|
|00 12 D7 01 01 00 00 2D 1B 24 00 78 37 00 1B 2D |.......-.$.x7..-|
|01 00 F4 03 00                                  |.....           |
-------------------------------------------------------------------
[Server] packet : (0xD7) F_INIT_EFFECTS  Size = 14 
|------------------------------------------------|----------------|
|00 01 02 03 04 05 06 07 08 09 0A 0B 0C 0D 0E 0F |0123456789ABCDEF|
|------------------------------------------------|----------------|
|00 0B D7 01 02 00 00 2D 1B 24 00 78 37 00       |..............  |
-------------------------------------------------------------------
[Server] packet : (0xD7) F_INIT_EFFECTS  Size = 21 
|------------------------------------------------|----------------|
|00 01 02 03 04 05 06 07 08 09 0A 0B 0C 0D 0E 0F |0123456789ABCDEF|
|------------------------------------------------|----------------|
|00 12 D7 01 01 00 00 2D 1B 23 00 78 37 00 1B 2D |.......-.#.x7..-|
|01 00 F4 03 00                                  |.....           |
-------------------------------------------------------------------
[Server] packet : (0xD7) F_INIT_EFFECTS  Size = 14 
|------------------------------------------------|----------------|
|00 01 02 03 04 05 06 07 08 09 0A 0B 0C 0D 0E 0F |0123456789ABCDEF|
|------------------------------------------------|----------------|
|00 0B D7 01 02 00 00 2D 1B 23 00 78 37 00       |..............  |
-------------------------------------------------------------------
[Server] packet : (0xD7) F_INIT_EFFECTS  Size = 21 
|------------------------------------------------|----------------|
|00 01 02 03 04 05 06 07 08 09 0A 0B 0C 0D 0E 0F |0123456789ABCDEF|
|------------------------------------------------|----------------|
|00 12 D7 01 01 00 00 2D 1B 01 00 78 37 00 1B 2D |.......-...x7..-|
|01 00 F4 03 00                                  |.....           |
-------------------------------------------------------------------
[Server] packet : (0x1B) F_REQ_CAMPAIGN_STATUS  Size = 15 
|------------------------------------------------|----------------|
|00 01 02 03 04 05 06 07 08 09 0A 0B 0C 0D 0E 0F |0123456789ABCDEF|
|------------------------------------------------|----------------|
|00 0C 1B 00 31 F2 00 00 15 35 B7 00 0E 22 00    |............... |
-------------------------------------------------------------------
[Client] packet : (0x62) F_PLAYER_STATE2  Size = 20 
|------------------------------------------------|----------------|
|00 01 02 03 04 05 06 07 08 09 0A 0B 0C 0D 0E 0F |0123456789ABCDEF|
|------------------------------------------------|----------------|
|00 08 07 38 00 33 FF FF 00 62 33 00 FE 40 1F 80 |...8.3...b3..@..|
|01 00 96 B8                                     |....            |
-------------------------------------------------------------------
[Server] packet : (0x05) F_PLAYER_HEALTH  Size = 19 
|------------------------------------------------|----------------|
|00 01 02 03 04 05 06 07 08 09 0A 0B 0C 0D 0E 0F |0123456789ABCDEF|
|------------------------------------------------|----------------|
|00 10 05 00 00 30 2A 00 00 30 2A 01 2C 01 2C 00 |.....0*..0*.,.,.|
|00 0E 00                                        |...             |
-------------------------------------------------------------------
[Server] packet : (0xDA) F_USE_ABILITY  Size = 23 
|------------------------------------------------|----------------|
|00 01 02 03 04 05 06 07 08 09 0A 0B 0C 0D 0E 0F |0123456789ABCDEF|
|------------------------------------------------|----------------|
|00 14 DA 00 00 60 A0 31 F2 12 1E 31 F2 01 01 00 |.....`.1...1....|
|00 00 00 00 00 00 00                            |.......         |
-------------------------------------------------------------------
[Server] packet : (0xB3) F_CAST_PLAYER_EFFECT  Size = 13 
|------------------------------------------------|----------------|
|00 01 02 03 04 05 06 07 08 09 0A 0B 0C 0D 0E 0F |0123456789ABCDEF|
|------------------------------------------------|----------------|
|00 0A B3 31 F2 31 F2 60 A0 00 00 00 00          |.............   |
-------------------------------------------------------------------
[Server] packet : (0xD7) F_INIT_EFFECTS  Size = 14 
|------------------------------------------------|----------------|
|00 01 02 03 04 05 06 07 08 09 0A 0B 0C 0D 0E 0F |0123456789ABCDEF|
|------------------------------------------------|----------------|
|00 0B D7 01 02 00 00 31 F2 02 00 A0 60 00       |..............  |
-------------------------------------------------------------------
[Server] packet : (0xB3) F_CAST_PLAYER_EFFECT  Size = 13 
|------------------------------------------------|----------------|
|00 01 02 03 04 05 06 07 08 09 0A 0B 0C 0D 0E 0F |0123456789ABCDEF|
|------------------------------------------------|----------------|
|00 0A B3 31 F2 31 F2 60 A0 00 00 01 00          |.............   |
-------------------------------------------------------------------
[Server] packet : (0xD7) F_INIT_EFFECTS  Size = 20 
|------------------------------------------------|----------------|
|00 01 02 03 04 05 06 07 08 09 0A 0B 0C 0D 0E 0F |0123456789ABCDEF|
|------------------------------------------------|----------------|
|00 11 D7 01 01 B5 FF 31 F2 06 00 A0 60 00 F2 31 |.......1....`..1|
|01 00 02 00                                     |....            |
-------------------------------------------------------------------
[Server] packet : (0xDA) F_USE_ABILITY  Size = 23 
|------------------------------------------------|----------------|
|00 01 02 03 04 05 06 07 08 09 0A 0B 0C 0D 0E 0F |0123456789ABCDEF|
|------------------------------------------------|----------------|
|00 14 DA 00 00 60 A0 31 F2 12 1E 31 F2 02 01 00 |.....`.1...1....|
|00 00 00 00 00 00 00                            |.......         |
-------------------------------------------------------------------
[Client] packet : (0x62) F_PLAYER_STATE2  Size = 20 
|------------------------------------------------|----------------|
|00 01 02 03 04 05 06 07 08 09 0A 0B 0C 0D 0E 0F |0123456789ABCDEF|
|------------------------------------------------|----------------|
|00 08 07 39 00 33 FF FF 00 62 33 00 FE 40 1F 00 |...9.3...b3..@..|
|02 00 F7 9A                                     |....            |
-------------------------------------------------------------------
[Server] packet : (0xD7) F_INIT_EFFECTS  Size = 14 
|------------------------------------------------|----------------|
|00 01 02 03 04 05 06 07 08 09 0A 0B 0C 0D 0E 0F |0123456789ABCDEF|
|------------------------------------------------|----------------|
|00 0B D7 01 02 00 00 2D 1B 01 00 78 37 00       |..............  |
-------------------------------------------------------------------
[Server] packet : (0xD7) F_INIT_EFFECTS  Size = 21 
|------------------------------------------------|----------------|
|00 01 02 03 04 05 06 07 08 09 0A 0B 0C 0D 0E 0F |0123456789ABCDEF|
|------------------------------------------------|----------------|
|00 12 D7 01 01 B5 FF 2D 1B 28 00 80 37 00 1B 2D |.......-.(..7..-|
|01 00 F4 03 00                                  |.....           |
-------------------------------------------------------------------
[Server] packet : (0xD7) F_INIT_EFFECTS  Size = 14 
|------------------------------------------------|----------------|
|00 01 02 03 04 05 06 07 08 09 0A 0B 0C 0D 0E 0F |0123456789ABCDEF|
|------------------------------------------------|----------------|
|00 0B D7 01 02 00 00 2D 1B 28 00 80 37 00       |..............  |
-------------------------------------------------------------------
[Server] packet : (0xD7) F_INIT_EFFECTS  Size = 21 
|------------------------------------------------|----------------|
|00 01 02 03 04 05 06 07 08 09 0A 0B 0C 0D 0E 0F |0123456789ABCDEF|
|------------------------------------------------|----------------|
|00 12 D7 01 01 B5 FF 2D 1B 26 00 78 37 00 1B 2D |.......-.&.x7..-|
|01 00 F4 03 00                                  |.....           |
-------------------------------------------------------------------
[Server] packet : (0xD7) F_INIT_EFFECTS  Size = 14 
|------------------------------------------------|----------------|
|00 01 02 03 04 05 06 07 08 09 0A 0B 0C 0D 0E 0F |0123456789ABCDEF|
|------------------------------------------------|----------------|
|00 0B D7 01 02 00 00 2D 1B 26 00 78 37 00       |..............  |
-------------------------------------------------------------------
[Server] packet : (0xD7) F_INIT_EFFECTS  Size = 21 
|------------------------------------------------|----------------|
|00 01 02 03 04 05 06 07 08 09 0A 0B 0C 0D 0E 0F |0123456789ABCDEF|
|------------------------------------------------|----------------|
|00 12 D7 01 01 B5 FF 2D 1B 25 00 78 37 00 1B 2D |.......-.%.x7..-|
|01 00 F4 03 00                                  |.....           |
-------------------------------------------------------------------
[Server] packet : (0xD7) F_INIT_EFFECTS  Size = 14 
|------------------------------------------------|----------------|
|00 01 02 03 04 05 06 07 08 09 0A 0B 0C 0D 0E 0F |0123456789ABCDEF|
|------------------------------------------------|----------------|
|00 0B D7 01 02 00 00 2D 1B 25 00 78 37 00       |..............  |
-------------------------------------------------------------------
[Server] packet : (0xD7) F_INIT_EFFECTS  Size = 21 
|------------------------------------------------|----------------|
|00 01 02 03 04 05 06 07 08 09 0A 0B 0C 0D 0E 0F |0123456789ABCDEF|
|------------------------------------------------|----------------|
|00 12 D7 01 01 B5 FF 2D 1B 03 00 78 37 00 1B 2D |.......-...x7..-|
|01 00 F4 03 00                                  |.....           |
-------------------------------------------------------------------
[Server] packet : (0xD7) F_INIT_EFFECTS  Size = 14 
|------------------------------------------------|----------------|
|00 01 02 03 04 05 06 07 08 09 0A 0B 0C 0D 0E 0F |0123456789ABCDEF|
|------------------------------------------------|----------------|
|00 0B D7 01 02 00 00 2D 1B 03 00 78 37 00       |..............  |
-------------------------------------------------------------------
[Server] packet : (0xD7) F_INIT_EFFECTS  Size = 21 
|------------------------------------------------|----------------|
|00 01 02 03 04 05 06 07 08 09 0A 0B 0C 0D 0E 0F |0123456789ABCDEF|
|------------------------------------------------|----------------|
|00 12 D7 01 01 B5 FF 2D 1B 22 00 78 37 00 1B 2D |.......-.".x7..-|
|01 00 F4 03 00                                  |.....           |
-------------------------------------------------------------------