
[Server] packet : (0x0A) F_OBJECT_DEATH  Size = 15 
|------------------------------------------------|----------------|
|00 01 02 03 04 05 06 07 08 09 0A 0B 0C 0D 0E 0F |0123456789ABCDEF|
|------------------------------------------------|----------------|
|00 0C 0A 24 3F 01 01 09 6F 00 00 00 00 24 00    |............... |
-------------------------------------------------------------------
[Client] packet : (0x01) UNKNOWN  Size = 32 
|------------------------------------------------|----------------|
|00 01 02 03 04 05 06 07 08 09 0A 0B 0C 0D 0E 0F |0123456789ABCDEF|
|------------------------------------------------|----------------|
|00 14 14 8D 00 65 00 00 00 01 00 10 D7 21 00 00 |.....e.......!..|
|00 00 00 00 00 00 00 00 15 83 00 00 3E 83 BA 4A |............>..J|                                                
-------------------------------------------------------------------
[Server] packet : (0x00) UNKNOWN  Size = 23 
|------------------------------------------------|----------------|
|00 01 02 03 04 05 06 07 08 09 0A 0B 0C 0D 0E 0F |0123456789ABCDEF|
|------------------------------------------------|----------------|
|00 14 00 00 10 D7 21 8E 29 14 28 00 00 00 00 00 |......!.).(.....|
|00 15 83 00 00 3E 00                            |.......         |
-------------------------------------------------------------------
[Server] packet : (0x44) F_ACTION_COUNTER_UPDATE  Size = 11 
|------------------------------------------------|----------------|
|00 01 02 03 04 05 06 07 08 09 0A 0B 0C 0D 0E 0F |0123456789ABCDEF|
|------------------------------------------------|----------------|
|00 08 44 01 EB 00 00 00 00 1E 00                |...........     |
-------------------------------------------------------------------
[Client] packet : (0x0B) F_PING  Size = 32 
|------------------------------------------------|----------------|
|00 01 02 03 04 05 06 07 08 09 0A 0B 0C 0D 0E 0F |0123456789ABCDEF|
|------------------------------------------------|----------------|
|00 14 14 93 00 65 00 00 00 0B 00 10 E0 F4 06 D4 |.....e..........|
|80 0C F1 A7 27 01 00 00 00 00 00 00 00 00 67 BC |....'.........g.|                                                
-------------------------------------------------------------------
[Server] packet : (0x81) S_PONG  Size = 23 
|------------------------------------------------|----------------|
|00 01 02 03 04 05 06 07 08 09 0A 0B 0C 0D 0E 0F |0123456789ABCDEF|
|------------------------------------------------|----------------|
|00 14 81 00 10 E0 F4 52 7A 06 93 00 00 00 00 00 |.......Rz.......|
|00 14 94 00 00 00 00                            |.......         |
-------------------------------------------------------------------
[Server] packet : (0xD7) F_INIT_EFFECTS  Size = 596 
|------------------------------------------------|----------------|
|00 01 02 03 04 05 06 07 08 09 0A 0B 0C 0D 0E 0F |0123456789ABCDEF|
|------------------------------------------------|----------------|
|02 51 D7 24 00 00 00 09 1B 0E 00 51 0C AA 92 E9 |.Q.$.......Q....|
|01 1B 09 06 00 C7 01 01 C7 01 02 C7 01 03 C7 01 |................|
|04 02 05 02 15 00 A1 38 AA 92 E9 01 1B 09 01 00 |.......8........|
|32 07 00 97 70 AA 92 E9 01 1B 09 03 00 02 01 02 |2...p...........|
|04 6A 0C 00 EA 01 AA 92 E9 01 1B 09 05 00 02 01 |.j..............|
|5B 02 02 05 02 09 8F CB 01 17 00 A0 6C AA 92 E9 |[...........l...|
|01 1B 09 05 00 06 01 08 02 0A 03 0C 04 00 16 00 |................|
|A2 38 AA 92 E9 01 1B 09 01 00 02 26 00 50 02 AA |.8.........&.P..|
|92 E9 01 1B 09 01 00 E8 02 18 00 A1 6C AA 92 E9 |............l...|
|01 1B 09 01 00 02 0B 00 0B 01 AA 92 E9 01 1B 09 |................|
|0A 00 27 01 4F 02 77 03 9F 01 04 C7 01 05 27 06 |..'.O.w.......'.|
|4F 07 77 08 9F 01 09 C7 01 03 00 0D 6F AA 92 E9 |O.w.........o...|
|01 1B 09 01 00 02 29 00 DE 6C AA 92 E9 01 1B 09 |......)..l......|
|01 00 02 2A 00 12 3B AA 92 E9 01 1B 09 02 00 0A |...*..;.........|
|01 0A 02 00 1F 6F AA 92 E9 01 1B 09 01 00 02 0D |.....o..........|
|00 EC 01 AA 92 E9 01 1B 09 04 00 90 03 01 90 03 |................|
|02 90 03 03 90 03 1C 00 BA 6C AA 92 E9 01 1B 09 |.........l......|
|02 00 02 01 BF FC 15 24 00 F6 02 AA 92 E9 01 1B |.......$........|
|09 01 00 02 13 00 9E 38 AA 92 E9 01 1B 09 01 00 |.......8........|
|02 0F 00 ED 01 AA 92 E9 01 1B 09 0A 00 40 01 52 |.............@.R|
|02 74 03 B0 01 04 84 02 05 EE 02 06 F4 01 07 86 |.t..............|
|01 08 10 09 32 1F 00 53 60 AA 92 E9 01 1B 09 01 |....2..S`.......|
|00 02 09 00 BF 33 AA 92 E9 01 1B 09 01 00 C8 01 |.....3..........|
|08 00 27 5C B4 DE 1C 1B 09 04 00 13 01 14 02 14 |..'\............|
|03 14 28 00 E0 6C AA 92 E9 01 1B 09 01 00 02 27 |..(..l.........'|
|00 9F 07 AA 92 E9 01 1B 09 01 00 02 10 00 9B 38 |...............8|
|AA 92 E9 01 1B 09 01 00 02 21 00 54 60 AA 92 E9 |.........!.T`...|
|01 1B 09 01 00 00 1A 00 A3 6C AA 92 E9 01 1B 09 |.........l......|
|01 00 02 19 00 A2 6C AA 92 E9 01 1B 09 01 00 02 |......l.........|
|12 00 9D 38 AA 92 E9 01 1B 09 01 00 02 14 00 A0 |...8............|
|38 AA 92 E9 01 1B 09 01 00 32 05 00 8B 61 AA 92 |8........2...a..|
|E9 01 1B 09 04 00 32 01 32 02 64 03 64 06 00 F0 |......2.2.d.d...|
|5F FE 02 1B 09 01 00 02 0A 00 07 01 AA 92 E9 01 |_...............|
|1B 09 01 00 02 11 00 9C 38 AA 92 E9 01 1B 09 01 |........8.......|
|00 02 1B 00 B9 6C AA 92 E9 01 1B 09 01 00 02 25 |.....l.........%|
|00 94 07 AA 92 E9 01 1B 09 01 00 14 1E 00 EE 37 |...............7|
|AA 92 E9 01 1B 09 05 00 C8 01 01 64 02 AC 02 03 |...........d....|
|02 04 02 00                                     |....            |
-------------------------------------------------------------------
[Server] packet : (0x0A) F_OBJECT_DEATH  Size = 15 
|------------------------------------------------|----------------|
|00 01 02 03 04 05 06 07 08 09 0A 0B 0C 0D 0E 0F |0123456789ABCDEF|
|------------------------------------------------|----------------|
|00 0C 0A 39 2D 00 00 00 00 00 00 00 00 00 00    |............... |
-------------------------------------------------------------------
[Client] packet : (0x5A) F_PING_DATAGRAM  Size = 13 
|------------------------------------------------|----------------|
|00 01 02 03 04 05 06 07 08 09 0A 0B 0C 0D 0E 0F |0123456789ABCDEF|
|------------------------------------------------|----------------|
|00 01 14 9A 00 65 FF FF 00 5A 00 DB 5F          |.............   |
-------------------------------------------------------------------
[Client] packet : (0x0B) F_PING  Size = 32 
|------------------------------------------------|----------------|
|00 01 02 03 04 05 06 07 08 09 0A 0B 0C 0D 0E 0F |0123456789ABCDEF|
|------------------------------------------------|----------------|
|00 14 14 9E 00 65 00 00 00 0B 00 10 F4 88 01 1C |.....e..........|
|C2 02 D6 E1 17 B5 00 00 00 00 00 00 00 00 67 BC |..............g.|                                                
-------------------------------------------------------------------
[Server] packet : (0x81) S_PONG  Size = 23 
|------------------------------------------------|----------------|
|00 01 02 03 04 05 06 07 08 09 0A 0B 0C 0D 0E 0F |0123456789ABCDEF|
|------------------------------------------------|----------------|
|00 14 81 00 10 F4 88 52 7A 06 98 00 00 00 00 00 |.......Rz.......|
|00 14 9F 00 00 00 00                            |.......         |
-------------------------------------------------------------------
[Client] packet : (0xFE) F_PLAY_VOICE_OVER  Size = 16 
|------------------------------------------------|----------------|
|00 01 02 03 04 05 06 07 08 09 0A 0B 0C 0D 0E 0F |0123456789ABCDEF|
|------------------------------------------------|----------------|
|00 04 14 A5 00 65 FF FF 00 FE 02 00 00 00 00 00 |.....e..........|                                                
-------------------------------------------------------------------
[Server] packet : (0x74) UNKNOWN  Size = 44 
|------------------------------------------------|----------------|
|00 01 02 03 04 05 06 07 08 09 0A 0B 0C 0D 0E 0F |0123456789ABCDEF|
|------------------------------------------------|----------------|
|00 29 74 01 01 00 00 00 04 02 00 00 02 00 03 00 |.)t.............|
|00 00 00 00 00 00 01 00 01 00 00 01 F4 00 00 00 |................|
|4E 02 00 01 00 00 01 F4 00 00 01 00             |............    |
-------------------------------------------------------------------
[Server] packet : (0x0A) F_OBJECT_DEATH  Size = 15 
|------------------------------------------------|----------------|
|00 01 02 03 04 05 06 07 08 09 0A 0B 0C 0D 0E 0F |0123456789ABCDEF|
|------------------------------------------------|----------------|
|00 0C 0A 19 B0 00 00 00 00 00 00 00 00 00 00    |............... |
-------------------------------------------------------------------
[Server] packet : (0xD7) F_INIT_EFFECTS  Size = 14 
|------------------------------------------------|----------------|
|00 01 02 03 04 05 06 07 08 09 0A 0B 0C 0D 0E 0F |0123456789ABCDEF|
|------------------------------------------------|----------------|
|00 0B D7 01 02 00 00 09 1B 21 00 54 60 00       |..............  |
-------------------------------------------------------------------
[Server] packet : (0xD7) F_INIT_EFFECTS  Size = 20 
|------------------------------------------------|----------------|
|00 01 02 03 04 05 06 07 08 09 0A 0B 0C 0D 0E 0F |0123456789ABCDEF|
|------------------------------------------------|----------------|
|00 11 D7 01 01 AF 32 09 1B 22 00 54 60 00 1B 09 |......2..".T`...|
|01 00 00 00                                     |....            |
-------------------------------------------------------------------
[Client] packet : (0x01) UNKNOWN  Size = 32 
|------------------------------------------------|----------------|
|00 01 02 03 04 05 06 07 08 09 0A 0B 0C 0D 0E 0F |0123456789ABCDEF|
|------------------------------------------------|----------------|
|00 14 14 A9 00 65 00 00 00 01 00 10 FF 3E 20 07 |.....e.......> .|
|2A 68 90 38 40 04 00 23 3B B0 08 18 CE 6B 00 00 |*h.8@..#;....k..|                                                
-------------------------------------------------------------------
[Server] packet : (0x00) UNKNOWN  Size = 23 
|------------------------------------------------|----------------|
|00 01 02 03 04 05 06 07 08 09 0A 0B 0C 0D 0E 0F |0123456789ABCDEF|
|------------------------------------------------|----------------|
|00 14 00 00 10 FF 3E 8E 29 3B CA 00 00 00 00 00 |......>.);......|
|23 3B B0 08 18 CE 00                            |.......         |
-------------------------------------------------------------------
[Server] packet : (0x44) F_ACTION_COUNTER_UPDATE  Size = 11 
|------------------------------------------------|----------------|
|00 01 02 03 04 05 06 07 08 09 0A 0B 0C 0D 0E 0F |0123456789ABCDEF|
|------------------------------------------------|----------------|
|00 08 44 01 63 00 00 00 83 3F 00                |...........     |
-------------------------------------------------------------------
[Client] packet : (0x0B) F_PING  Size = 32 
|------------------------------------------------|----------------|
|00 01 02 03 04 05 06 07 08 09 0A 0B 0C 0D 0E 0F |0123456789ABCDEF|
|------------------------------------------------|----------------|
|00 14 14 AC 00 65 00 00 00 0B 00 11 08 18 22 44 |.....e........"D|
|02 04 C6 61 17 A1 00 00 00 00 00 00 00 00 67 BC |...a..........g.|                                                
-------------------------------------------------------------------
[Server] packet : (0x81) S_PONG  Size = 23 
|------------------------------------------------|----------------|
|00 01 02 03 04 05 06 07 08 09 0A 0B 0C 0D 0E 0F |0123456789ABCDEF|
|------------------------------------------------|----------------|
|00 14 81 00 11 08 18 52 7A 06 9D 00 00 00 00 00 |.......Rz.......|
|00 14 AD 00 00 00 00                            |.......         |
-------------------------------------------------------------------
[Server] packet : (0xA9) F_UPDATE_HOT_SPOT  Size = 406 
|------------------------------------------------|----------------|
|00 01 02 03 04 05 06 07 08 09 0A 0B 0C 0D 0E 0F |0123456789ABCDEF|
|------------------------------------------------|----------------|
|01 93 A9 50 02 00 01 00 00 00 00 02 00 00 00 00 |...P............|
|03 00 00 00 00 04 00 00 00 00 05 00 00 00 00 06 |................|
|00 00 00 00 07 00 00 00 00 08 00 00 00 00 09 04 |................|
|00 00 00 0A 00 00 00 00 0B 00 00 00 00 1A 00 00 |................|
|00 00 1B 00 00 00 00 44 00 00 00 00 46 00 00 00 |.......D....F...|
|00 47 00 00 00 00 4A 00 00 00 00 4B 00 00 00 00 |.G....J....K....|
|58 00 00 00 00 64 00 00 00 00 65 00 00 00 00 66 |X....d....e....f|
|00 00 00 00 67 00 00 00 00 68 00 00 00 00 69 00 |....g....h....i.|
|00 00 00 6A 00 00 00 00 6B 00 00 00 00 6C 00 00 |...j....k....l..|
|00 00 6D 00 00 00 00 6E 00 00 00 00 75 00 00 00 |..m....n....u...|
|00 76 00 00 00 00 78 00 00 00 00 81 00 00 00 00 |.v....x.........|
|90 00 00 00 00 91 00 00 00 00 A1 00 00 00 00 A2 |................|
|00 00 00 00 AF 00 00 00 00 B2 00 00 00 00 BE 00 |................|
|00 00 00 BF 00 00 00 00 C0 00 00 00 00 C1 00 00 |................|
|00 00 C6 00 00 00 00 C8 00 00 00 00 C9 00 00 00 |................|
|00 CA 00 00 00 00 CB 00 00 00 00 CC 00 00 00 00 |................|
|CD 00 00 00 00 CE 00 00 00 00 CF 00 00 00 00 D0 |................|
|00 00 00 00 D1 00 00 00 00 D2 00 00 00 00 D3 00 |................|
|00 00 00 D5 00 00 00 00 D7 00 00 00 00 D8 00 00 |................|
|00 00 D9 00 00 00 00 DC 00 00 00 00 DD 00 00 00 |................|
|00 DE 00 00 00 00 E3 00 00 00 00 E4 00 00 00 00 |................|
|FA 00 00 00 00 FB 00 00 00 00 FC 00 00 00 00 FD |................|
|00 00 00 01 15 00 00 00 01 16 00 00 00 01 18 00 |................|
|00 00 01 1B 00 00 00 01 1C 00 00 00 01 1D 00 00 |................|
|00 01 1F 00 00 00 01 22 00 00 00 01 23 00 00 00 |......."....#...|
|01 24 00 00 00 00                               |......          |
-------------------------------------------------------------------
[Client] packet : (0x16) F_REQUEST_INIT_OBJECT  Size = 16 
|------------------------------------------------|----------------|
|00 01 02 03 04 05 06 07 08 09 0A 0B 0C 0D 0E 0F |0123456789ABCDEF|
|------------------------------------------------|----------------|
|00 04 14 AE 00 65 00 00 00 16 16 74 00 00 00 00 |.....e.....t....|                                                
-------------------------------------------------------------------
[Server] packet : (0x72) F_CREATE_MONSTER  Size = 121 
|------------------------------------------------|----------------|
|00 01 02 03 04 05 06 07 08 09 0A 0B 0C 0D 0E 0F |0123456789ABCDEF|
|------------------------------------------------|----------------|
|00 76 72 16 74 00 00 05 A4 3F E2 00 15 D2 49 00 |.vr.t....?....I.|
|0E EC 69 00 00 07 99 32 2C 80 00 00 00 00 00 00 |..i....2,.......|
|00 01 00 00 00 00 00 00 00 00 00 00 00 00 00 01 |................|
|19 00 42 6C 61 63 6B 2D 46 65 61 74 68 65 72 65 |..Black-Feathere|
|64 20 54 7A 65 65 6E 74 63 68 20 46 61 6D 69 6C |d Tzeentch Famil|
|69 61 72 5E 4E 00 00 00 00 03 01 0A 00 1B 0A 12 |iar^N...........|
|05 00 16 74 52 49 6C 69 3F E2 64 40 6E 10 00 00 |...tRIli?.d@n...|
|00 03 A4 05 16 74 00 00 00                      |.........       |
-------------------------------------------------------------------
[Server] packet : (0x95) UNKNOWN  Size = 10 
|------------------------------------------------|----------------|
|00 01 02 03 04 05 06 07 08 09 0A 0B 0C 0D 0E 0F |0123456789ABCDEF|
|------------------------------------------------|----------------|
|00 07 95 09 0A 1B 00 00 29 00                   |..........      |
-------------------------------------------------------------------
[Client] packet : (0x7D) F_REQUEST_INIT_PLAYER  Size = 14 
|------------------------------------------------|----------------|
|00 01 02 03 04 05 06 07 08 09 0A 0B 0C 0D 0E 0F |0123456789ABCDEF|
|------------------------------------------------|----------------|
|00 02 14 B2 00 65 00 00 00 7D 00 09 20 8C       |..............  |
-------------------------------------------------------------------
[Server] packet : (0x0A) F_OBJECT_DEATH  Size = 15 
|------------------------------------------------|----------------|
|00 01 02 03 04 05 06 07 08 09 0A 0B 0C 0D 0E 0F |0123456789ABCDEF|
|------------------------------------------------|----------------|
|00 0C 0A 16 74 00 00 00 00 00 00 00 00 00 00    |............... |
-------------------------------------------------------------------
[Server] packet : (0xE3) F_CREATE_PLAYER  Size = 96 
|------------------------------------------------|----------------|
|00 01 02 03 04 05 06 07 08 09 0A 0B 0C 0D 0E 0F |0123456789ABCDEF|
|------------------------------------------------|----------------|
|00 5D E3 00 09 1B 0A 00 0B 00 17 3F E2 00 6E 52 |.].........?..nR|
|49 6C 69 05 A2 28 29 00 08 29 3C 05 08 00 09 08 |Ili..()..)<.....|
|06 03 00 00 00 00 00 00 00 00 00 00 00 00 00 05 |................|
|01 5D 64 00 00 0E E6 00 00 00 00 09 4D 61 6C 69 |.]d.........Mali|
|6E 7A 61 5E 46 06 54 65 61 72 5E 4D 0F 47 75 61 |nza^F.Tear^M.Gua|
|72 64 73 20 6F 66 20 6E 69 67 68 74 00 00 00 00 |rds of night....|                                                
-------------------------------------------------------------------
[Server] packet : (0xDE) F_OBJECT_EFFECT_STATE  Size = 9 
|------------------------------------------------|----------------|
|00 01 02 03 04 05 06 07 08 09 0A 0B 0C 0D 0E 0F |0123456789ABCDEF|
|------------------------------------------------|----------------|
|00 06 DE 1B 0A 01 0C 01 00                      |.........       |
-------------------------------------------------------------------
[Server] packet : (0xA3) F_ACTIVE_EFFECTS  Size = 18 
|------------------------------------------------|----------------|
|00 01 02 03 04 05 06 07 08 09 0A 0B 0C 0D 0E 0F |0123456789ABCDEF|
|------------------------------------------------|----------------|
|00 0F A3 1B 0A 01 8B 61 0A 1B 01 00 03 01 92 92 |.......a........|
|E9 00                                           |..              |
-------------------------------------------------------------------
[Server] packet : (0x0A) F_OBJECT_DEATH  Size = 15 
|------------------------------------------------|----------------|
|00 01 02 03 04 05 06 07 08 09 0A 0B 0C 0D 0E 0F |0123456789ABCDEF|
|------------------------------------------------|----------------|
|00 0C 0A 09 6F 01 01 24 3F 00 00 00 00 0B 00    |............... |
-------------------------------------------------------------------
[Server] packet : (0x5E) F_SET_TARGET  Size = 9 
|------------------------------------------------|----------------|
|00 01 02 03 04 05 06 07 08 09 0A 0B 0C 0D 0E 0F |0123456789ABCDEF|
|------------------------------------------------|----------------|
|00 06 5E 00 00 1B 0A 06 00                      |.........       |
-------------------------------------------------------------------
[Client] packet : (0x16) F_REQUEST_INIT_OBJECT  Size = 16 
|------------------------------------------------|----------------|
|00 01 02 03 04 05 06 07 08 09 0A 0B 0C 0D 0E 0F |0123456789ABCDEF|
|------------------------------------------------|----------------|
|00 04 14 BE 00 65 00 00 00 16 2C 34 00 00 4A 00 |.....e....,4..J.|                                                
-------------------------------------------------------------------
[Server] packet : (0xCC) F_CITY_CAPTURE  Size = 19 
|------------------------------------------------|----------------|
|00 01 02 03 04 05 06 07 08 09 0A 0B 0C 0D 0E 0F |0123456789ABCDEF|
|------------------------------------------------|----------------|
|00 10 CC 73 00 00 00 03 00 00 00 01 00 03 00 01 |...s............|
|01 00 00                                        |...             |
-------------------------------------------------------------------
[Server] packet : (0xCC) F_CITY_CAPTURE  Size = 19 
|------------------------------------------------|----------------|
|00 01 02 03 04 05 06 07 08 09 0A 0B 0C 0D 0E 0F |0123456789ABCDEF|
|------------------------------------------------|----------------|
|00 10 CC 75 00 00 00 00 00 00 00 18 0D 00 00 00 |...u............|
|00 00 00                                        |...             |
-------------------------------------------------------------------
[Server] packet : (0x72) F_CREATE_MONSTER  Size = 121 
|------------------------------------------------|----------------|
|00 01 02 03 04 05 06 07 08 09 0A 0B 0C 0D 0E 0F |0123456789ABCDEF|
|------------------------------------------------|----------------|
|00 76 72 2C 34 00 00 05 A4 3F E2 00 15 D2 49 00 |.vr,4....?....I.|
|0E EC 69 00 00 07 99 32 28 80 00 00 00 00 00 00 |..i....2(.......|
|00 01 00 00 00 00 00 00 00 00 00 00 00 00 00 01 |................|
|19 00 42 6C 61 63 6B 2D 46 65 61 74 68 65 72 65 |..Black-Feathere|
|64 20 54 7A 65 65 6E 74 63 68 20 46 61 6D 69 6C |d Tzeentch Famil|
|69 61 72 5E 4E 00 00 00 00 03 01 0A 00 21 71 12 |iar^N........!q.|
|05 00 2C 34 52 49 6C 69 3F E2 64 40 6E 10 00 00 |..,4RIli?.d@n...|
|00 03 A4 05 2C 34 00 00 00                      |.........       |
-------------------------------------------------------------------
[Server] packet : (0x95) UNKNOWN  Size = 10 
|------------------------------------------------|----------------|
|00 01 02 03 04 05 06 07 08 09 0A 0B 0C 0D 0E 0F |0123456789ABCDEF|
|------------------------------------------------|----------------|
|00 07 95 09 71 21 00 00 29 00                   |..........      |
-------------------------------------------------------------------
[Client] packet : (0x0B) F_PING  Size = 32 
|------------------------------------------------|----------------|
|00 01 02 03 04 05 06 07 08 09 0A 0B 0C 0D 0E 0F |0123456789ABCDEF|
|------------------------------------------------|----------------|
|00 14 14 C0 00 65 00 00 00 0B 00 11 1B A4 15 84 |.....e..........|
|C4 46 22 C0 39 05 00 00 00 00 00 00 00 00 67 BC |.F".9.........g.|                                                
-------------------------------------------------------------------
[Server] packet : (0x0A) F_OBJECT_DEATH  Size = 15 
|------------------------------------------------|----------------|
|00 01 02 03 04 05 06 07 08 09 0A 0B 0C 0D 0E 0F |0123456789ABCDEF|
|------------------------------------------------|----------------|
|00 0C 0A 2C 34 00 00 00 00 00 00 00 00 00 00    |............... |
-------------------------------------------------------------------
[Server] packet : (0x81) S_PONG  Size = 23 
|------------------------------------------------|----------------|
|00 01 02 03 04 05 06 07 08 09 0A 0B 0C 0D 0E 0F |0123456789ABCDEF|
|------------------------------------------------|----------------|
|00 14 81 00 11 1B A4 52 7A 06 A2 00 00 00 00 00 |.......Rz.......|
|00 14 C1 00 00 00 00                            |.......         |
-------------------------------------------------------------------
[Client] packet : (0x7D) F_REQUEST_INIT_PLAYER  Size = 14 
|------------------------------------------------|----------------|
|00 01 02 03 04 05 06 07 08 09 0A 0B 0C 0D 0E 0F |0123456789ABCDEF|
|------------------------------------------------|----------------|
|00 02 14 C3 00 65 00 00 00 7D 00 46 20 8C       |..............  |
-------------------------------------------------------------------
[Server] packet : (0xE3) F_CREATE_PLAYER  Size = 79 
|------------------------------------------------|----------------|
|00 01 02 03 04 05 06 07 08 09 0A 0B 0C 0D 0E 0F |0123456789ABCDEF|
|------------------------------------------------|----------------|
|00 4C E3 00 46 21 71 00 18 00 0D 3F E2 00 6E 52 |.L..F!q....?..nR|
|49 6C 69 05 A2 28 29 01 08 2A 98 0E 06 0B 07 06 |Ili..()..*......|
|01 01 00 00 00 00 00 00 00 00 00 00 00 03 70 07 |..............p.|
|00 5F 64 00 00 00 00 00 00 00 00 0B 4B 6F 6C 62 |._d.........Kolb|
|61 73 74 6F 72 5E 4D 02 5E 4D 00 00 00 00 00    |............... |
-------------------------------------------------------------------
[Server] packet : (0xDE) F_OBJECT_EFFECT_STATE  Size = 9 
|------------------------------------------------|----------------|
|00 01 02 03 04 05 06 07 08 09 0A 0B 0C 0D 0E 0F |0123456789ABCDEF|
|------------------------------------------------|----------------|
|00 06 DE 21 71 01 0C 01 00                      |.........       |
-------------------------------------------------------------------
[Server] packet : (0xA3) F_ACTIVE_EFFECTS  Size = 30 
|------------------------------------------------|----------------|
|00 01 02 03 04 05 06 07 08 09 0A 0B 0C 0D 0E 0F |0123456789ABCDEF|
|------------------------------------------------|----------------|
|00 1B A3 21 71 02 8B 61 71 21 01 00 03 01 8A 92 |...!q..aq!......|
|E9 01 81 20 71 21 01 03 03 06 8A 92 E9 00       |..............  |
-------------------------------------------------------------------
[Server] packet : (0xDE) F_OBJECT_EFFECT_STATE  Size = 9 
|------------------------------------------------|----------------|
|00 01 02 03 04 05 06 07 08 09 0A 0B 0C 0D 0E 0F |0123456789ABCDEF|
|------------------------------------------------|----------------|
|00 06 DE 1B 0A 01 0C 00 00                      |.........       |
-------------------------------------------------------------------
[Server] packet : (0x5E) F_SET_TARGET  Size = 9 
|------------------------------------------------|----------------|
|00 01 02 03 04 05 06 07 08 09 0A 0B 0C 0D 0E 0F |0123456789ABCDEF|
|------------------------------------------------|----------------|
|00 06 5E 00 00 21 71 06 00                      |.........       |
-------------------------------------------------------------------
[Client] packet : (0x5A) F_PING_DATAGRAM  Size = 13 
|------------------------------------------------|----------------|
|00 01 02 03 04 05 06 07 08 09 0A 0B 0C 0D 0E 0F |0123456789ABCDEF|
|------------------------------------------------|----------------|
|00 01 14 CF 00 65 FF FF 00 5A 00 97 7F          |.............   |
-------------------------------------------------------------------
[Server] packet : (0x5E) F_SET_TARGET  Size = 9 
|------------------------------------------------|----------------|
|00 01 02 03 04 05 06 07 08 09 0A 0B 0C 0D 0E 0F |0123456789ABCDEF|
|------------------------------------------------|----------------|
|00 06 5E 2E 7B 1B 0A 02 00                      |.........       |
-------------------------------------------------------------------
[Client] packet : (0x01) UNKNOWN  Size = 32 
|------------------------------------------------|----------------|
|00 01 02 03 04 05 06 07 08 09 0A 0B 0C 0D 0E 0F |0123456789ABCDEF|
|------------------------------------------------|----------------|
|00 14 14 D1 00 65 00 00 00 01 00 11 27 85 00 00 |.....e......'...|
|00 00 00 00 00 00 00 00 04 04 00 00 2B 81 00 00 |............+...|                                                
-------------------------------------------------------------------
[Server] packet : (0x00) UNKNOWN  Size = 23 
|------------------------------------------------|----------------|
|00 01 02 03 04 05 06 07 08 09 0A 0B 0C 0D 0E 0F |0123456789ABCDEF|
|------------------------------------------------|----------------|
|00 14 00 00 11 27 85 8E 29 63 FD 00 00 00 00 00 |.....'..)c......|
|00 04 04 00 00 2B 00                            |.......         |
-------------------------------------------------------------------
[Server] packet : (0xDE) F_OBJECT_EFFECT_STATE  Size = 9 
|------------------------------------------------|----------------|
|00 01 02 03 04 05 06 07 08 09 0A 0B 0C 0D 0E 0F |0123456789ABCDEF|
|------------------------------------------------|----------------|
|00 06 DE 21 71 01 0C 00 00                      |.........       |
-------------------------------------------------------------------
[Client] packet : (0x0B) F_PING  Size = 32 
|------------------------------------------------|----------------|
|00 01 02 03 04 05 06 07 08 09 0A 0B 0C 0D 0E 0F |0123456789ABCDEF|
|------------------------------------------------|----------------|
|00 14 14 D4 00 65 00 00 00 0B 00 11 2F 2D D7 C0 |.....e....../-..|
|40 17 6D 07 06 A0 00 00 00 00 00 00 00 00 67 BC |@.m...........g.|                                                
-------------------------------------------------------------------
[Server] packet : (0x81) S_PONG  Size = 23 
|------------------------------------------------|----------------|
|00 01 02 03 04 05 06 07 08 09 0A 0B 0C 0D 0E 0F |0123456789ABCDEF|
|------------------------------------------------|----------------|
|00 14 81 00 11 2F 2D 52 7A 06 A7 00 00 00 00 00 |...../-Rz.......|
|00 14 D5 00 00 00 00                            |.......         |
-------------------------------------------------------------------