
[Client] packet : (0x5A) F_PING_DATAGRAM  Size = 13 
|------------------------------------------------|----------------|
|00 01 02 03 04 05 06 07 08 09 0A 0B 0C 0D 0E 0F |0123456789ABCDEF|
|------------------------------------------------|----------------|
|00 01 70 0A 00 1E FF FF 00 5A 00 7B 40          |.............   |
-------------------------------------------------------------------
[Server] packet : (0xDA) F_USE_ABILITY  Size = 23 
|------------------------------------------------|----------------|
|00 01 02 03 04 05 06 07 08 09 0A 0B 0C 0D 0E 0F |0123456789ABCDEF|
|------------------------------------------------|----------------|
|00 14 DA 00 00 01 19 01 19 00 00 18 54 02 00 00 |............T...|
|00 00 00 00 00 00 00                            |.......         |
-------------------------------------------------------------------
[Server] packet : (0x0A) F_OBJECT_DEATH  Size = 15 
|------------------------------------------------|----------------|
|00 01 02 03 04 05 06 07 08 09 0A 0B 0C 0D 0E 0F |0123456789ABCDEF|
|------------------------------------------------|----------------|
|00 0C 0A 22 B9 00 00 00 00 00 00 00 00 00 00    |............... |
-------------------------------------------------------------------
[Client] packet : (0xD2) F_INTERACT  Size = 24 
|------------------------------------------------|----------------|
|00 01 02 03 04 05 06 07 08 09 0A 0B 0C 0D 0E 0F |0123456789ABCDEF|
|------------------------------------------------|----------------|
|00 0C 70 0E 00 1E 00 00 00 D2 00 00 03 1C 00 00 |..p.............|
|00 00 00 00 00 00 00 00                         |........        |
-------------------------------------------------------------------
[Server] packet : (0x7E) F_SET_ABILITY_TIMER  Size = 15 
|------------------------------------------------|----------------|
|00 01 02 03 04 05 06 07 08 09 0A 0B 0C 0D 0E 0F |0123456789ABCDEF|
|------------------------------------------------|----------------|
|00 0C 7E 00 01 01 00 00 00 00 00 00 00 00 00    |............... |
-------------------------------------------------------------------
[Server] packet : (0xE9) F_INTERACT_RESPONSE  Size = 11 
|------------------------------------------------|----------------|
|00 01 02 03 04 05 06 07 08 09 0A 0B 0C 0D 0E 0F |0123456789ABCDEF|
|------------------------------------------------|----------------|
|00 08 E9 00 03 1C 00 00 00 02 00                |...........     |
-------------------------------------------------------------------
[Client] packet : (0xD2) F_INTERACT  Size = 24 
|------------------------------------------------|----------------|
|00 01 02 03 04 05 06 07 08 09 0A 0B 0C 0D 0E 0F |0123456789ABCDEF|
|------------------------------------------------|----------------|
|00 0C 70 10 00 1E 00 00 00 D2 00 00 03 1C 00 09 |..p.............|
|00 00 00 00 00 00 9A D3                         |........        |
-------------------------------------------------------------------
[Server] packet : (0xBF) F_INIT_STORE  Size = 783 
|------------------------------------------------|----------------|
|00 01 02 03 04 05 06 07 08 09 0A 0B 0C 0D 0E 0F |0123456789ABCDEF|
|------------------------------------------------|----------------|
|03 0C BF 00 00 00 04 01 01 00 00 00 03 00 00 00 |................|
|00 00 00 03 44 2C 25 86 00 00 00 00 00 00 00 00 |....D,%.........|
|00 00 00 00 00 00 00 03 00 00 00 00 00 00 00 00 |................|
|00 00 00 00 00 00 00 01 00 01 00 00 00 00 00 00 |................|
|00 00 00 00 00 00 1A 52 65 64 20 47 61 72 62 65 |.......Red Garbe|
|64 20 53 6E 6F 74 6C 69 6E 67 20 48 65 72 61 6C |d Snotling Heral|
|64 00 00 01 00 00 6F F4 00 00 00 00 00 00 00 00 |d.....o.........|
|01 01 00 00 03 06 20 08 00 00 00 00 00 00 00 00 |...... .........|
|00 00 00 00 00 00 00 00 00 00 00 01 00 03 25 2A |..............%*|
|01 B5 23 53 6E 6F 74 6C 69 6E 67 20 48 65 72 61 |..#Snotling Hera|
|6C 64 20 50 65 74 20 41 64 6F 70 74 69 6F 6E 20 |ld Pet Adoption |
|50 61 70 65 72 73 00 01 00 00 00 00 00 00 00 00 |Papers..........|
|00 00 00 00 00 00 00 00 00 00 01 03 00 00 00 00 |................|
|00 00 03 44 2D 25 86 00 00 00 00 00 00 00 00 00 |...D-%..........|
|00 00 00 00 00 00 03 00 00 00 00 00 00 00 00 00 |................|
|00 00 00 00 00 00 01 00 01 00 00 00 00 00 00 00 |................|
|00 00 00 00 00 1D 59 65 6C 6C 6F 77 20 47 61 72 |......Yellow Gar|
|62 65 64 20 53 6E 6F 74 6C 69 6E 67 20 48 65 72 |bed Snotling Her|
|61 6C 64 00 00 01 00 00 6F F5 00 00 00 00 00 00 |ald.....o.......|
|00 00 01 01 00 00 03 06 20 08 00 00 00 00 00 00 |........ .......|
|00 00 00 00 00 00 00 00 00 00 00 00 00 01 00 03 |................|
|25 2A 01 B5 23 53 6E 6F 74 6C 69 6E 67 20 48 65 |%*..#Snotling He|
|72 61 6C 64 20 50 65 74 20 41 64 6F 70 74 69 6F |rald Pet Adoptio|
|6E 20 50 61 70 65 72 73 00 01 00 00 00 00 00 00 |n Papers........|
|00 00 00 00 00 00 00 00 00 00 00 00 02 03 00 00 |................|
|00 00 00 00 03 44 2E 25 86 00 00 00 00 00 00 00 |.....D.%........|
|00 00 00 00 00 00 00 00 03 00 00 00 00 00 00 00 |................|
|00 00 00 00 00 00 00 00 01 00 01 00 00 00 00 00 |................|
|00 00 00 00 00 00 00 1D 4F 72 61 6E 67 65 20 47 |........Orange G|
|61 72 62 65 64 20 53 6E 6F 74 6C 69 6E 67 20 48 |arbed Snotling H|
|65 72 61 6C 64 00 00 01 00 00 6F F6 00 00 00 00 |erald.....o.....|
|00 00 00 00 01 01 00 00 03 06 20 08 00 00 00 00 |.......... .....|
|00 00 00 00 00 00 00 00 00 00 00 00 00 00 00 01 |................|
|00 03 25 2A 01 B5 23 53 6E 6F 74 6C 69 6E 67 20 |..%*..#Snotling |
|48 65 72 61 6C 64 20 50 65 74 20 41 64 6F 70 74 |Herald Pet Adopt|
|69 6F 6E 20 50 61 70 65 72 73 00 01 00 00 00 00 |ion Papers......|
|00 00 00 00 00 00 00 00 00 00 00 00 00 00 03 03 |................|
|00 00 00 00 00 00 03 44 2F 25 86 00 00 00 00 00 |.......D/%......|
|00 00 00 00 00 00 00 00 00 00 03 00 00 00 00 00 |................|
|00 00 00 00 00 00 00 00 00 00 01 00 01 00 00 00 |................|
|00 00 00 00 00 00 00 00 00 1B 42 6C 75 65 20 47 |..........Blue G|
|61 72 62 65 64 20 53 6E 6F 74 6C 69 6E 67 20 48 |arbed Snotling H|
|65 72 61 6C 64 00 00 01 00 00 6F F7 00 00 00 00 |erald.....o.....|
|00 00 00 00 01 01 00 00 03 06 20 08 00 00 00 00 |.......... .....|
|00 00 00 00 00 00 00 00 00 00 00 00 00 00 00 01 |................|
|00 03 25 2A 01 B5 23 53 6E 6F 74 6C 69 6E 67 20 |..%*..#Snotling |
|48 65 72 61 6C 64 20 50 65 74 20 41 64 6F 70 74 |Herald Pet Adopt|
|69 6F 6E 20 50 61 70 65 72 73 00 01 00 00 00 00 |ion Papers......|
|00 00 00 00 00 00 00 00 00 00 00 00 00 00 00    |............... |
-------------------------------------------------------------------
[Server] packet : (0xC0) F_STORE_BUY_BACK  Size = 5 
|------------------------------------------------|----------------|
|00 01 02 03 04 05 06 07 08 09 0A 0B 0C 0D 0E 0F |0123456789ABCDEF|
|------------------------------------------------|----------------|
|00 02 C0 00 00                                  |.....           |
-------------------------------------------------------------------
[Server] packet : (0xDA) F_USE_ABILITY  Size = 23 
|------------------------------------------------|----------------|
|00 01 02 03 04 05 06 07 08 09 0A 0B 0C 0D 0E 0F |0123456789ABCDEF|
|------------------------------------------------|----------------|
|00 14 DA 00 00 18 54 18 54 00 00 01 19 02 00 00 |......T.T.......|
|00 00 00 00 00 00 00                            |.......         |
-------------------------------------------------------------------
[Client] packet : (0x0B) F_PING  Size = 32 
|------------------------------------------------|----------------|
|00 01 02 03 04 05 06 07 08 09 0A 0B 0C 0D 0E 0F |0123456789ABCDEF|
|------------------------------------------------|----------------|
|00 14 70 12 00 1E 00 00 00 0B 00 75 4F 59 DF 30 |..p........uOY.0|
|15 81 2B C6 8A FB 00 00 00 00 00 00 00 00 FE 14 |..+.............|                                                
-------------------------------------------------------------------
[Server] packet : (0x81) S_PONG  Size = 23 
|------------------------------------------------|----------------|
|00 01 02 03 04 05 06 07 08 09 0A 0B 0C 0D 0E 0F |0123456789ABCDEF|
|------------------------------------------------|----------------|
|00 14 81 00 75 4F 59 52 74 B9 E6 00 00 00 00 00 |....uOYRt.......|
|00 70 13 00 00 00 00                            |.......         |
-------------------------------------------------------------------
[Server] packet : (0xDA) F_USE_ABILITY  Size = 23 
|------------------------------------------------|----------------|
|00 01 02 03 04 05 06 07 08 09 0A 0B 0C 0D 0E 0F |0123456789ABCDEF|
|------------------------------------------------|----------------|
|00 14 DA 00 00 01 19 01 19 00 00 18 54 02 00 00 |............T...|
|05 00 00 00 00 00 00                            |.......         |
-------------------------------------------------------------------
[Client] packet : (0x16) F_REQUEST_INIT_OBJECT  Size = 16 
|------------------------------------------------|----------------|
|00 01 02 03 04 05 06 07 08 09 0A 0B 0C 0D 0E 0F |0123456789ABCDEF|
|------------------------------------------------|----------------|
|00 04 70 15 00 1E 00 00 00 16 28 53 00 00 ED 80 |..p.......(S....|                                                
-------------------------------------------------------------------
[Server] packet : (0x72) F_CREATE_MONSTER  Size = 140 
|------------------------------------------------|----------------|
|00 01 02 03 04 05 06 07 08 09 0A 0B 0C 0D 0E 0F |0123456789ABCDEF|
|------------------------------------------------|----------------|
|00 89 72 28 53 01 13 05 1D 24 C6 00 0D 2B 1C 00 |..r(S....$...+..|
|0C B4 41 00 00 05 37 34 02 58 00 00 00 00 00 00 |..A...74.X......|
|00 04 00 03 E8 00 00 00 01 4E 29 00 00 00 00 01 |.........N).....|
|19 00 44 77 61 72 66 65 6E 20 47 79 72 6F 63 6F |..Dwarfen Gyroco|
|70 74 65 72 5E 6D 00 00 B4 01 0A 00 00 00 00 00 |pter^m..........|
|00 00 1A 1D 00 28 53 AB 1C 34 41 24 C6 64 01 64 |.....(S..4A$.d.d|
|00 00 00 00 00 13 01 00 68 AA ED 33 C6 24 64 28 |........h..3.$d(|
|53 00 06 00 14 08 13 00 15 07 D3 00 16 07 D2 00 |S...............|
|17 09 E6 00 18 07 D4 00 1C 07 D0 00             |............    |
-------------------------------------------------------------------
[Client] packet : (0x16) F_REQUEST_INIT_OBJECT  Size = 16 
|------------------------------------------------|----------------|
|00 01 02 03 04 05 06 07 08 09 0A 0B 0C 0D 0E 0F |0123456789ABCDEF|
|------------------------------------------------|----------------|
|00 04 70 19 00 1E 00 00 00 16 32 41 00 00 6E A6 |..p.......2A..n.|                                                
-------------------------------------------------------------------
[Server] packet : (0x72) F_CREATE_MONSTER  Size = 136 
|------------------------------------------------|----------------|
|00 01 02 03 04 05 06 07 08 09 0A 0B 0C 0D 0E 0F |0123456789ABCDEF|
|------------------------------------------------|----------------|
|00 85 72 32 41 00 00 04 CC 19 D1 00 0D 1E C9 00 |..r2A...........|
|0C CD D4 00 00 04 C2 32 02 41 00 00 00 00 08 00 |.......2.A......|
|00 00 00 03 E8 00 00 00 00 36 EC 00 04 00 00 01 |.........6......|
|19 00 54 68 6F 72 73 68 61 66 6E 20 4D 69 6C 69 |..Thorshafn Mili|
|74 69 61 6D 61 6E 5E 6D 00 01 0A 00 00 00 12 25 |tiaman^m.......%|
|00 32 41 9E C9 4D D4 19 D1 64 00 64 00 00 00 00 |.2A..M...d.d....|
|00 CC 04 32 41 01 08 00 0A 05 2D 00 0C 05 6A 00 |...2A.....-...j.|
|14 09 BE 00 15 09 C2 00 16 09 BD 00 18 09 C0 00 |................|
|19 09 C1 00 1C 09 BF 00                         |........        |
-------------------------------------------------------------------
[Server] packet : (0xDA) F_USE_ABILITY  Size = 23 
|------------------------------------------------|----------------|
|00 01 02 03 04 05 06 07 08 09 0A 0B 0C 0D 0E 0F |0123456789ABCDEF|
|------------------------------------------------|----------------|
|00 14 DA 00 00 01 19 01 19 00 00 18 54 02 00 00 |............T...|
|05 00 00 00 00 00 00                            |.......         |
-------------------------------------------------------------------
[Server] packet : (0x0A) F_OBJECT_DEATH  Size = 15 
|------------------------------------------------|----------------|
|00 01 02 03 04 05 06 07 08 09 0A 0B 0C 0D 0E 0F |0123456789ABCDEF|
|------------------------------------------------|----------------|
|00 0C 0A 1F 95 00 00 00 00 00 00 00 00 00 00    |............... |
-------------------------------------------------------------------
[Client] packet : (0x16) F_REQUEST_INIT_OBJECT  Size = 16 
|------------------------------------------------|----------------|
|00 01 02 03 04 05 06 07 08 09 0A 0B 0C 0D 0E 0F |0123456789ABCDEF|
|------------------------------------------------|----------------|
|00 04 70 1D 00 1E 00 00 00 16 21 1A 00 00 70 A6 |..p.......!...p.|                                                
-------------------------------------------------------------------
[Server] packet : (0x72) F_CREATE_MONSTER  Size = 107 
|------------------------------------------------|----------------|
|00 01 02 03 04 05 06 07 08 09 0A 0B 0C 0D 0E 0F |0123456789ABCDEF|
|------------------------------------------------|----------------|
|00 68 72 21 1A 00 EB 0D A6 1F 20 00 0C F1 3B 00 |.hr!...... ...;.|
|0C AA 35 FF C6 04 48 32 02 80 00 00 00 00 00 00 |..5...H2........|
|00 01 00 03 E8 00 00 00 00 37 FD 00 03 00 00 01 |.........7......|
|19 00 50 69 6E 6B 20 48 6F 72 72 6F 72 5E 6D 00 |..Pink Horror^m.|
|00 00 00 08 01 0A 00 00 00 1A 05 00 21 1A 71 3B |............!.q;|
|2A 35 1F 20 64 01 64 00 00 00 00 08 EB 00 8E 9B |*5. d.d.........|
|76 46 2E DC 1D 64 21 1A 00 00 00                |...........     |
-------------------------------------------------------------------
[Server] packet : (0xDA) F_USE_ABILITY  Size = 23 
|------------------------------------------------|----------------|
|00 01 02 03 04 05 06 07 08 09 0A 0B 0C 0D 0E 0F |0123456789ABCDEF|
|------------------------------------------------|----------------|
|00 14 DA 00 00 18 54 18 54 00 00 01 19 02 00 00 |......T.T.......|
|09 00 00 00 00 00 00                            |.......         |
-------------------------------------------------------------------
[Server] packet : (0xDA) F_USE_ABILITY  Size = 23 
|------------------------------------------------|----------------|
|00 01 02 03 04 05 06 07 08 09 0A 0B 0C 0D 0E 0F |0123456789ABCDEF|
|------------------------------------------------|----------------|
|00 14 DA 00 00 01 19 01 19 00 00 18 54 02 00 00 |............T...|
|00 00 00 00 00 00 00                            |.......         |
-------------------------------------------------------------------
[Client] packet : (0x0B) F_PING  Size = 32 
|------------------------------------------------|----------------|
|00 01 02 03 04 05 06 07 08 09 0A 0B 0C 0D 0E 0F |0123456789ABCDEF|
|------------------------------------------------|----------------|
|00 14 70 20 00 1E 00 00 00 0B 00 75 62 E6 83 BF |..p .......ub...|
|B9 F7 0F F9 EF 5A 00 00 00 00 00 00 00 00 FE 14 |.....Z..........|                                                
-------------------------------------------------------------------
[Server] packet : (0x81) S_PONG  Size = 23 
|------------------------------------------------|----------------|
|00 01 02 03 04 05 06 07 08 09 0A 0B 0C 0D 0E 0F |0123456789ABCDEF|
|------------------------------------------------|----------------|
|00 14 81 00 75 62 E6 52 74 B9 EB 00 00 00 00 00 |....ub.Rt.......|
|00 70 21 00 00 00 00                            |.......         |
-------------------------------------------------------------------
[Server] packet : (0xDA) F_USE_ABILITY  Size = 23 
|------------------------------------------------|----------------|
|00 01 02 03 04 05 06 07 08 09 0A 0B 0C 0D 0E 0F |0123456789ABCDEF|
|------------------------------------------------|----------------|
|00 14 DA 00 00 01 19 01 19 00 00 18 54 02 00 00 |............T...|
|00 00 00 00 00 00 00                            |.......         |
-------------------------------------------------------------------
[Client] packet : (0x01) UNKNOWN  Size = 32 
|------------------------------------------------|----------------|
|00 01 02 03 04 05 06 07 08 09 0A 0B 0C 0D 0E 0F |0123456789ABCDEF|
|------------------------------------------------|----------------|
|00 14 70 25 00 1E 00 00 00 01 00 75 64 C4 00 00 |..p%.......ud...|
|00 00 00 00 00 00 00 00 40 0D 00 00 01 20 00 00 |........@.... ..|                                                
-------------------------------------------------------------------
[Server] packet : (0x00) UNKNOWN  Size = 23 
|------------------------------------------------|----------------|
|00 01 02 03 04 05 06 07 08 09 0A 0B 0C 0D 0E 0F |0123456789ABCDEF|
|------------------------------------------------|----------------|
|00 14 00 00 75 64 C4 79 75 BB 81 00 00 00 00 00 |....ud.yu.......|
|00 40 0D 00 00 01 00                            |.......         |
-------------------------------------------------------------------
[Server] packet : (0xDA) F_USE_ABILITY  Size = 23 
|------------------------------------------------|----------------|
|00 01 02 03 04 05 06 07 08 09 0A 0B 0C 0D 0E 0F |0123456789ABCDEF|
|------------------------------------------------|----------------|
|00 14 DA 00 00 18 54 18 54 00 00 01 19 02 00 00 |......T.T.......|
|09 00 00 00 00 00 00                            |.......         |
-------------------------------------------------------------------
[Client] packet : (0xFE) F_PLAY_VOICE_OVER  Size = 16 
|------------------------------------------------|----------------|
|00 01 02 03 04 05 06 07 08 09 0A 0B 0C 0D 0E 0F |0123456789ABCDEF|
|------------------------------------------------|----------------|
|00 04 70 29 00 1E FF FF 00 FE 02 00 00 00 47 91 |..p)..........G.|                                                
-------------------------------------------------------------------
[Server] packet : (0x74) UNKNOWN  Size = 44 
|------------------------------------------------|----------------|
|00 01 02 03 04 05 06 07 08 09 0A 0B 0C 0D 0E 0F |0123456789ABCDEF|
|------------------------------------------------|----------------|
|00 29 74 01 01 00 00 00 04 02 00 00 02 00 03 00 |.)t.............|
|00 00 00 00 00 00 01 00 01 00 00 01 F4 00 00 01 |................|
|0B 02 00 01 00 00 01 F4 00 00 01 00             |............    |
-------------------------------------------------------------------
[Server] packet : (0xDA) F_USE_ABILITY  Size = 23 
|------------------------------------------------|----------------|
|00 01 02 03 04 05 06 07 08 09 0A 0B 0C 0D 0E 0F |0123456789ABCDEF|
|------------------------------------------------|----------------|
|00 14 DA 00 00 01 19 01 19 00 00 18 54 02 00 00 |............T...|
|00 00 00 00 00 00 00                            |.......         |
-------------------------------------------------------------------
[Client] packet : (0x16) F_REQUEST_INIT_OBJECT  Size = 16 
|------------------------------------------------|----------------|
|00 01 02 03 04 05 06 07 08 09 0A 0B 0C 0D 0E 0F |0123456789ABCDEF|
|------------------------------------------------|----------------|
|00 04 70 2D 00 1E 00 00 00 16 2D 9A 00 00 74 A5 |..p-......-...t.|                                                
-------------------------------------------------------------------
[Client] packet : (0x0B) F_PING  Size = 32 
|------------------------------------------------|----------------|
|00 01 02 03 04 05 06 07 08 09 0A 0B 0C 0D 0E 0F |0123456789ABCDEF|
|------------------------------------------------|----------------|
|00 14 70 2E 00 1E 00 00 00 0B 00 75 76 73 61 D7 |..p........uvsa.|
|AA 6C BB FC 65 66 00 00 00 00 00 00 00 00 FE 14 |.l..ef..........|                                                
-------------------------------------------------------------------
[Server] packet : (0x72) F_CREATE_MONSTER  Size = 136 
|------------------------------------------------|----------------|
|00 01 02 03 04 05 06 07 08 09 0A 0B 0C 0D 0E 0F |0123456789ABCDEF|
|------------------------------------------------|----------------|
|00 85 72 2D 9A 00 00 02 22 1A 10 00 0D 1F EE 00 |..r-....".......|
|0C C8 9F 00 00 04 C2 32 02 41 00 00 00 00 08 00 |.......2.A......|
|00 00 00 03 E8 00 00 00 00 36 ED 00 09 00 00 01 |.........6......|
|19 00 54 68 6F 72 73 68 61 66 6E 20 4D 69 6C 69 |..Thorshafn Mili|
|74 69 61 6D 61 6E 5E 6D 00 01 0A 00 00 00 12 25 |tiaman^m.......%|
|00 2D 9A 9F EE 48 9F 1A 10 64 00 64 00 00 00 00 |.-...H...d.d....|
|00 22 02 2D 9A 01 08 00 0A 05 2D 00 0C 05 6A 00 |.".-......-...j.|
|14 09 BE 00 15 09 C2 00 16 09 BD 00 18 09 C0 00 |................|
|19 09 C1 00 1C 09 BF 00                         |........        |
-------------------------------------------------------------------
[Server] packet : (0x81) S_PONG  Size = 23 
|------------------------------------------------|----------------|
|00 01 02 03 04 05 06 07 08 09 0A 0B 0C 0D 0E 0F |0123456789ABCDEF|
|------------------------------------------------|----------------|
|00 14 81 00 75 76 73 52 74 B9 F0 00 00 00 00 00 |....uvsRt.......|
|00 70 2F 00 00 00 00                            |.......         |
-------------------------------------------------------------------
[Server] packet : (0x61) F_PLAY_SOUND  Size = 16 
|------------------------------------------------|----------------|
|00 01 02 03 04 05 06 07 08 09 0A 0B 0C 0D 0E 0F |0123456789ABCDEF|
|------------------------------------------------|----------------|
|00 0D 61 00 00 0E 13 88 87 43 3F 48 18 C0 00 00 |..a......C?H....|                                                
-------------------------------------------------------------------
[Server] packet : (0xDA) F_USE_ABILITY  Size = 23 
|------------------------------------------------|----------------|
|00 01 02 03 04 05 06 07 08 09 0A 0B 0C 0D 0E 0F |0123456789ABCDEF|
|------------------------------------------------|----------------|
|00 14 DA 00 00 01 19 01 19 00 00 18 54 02 00 00 |............T...|
|00 00 00 00 00 00 00                            |.......         |
-------------------------------------------------------------------
[Client] packet : (0x16) F_REQUEST_INIT_OBJECT  Size = 16 
|------------------------------------------------|----------------|
|00 01 02 03 04 05 06 07 08 09 0A 0B 0C 0D 0E 0F |0123456789ABCDEF|
|------------------------------------------------|----------------|
|00 04 70 31 00 1E 00 00 00 16 06 79 00 00 1F B9 |..p1.......y....|                                                
-------------------------------------------------------------------
[Client] packet : (0x16) F_REQUEST_INIT_OBJECT  Size = 16 
|------------------------------------------------|----------------|
|00 01 02 03 04 05 06 07 08 09 0A 0B 0C 0D 0E 0F |0123456789ABCDEF|
|------------------------------------------------|----------------|
|00 04 70 32 00 1E 00 00 00 16 2C F1 00 00 5F E8 |..p2......,..._.|                                                
-------------------------------------------------------------------
[Client] packet : (0x16) F_REQUEST_INIT_OBJECT  Size = 16 
|------------------------------------------------|----------------|
|00 01 02 03 04 05 06 07 08 09 0A 0B 0C 0D 0E 0F |0123456789ABCDEF|
|------------------------------------------------|----------------|
|00 04 70 33 00 1E 00 00 00 16 21 3C 00 00 20 2D |..p3......!<.. -|                                                
-------------------------------------------------------------------
[Server] packet : (0x72) F_CREATE_MONSTER  Size = 104 
|------------------------------------------------|----------------|
|00 01 02 03 04 05 06 07 08 09 0A 0B 0C 0D 0E 0F |0123456789ABCDEF|
|------------------------------------------------|----------------|
|00 65 72 06 79 00 55 0D 19 20 B8 00 0C F0 67 00 |.er.y.U.. ....g.|
|0C A8 EF 00 13 04 4A 32 02 A1 00 00 00 00 00 00 |......J2........|
|00 01 00 03 E8 00 00 00 00 37 FD 00 00 00 00 01 |.........7......|
|19 00 53 63 72 65 61 6D 65 72 5E 4D 00 00 00 00 |..Screamer^M....|
|08 01 0A 00 00 00 1A 05 00 06 79 70 67 28 EF 20 |..........ypg(. |
|B8 64 20 64 40 00 00 00 08 FC 97 75 79 00 00 00 |.d d@......uy...|
|00 F5 01 06 79 00 00 00                         |........        |
-------------------------------------------------------------------
[Server] packet : (0x72) F_CREATE_MONSTER  Size = 143 
|------------------------------------------------|----------------|
|00 01 02 03 04 05 06 07 08 09 0A 0B 0C 0D 0E 0F |0123456789ABCDEF|
|------------------------------------------------|----------------|
|00 8C 72 2C F1 00 EB 02 BE 1A A4 00 0D 17 3D 00 |..r,..........=.|
|0C AB 77 00 00 04 C2 32 02 40 00 00 00 00 00 00 |..w....2.@......|
|00 00 00 03 E8 00 00 00 00 39 09 00 01 00 00 01 |.........9......|
|19 00 45 6D 70 69 72 65 20 53 70 65 61 72 6D 61 |..Empire Spearma|
|6E 5E 6D 00 01 0A 00 00 00 1A 29 00 2C F1 97 3D |n^m.......).,..=|
|2B 77 1A A4 64 01 64 00 00 00 00 00 EB 00 00 16 |+w..d.d.........|
|96 16 2C 90 1A 64 2C F1 00 08 00 0A 05 45 00 0B |..,..d,......E..|
|05 5C 01 14 0C 1D 1F 9E 00 15 0C 1F 00 16 0C 1E |.\..............|
|00 18 0C 22 01 19 0C 21 1F 9E 00 1C 0C 23 00    |............... |
-------------------------------------------------------------------
[Server] packet : (0x72) F_CREATE_MONSTER  Size = 136 
|------------------------------------------------|----------------|
|00 01 02 03 04 05 06 07 08 09 0A 0B 0C 0D 0E 0F |0123456789ABCDEF|
|------------------------------------------------|----------------|
|00 85 72 21 3C 01 13 06 59 24 C6 00 0D 2B 24 00 |..r!<...Y$...+$.|
|0C B3 DE 00 00 05 37 34 02 58 00 00 00 00 00 00 |......74.X......|
|00 04 00 03 E8 00 00 00 01 4E 29 00 02 00 00 01 |.........N).....|
|19 00 44 77 61 72 66 65 6E 20 47 79 72 6F 63 6F |..Dwarfen Gyroco|
|70 74 65 72 5E 6D 00 00 B4 01 0A 00 00 00 00 00 |pter^m..........|
|00 00 1A 19 00 21 3C AB 24 33 DE 24 C6 64 01 64 |.....!<.$3.$.d.d|
|00 00 00 00 00 13 01 00 A9 AA 3C 33 C6 24 64 21 |..........<3.$d!|
|3C 00 05 00 14 08 13 00 15 07 D3 00 16 07 D2 00 |<...............|
|18 07 D4 00 1C 07 D0 00                         |........        |
-------------------------------------------------------------------
[Server] packet : (0x61) F_PLAY_SOUND  Size = 16 
|------------------------------------------------|----------------|
|00 01 02 03 04 05 06 07 08 09 0A 0B 0C 0D 0E 0F |0123456789ABCDEF|
|------------------------------------------------|----------------|
|00 0D 61 00 00 0E 13 88 86 FA 40 30 18 C0 00 00 |..a.......@0....|                                                
-------------------------------------------------------------------
[Server] packet : (0xDA) F_USE_ABILITY  Size = 23 
|------------------------------------------------|----------------|
|00 01 02 03 04 05 06 07 08 09 0A 0B 0C 0D 0E 0F |0123456789ABCDEF|
|------------------------------------------------|----------------|
|00 14 DA 00 00 18 54 18 54 00 00 01 19 02 00 00 |......T.T.......|
|09 00 00 00 00 00 00                            |.......         |
-------------------------------------------------------------------
[Server] packet : (0x1A) F_CAMPAIGN_STATUS  Size = 159 
|------------------------------------------------|----------------|
|00 01 02 03 04 05 06 07 08 09 0A 0B 0C 0D 0E 0F |0123456789ABCDEF|
|------------------------------------------------|----------------|
|00 9C 1A 00 09 00 69 00 D1 00 00 00 00 00 32 32 |......i.......22|
|00 32 32 00 32 32 00 00 00 00 32 32 00 32 32 00 |.22.22....22.22.|
|32 32 00 00 00 00 32 32 00 64 00 00 32 32 00 00 |22....22.d..22..|
|00 00 00 00 00 00 00 00 00 00 00 00 00 00 00 00 |................|
|00 00 00 00 00 00 00 64 64 00 00 00 00 00 00 00 |.......dd.......|
|00 00 00 00 00 00 00 00 00 00 00 00 00 00 00 01 |................|
|00 00 00 00 00 00 00 00 00 00 00 00 00 00 00 00 |................|
|00 00 00 00 00 00 00 00 00 00 00 00 00 00 00 00 |................|
|00 03 00 02 02 03 03 01 00 02 03 03 00 02 02 03 |................|
|02 FE 64 00 0A 3C 00 00 00 03 84 00 00 00 00    |............... |
-------------------------------------------------------------------
[Server] packet : (0xC5) F_OBJECTIVE_STATE  Size = 19 
|------------------------------------------------|----------------|
|00 01 02 03 04 05 06 07 08 09 0A 0B 0C 0D 0E 0F |0123456789ABCDEF|
|------------------------------------------------|----------------|
|00 10 C5 00 00 00 E4 FF FF FF FF FF FF 00 00 00 |................|
|01 00 00                                        |...             |
-------------------------------------------------------------------
[Server] packet : (0xC6) F_REALM_BONUS  Size = 6 
|------------------------------------------------|----------------|
|00 01 02 03 04 05 06 07 08 09 0A 0B 0C 0D 0E 0F |0123456789ABCDEF|
|------------------------------------------------|----------------|
|00 03 C6 02 00 00                               |......          |
-------------------------------------------------------------------
[Server] packet : (0xC5) F_OBJECTIVE_STATE  Size = 19 
|------------------------------------------------|----------------|
|00 01 02 03 04 05 06 07 08 09 0A 0B 0C 0D 0E 0F |0123456789ABCDEF|
|------------------------------------------------|----------------|
|00 10 C5 00 00 13 E8 FF FF FF FF FF FF 00 00 00 |................|
|01 00 00                                        |...             |
-------------------------------------------------------------------
[Server] packet : (0xC6) F_REALM_BONUS  Size = 6 
|------------------------------------------------|----------------|
|00 01 02 03 04 05 06 07 08 09 0A 0B 0C 0D 0E 0F |0123456789ABCDEF|
|------------------------------------------------|----------------|
|00 03 C6 02 00 00                               |......          |
-------------------------------------------------------------------
[Server] packet : (0xC5) F_OBJECTIVE_STATE  Size = 19 
|------------------------------------------------|----------------|
|00 01 02 03 04 05 06 07 08 09 0A 0B 0C 0D 0E 0F |0123456789ABCDEF|
|------------------------------------------------|----------------|
|00 10 C5 00 00 13 E9 FF FF FF FF FF FF 00 00 00 |................|
|01 00 00                                        |...             |
-------------------------------------------------------------------
[Server] packet : (0xC6) F_REALM_BONUS  Size = 6 
|------------------------------------------------|----------------|
|00 01 02 03 04 05 06 07 08 09 0A 0B 0C 0D 0E 0F |0123456789ABCDEF|
|------------------------------------------------|----------------|
|00 03 C6 02 00 00                               |......          |
-------------------------------------------------------------------
[Server] packet : (0x1A) F_CAMPAIGN_STATUS  Size = 159 
|------------------------------------------------|----------------|
|00 01 02 03 04 05 06 07 08 09 0A 0B 0C 0D 0E 0F |0123456789ABCDEF|
|------------------------------------------------|----------------|
|00 9C 1A 00 09 00 69 00 D1 00 00 00 00 00 32 32 |......i.......22|
|00 32 32 00 32 32 00 00 00 00 32 32 00 32 32 00 |.22.22....22.22.|
|32 32 00 00 00 00 32 32 00 64 00 00 32 32 00 00 |22....22.d..22..|
|00 00 00 00 00 00 00 00 00 00 00 00 00 00 00 00 |................|
|00 00 00 00 00 00 00 64 64 00 00 00 00 00 00 00 |.......dd.......|
|00 00 00 00 00 00 00 00 00 00 00 00 00 00 00 01 |................|
|00 00 00 00 00 00 00 00 00 00 00 00 00 00 00 00 |................|
|00 00 00 00 00 00 00 00 00 00 00 00 00 00 00 00 |................|
|00 03 00 02 02 03 03 01 00 02 03 03 00 02 02 03 |................|
|02 FE 64 00 0A 3C 00 00 00 03 84 00 00 00 00    |............... |
-------------------------------------------------------------------
[Client] packet : (0x5A) F_PING_DATAGRAM  Size = 13 
|------------------------------------------------|----------------|
|00 01 02 03 04 05 06 07 08 09 0A 0B 0C 0D 0E 0F |0123456789ABCDEF|
|------------------------------------------------|----------------|
|00 01 70 37 00 1E FF FF 00 5A 00 00 91          |.............   |
-------------------------------------------------------------------
[Server] packet : (0xDA) F_USE_ABILITY  Size = 23 
|------------------------------------------------|----------------|
|00 01 02 03 04 05 06 07 08 09 0A 0B 0C 0D 0E 0F |0123456789ABCDEF|
|------------------------------------------------|----------------|
|00 14 DA 00 00 01 19 01 19 00 00 18 54 02 00 00 |............T...|
|00 00 00 00 00 00 00                            |.......         |
-------------------------------------------------------------------
[Client] packet : (0x86) F_MAIL  Size = 16 
|------------------------------------------------|----------------|
|00 01 02 03 04 05 06 07 08 09 0A 0B 0C 0D 0E 0F |0123456789ABCDEF|
|------------------------------------------------|----------------|
|00 04 70 39 00 1E FF FF 00 86 00 00 00 00 00 00 |..p9............|                                                
-------------------------------------------------------------------