
[Server] packet : (0x06) F_CHAT  Size = 36 
|------------------------------------------------|----------------|
|00 01 02 03 04 05 06 07 08 09 0A 0B 0C 0D 0E 0F |0123456789ABCDEF|
|------------------------------------------------|----------------|
|00 21 06 39 3D 0E 00 00 00 00 0D 44 72 6F 6C 65 |.!.9=......Drole|
|64 65 66 65 6D 6D 65 00 00 09 74 61 62 61 72 6E |defemme...tabarn|
|61 6B 00 00                                     |....            |
-------------------------------------------------------------------
[Server] packet : (0x51) F_ANIMATION  Size = 9 
|------------------------------------------------|----------------|
|00 01 02 03 04 05 06 07 08 09 0A 0B 0C 0D 0E 0F |0123456789ABCDEF|
|------------------------------------------------|----------------|
|00 06 51 01 3C 00 B0 00 00                      |.........       |
-------------------------------------------------------------------
[Client] packet : (0x01) UNKNOWN  Size = 32 
|------------------------------------------------|----------------|
|00 01 02 03 04 05 06 07 08 09 0A 0B 0C 0D 0E 0F |0123456789ABCDEF|
|------------------------------------------------|----------------|
|00 14 1F B0 00 05 00 00 00 01 00 28 69 DC 00 00 |...........(i...|
|00 00 00 00 00 00 00 00 44 06 00 00 0C 20 F9 B1 |........D.... ..|                                                
-------------------------------------------------------------------
[Server] packet : (0x51) F_ANIMATION  Size = 9 
|------------------------------------------------|----------------|
|00 01 02 03 04 05 06 07 08 09 0A 0B 0C 0D 0E 0F |0123456789ABCDEF|
|------------------------------------------------|----------------|
|00 06 51 01 3B 00 AC 00 00                      |.........       |
-------------------------------------------------------------------
[Server] packet : (0x00) UNKNOWN  Size = 23 
|------------------------------------------------|----------------|
|00 01 02 03 04 05 06 07 08 09 0A 0B 0C 0D 0E 0F |0123456789ABCDEF|
|------------------------------------------------|----------------|
|00 14 00 00 28 69 DC AA F1 97 1D 00 00 00 00 00 |....(i..........|
|00 44 06 00 00 0C 00                            |.......         |
-------------------------------------------------------------------
[Client] packet : (0x0B) F_PING  Size = 32 
|------------------------------------------------|----------------|
|00 01 02 03 04 05 06 07 08 09 0A 0B 0C 0D 0E 0F |0123456789ABCDEF|
|------------------------------------------------|----------------|
|00 14 1F B4 00 05 00 00 00 0B 00 28 77 18 DA C4 |...........(w...|
|82 4D F1 C1 3F A1 00 00 00 00 00 00 00 00 F0 ED |.M..?...........|                                                
-------------------------------------------------------------------
[Server] packet : (0x81) S_PONG  Size = 23 
|------------------------------------------------|----------------|
|00 01 02 03 04 05 06 07 08 09 0A 0B 0C 0D 0E 0F |0123456789ABCDEF|
|------------------------------------------------|----------------|
|00 14 81 00 28 77 18 52 81 64 D0 00 00 00 00 00 |....(w.R.d......|
|00 1F B5 00 00 00 00                            |.......         |
-------------------------------------------------------------------
[Client] packet : (0x16) F_REQUEST_INIT_OBJECT  Size = 16 
|------------------------------------------------|----------------|
|00 01 02 03 04 05 06 07 08 09 0A 0B 0C 0D 0E 0F |0123456789ABCDEF|
|------------------------------------------------|----------------|
|00 04 1F BB 00 05 00 00 00 16 11 6A 00 00 00 00 |...........j....|                                                
-------------------------------------------------------------------
[Server] packet : (0x72) F_CREATE_MONSTER  Size = 108 
|------------------------------------------------|----------------|
|00 01 02 03 04 05 06 07 08 09 0A 0B 0C 0D 0E 0F |0123456789ABCDEF|
|------------------------------------------------|----------------|
|00 69 72 11 6A 00 EB 00 BA 29 D2 00 0F E5 06 00 |.ir.j....)......|
|10 40 02 00 00 04 3C 32 07 61 00 00 00 00 00 00 |.@....<2.a......|
|00 00 00 03 E8 00 00 00 00 89 66 00 08 00 00 01 |..........f.....|
|19 00 47 6F 6C 64 65 6E 77 69 6E 67 20 46 6C 69 |..Goldenwing Fli|
|65 72 5E 6D 00 01 0A 00 00 00 1A 05 00 11 6A 65 |er^m..........je|
|06 C0 02 29 D2 64 21 C8 00 00 00 00 00 EB 00 00 |...).d!.........|
|C9 63 3A C4 D2 29 C8 11 6A 00 00 00             |............    |
-------------------------------------------------------------------
[Server] packet : (0x06) F_CHAT  Size = 43 
|------------------------------------------------|----------------|
|00 01 02 03 04 05 06 07 08 09 0A 0B 0C 0D 0E 0F |0123456789ABCDEF|
|------------------------------------------------|----------------|
|00 28 06 27 94 0E 00 00 00 00 08 44 61 73 63 6F |.(.'.......Dasco|
|75 62 00 00 15 61 68 61 68 2C 20 6A 65 20 70 61 |ub...ahah, je pa|
|72 6C 65 20 65 6E 20 77 62 00 00                |...........     |
-------------------------------------------------------------------
[Client] packet : (0x0B) F_PING  Size = 32 
|------------------------------------------------|----------------|
|00 01 02 03 04 05 06 07 08 09 0A 0B 0C 0D 0E 0F |0123456789ABCDEF|
|------------------------------------------------|----------------|
|00 14 1F BF 00 05 00 00 00 0B 00 28 8B 29 93 98 |...........(.)..|
|14 05 08 03 A8 3B 00 00 00 00 00 00 00 00 F0 ED |.....;..........|                                                
-------------------------------------------------------------------
[Server] packet : (0x81) S_PONG  Size = 23 
|------------------------------------------------|----------------|
|00 01 02 03 04 05 06 07 08 09 0A 0B 0C 0D 0E 0F |0123456789ABCDEF|
|------------------------------------------------|----------------|
|00 14 81 00 28 8B 29 52 81 64 D5 00 00 00 00 00 |....(.)R.d......|
|00 1F C0 00 00 00 00                            |.......         |
-------------------------------------------------------------------
[Client] packet : (0x01) UNKNOWN  Size = 32 
|------------------------------------------------|----------------|
|00 01 02 03 04 05 06 07 08 09 0A 0B 0C 0D 0E 0F |0123456789ABCDEF|
|------------------------------------------------|----------------|
|00 14 1F C4 00 05 00 00 00 01 00 28 91 19 00 00 |...........(....|
|00 00 00 00 00 00 00 00 41 84 00 00 13 71 26 37 |........A....q&7|                                                
-------------------------------------------------------------------
[Server] packet : (0x00) UNKNOWN  Size = 23 
|------------------------------------------------|----------------|
|00 01 02 03 04 05 06 07 08 09 0A 0B 0C 0D 0E 0F |0123456789ABCDEF|
|------------------------------------------------|----------------|
|00 14 00 00 28 91 19 AA F1 BE 17 00 00 00 00 00 |....(...........|
|00 41 84 00 00 13 00                            |.......         |
-------------------------------------------------------------------
[Client] packet : (0x0B) F_PING  Size = 32 
|------------------------------------------------|----------------|
|00 01 02 03 04 05 06 07 08 09 0A 0B 0C 0D 0E 0F |0123456789ABCDEF|
|------------------------------------------------|----------------|
|00 14 1F CA 00 05 00 00 00 0B 00 28 9E 37 29 2F |...........(.7)/|
|3F FD FA 3D D7 FD 00 00 00 00 00 00 00 00 F0 ED |?..=............|                                                
-------------------------------------------------------------------
[Client] packet : (0x5A) F_PING_DATAGRAM  Size = 13 
|------------------------------------------------|----------------|
|00 01 02 03 04 05 06 07 08 09 0A 0B 0C 0D 0E 0F |0123456789ABCDEF|
|------------------------------------------------|----------------|
|00 01 1F CB 00 05 FF FF 00 5A 00 30 2A          |.............   |
-------------------------------------------------------------------
[Server] packet : (0x81) S_PONG  Size = 23 
|------------------------------------------------|----------------|
|00 01 02 03 04 05 06 07 08 09 0A 0B 0C 0D 0E 0F |0123456789ABCDEF|
|------------------------------------------------|----------------|
|00 14 81 00 28 9E 37 52 81 64 DA 00 00 00 00 00 |....(.7R.d......|
|00 1F CB 00 00 00 00                            |.......         |
-------------------------------------------------------------------
[Server] packet : (0x51) F_ANIMATION  Size = 9 
|------------------------------------------------|----------------|
|00 01 02 03 04 05 06 07 08 09 0A 0B 0C 0D 0E 0F |0123456789ABCDEF|
|------------------------------------------------|----------------|
|00 06 51 0D 2B 00 6C 00 00                      |.........       |
-------------------------------------------------------------------
[Server] packet : (0x51) F_ANIMATION  Size = 9 
|------------------------------------------------|----------------|
|00 01 02 03 04 05 06 07 08 09 0A 0B 0C 0D 0E 0F |0123456789ABCDEF|
|------------------------------------------------|----------------|
|00 06 51 01 3C 00 E5 00 00                      |.........       |
-------------------------------------------------------------------
[Server] packet : (0xA9) F_UPDATE_HOT_SPOT  Size = 406 
|------------------------------------------------|----------------|
|00 01 02 03 04 05 06 07 08 09 0A 0B 0C 0D 0E 0F |0123456789ABCDEF|
|------------------------------------------------|----------------|
|01 93 A9 50 02 00 01 00 00 00 00 02 00 00 00 00 |...P............|
|03 00 00 00 00 04 00 00 00 00 05 00 00 00 00 06 |................|
|00 00 00 00 07 00 00 00 00 08 00 00 00 00 09 00 |................|
|00 00 00 0A 00 00 00 00 0B 00 00 00 00 1A 00 00 |................|
|00 00 1B 00 00 00 00 44 00 00 00 00 46 00 00 00 |.......D....F...|
|00 47 00 00 00 00 4A 00 00 00 00 4B 00 00 00 00 |.G....J....K....|
|58 00 00 00 00 64 00 00 00 00 65 00 00 00 00 66 |X....d....e....f|
|00 00 00 00 67 00 00 00 00 68 00 00 00 00 69 00 |....g....h....i.|
|00 00 00 6A 00 00 00 00 6B 00 00 00 00 6C 00 00 |...j....k....l..|
|00 00 6D 00 00 00 00 6E 00 00 00 00 75 00 00 00 |..m....n....u...|
|00 76 00 00 00 00 78 00 00 00 00 81 00 00 00 00 |.v....x.........|
|90 00 00 00 00 91 00 00 00 00 A1 00 00 00 00 A2 |................|
|00 00 00 00 AF 00 00 00 00 B2 00 00 00 00 BE 00 |................|
|00 00 00 BF 00 00 00 00 C0 00 00 00 00 C1 00 00 |................|
|00 00 C6 00 00 00 00 C8 00 00 00 00 C9 00 00 00 |................|
|00 CA 00 00 00 00 CB 01 01 00 00 CC 00 00 00 00 |................|
|CD 00 00 00 00 CE 00 00 00 00 CF 00 00 00 00 D0 |................|
|00 00 00 00 D1 00 00 00 00 D2 00 00 00 00 D3 00 |................|
|00 00 00 D5 00 00 00 00 D7 00 00 00 00 D8 00 00 |................|
|00 00 D9 00 00 00 00 DC 00 00 00 00 DD 00 00 00 |................|
|00 DE 00 00 00 00 E3 00 00 00 00 E4 00 00 00 00 |................|
|FA 00 00 00 00 FB 00 00 00 00 FC 00 00 00 00 FD |................|
|00 00 00 01 15 00 00 00 01 16 00 00 00 01 18 00 |................|
|00 00 01 1B 00 00 00 01 1C 00 00 00 01 1D 00 00 |................|
|00 01 1F 00 00 00 01 22 00 00 00 01 23 00 00 00 |......."....#...|
|01 24 00 00 00 00                               |......          |
-------------------------------------------------------------------
[Server] packet : (0x51) F_ANIMATION  Size = 9 
|------------------------------------------------|----------------|
|00 01 02 03 04 05 06 07 08 09 0A 0B 0C 0D 0E 0F |0123456789ABCDEF|
|------------------------------------------------|----------------|
|00 06 51 0F E7 00 AC 00 00                      |.........       |
-------------------------------------------------------------------
[Client] packet : (0x0B) F_PING  Size = 32 
|------------------------------------------------|----------------|
|00 01 02 03 04 05 06 07 08 09 0A 0B 0C 0D 0E 0F |0123456789ABCDEF|
|------------------------------------------------|----------------|
|00 14 1F D4 00 05 00 00 00 0B 00 28 B1 C2 DF AF |...........(....|
|FB F8 49 1E C0 EA 00 00 00 00 00 00 00 00 F0 ED |..I.............|                                                
-------------------------------------------------------------------
[Server] packet : (0x81) S_PONG  Size = 23 
|------------------------------------------------|----------------|
|00 01 02 03 04 05 06 07 08 09 0A 0B 0C 0D 0E 0F |0123456789ABCDEF|
|------------------------------------------------|----------------|
|00 14 81 00 28 B1 C2 52 81 64 DF 00 00 00 00 00 |....(..R.d......|
|00 1F D5 00 00 00 00                            |.......         |
-------------------------------------------------------------------
[Client] packet : (0x01) UNKNOWN  Size = 32 
|------------------------------------------------|----------------|
|00 01 02 03 04 05 06 07 08 09 0A 0B 0C 0D 0E 0F |0123456789ABCDEF|
|------------------------------------------------|----------------|
|00 14 1F DB 00 05 00 00 00 01 00 28 B9 91 00 00 |...........(....|
|00 00 00 00 00 00 00 00 54 13 00 00 1C 49 00 00 |........T....I..|                                                
-------------------------------------------------------------------
[Server] packet : (0x00) UNKNOWN  Size = 23 
|------------------------------------------------|----------------|
|00 01 02 03 04 05 06 07 08 09 0A 0B 0C 0D 0E 0F |0123456789ABCDEF|
|------------------------------------------------|----------------|
|00 14 00 00 28 B9 91 AA F1 E6 93 00 00 00 00 00 |....(...........|
|00 54 13 00 00 1C 00                            |.......         |
-------------------------------------------------------------------
[Server] packet : (0x51) F_ANIMATION  Size = 9 
|------------------------------------------------|----------------|
|00 01 02 03 04 05 06 07 08 09 0A 0B 0C 0D 0E 0F |0123456789ABCDEF|
|------------------------------------------------|----------------|
|00 06 51 01 3B 00 AC 00 00                      |.........       |
-------------------------------------------------------------------
[Client] packet : (0x7D) F_REQUEST_INIT_PLAYER  Size = 14 
|------------------------------------------------|----------------|
|00 01 02 03 04 05 06 07 08 09 0A 0B 0C 0D 0E 0F |0123456789ABCDEF|
|------------------------------------------------|----------------|
|00 02 1F DF 00 05 00 00 00 7D 00 A7 B7 00       |..............  |
-------------------------------------------------------------------
[Client] packet : (0x0B) F_PING  Size = 32 
|------------------------------------------------|----------------|
|00 01 02 03 04 05 06 07 08 09 0A 0B 0C 0D 0E 0F |0123456789ABCDEF|
|------------------------------------------------|----------------|
|00 14 1F E1 00 05 00 00 00 0B 00 28 C5 50 81 C0 |...........(.P..|
|C2 45 F6 C4 3A 81 00 00 00 00 00 00 00 00 F0 ED |.E..:...........|                                                
-------------------------------------------------------------------
[Server] packet : (0xE3) F_CREATE_PLAYER  Size = 104 
|------------------------------------------------|----------------|
|00 01 02 03 04 05 06 07 08 09 0A 0B 0C 0D 0E 0F |0123456789ABCDEF|
|------------------------------------------------|----------------|
|00 65 E3 00 A7 21 84 00 2A 00 18 18 A0 00 C8 5B |.e...!..*......[|
|FD D3 61 0E CB 28 00 02 08 2A E1 07 07 01 01 00 |..a..(...*......|
|00 05 07 00 00 00 00 00 00 00 00 00 00 00 00 05 |................|
|01 55 64 00 00 07 C0 00 00 00 DF 08 4D 61 6C 69 |.Ud.........Mali|
|61 65 5E 46 0C 53 75 6D 6D 65 72 77 69 6E 65 5E |ae^F.Summerwine^|
|4D 12 4B 68 61 69 6E 65 73 20 4B 6F 72 72 75 70 |M.Khaines Korrup|
|74 6F 72 73 00 00 00 00                         |........        |
-------------------------------------------------------------------
[Server] packet : (0xA3) F_ACTIVE_EFFECTS  Size = 38 
|------------------------------------------------|----------------|
|00 01 02 03 04 05 06 07 08 09 0A 0B 0C 0D 0E 0F |0123456789ABCDEF|
|------------------------------------------------|----------------|
|00 23 A3 21 84 03 01 25 84 21 01 00 03 05 D0 18 |.#.!...%.!......|
|8B 61 84 21 01 00 03 01 D2 98 AE 01 04 25 84 21 |.a.!.........%.!|
|01 00 03 05 CC 00                               |......          |
-------------------------------------------------------------------
[Server] packet : (0x81) S_PONG  Size = 23 
|------------------------------------------------|----------------|
|00 01 02 03 04 05 06 07 08 09 0A 0B 0C 0D 0E 0F |0123456789ABCDEF|
|------------------------------------------------|----------------|
|00 14 81 00 28 C5 50 52 81 64 E4 00 00 00 00 00 |....(.PR.d......|
|00 1F E2 00 00 00 00                            |.......         |
-------------------------------------------------------------------
[Client] packet : (0x16) F_REQUEST_INIT_OBJECT  Size = 16 
|------------------------------------------------|----------------|
|00 01 02 03 04 05 06 07 08 09 0A 0B 0C 0D 0E 0F |0123456789ABCDEF|
|------------------------------------------------|----------------|
|00 04 1F E3 00 05 00 00 00 16 15 72 00 00 4A 00 |...........r..J.|                                                
-------------------------------------------------------------------
[Server] packet : (0x72) F_CREATE_MONSTER  Size = 99 
|------------------------------------------------|----------------|
|00 01 02 03 04 05 06 07 08 09 0A 0B 0C 0D 0E 0F |0123456789ABCDEF|
|------------------------------------------------|----------------|
|00 60 72 15 72 00 00 0C 2D 23 0A 00 0F D0 B6 00 |.`r.r...-#......|
|10 63 F0 00 00 04 22 32 08 01 00 00 00 00 00 00 |.c...."2........|
|00 00 00 03 E8 00 00 00 00 89 4E 00 03 00 00 01 |..........N.....|
|19 00 44 72 65 61 6D 73 68 61 64 65 20 57 6F 6C |..Dreamshade Wol|
|66 5E 6D 00 01 0A 00 00 00 12 05 00 15 72 50 B6 |f^m..........rP.|
|E3 F0 23 0A 64 00 C8 00 00 00 00 00 2D 0C 15 72 |..#.d.......-..r|
|00 00 00                                        |...             |
-------------------------------------------------------------------
[Client] packet : (0x16) F_REQUEST_INIT_OBJECT  Size = 16 
|------------------------------------------------|----------------|
|00 01 02 03 04 05 06 07 08 09 0A 0B 0C 0D 0E 0F |0123456789ABCDEF|
|------------------------------------------------|----------------|
|00 04 1F E5 00 05 00 00 00 16 31 B5 00 00 5E FA |..........1...^.|                                                
-------------------------------------------------------------------
[Server] packet : (0x72) F_CREATE_MONSTER  Size = 99 
|------------------------------------------------|----------------|
|00 01 02 03 04 05 06 07 08 09 0A 0B 0C 0D 0E 0F |0123456789ABCDEF|
|------------------------------------------------|----------------|
|00 60 72 31 B5 00 00 0B 72 23 04 00 0F D0 E4 00 |.`r1....r#......|
|10 68 C3 00 00 04 22 32 08 01 00 00 00 00 00 00 |.h...."2........|
|00 00 00 03 E8 00 00 00 00 89 4E 00 02 00 00 01 |..........N.....|
|19 00 44 72 65 61 6D 73 68 61 64 65 20 57 6F 6C |..Dreamshade Wol|
|66 5E 6D 00 01 0A 00 00 00 12 05 00 31 B5 50 E4 |f^m.........1.P.|
|E8 C3 23 04 64 00 C8 00 00 00 00 00 72 0B 31 B5 |..#.d.......r.1.|
|00 00 00                                        |...             |
-------------------------------------------------------------------
[Client] packet : (0x07) F_TEXT  Size = 34 
|------------------------------------------------|----------------|
|00 01 02 03 04 05 06 07 08 09 0A 0B 0C 0D 0E 0F |0123456789ABCDEF|
|------------------------------------------------|----------------|
|00 16 1F E7 00 05 FF FF 00 07 00 26 77 62 20 74 |...........&wb t|
|65 73 74 63 68 61 74 77 61 72 62 61 6E 64 00 00 |estchatwarband..|
|00 00                                           |..              |
-------------------------------------------------------------------
[Server] packet : (0x06) F_CHAT  Size = 38 
|------------------------------------------------|----------------|
|00 01 02 03 04 05 06 07 08 09 0A 0B 0C 0D 0E 0F |0123456789ABCDEF|
|------------------------------------------------|----------------|
|00 23 06 03 D3 0E 00 00 00 00 08 57 61 72 65 6D |.#.........Warem|
|68 75 00 00 10 74 65 73 74 63 68 61 74 77 61 72 |hu...testchatwar|
|62 61 6E 64 00 00                               |......          |
-------------------------------------------------------------------
[Server] packet : (0x51) F_ANIMATION  Size = 9 
|------------------------------------------------|----------------|
|00 01 02 03 04 05 06 07 08 09 0A 0B 0C 0D 0E 0F |0123456789ABCDEF|
|------------------------------------------------|----------------|
|00 06 51 01 3C 00 B0 00 00                      |.........       |
-------------------------------------------------------------------