
[Client] packet : (0x0B) F_PING  Size = 32 
|------------------------------------------------|----------------|
|00 01 02 03 04 05 06 07 08 09 0A 0B 0C 0D 0E 0F |0123456789ABCDEF|
|------------------------------------------------|----------------|
|00 14 1E 04 00 05 00 00 00 0B 00 25 FD 25 04 38 |...........%.%.8|
|51 95 4F 07 09 B3 00 00 00 00 00 00 00 00 F0 ED |Q.O.............|                                                
-------------------------------------------------------------------
[Server] packet : (0x81) S_PONG  Size = 23 
|------------------------------------------------|----------------|
|00 01 02 03 04 05 06 07 08 09 0A 0B 0C 0D 0E 0F |0123456789ABCDEF|
|------------------------------------------------|----------------|
|00 14 81 00 25 FD 25 52 81 64 2D 00 00 00 00 00 |....%.%R.d-.....|
|00 1E 05 00 00 00 00                            |.......         |
-------------------------------------------------------------------
[Client] packet : (0x16) F_REQUEST_INIT_OBJECT  Size = 16 
|------------------------------------------------|----------------|
|00 01 02 03 04 05 06 07 08 09 0A 0B 0C 0D 0E 0F |0123456789ABCDEF|
|------------------------------------------------|----------------|
|00 04 1E 06 00 05 00 00 00 16 34 E0 00 00 91 A0 |..........4.....|                                                
-------------------------------------------------------------------
[Server] packet : (0x72) F_CREATE_MONSTER  Size = 108 
|------------------------------------------------|----------------|
|00 01 02 03 04 05 06 07 08 09 0A 0B 0C 0D 0E 0F |0123456789ABCDEF|
|------------------------------------------------|----------------|
|00 69 72 34 E0 00 EB 00 A4 24 20 00 0F D9 50 00 |.ir4.....$ ...P.|
|10 40 03 FF FC 04 3C 32 07 61 00 00 00 00 00 00 |.@....<2.a......|
|00 00 00 03 E8 00 00 00 00 89 74 00 05 00 00 01 |..........t.....|
|19 00 47 6F 6C 64 65 6E 77 69 6E 67 20 45 61 67 |..Goldenwing Eag|
|6C 65 5E 6D 00 01 0A 00 00 00 1A 05 00 34 E0 59 |le^m.........4.Y|
|50 C0 03 24 20 64 21 C8 00 00 00 00 00 EB 00 81 |P..$ d!.........|
|14 59 ED C0 1C 24 C8 34 E0 00 00 00             |............    |
-------------------------------------------------------------------
[Server] packet : (0x51) F_ANIMATION  Size = 9 
|------------------------------------------------|----------------|
|00 01 02 03 04 05 06 07 08 09 0A 0B 0C 0D 0E 0F |0123456789ABCDEF|
|------------------------------------------------|----------------|
|00 06 51 01 3C 00 B0 00 00                      |.........       |
-------------------------------------------------------------------
[Client] packet : (0x01) UNKNOWN  Size = 32 
|------------------------------------------------|----------------|
|00 01 02 03 04 05 06 07 08 09 0A 0B 0C 0D 0E 0F |0123456789ABCDEF|
|------------------------------------------------|----------------|
|00 14 1E 09 00 05 00 00 00 01 00 25 FE FD 00 00 |...........%....|
|00 00 00 00 00 00 00 00 40 03 00 00 35 43 C5 48 |........@...5C.H|                                                
-------------------------------------------------------------------
[Server] packet : (0x00) UNKNOWN  Size = 23 
|------------------------------------------------|----------------|
|00 01 02 03 04 05 06 07 08 09 0A 0B 0C 0D 0E 0F |0123456789ABCDEF|
|------------------------------------------------|----------------|
|00 14 00 00 25 FE FD AA EF 2B ED 00 00 00 00 00 |....%....+......|
|00 40 03 00 00 35 00                            |.......         |
-------------------------------------------------------------------
[Client] packet : (0x0B) F_PING  Size = 32 
|------------------------------------------------|----------------|
|00 01 02 03 04 05 06 07 08 09 0A 0B 0C 0D 0E 0F |0123456789ABCDEF|
|------------------------------------------------|----------------|
|00 14 1E 11 00 05 00 00 00 0B 00 26 10 B1 8B 68 |...........&...h|
|14 15 4A 03 32 31 00 00 00 00 00 00 00 00 F0 ED |..J.21..........|                                                
-------------------------------------------------------------------
[Server] packet : (0x81) S_PONG  Size = 23 
|------------------------------------------------|----------------|
|00 01 02 03 04 05 06 07 08 09 0A 0B 0C 0D 0E 0F |0123456789ABCDEF|
|------------------------------------------------|----------------|
|00 14 81 00 26 10 B1 52 81 64 32 00 00 00 00 00 |....&..R.d2.....|
|00 1E 12 00 00 00 00                            |.......         |
-------------------------------------------------------------------
[Client] packet : (0x5A) F_PING_DATAGRAM  Size = 13 
|------------------------------------------------|----------------|
|00 01 02 03 04 05 06 07 08 09 0A 0B 0C 0D 0E 0F |0123456789ABCDEF|
|------------------------------------------------|----------------|
|00 01 1E 13 00 05 FF FF 00 5A 00 BC 58          |.............   |
-------------------------------------------------------------------
[Client] packet : (0x16) F_REQUEST_INIT_OBJECT  Size = 16 
|------------------------------------------------|----------------|
|00 01 02 03 04 05 06 07 08 09 0A 0B 0C 0D 0E 0F |0123456789ABCDEF|
|------------------------------------------------|----------------|
|00 04 1E 16 00 05 00 00 00 16 11 6A 00 00 03 75 |...........j...u|                                                
-------------------------------------------------------------------
[Server] packet : (0x72) F_CREATE_MONSTER  Size = 108 
|------------------------------------------------|----------------|
|00 01 02 03 04 05 06 07 08 09 0A 0B 0C 0D 0E 0F |0123456789ABCDEF|
|------------------------------------------------|----------------|
|00 69 72 11 6A 00 EB 00 BA 29 D2 00 0F E5 06 00 |.ir.j....)......|
|10 40 01 00 00 04 3C 32 07 61 00 00 00 00 00 00 |.@....<2.a......|
|00 00 00 03 E8 00 00 00 00 89 66 00 08 00 00 01 |..........f.....|
|19 00 47 6F 6C 64 65 6E 77 69 6E 67 20 46 6C 69 |..Goldenwing Fli|
|65 72 5E 6D 00 01 0A 00 00 00 1A 05 00 11 6A 65 |er^m..........je|
|06 C0 01 29 D2 64 21 C8 00 00 00 00 00 EB 00 00 |...).d!.........|
|C9 63 3A C4 D2 29 C8 11 6A 00 00 00             |............    |
-------------------------------------------------------------------
[Client] packet : (0x07) F_TEXT  Size = 29 
|------------------------------------------------|----------------|
|00 01 02 03 04 05 06 07 08 09 0A 0B 0C 0D 0E 0F |0123456789ABCDEF|
|------------------------------------------------|----------------|
|00 11 1E 18 00 05 FF FF 00 07 00 26 77 62 63 20 |...........&wbc |
|67 75 69 6C 64 6F 6E 6C 79 00 00 00 00          |.............   |
-------------------------------------------------------------------
[Server] packet : (0x1D) F_GUILD_DATA  Size = 62 
|------------------------------------------------|----------------|
|00 01 02 03 04 05 06 07 08 09 0A 0B 0C 0D 0E 0F |0123456789ABCDEF|
|------------------------------------------------|----------------|
|00 3B 1D 02 01 00 25 AF CC 00 C8 00 00 09 00 0F |.;....%.........|
|43 68 65 66 20 64 65 20 67 75 69 6C 64 65 00 00 |Chef de guilde..|
|00 0A 57 61 72 65 6D 68 75 5E 46 00 0F 01 6B 01 |..Waremhu^F...k.|
|52 81 5D 92 00 02 04 01 00 01 00 00 01 00       |..............  |
-------------------------------------------------------------------
[Server] packet : (0x6F) F_LOCALIZED_STRING  Size = 13 
|------------------------------------------------|----------------|
|00 01 02 03 04 05 06 07 08 09 0A 0B 0C 0D 0E 0F |0123456789ABCDEF|
|------------------------------------------------|----------------|
|00 0A 6F 00 00 00 00 02 B2 00 00 00 00          |.............   |
-------------------------------------------------------------------
[Server] packet : (0xBE) F_CHARACTER_INFO  Size = 24 
|------------------------------------------------|----------------|
|00 01 02 03 04 05 06 07 08 09 0A 0B 0C 0D 0E 0F |0123456789ABCDEF|
|------------------------------------------------|----------------|
|00 15 BE 06 04 C4 7D CC DF 96 01 F5 17 00 9C E4 |......}.........|
|6C 94 4F 00 00 00 00 00                         |........        |
-------------------------------------------------------------------
[Server] packet : (0xD8) F_GROUP_STATUS  Size = 23 
|------------------------------------------------|----------------|
|00 01 02 03 04 05 06 07 08 09 0A 0B 0C 0D 0E 0F |0123456789ABCDEF|
|------------------------------------------------|----------------|
|00 14 D8 3E C4 01 00 02 00 00 1B 32 1C 00 00 00 |...>.......2....|
|25 AF CC 00 25 AF 00                            |.......         |
-------------------------------------------------------------------
[Server] packet : (0xD8) F_GROUP_STATUS  Size = 11 
|------------------------------------------------|----------------|
|00 01 02 03 04 05 06 07 08 09 0A 0B 0C 0D 0E 0F |0123456789ABCDEF|
|------------------------------------------------|----------------|
|00 08 D8 3E C4 02 00 01 01 00 00                |...........     |
-------------------------------------------------------------------
[Server] packet : (0xBE) F_CHARACTER_INFO  Size = 19 
|------------------------------------------------|----------------|
|00 01 02 03 04 05 06 07 08 09 0A 0B 0C 0D 0E 0F |0123456789ABCDEF|
|------------------------------------------------|----------------|
|00 10 BE 06 04 C9 7D EA A1 86 01 BD 72 00 00 00 |......}.....r...|
|00 00 00                                        |...             |
-------------------------------------------------------------------
[Server] packet : (0x51) F_ANIMATION  Size = 9 
|------------------------------------------------|----------------|
|00 01 02 03 04 05 06 07 08 09 0A 0B 0C 0D 0E 0F |0123456789ABCDEF|
|------------------------------------------------|----------------|
|00 06 51 0D 2B 00 6C 00 00                      |.........       |
-------------------------------------------------------------------
[Client] packet : (0x0B) F_PING  Size = 32 
|------------------------------------------------|----------------|
|00 01 02 03 04 05 06 07 08 09 0A 0B 0C 0D 0E 0F |0123456789ABCDEF|
|------------------------------------------------|----------------|
|00 14 1E 1D 00 05 00 00 00 0B 00 26 24 3D 58 20 |...........&$=X |
|45 14 6F 47 25 58 00 00 00 00 00 00 00 00 F0 ED |E.oG%X..........|                                                
-------------------------------------------------------------------
[Server] packet : (0x81) S_PONG  Size = 23 
|------------------------------------------------|----------------|
|00 01 02 03 04 05 06 07 08 09 0A 0B 0C 0D 0E 0F |0123456789ABCDEF|
|------------------------------------------------|----------------|
|00 14 81 00 26 24 3D 52 81 64 37 00 00 00 00 00 |....&$=R.d7.....|
|00 1E 1E 00 00 00 00                            |.......         |
-------------------------------------------------------------------