5441589209438446708	assetdb/decals/0.fg.0.0.cmm_armor_ma_04_al_boots.@.@.mask
2509176759856525108	assetdb/decals/0.fg.0.0.cmm_armor_ma_04_al_rshoulder.@.@.mask
-2068073438587631634	assetdb/decals/0.fg.0.0.cre_wlion_female_01.@.@.mask
-7157793342743987990	assetdb/decals/0.fg.0.0.hem_base_hair_h.@.fg.0.0.hem_base_hair_a_spec_01.specular
104181661117527151	assetdb/decals/0.fg.0.0.cmm_base_hair_h.@.fg.0.0.cmm_base_hair_a_spec_01.specular
8699132703861830855	assetdb/decals/0.fg.0.0.cmm_base_hair_h.@.fg.0.0.cmm_base_hair_b_spec_01.specular
4583495281525843291	assetdb/decals/0.fg.0.0.hem_base_hair_h.@.fg.0.0.hem_base_hair_b_spec_01.specular
3730124265808232916	assetdb/decals/0.fg.0.0.hem_base_hair_h.@.fg.0.0.hem_base_hair_c_spec_01.specular
-1410630700743411282	assetdb/decals/0.fg.0.0.hem_base_hair_h.@.fg.0.0.hem_base_hair_d_spec_01.specular
-8491997910263124724	assetdb/decals/0.fg.0.0.cmm_base_hair_h.@.fg.0.0.cmm_base_hair_e_spec_01.specular
-3317783839541159390	assetdb/decals/0.fg.0.0.hem_base_hair_h.@.fg.0.0.hem_base_hair_e_spec_01.specular
2573816583022760303	assetdb/decals/0.fg.0.0.hem_base_hair_h.@.fg.0.0.hem_base_hair_f_spec_01.specular
926244573664808191	assetdb/decals/0.fg.0.0.cmm_base_hair_h.@.fg.0.0.cmm_base_hair_f_spec_01.specular
7600231195610280784	assetdb/decals/0.fg.0.0.hem_base_hair_h.@.fg.0.0.hem_base_hair_g_spec_01.specular
9084028963920295004	assetdb/decals/0.fg.0.0.cwm_base_head_d_01.@.fg.0.0.cmm_base_head_d_01_spec_01.specular
-3408582553715477520	assetdb/decals/0.fg.0.0.emf_armor_hvy_01_a_belt_spec_01.@.fg.0.0.emf_armor_hvy_01_a_belt_tint_01.tint
966834280817124478	assetdb/decals/0.fg.0.0.emf_armor_hvy_01_a_belt_spec_01.@.fg.0.0.emf_armor_hvy_01_a_belt_spec_01.specular
3693204326072112834	assetdb/decals/0.fg.0.0.emm_armor_hvy_01_a_belt_spec_01.@.fg.0.0.emm_armor_hvy_01_a_belt_tint_01.tint
9207029402003568842	assetdb/decals/0.fg.0.0.emm_armor_hvy_01_a_belt_spec_01.@.fg.0.0.emm_armor_hvy_01_a_belt_spec_01.specular
-4630971122146102179	assetdb/decals/0.fg.0.0.def_armor_hvy_01_a_belt_spec_01.@.fg.0.0.def_armor_hvy_01_a_belt_tint_01.tint
-1758114074868638452	assetdb/decals/0.fg.0.0.def_armor_hvy_01_a_belt_spec_01.@.fg.0.0.def_armor_hvy_01_a_belt_spec_01.specular
-1071226636307933447	assetdb/decals/0.fg.0.0.dem_armor_hvy_01_a_belt_spec_01.@.fg.0.0.dem_armor_hvy_01_a_belt_tint_01.tint
-7709424056742684795	assetdb/decals/0.fg.0.0.dem_armor_hvy_01_a_belt_spec_01.@.fg.0.0.dem_armor_hvy_01_a_belt_spec_01.specular
3353261912270412826	assetdb/decals/0.fg.0.0.orm_armor_med_01_a_belt_spec_01.@.fg.0.0.orm_armor_med_01_a_belt_tint_01.tint
3048744461631256328	assetdb/decals/0.fg.0.0.orm_armor_med_01_a_belt_spec_01.@.fg.0.0.orm_armor_med_01_a_belt_spec_01.specular
-341445768727611658	assetdb/decals/0.fg.0.0.dwm_armor_med_01_a_belt_spec_01.@.fg.0.0.dwm_armor_med_01_a_belt_tint_01.tint
122608174618328676	assetdb/decals/0.fg.0.0.dwm_armor_med_01_a_belt_spec_01.@.fg.0.0.dwm_armor_med_01_a_belt_spec_01.specular
9189064468430134963	assetdb/decals/0.fg.0.0.emf_base_hacc_bw_01.@.fg.0.0.emm_base_hacc_bw_01_spec_01.specular
-7279153003998142141	assetdb/decals/0.fg.0.0.npc_emf_bandit_01_lshoulder.@.fg.0.0.npc_emf_bandit_01_ubody_spec_01.specular
2498678169484876252	assetdb/decals/0.fg.0.0.cmm_base_hair_c_02.@.fg.0.0.cmm_base_hair_c_tint_01.tint
6539213465253460295	assetdb/decals/0.fg.0.0.overlay_dirt_hands_01.@.fg.0.0.overlay_tint_01.tint
-8010928633782063473	assetdb/decals/0.fg.0.0.dest_cloak_ce_01.@.fg.0.0.dest_cloak_ce_01.tint
-5751896994248025511	assetdb/decals/0.fg.0.0.dest_cloak_ce_01.@.fg.0.0.dest_cloak_ce_01.specular
-1047748560919464462	assetdb/decals/0.fg.0.0.ordr_cloak_ce_01.@.fg.0.0.ordr_cloak_ce_01.tint
8475697245141321315	assetdb/decals/0.fg.0.0.ordr_cloak_ce_01.@.fg.0.0.ordr_cloak_ce_01.specular
-6252543290652101031	assetdb/decals/0.fg.0.0.dw_turret_flame_01.@.fg.0.0.dw_turret_grenade_01_spec_01.specular
-7100668595586258441	assetdb/decals/0.fg.0.0.gno_base_body_01.@.fg.0.0.gom_base_body_01_tint_01.tint
-54839097643984996	assetdb/decals/0.fg.0.0.cloak_burlap_01_a.@.fg.0.0.cloak_burlap_01_tint_01.tint
317002742000674437	assetdb/decals/0.fg.0.0.cloak_burlap_01_a.@.fg.0.0.cloak_burlap_01_spec_01.specular
-6659769644945983313	assetdb/decals/0.fg.0.0.mantle_burlap_01_a.@.fg.0.0.mantle_burlap_01_tint_01.tint
-8186912546478674813	assetdb/decals/0.fg.0.0.mantle_burlap_01_a.@.fg.0.0.mantle_burlap_01_spec_01.specular
-1886477031984246954	assetdb/decals/0.fg.0.0.mantle_burlap_01_b.@.fg.0.0.mantle_burlap_01_tint_01.tint
289568270427813812	assetdb/decals/0.fg.0.0.mantle_burlap_01_b.@.fg.0.0.mantle_burlap_01_spec_01.specular
3903092389133247909	assetdb/decals/0.fg.0.0.cloak_burlap_01_a.@.fg.0.0.cloak_burlap_01_tint_02.tint
-999727926469070215	assetdb/decals/0.fg.0.0.cloak_chain_01_a.@.fg.0.0.cloak_chain_01_tint_02.tint
4406612695936774285	assetdb/decals/0.fg.0.0.cloak_chain_01_a.@.fg.0.0.cloak_chain_01_spec_01.specular
-5651538319891269979	assetdb/decals/0.fg.0.0.cloak_chain_01_a.@.fg.0.0.cloak_chain_01_tint_01.tint
-6015777856323447655	assetdb/decals/0.fg.0.0.cloak_chain_01_b.@.fg.0.0.cloak_chain_01_tint_02.tint
-9124707072251217089	assetdb/decals/0.fg.0.0.cloak_cloth_01_a.@.fg.0.0.cloak_cloth_01_tint_01.tint
721081659837747122	assetdb/decals/0.fg.0.0.cloak_cloth_01_a.@.fg.0.0.cloak_cloth_01_spec_01.specular
3523731043509018135	assetdb/decals/0.fg.0.0.cloak_cloth_01_b.@.fg.0.0.cloak_cloth_01_tint_01.tint
-9179481511548677011	assetdb/decals/0.fg.0.0.npc_hef_cloth_merchant_01_rarm.@.fg.0.0.npc_hef_cloth_merchant_01_rglove_tint_01.tint
-8660116290880159434	assetdb/decals/0.fg.0.0.npc_hef_cloth_merchant_01_rarm.@.fg.0.0.npc_hef_cloth_merchant_01_rglove_spec_01.specular
4071268807539110381	assetdb/decals/0.fg.0.0.npc_def_cloth_merchant_01_rarm.@.fg.0.0.npc_def_cloth_merchant_01_rglove_tint_01.tint
4626341269725003580	assetdb/decals/0.fg.0.0.npc_def_cloth_merchant_01_rarm.@.fg.0.0.npc_def_cloth_merchant_01_rglove_spec_01.specular
-2203353923321108035	assetdb/decals/0.fg.0.0.hef_armor_med_05_a_belt.@.fg.0.0.hem_armor_med_05_a_belt_tint_01.tint
4337100115458322074	assetdb/decals/0.fg.0.0.hef_armor_med_05_a_belt.@.fg.0.0.hem_armor_med_05_a_belt_spec_01.specular
2019955517743589406	assetdb/decals/0.fg.0.0.npc_hem_armor_merchant_01_rarm.@.fg.0.0.npc_hem_armor_merchant_01_rglove_tint_01.tint
3045619069078123873	assetdb/decals/0.fg.0.0.npc_hem_armor_merchant_01_rarm.@.fg.0.0.npc_hem_armor_merchant_01_rglove_spec_01.specular
-1174627550660592489	assetdb/decals/0.fg.0.0.npc_dem_armor_merchant_01_rarm.@.fg.0.0.npc_dem_armor_merchant_01_rglove_tint_01.tint
-5745117224057151190	assetdb/decals/0.fg.0.0.npc_dem_armor_merchant_01_rarm.@.fg.0.0.npc_dem_armor_merchant_01_rglove_spec_01.specular
-2330168028786858911	assetdb/decals/0.fg.0.0.npc_dem_armor_merchant_02_rarm.@.fg.0.0.npc_dem_armor_merchant_02_rglove_tint_01.tint
-8887288788486028919	assetdb/decals/0.fg.0.0.npc_dem_armor_merchant_02_rarm.@.fg.0.0.npc_dem_armor_merchant_02_rglove_spec_01.specular
-1412431183351153803	assetdb/decals/0.fg.0.0.emm_armor_bw_05_rglove.fg.0.0.emm_armor_bw_03_rglove_glow_01.@.glow
508920370073253967	assetdb/decals/0.fg.0.0.def_acces_cast_05_a_belt.fg.0.0.def_acces_cast_05_a_belt_glow.@.glow
5955975581477779849	assetdb/decals/0.fg.0.0.def_acces_cast_05_a_boots.fg.0.0.def_acces_cast_05_a_boots_glow.@.glow
161724016228253391	assetdb/decals/0.fg.0.0.npc_tk_helm_hvy_02_rshoulder.@.fg.0.0.npc_tk_helm_hvy_02_tint_01.tint
-8335063541831640227	assetdb/decals/0.fg.0.0.npc_tk_helm_hvy_02_rshoulder.@.fg.0.0.npc_tk_helm_hvy_02_spec_01.specular
2631200468019252986	assetdb/decals/0.fg.0.0.npc_tk_armor_hvy_02_belt.@.fg.0.0.npc_tk_armor_hvy_02_tint_01.tint
9188846220653786439	assetdb/decals/0.fg.0.0.npc_tk_armor_hvy_02_belt.@.fg.0.0.npc_tk_armor_hvy_02_spec_01.specular
6367425721892902898	assetdb/decals/0.fg.0.0.npc_tk_armor_hvy_02_lbody.@.fg.0.0.npc_tk_armor_hvy_02_tint_01.tint
-2344270245452819889	assetdb/decals/0.fg.0.0.npc_tk_armor_hvy_02_lbody.@.fg.0.0.npc_tk_armor_hvy_02_spec_01.specular
6800332838517384885	assetdb/decals/0.fg.0.0.npc_tk_armor_hvy_02_boots.@.fg.0.0.npc_tk_armor_hvy_02_tint_01.tint
8801408743210946934	assetdb/decals/0.fg.0.0.npc_tk_armor_hvy_02_boots.@.fg.0.0.npc_tk_armor_hvy_02_spec_01.specular
-5266046023998464389	assetdb/decals/0.fg.0.0.npc_tk_armor_hvy_02_lglove.@.fg.0.0.npc_tk_armor_hvy_02_tint_01.tint
392606595466029723	assetdb/decals/0.fg.0.0.npc_tk_armor_hvy_02_lglove.@.fg.0.0.npc_tk_armor_hvy_02_spec_01.specular
-6869304300383173000	assetdb/decals/0.fg.0.0.npc_tk_armor_robe_02_belt.@.fg.0.0.npc_tk_armor_robe_02_tint_01.tint
-798459984512532393	assetdb/decals/0.fg.0.0.npc_tk_armor_robe_02_belt.@.fg.0.0.npc_tk_armor_robe_02_spec_01.specular
3293362711727967173	assetdb/decals/0.fg.0.0.npc_tk_armor_robe_02_lbody.@.fg.0.0.npc_tk_armor_robe_02_tint_01.tint
-857399649385514955	assetdb/decals/0.fg.0.0.npc_tk_armor_robe_02_lbody.@.fg.0.0.npc_tk_armor_robe_02_spec_01.specular
-5758403504801231515	assetdb/decals/0.fg.0.0.npc_tk_armor_robe_02_boots.@.fg.0.0.npc_tk_armor_robe_02_tint_01.tint
8801684614087435841	assetdb/decals/0.fg.0.0.npc_tk_armor_robe_02_boots.@.fg.0.0.npc_tk_armor_robe_02_spec_01.specular
-837639169364387159	assetdb/decals/0.fg.0.0.npc_tk_armor_robe_02_lglove.@.fg.0.0.npc_tk_armor_robe_02_tint_01.tint
4674186197721195998	assetdb/decals/0.fg.0.0.npc_tk_armor_robe_02_lglove.@.fg.0.0.npc_tk_armor_robe_02_spec_01.specular
5232487663257278837	assetdb/decals/0.fg.0.0.npc_tk_helm_robe_02_rshoulder.@.fg.0.0.npc_tk_helm_robe_02_tint_01.tint
-6089602486200452904	assetdb/decals/0.fg.0.0.npc_tk_helm_robe_02_rshoulder.@.fg.0.0.npc_tk_helm_robe_02_spec_01.specular
3154348588448005002	assetdb/decals/0.fg.0.0.npc_tk_armor_ushabti_01_larm.@.fg.0.0.npc_tk_armor_ushabti_01_tint_01.tint
8974121726077863846	assetdb/decals/0.fg.0.0.npc_tk_helm_ushabti_02_shoulder.@.fg.0.0.npc_tk_helm_ushabti_02_tint_01.tint
-5974289275417941047	assetdb/decals/0.fg.0.0.npc_tk_helm_ushabti_02_shoulder.@.fg.0.0.npc_tk_helm_ushabti_02_spec_01.specular
-1217420871481121774	assetdb/decals/0.fg.0.0.boss_tk_statue_stone_01_head_01.fg.0.0.boss_tk_statue_stone_01_head_01_glow.@.glow
3381897118849067261	assetdb/decals/0.fg.0.0.boss_tk_statue_stone_01_extraa_01.fg.0.0.boss_tk_statue_stone_01_extraa_01_glow.@.glow
-1947648699346177201	assetdb/decals/0.fg.0.0.boss_tk_statue_stone_01_extrab_01.fg.0.0.boss_tk_statue_stone_01_extrab_01_glow.@.glow
1342593160335953366	assetdb/decals/0.fg.0.0.npc_emf_bandit_01_pants.@.fg.0.0.npc_emf_bandit_01_lbody_tint_01.tint
2285737425962714969	assetdb/decals/0.fg.0.0.de_bit_all_rune_01.@.fg.0.0.de_bit_all_rune_01_spec.specular
-1448862572412490857	assetdb/decals/0.fg.0.0.dest_bit_skull_01.@.fg.0.0.dest_bit_skull_01_spec.specular
-7304438454487097125	assetdb/decals/0.fg.0.0.dest_bit_skull_03.@.fg.0.0.dest_bit_skull_03_spec.specular
-2525207173074664183	assetdb/decals/0.fg.0.0.dest_bit_skull_dark_02.@.fg.0.0.dest_bit_skull_01_spec.specular
1296539422059778343	assetdb/decals/0.fg.0.0.dest_bit_skull_light_02.@.fg.0.0.dest_bit_skull_01_spec.specular
-8568747972080776228	assetdb/decals/0.fg.0.0.dest_bit_skull_red_02.@.fg.0.0.dest_bit_skull_01_spec.specular
-7222710928688370106	assetdb/decals/0.fg.0.0.mek_de_altar_01_body.fg.0.0.mek_de_altar_01_body_glow_01.@.glow
4611014640613936274	assetdb/decals/0.fg.0.0.cre_greatstag_wh_01.@.fg.0.0.cre_greatstag_wh_elite_tint_01.tint
-7509362033518025434	assetdb/decals/0.fg.0.0.cre_greatstag_wh_01.fg.0.0.cre_greatstag_wh_elite_glow_01.@.glow
-186032896793779780	assetdb/decals/0.fg.0.0.cre_hound_wh_01.fg.0.0.cre_hound_wh_elite_glow_01.@.glow
3413681140755897132	assetdb/decals/0.fg.0.0.cre_kurnousstag_01.fg.0.0.cre_kurnousstag_01_glow_01.@.glow
7043158026382115180	assetdb/decals/0.fg.0.0.cre_wlion_female_01.fg.0.0.cre_wlion_female_elite_glow_01.@.glow
5761875064307843372	assetdb/decals/0.fg.0.0.cre_wlion_male_01.fg.0.0.cre_wlion_male_elite_glow_01.@.glow
-2116435669203443656	assetdb/decals/0.fg.0.0.cre_wolf_wh_01.@.fg.0.0.cre_wolf_wh_elite_tint_01.tint
4872844068237298191	assetdb/decals/0.fg.0.0.cre_wolf_wh_01.fg.0.0.cre_wolf_wh_elite_glow_01.@.glow
4591689256696215145	assetdb/decals/0.fg.0.0.mnt_tk_arsteed_saddle_01_bronze.@.fg.0.0.mnt_tk_arsteed_saddle_01_spec_01.specular
-4895587386781174761	assetdb/decals/0.fg.0.0.mnt_tk_arsteed_saddle_01_copper.@.fg.0.0.mnt_tk_arsteed_saddle_01_spec_01.specular
3310745305397535808	assetdb/decals/0.fg.0.0.mnt_tk_arsteed_saddle_01_lightgold.@.fg.0.0.mnt_tk_arsteed_saddle_01_spec_01.specular
-5413782237153375540	assetdb/decals/0.fg.0.0.all_bit_firflyjar_01.@.fg.0.0.all_bit_firflyjar_01_spec.specular
8868682699351599650	assetdb/decals/0.fg.0.0.all_bit_mac_apple_01.@.fg.0.0.all_bit_mac_apple_01_spec.specular
-5123695876170215434	assetdb/decals/0.fg.0.0.all_bit_stagskulltrophy_01.@.fg.0.0.all_bit_stagskulltrophy_01_spec.specular
-6874702624215859379	assetdb/decals/0.fg.0.0.all_bit_wildhunthorn_01.@.fg.0.0.all_bit_wildhunthorn_01_spec.specular
-5660280901715661976	assetdb/decals/0.fg.0.0.all_bit_wildhunthorn_02.@.fg.0.0.all_bit_wildhunthorn_02_spec.specular
8918630655068980072	assetdb/decals/0.fg.0.0.all_bit_wildhuntknife_01.@.fg.0.0.all_bit_wildhuntknife_01_spec.specular
-8131584605024960189	assetdb/decals/0.fg.0.0.dest_bit_sigmartide_01.@.fg.0.0.dest_bit_sigmartide_01_spec.specular
-2144545435740431587	assetdb/decals/0.fg.0.0.dest_bit_wildhunt_01.@.fg.0.0.dest_bit_wildhunt_01_spec.specular
-7711949817180595936	assetdb/decals/0.fg.0.0.ordr_bit_sigmartide_01.@.fg.0.0.ordr_bit_sigmartide_01_spec.specular
-5532524705285434768	assetdb/decals/0.fg.0.0.dest_bit_beerstein_01.@.fg.0.0.dest_bit_beerstein_01_spec.specular
-8889835751959005219	assetdb/decals/0.fg.0.0.ordr_bit_beerstein_01.@.fg.0.0.ordr_bit_beerstein_01_spec.specular
4963544098042071461	assetdb/decals/0.fg.0.0.all_bit_bloodletter_trophy_01.@.fg.0.0.all_bit_bloodletter_trophy_01_spec.specular
-1190979851092163337	assetdb/decals/0.fg.0.0.npc_emm_base_body_dualapp.@.fg.0.0.emm_base_body_01_tint_01.tint
-6910154777687792869	assetdb/decals/0.fg.0.0.all_bit_nightofmurder_02.@.fg.0.0.all_bit_nightofmurder_02_spec.specular
2659598192771718251	assetdb/decals/0.fg.0.0.emm_base_hair_bw_i.fg.0.0.emm_base_hair_bw_i_glow_01.@.glow
-6412714896449490547	assetdb/decals/0.fg.0.0.van_2headhound_01.fg.0.0.van_2headhound_01_glow_01.@.glow
6925343940430051889	assetdb/decals/0.fg.0.0.van_2headhound_01.fg.0.0.van_2headhound_01_glow_02.@.glow
-1477657355636187955	assetdb/decals/0.fg.0.0.van_2headhound_01.fg.0.0.van_2headhound_01_glow_03.@.glow
-8843133470176136783	assetdb/decals/0.fg.0.0.van_2headhound_01.fg.0.0.van_2headhound_01_glow_04.@.glow
-7899376267920968835	assetdb/decals/0.fg.0.0.van_darksprite_01.fg.0.0.van_darksprite_01_glow_01.@.glow
7473530284708103370	assetdb/decals/0.fg.0.0.dest_bit_asia_01.@.fg.0.0.dest_bit_asia_01_spec.specular
6416433100827818236	assetdb/decals/0.fg.0.0.ordr_bit_asia_01.@.fg.0.0.ordr_bit_asia_01_spec.specular
-4742790156019057290	assetdb/decals/0.fg.0.0.cre_vc_chicken_z_01.fg.0.0.cre_vc_chicken_z_01_glow_01.@.glow
264934050009351609	assetdb/decals/0.fg.0.0.cre_vc_boar_z_01.fg.0.0.cre_vc_boar_z_01_glow_01.@.glow
2089745543834367799	assetdb/decals/0.fg.0.0.van_horror_02.@.fg.0.0.van_horror_01_tint_01.tint
-6125982866443285212	assetdb/decals/0.fg.0.0.van_horror_02.@.fg.0.0.van_horror_01_spec_01.specular
2109937750192592333	assetdb/decals/0.fg.0.0.van_horror_03.@.fg.0.0.van_horror_01_tint_01.tint
2147507614513996007	assetdb/decals/0.fg.0.0.van_horror_03.@.fg.0.0.van_horror_01_spec_01.specular
-5284105752975089412	assetdb/decals/0.fg.0.0.van_horror_04.@.fg.0.0.van_horror_01_tint_01.tint
-8607260020341510354	assetdb/decals/0.fg.0.0.van_horror_04.@.fg.0.0.van_horror_01_spec_01.specular
-5968951150418760551	assetdb/decals/0.fg.0.0.van_midgetjester_01_glowbase_01.fg.0.0.van_midgetjester_01_glow_01.@.glow
-1146620291736402712	assetdb/decals/0.fg.0.0.van_midgetjester_01_glowbase_01.fg.0.0.van_midgetjester_01_glow_02.@.glow
-8691007506328650149	assetdb/decals/0.fg.0.0.van_midgetjester_01_glowbase_01.fg.0.0.van_midgetjester_01_glow_03.@.glow
-9223198154265238011	assetdb/decals/0.fg.0.0.van_midgetjester_01_glowbase_01.fg.0.0.van_midgetjester_01_glow_04.@.glow
-3090852173672034490	assetdb/decals/0.fg.0.0.van_mite_01_doodads.fg.0.0.van_mite_01_glow_01.@.glow
6445953016240915641	assetdb/decals/0.fg.0.0.van_mite_01_doodads.fg.0.0.van_mite_01_glow_03.@.glow
7603009730115776770	assetdb/decals/0.fg.0.0.van_mite_01_doodads.fg.0.0.van_mite_01_glow_02.@.glow
8341603095854619896	assetdb/decals/0.fg.0.0.van_mite_01_doodads.fg.0.0.van_mite_01_glow_04.@.glow
-8820662787348069864	assetdb/decals/0.fg.0.0.van_uglyhound_02.@.fg.0.0.van_uglyhound_01_tint_01.tint
3308680030040983505	assetdb/decals/0.fg.0.0.van_uglyhound_02.@.fg.0.0.van_uglyhound_01_spec_01.specular
-3340961373824983168	assetdb/decals/0.fg.0.0.van_uglyhound_03.@.fg.0.0.van_uglyhound_01_tint_01.tint
2458061708230323012	assetdb/decals/0.fg.0.0.van_uglyhound_03.@.fg.0.0.van_uglyhound_01_spec_01.specular
6034418096512840484	assetdb/decals/0.fg.0.0.van_uglyhound_04.@.fg.0.0.van_uglyhound_01_tint_01.tint
-7042095409406286303	assetdb/decals/0.fg.0.0.van_uglyhound_04.@.fg.0.0.van_uglyhound_01_spec_01.specular
969274446103800234	assetdb/decals/0.fg.0.0.ver_vc_raven_z_01.fg.0.0.ver_vc_raven_z_01_glow_01.@.glow
6609077949453875359	assetdb/decals/0.fg.0.0.ver_vc_sheep_z_01.fg.0.0.ver_vc_sheep_z_01_glow_01.@.glow
-5932044051140892312	assetdb/decals/0.fg.0.0.all_bit_korea_01.@.fg.0.0.all_bit_korea_01_spec.specular
-4754974615604829808	assetdb/decals/0.fg.0.0.all_bit_korea_02.@.fg.0.0.all_bit_korea_02_spec.specular
9003981292487279240	assetdb/decals/0.fg.0.0.all_bit_korea_03.@.fg.0.0.all_bit_korea_03_spec.specular
-4270080266347704396	assetdb/decals/0.fg.0.0.all_bit_korea_04.@.fg.0.0.all_bit_korea_04_spec.specular
-4250860673218196225	assetdb/decals/0.fg.0.0.all_bit_korea_06.@.fg.0.0.all_bit_korea_06_spec.specular
7366195009921999580	assetdb/decals/0.fg.0.0.all_bit_korea_07.@.fg.0.0.all_bit_korea_07_spec.specular
6483789398781646676	assetdb/decals/0.fg.0.0.all_bit_korea_08.@.fg.0.0.all_bit_korea_08_spec.specular
-7090109135268114758	assetdb/decals/0.fg.0.0.all_bit_korea_09.@.fg.0.0.all_bit_korea_09_spec.specular
-6275683360363063673	assetdb/decals/0.fg.0.0.all_bit_korea_10.@.fg.0.0.all_bit_korea_10_spec.specular
-2311441116676193857	assetdb/decals/0.fg.0.0.dest_bit_asia_02.@.fg.0.0.dest_bit_asia_02_spec.specular
1355800173372215161	assetdb/decals/0.fg.0.0.dest_bit_orcbeerstein_01.@.fg.0.0.dest_bit_orcbeerstein_01_spec.specular
-502520889754663983	assetdb/decals/0.fg.0.0.ordr_bit_asia_02.@.fg.0.0.ordr_bit_asia_02_spec.specular
-7256074198939667310	assetdb/decals/0.fg.0.0.ordr_bit_dwarfbeerstein_01.@.fg.0.0.ordr_bit_dwarfbeerstein_01_spec.specular
-4530287689159158734	assetdb/decals/0.fg.0.0.cre_sk_globadier_01_body.fg.0.0.cre_sk_globadier_01_body_glow_01.@.glow
991214574824139834	assetdb/decals/0.fg.0.0.cre_sk_globadier_01_back.fg.0.0.cre_sk_globadier_01_back_glow_01.@.glow
-125306807233265634	assetdb/decals/0.fg.0.0.cre_sk_gutrunner_01_head.fg.0.0.cre_sk_gutrunner_01_head_glow_01.@.glow
-4029057592727607537	assetdb/decals/0.fg.0.0.cre_sk_gutrunner_01_body_pants.@.fg.0.0.cre_sk_gutrunner_01_body_tint_01.tint
-1064551151813226250	assetdb/decals/0.fg.0.0.cre_sk_moulder_01_head.fg.0.0.cre_sk_moulder_01_head_glow_01.@.glow
7221188518568360367	assetdb/decals/0.fg.0.0.cre_sk_plaguemonk_01_head.fg.0.0.cre_sk_plaguemonk_01_head_glow_01.@.glow
4214800788630235300	assetdb/decals/0.fg.0.0.cre_sk_svermin_01_head.fg.0.0.cre_sk_svermin_01_head_glow_01.@.glow
1404994769868131194	assetdb/decals/0.fg.0.0.cre_sk_svermin_01_body_shirt.@.fg.0.0.cre_sk_svermin_01_body_tint_01.tint
1680303685585605401	assetdb/decals/0.fg.0.0.cre_sk_svermin_01_body_shirt.@.fg.0.0.cre_sk_svermin_01_body_spec_01.specular
-8002459736053773536	assetdb/decals/0.fg.0.0.boss_sk_boneripper_01_body.fg.0.0.boss_sk_boneripper_01_body_glow_01.@.glow
7395464019852574970	assetdb/decals/0.fg.0.0.boss_sk_boneripper_01_head.fg.0.0.boss_sk_boneripper_01_head_glow_01.@.glow
-5041793042140948734	assetdb/decals/0.fg.0.0.boss_sk_boneripper_01_back.fg.0.0.boss_sk_boneripper_01_back_glow_01.@.glow
38514539844976279	assetdb/decals/0.fg.0.0.boss_sk_thanquol_01_body.fg.0.0.boss_sk_thanquol_01_body_glow_01.@.glow
7814914772226795860	assetdb/decals/0.fg.0.0.boss_sk_thanquol_01_head.fg.0.0.boss_sk_thanquol_01_head_glow_01.@.glow
167061371762483404	assetdb/decals/0.fg.0.0.boss_sk_throt_01_body.fg.0.0.boss_sk_throt_01_body_glow_01.@.glow
2138887072667249526	assetdb/decals/0.fg.0.0.boss_sk_throt_01_head.fg.0.0.boss_sk_throt_01_head_glow_01.@.glow
-5442821862221236197	assetdb/decals/0.fg.0.0.van_coldoneraptor_01_collar.@.fg.0.0.van_coldoneraptor_01_spec_01.specular
-8695239904355691127	assetdb/decals/0.fg.0.0.van_drake_01.fg.0.0.van_drake_01_glow_01.@.glow
-6122272579759087199	assetdb/decals/0.fg.0.0.van_drake_01_metal.@.fg.0.0.van_drake_01_spec_01.specular
-4636930911915380431	assetdb/decals/0.fg.0.0.van_he_phoenix_01.fg.0.0.van_he_phoenix_01_glow_01.@.glow
-7998776145597771419	assetdb/decals/0.fg.0.0.van_he_phoenix_01.fg.0.0.van_he_phoenix_01_glow_02.@.glow
5090176256796377869	assetdb/decals/0.fg.0.0.van_he_phoenix_01.fg.0.0.van_he_phoenix_01_glow_03.@.glow
8262455559750224904	assetdb/decals/0.fg.0.0.van_he_phoenix_01.fg.0.0.van_he_phoenix_01_glow_04.@.glow
-5264885853295681403	assetdb/decals/0.fg.0.0.van_ironhawk_01.fg.0.0.van_ironhawk_01_glow_01.@.glow
5357691119889513762	assetdb/decals/0.fg.0.0.van_ironhawk_01.fg.0.0.van_ironhawk_01_glow_02.@.glow
-2762174675792561400	assetdb/decals/0.fg.0.0.van_ironhawk_01.fg.0.0.van_ironhawk_01_glow_03.@.glow
8372441284255664050	assetdb/decals/0.fg.0.0.van_ironhawk_01.fg.0.0.van_ironhawk_01_glow_04.@.glow
2067153528804892627	assetdb/decals/0.fg.0.0.van_jackolantern_01.fg.0.0.van_jackolantern_01_glow_01.@.glow
2627519719140568677	assetdb/decals/0.fg.0.0.van_jackolantern_01.fg.0.0.van_jackolantern_01_glow_02.@.glow
-6475748868643416105	assetdb/decals/0.fg.0.0.van_jackolantern_01.fg.0.0.van_jackolantern_01_glow_03.@.glow
-8908977425236168710	assetdb/decals/0.fg.0.0.van_jackolantern_01.fg.0.0.van_jackolantern_01_glow_04.@.glow
4961814605809901848	assetdb/decals/0.fg.0.0.van_tzeentchf_01.fg.0.0.van_tzeentchf_01_glow_01.@.glow
-5007319411809048370	assetdb/decals/0.fg.0.0.van_tzeentchf_01_cloth.@.fg.0.0.van_tzeentchf_01_spec_01.specular
6534931453605253806	assetdb/decals/0.fg.0.0.all_bit_skaven_01_base.@.fg.0.0.all_bit_skaven_01_spec.specular
5496405034184478320	assetdb/decals/0.fg.0.0.all_bit_skaven_02_base.@.fg.0.0.all_bit_skaven_02_spec.specular
-2749605896060720326	assetdb/decals/0.fg.0.0.all_bit_skaven_03_base.@.fg.0.0.all_bit_skaven_03_spec.specular
-4116259048135990428	assetdb/decals/0.fg.0.0.all_bit_skaven_03_base.fg.0.0.all_bit_skaven_03_glow.@.glow
-783980524506962960	assetdb/decals/0.fg.0.0.mnt_juggernaut_01.fg.0.0.mnt_juggernaut_01_glow_01.@.glow
-9014349357029093138	assetdb/decals/0.fg.0.0.mnt_juggernaut_01_saddle.@.fg.0.0.mnt_juggernaut_01_bits_tint_01.tint
-8921088005336544990	assetdb/decals/0.fg.0.0.mnt_juggernaut_01_saddle.@.fg.0.0.mnt_juggernaut_01_spec_01.specular
-713415402771825176	assetdb/decals/0.fg.0.0.mnt_juggernaut_01_fur.@.fg.0.0.mnt_juggernaut_01_bits_tint_01.tint
3635473936349069722	assetdb/decals/0.fg.0.0.mnt_juggernaut_01_fur.@.fg.0.0.mnt_juggernaut_01_spec_01.specular
4254241126908967401	assetdb/decals/0.fg.0.0.mnt_juggernaut_01_internals.@.fg.0.0.mnt_juggernaut_01_bits_tint_01.tint
-4185831308014470248	assetdb/decals/0.fg.0.0.mnt_juggernaut_01_internals.@.fg.0.0.mnt_juggernaut_01_spec_01.specular
-1577990079992195888	assetdb/decals/0.fg.0.0.mnt_mechhorse_01.fg.0.0.mnt_mechhorse_01_glow_01.@.glow
1733125530308936682	assetdb/decals/0.fg.0.0.mnt_warboar_barding_hvy_02_xtra.@.fg.0.0.mnt_warboar_barding_hvy_02_spec_01.specular
-1196982358577756711	assetdb/decals/0.fg.0.0.mnt_dsteed_barding_hvy_02_xtra.@.fg.0.0.mnt_dsteed_barding_hvy_02_spec_01.specular
-3335113619900104598	assetdb/decals/0.fg.0.0.mnt_wolf_barding_hvy_02_xtra.@.fg.0.0.mnt_wolf_barding_hvy_02_spec_01.specular
7556479413967724535	assetdb/decals/0.fg.0.0.mnt_esteed_barding_te_01_xtra.@.fg.0.0.mnt_esteed_barding_te_01_spec_01.specular
-5919123063362413017	assetdb/decals/0.fg.0.0.mnt_esteed_saddle_te_01_xtra.@.fg.0.0.mnt_esteed_saddle_te_01_spec_01.specular
4372642723190795507	assetdb/decals/0.fg.0.0.mnt_doomwheel_01.fg.0.0.mnt_doomwheel_01_glow_01.@.glow
-362949806089670359	assetdb/decals/0.fg.0.0.mnt_doomwheel_02.fg.0.0.mnt_doomwheel_02_glow_01.@.glow
-2270388135214480260	assetdb/decals/0.fg.0.0.mnt_doomwheel_01_metal.@.fg.0.0.mnt_doomwheel_01_spec_01.specular
-3946255019129500539	assetdb/decals/0.fg.0.0.mnt_doomwheel_02_metal.@.fg.0.0.mnt_doomwheel_02_spec_01.specular
4621110058077232740	assetdb/decals/0.fg.0.0.cmm_armor_ma_04_al_belt.fg.0.0.cmm_armor_ma_04_al_belt_glow_01.@.glow
4823721882193570440	assetdb/decals/0.fg.0.0.cmm_armor_ma_04_al_ubody.fg.0.0.cmm_armor_ma_04_al_ubody_glow_01.@.glow
-3536918755461650980	assetdb/decals/0.fg.0.0.cmf_armor_ma_04_al_ubody.fg.0.0.cmf_armor_ma_04_al_ubody_glow_01.@.glow
-2053567175408394471	assetdb/decals/0.fg.0.0.cmm_armor_ma_04_al_boots.fg.0.0.cmm_armor_ma_04_al_boots_glow_01.@.glow
-5256338874680237286	assetdb/decals/0.fg.0.0.cmm_armor_ma_04_al_rglove.fg.0.0.cmm_armor_ma_04_al_rglove_glow_01.@.glow
-2544180828345746327	assetdb/decals/0.fg.0.0.cmm_armor_ma_04_al_rshoulder.fg.0.0.cmm_armor_ma_04_al_rshoulder_glow_01.@.glow
-5694768909140887326	assetdb/decals/0.fg.0.0.cmm_helm_ma_04_al.fg.0.0.cmm_helm_ma_04_al_glow_01.@.glow
-8312528939173428176	assetdb/decals/0.fg.0.0.dem_armor_dk_05_bh_ubody.fg.0.0.dem_armor_dk_05_bh_ubody_glow_01.@.glow
35247745279708910	assetdb/decals/0.fg.0.0.def_armor_dk_05_bh_ubody.fg.0.0.def_armor_dk_05_bh_ubody_glow_01.@.glow
-5366665708791037777	assetdb/decals/0.fg.0.0.dem_armor_dk_05_bh_rshoulder.fg.0.0.dem_armor_dk_05_bh_rshoulder_glow_01.@.glow