6f0610ffcf03feff
94c93c76d603dbff
32dcaf4cdd30d8ff
7c7b4f0b98c9cbff
c0159cc2c1a2c8ff
fef6771aa4deb6ff
540bedb322bda7ff
c5e8560b5dd986ff
94adcc3b380d81ff
35467559024c5aff
24ab5fa191e557ff
b5d16540622b4dff
b750149a37a549ff
6c05d38d76aa48ff
a64258c7e72646ff
87f12b8540bd25ff
2f9ae8f3926b1cff
ffb6dea41a77f6fe
2c49e8758f59e0fe
c88987fc8a0fdcfe
fbe454211d5fc9fe
0a7aec2ccf43befe
edd7775eefd3b8fe
8894b4ea175aaefe
e2378a1fef9fa6fe
6bb984e4ad4366fe
c5990a74bd2e60fe
050bbde5418a5afe
db0ee2bbd28759fe
4e592eb390613dfe
284b632f551e2bfe
ca88cec3e1d02afe
1775753227d21dfe
75815eec904115fe
1c333c581f4ffefd
3f99c4294a42fbfd
79ee00f4c47ee8fd
09fedbad2d3ec9fd
934279d9552ebffd
00b0211639f6b7fd
44cd5e4caa7ab1fd
7e67ceed67ea9efd
4603c95b2ae797fd
669b978189dc88fd
8a7632f5067258fd
0ec695096a8c4afd
6b7336fc93033bfd
f4b35bf9aa7834fd
15d3d6f4bc3c2ffd
08d824012e222afd
20dbd0ec0d0122fd
f252b69bc64d21fd
d23302f8b7bc12fd
c1a293ab6b9d10fd
e5d72aaff29f00fd
0d323eb80085fdfc
6bf0469d7924fafc
727bab61828ed5fc
b2d0db9fe615d2fc
80a4dc7d8f10cbfc
ef4c0a081b2bbbfc
0809bc949711b0fc
915006d34218a9fc
c284d7a05ee99efc
4aa5358dcbb58bfc
92010f1cbe6689fc
df072f92165462fc
4bc29b0f895053fc
e27a1f7795744ffc
9c2b6733be493efc
f93a1498ea6f39fc
e62c52a58b952dfc
af9992cf6b7e25fc
37b2934dc9991dfc
acec017a5929f9fb
fec95f1d2154e4fb
65cc7c4c72a6d8fb
a9f4d24836dec9fb
6c6b58759048c7fb
64aac1eca8c7b1fb
40d7bc39301da5fb
b423418e2e9494fb
129c28f63ff486fb
43011942490f81fb
81c4159a6d9379fb
f0bd55a0daf378fb
add2682d3fef6efb
c9bd99d15be956fb
a2bdaffe5d183ffb
d5b7d330a70d1afb
3a2e28c2df0d12fb
5791d6c070ea05fb
7b8548702e9af6fa
50fc074fa4ffe5fa
02e755256ef7c6fa
f00fba950076c0fa
c7e7ed502846b6fa
c66628b8eaa6b0fa
31dac78f00c79bfa
f8ca66188d989afa
29f3f0e32d3f96fa
1857b3f4382e95fa
26d1e03ef19c79fa
17d4bf533c3b73fa
4d840afb73726afa
7c946259582962fa
ef4fbb16ceba5bfa
7195aeb16ca951fa
8f549d1f6ce231fa
8056d6ce8c012dfa
8f81444c33c32bfa
ac8bfad2fa991cfa
16ed8db74d9f0dfa
a8d3a391796507fa
5ac50af82487f2f9
8672186ca509e2f9
eaed0e2c0ce9ddf9
cad33cf5f089baf9
734b5d01ca90a6f9
efc062536ebd98f9
f56b4a89f19c91f9
1ddfde68410f8cf9
74ac12a81d787bf9
85f1e5e57eff6bf9
2aa0fc41383456f9
95a4e3818bda55f9
fc396fea98143af9
e0029955b97027f9
5f7860e9821c25f9
db7897a2e33f1df9
d5d6baabb8d71cf9
8ac0cea583d7e9f8
15226f2e4f12e3f8
69949986739bdcf8
fa9a988d1866caf8
e308a51de3b89cf8
e62e86b0fc0199f8
d79cf15be9f389f8
d83434455b1589f8
77ccd036b30a7df8
d6f6161d326473f8
dc57705136ab4ff8
528950fe833645f8
33fe1d34348c2df8
862ea4c6d67629f8
1b50780b67a018f8
58a4b83794fbf9f7
a98cc94de5c1d1f7
54b9e81f6722d0f7
cb7b3094476dcaf7
26fa3a5b9e2bc2f7
a90837ca72c5bef7
0f0ed262f3c0a3f7
c578cb76524296f7
3d01df7dacbe8ff7
fdea1733c8ca81f7
3b4c95f4acbb61f7
585da3e04b2850f7
2adfa3ce342743f7
d4cbdd2d0e9d12f7
b590eb225fea03f7
b9be647f10a6f2f6
3432ee706e73f0f6
fed963e57848d3f6
3710a24e66fcc0f6
33d32c366584bdf6
c9ab38826c0db4f6
d86d4be950b46cf6
9546e81c647862f6
50681db54a4e52f6
c674f571d08c48f6
5aa481dd45a940f6
0746ee3ba5083af6
d4fea3e75e4135f6
a1ffabef345b14f6
f1597572820a12f6
3c8a1064c9b2f2f5
3fb8032744e9cdf5
71c9abc650eea0f5
e4b07d0dff4891f5
2c467719e98e60f5
6849b50cdf3744f5
8149afc449b13af5
945d4d89170c3af5
2a1985d37a1d2ff5
e04db2f497982df5
db22d55e40952cf5
851c7949255f2af5
034237a28b53eaf4
aa21e3cc47d1e2f4
28d669980193daf4
1ed714f724fcd5f4
dd500e1c9419d3f4
2bfa609ae32abdf4
d169522cd340b6f4
fd3478aaf95bb3f4
f1a1c66baa2594f4
c675516e643f75f4
59b07ad818b25ff4
d71c9f57d4962df4
1ecb922f337a2bf4
3a8e6ad295ce02f4
e747657d65b3fdf3
776b3a5d2845dbf3
706cd91d37aebaf3
cf5e29c16412b3f3
c3e9c2b8ff36a4f3
9c4a39e218879ef3
9c997c20f61488f3
51261c7708a178f3
ea5615bf674b72f3
a8be7f93f34f71f3
e19b1dceb0d768f3
88d726c59c1866f3
72a8df82aae865f3
fe468951692b64f3
efecaff7642f63f3
9f9a7dab645c5bf3
3e226b94b16957f3
50069e6ae74055f3
0153e1fe1c154ff3
97ea238cb4533df3
ed6f7487f40c3cf3
ba8908a9a8ab35f3
b7d0738be6b134f3
424e9172f5af25f3
2c26d6c87a98f4f2
41a3fdb5d734daf2
d2655eee40d6c7f2
5381f0ece6b4b9f2
78e1fd7444a982f2
b14646836afa60f2
e8fa47b8fd195af2
9fc4c7d35dd053f2
371512bb170f51f2
e34c898999bb41f2
8972d1e6dc8219f2
e0482be4a8c111f2
2d5403114ab80ff2
bcb91d9b58c1fef1
7f537f40e768f1f1
9a14ed1e865fe3f1
4bd05b4aed76cdf1
40b4c21eba3da8f1
f49425aa6bc6a1f1
ddd123d4a99a9af1
239943a4cf5a94f1
d9285432819781f1
4f10d2b297c074f1
159a8006301566f1
106b13ceb2b465f1
ec502aeb8dc040f1
73889be255923ff1
c8b588d9cf201ff1
2813276e9d961df1
9c8ebbf0558a1df1
384e9e3cb33119f1
d18e6c33472afcf0
87791e7c363afaf0
be2e4aa9dc8aeff0
73e514a15fe8e8f0
a699dbb8c005cff0
5fea0ff13fb3c6f0
a81478f38f8bc3f0
5be16c654bf1aff0
92771ac6b84dabf0
bd373263768da9f0
45ffc52883eca3f0
7fb5c9b2868691f0
94380710c85c8ff0
067bac3a54e48cf0
b4b75c4d4aa780f0
0dfe3ff669c97df0
567f97c2294e7bf0
7befbf88b2db77f0
8f0713c7ab2a6bf0
9689d112ebd75df0
ac7b9bd32f3a58f0
68bec6c663214df0
4adfa56a3f1447f0
5f0dd9f5fe653df0
ef5b955ec9ff3bf0
c5bb64d9e12a1af0
fac0760095ba0ff0
236ed62f98c209f0
f3632f64f7afecef
2b047ee6d1d5e7ef
629fd0c1d388e5ef
8952ab26f3b3c3ef
f998bd6e5362c0ef
e63c400c83aea7ef
caae8bf0e4eda3ef
03db741135f383ef
bf1cbaf554887aef
6a5c3ab07cca73ef
2daafeff8f0871ef
f03bffc95e955bef
fa5bbace16bb4fef
fcbb2b1b080a4cef
e231a642160639ef
d1aee20e1c4004ef
8cdba81b7041ffee
bdb69cd67c03e5ee
0ca9f283bd4ee3ee
a7e569665373b1ee
04936330fa28a4ee
7fc65871d5a091ee
54bb7bdf748f90ee
5e232a6cb91979ee
7b7997adac1277ee
0947c627c1876eee
905e14d942b864ee
d5572ed00b7d5aee
6b563660e39e45ee
b4fb1eaa4f203cee
4bb47a0f03db2fee
65d03bb8a9a20fee
d31bd1dfb44707ee
78cbdf41ba2f05ee
9b74f2029bca02ee
961a2189afb9fded
5a7b9f8dbb98eced
ed60a2f83951e1ed
feb8d3ef5e77d7ed
be354cbb2d35cded
a3ece1c32ed4c6ed
81ed80a69ed1aced
2948b9cd8a7d90ed
3a53c595197d8ced
bc3b194d964a7bed
e6c2861c4aae70ed
f33c0cf487746fed
ede15139f8a260ed
bef884dae6815fed
d231891b21b257ed
06c3bc54da2150ed
59885e0b7d3128ed
58c2f96102a01aed
44d88345782304ed
ed8c898242b603ed
28fe1099b191feec
4615bd4e2b77e5ec
6a666a4ca52ee3ec
1ec98ae98ecde1ec
771ffdb43457c1ec
cecd06b37105aeec
9bcb86305249a7ec
4e4d054b8dbea6ec
1b7882afae3b98ec
d9bf5a47f29596ec
d1d3d4148ceb94ec
2b74a677deaa85ec
e7248e4d0a626dec
1879173ee5d269ec
37449f64a4b269ec
b6fd113625fa67ec
aefc5eef370560ec
f140c08deb2a50ec
40d79dcfe15c3bec
1600706b3b5824ec
64c8cebe472d0eec
32e9c625bbb2edeb
97c874b7d99eedeb
7c97263f54e3e3eb
ff46e6b6bba5cbeb
8d51c7d725c3b4eb
5acd531d996ca6eb
04c44550690b99eb
6c63bb1ccd0f98eb
c92dc44570288aeb
0ea38686d45c7feb
4d068e82134c71eb
6512af86c5fb5beb
14767580f2f850eb
0f70067e834225eb
7a1412cbe4d31aeb
2fd2077911f30deb
59f8593981d3fbea
71dd183fe16ff2ea
f9dde90c2c0eedea
53b85e6ba3e1e8ea
e2e53c1b36f4d7ea
999f6fe84bc5cdea
97cdb9d53a1dc9ea
d6285bb78e3fc8ea
af4f27f916fdb6ea
73c9926a3aada2ea
4ecb99690585a0ea
df08fe16bd6e8dea
e5ed43d4ffc083ea
e3c4d2b6b88181ea
94e70d128e6277ea
f3724b67bf1556ea
0b1e0bdd3efc4fea
0128da54dd922fea
092ef9fcc73624ea
d8800960f5eb23ea
3275906c4e7b14ea
bd536fc2c05509ea
7f6d38faaf21dde9
a6b5dcba7376d6e9
afcda5fc14ead4e9
dd9c4bc4e381d4e9
04d44f6445cec9e9
7a6b41811be6c6e9
9264acf69464c1e9
68345a85e02db4e9
db50d871925da9e9
a6d065b82cf182e9
70292e03cf467de9
823637a35b8a7ae9
34563cba1fa472e9
dc3244958bc86fe9
20ca2c3e87b349e9
c505a0d4a3373de9
61b85c7ff0be31e9
0baf4886805723e9
599e10686f4e1ce9
2a79d381329c12e9
51871018633c10e9
0f4ec07b7f9d0ee9
d26686ddd171fce8
f25a19fdb847fae8
5751e4024b47f8e8
5fb49b5205bff0e8
15b15286a190bde8
874babc78547b8e8
23426b1052d5afe8
c8ceea6dd963afe8
a1d1f85890e6a0e8
4b1be5f5694292e8
e05db40543b56ae8
9d99472ca14453e8
8542b8f30a4952e8
86b7d9392a5840e8
01a07854904d23e8
3d2fdc4e75b505e8
622c784e455dfee7
1e0605552c73f5e7
940e3cb9e588bce7
db2aa643882ea1e7
075326884da69ce7
0af227b941d989e7
042f26d415af88e7
c40c6c65eb6d86e7
960662398f4480e7
977f4a56e53680e7
678591fbdfd878e7
f3fdb3657d6547e7
1a9448088ebb3fe7
ec6d620a4d8e24e7
d10861923e5f0fe7
c7ca85b0378202e7
2524b43f6cebf6e6
618ba78f6e5faee6
2b381827f0a1a0e6
354e22f5103b9ae6
431e40c8fbc98ae6
4289373feb4388e6
7e7af2f7b9657be6
606d19a960e062e6
efa7ae830c403ce6
87bcfcf4a10138e6
f89901fcb0862ee6
fc2d958ba5522ce6
c594b019ac0d1ce6
74ec83a9ce6a16e6
26d26c507c9d15e6
3aa782981e4e03e6
4ad25c641dd7f0e5
d0c7197bc507e2e5
51f51e833efcd9e5
c6071629af03d6e5
a673b14eff91d4e5
688e948d8227b9e5
cd0f93aa654fb2e5
d3df1d8b888b9ae5
33483ad6129367e5
c4e3c4a7c12563e5
2b1461d2395548e5
a5efc975222839e5
9f44457c4e6733e5
18ea91ea860224e5
f39eafa8af2b23e5
1e69499d2fcb18e5
cc03f44a447effe4
6ecee61312b6f3e4
2a10606e4247c8e4
0930a6c5d4a8b4e4
6594458ce3e0b0e4
f59148ff0d7db0e4
24b4ec5881b192e4
73901a09caaa75e4
419f1a66e3666ae4
783380d66ff132e4
79b2cc7ed2b32ce4
00fe7ac026312ce4
b9670093b4002ae4
65d0a411ef031ee4
97742ec1dbf51ce4
0d6d772542dd18e4
b77e73350ddc18e4
5ae9d6ab441a14e4
96700f3c4a3f12e4
6d69938666d50ee4
16dcd311d171fbe3
4f59bc725b37f6e3
cb8253687bcff2e3
77f49d89f171efe3
60d9f7ae1715eae3
ce22286e7fa7dbe3
938e2668dcc3d0e3
ea8181b8b6d2c4e3
4a0145429588b2e3
7b65c87e3e54afe3
b727d4d978f3ace3
978121a4fc2168e3
d6c39c19e5da66e3
c5bea016bccd5ee3
c9f613baabc855e3
f241bb9989894ce3
327653eed3f146e3
df9595bad5992ae3
ddb2135b7dc729e3
2bd4776a346e26e3
f89cb8e31da508e3
ef3dc7661b79b0e2
b7d001cefb99ade2
4c82a1cd49af94e2
b506b6f3f27777e2
c9a0698d553677e2
130582fc85af5fe2
8d4f3a83e7a74ce2
832475c226cd3de2
31e88f5829c53de2
fea69fef1f8a37e2
ef39061642a631e2
96d72f79044f31e2
9ce8fe71c5dc2ee2
8ab1ab9245532de2
1c23d106b0e4d0e1
6e99362d2b68cbe1
d5dfdf1317c4c9e1
2c478768db3bb4e1
c0a28fa7c079b3e1
f368d7b0ce1d9be1
2364b61dd5c086e1
d35c5f3447dc78e1
00e0abd239f977e1
376c69af2ad25ce1
7470c9757fde4fe1
b5b2ecd7f8f436e1
2e582834ee9b2fe1
d29ab88237fc2de1
49b0681f03da1fe1
ad3f00d10e631ae1
95ebbb6a82b0e4e0
7812ca6f09f4d7e0
190ac2efa0e8bbe0
2211686d4ff4b0e0
87216fd7243e9de0
be23bc0dd6639be0
02d4ffc5c71a96e0
a0537ec40ba56ae0
dd248c773a3965e0
e86ab54305b45de0
3c654073c14958e0
3d5825b797e54be0
774db33b7e284be0
f211c1a8e42b48e0
8a5a492cba863fe0
bb1f2f86047023e0
c61628cd2f5503e0
f92770b9559902e0
6eb053ed91c7e8df
29efe490be65b1df
1b3bc27d088ea6df
e32a99d5ba9595df
dee9682ac44f8ddf
218cf6d1c1b48bdf
1855e2bd95d384df
81d6435b427681df
5f57012a0b5079df
63ae1a929c8c6bdf
bf9a61c0af3346df
4d7e513095df3fdf
12e834c6777e30df
a6baf6e0b46827df
8059534c698e26df
b8f379cf7f151cdf
8583bcd8d2a117df
ea8d6ebd16fe08df
7bd993de14bdf9de
963a79d7f5d3ebde
df8d4fc42a68e9de
7f7fc6a0be13d8de
48ece51cdd8ba4de
dc88739b99ba73de
86694b6ca12952de
66ffdcd139bf4fde
cd0537828b253ade
11309c49a8272ade
dbb52c98a55bfcdd
d71b04e5e6eef7dd
1c11ad3dd467ecdd
8bc546eaed9be3dd
135bd4b1cbb6c2dd
dbcc2f5c00f1badd
4f095f13e1fab4dd
e329c77d5b13b2dd
3faf0ab7b43baedd
b605158a137ca2dd
57ad836033a894dd
33097951f57592dd
3f56211ba6015fdd
f4d319941c0e50dd
261d5c6659a628dd
764aa80bcbd527dd
e065393a778c24dd
220ff95664681cdd
15f092eb883d0cdd
29317aae1ca208dd
131554a32875fadc
30e7f530237ce5dc
5c2e271430f4e0dc
0546c4b891f5cfdc
c1ccdc3e543eccdc
95e82bddeba7c5dc
3e05f5100410c5dc
d85fb2ef0de6b1dc
0214b38a047297dc
0b2d09e9e3af96dc
40e6d7449db68ddc
ebeb50524e4d8cdc
de73ba999b7388dc
d7c713a0ff987edc
c97dd65ab40673dc
6bc7a6e497c851dc
e96fc88b954432dc
aad657907f7005dc
881262654f43f4db
c639bdee03f1e8db
a56ca9ad4179d5db
9fa33403df1ad4db
ddbaf1005c2fccdb
0149f92dba7fc3db
ddfc5ba5982cb5db
6709d68b236597db
b0830b28aad896db
9d3bf23e250195db
990b4426865a8cdb
34e253b1f8a589db
d8fe0d06716482db
74ace8143dcc80db
e9a95d9271d850db
1bf50cc0d03944db
e7a12e8843a62adb
f9b66801037c23db
b615b9b53b951fdb
7d8152e3817e14db
fe5987d2bbe20edb
0f64247d7b2702db
5e66310adf60e0da
11f14c8d1440d8da
837c652cda91c1da
ae2fddf1430fb2da
b6d52cd9dfd48bda
4b02793aa1b383da
6dfb54104f477bda
6b053edc4a716fda
a8c3202f242c6fda
ab3d31a1355662da
1bd1ce47984155da
02cd362e371753da
5110f6f062b13fda
c8bbc6cc622e18da
1d886f09d5f015da
7d061ca2f3aa01da
d208b6708b75f2d9
036d10c8d195ead9
2baefc90f783c9d9
21e2483270f6c6d9
ec9695f2475abfd9
c1ebca4c50f1b1d9
15fbbea461d3add9
5583df31340a9ed9
164641a2dc4a8bd9
99128ab8469d8ad9
86747f2a19c384d9
29149c7df4d37fd9
18fe0029d49c71d9
eb7355d9afe96dd9
ac365133960c5ed9
7c630a2c247143d9
545b88388a4843d9
4c7f176ad9273bd9
967eab172b9936d9
f1819781325428d9
c90b1acafbce15d9
78f8ec6c1ff713d9
d8cd1006e10b0dd9
1490c0865d1602d9
7fe23d1fd188ebd8
9a2fbd8126a2e6d8
d90d0be10610cdd8
7488cdcb3358cad8
19531a591947cad8
17502e9590abafd8
260690ea506a90d8
9c47af11dfa988d8
ea23ebf5600980d8
9c46206da45871d8
82a8672d31fe48d8
5b7c10913cd53ed8
2558ac6e4fe43bd8
f889155b453434d8
df462b03702520d8
68434b3a060e17d8
8d05dac83303cbd7
a01323d79fdacad7
dc7e98ffa013c7d7
c8cecbd2077ec6d7
8bf2f7b8a32ba4d7
f889f3e95bf19cd7
8816ffa55d2970d7
42d8568143215cd7
c8b87f39fe554ed7
2d341cfc48f449d7
c8e91d2f937c2fd7
18fb0f2757d32ad7
536f3149d25e25d7
d110c38df4fb1fd7
f42d96d4579f1cd7
ddf7eee6e5041bd7
f87364321d16f6d6
d358b71a86dfc7d6
e366dae5199cc3d6
864aa6a1b854a6d6
7c628c50795098d6
0a83a76db97173d6
a9509dcaa3386ad6
548eb0c9237e54d6
3bf5d1cd45e23ad6
1a4be45f15352ad6
eac83f8eb75b28d6
e1c9c41713dfdfd5
f91cd7b8abbad6d5
6eebcf07d77dbed5
fb1a0da730d3b7d5
812430cf24bdb5d5
c45b65135db0acd5
9f8d081c33c390d5
b3389a0502d27fd5
6592df4411bb75d5
0894067703e36ed5
ee5a7d0bd02e57d5
5b36123a093445d5
5cf4311946b12dd5
8b3e36a6f32c25d5
0e61d71e35701ad5
b4573bc0fccc11d5
854dfee8af770ed5
f635415ee7a3fed4
18664feaa040f4d4
5978cebdd9d7d2d4
f7129d0e2dddcbd4
216d979f1cfec2d4
2e8e5e9624c0b7d4
a62bd390918facd4
3df6fc26107fa3d4
299a45c442ea9ad4
518f3bfcb9b66dd4
488cb8ae36405bd4
aed2a6331a1f57d4
11f8124dd9d44ad4
6112ff9855b435d4
c19b39d9344b33d4
5c97f036bb0d0fd4
b773bcf5cbe103d4
65370afaa05cf3d3
e59a8b888b1ddfd3
7bbfcb82f8ea9fd3
193c9a7164ca92d3
5c53c6f1dc6d87d3
2378435775c385d3
2962c695743e84d3
2b4f3c29099880d3
686a450809927bd3
3a784c67d6df6cd3
8663f3468c4b68d3
e178dc47345f5cd3
081a416a5fb943d3
c4c1a02c518f25d3
21e898b3f10e22d3
ee0747b4dfd11bd3
922e5754c00d02d3
0b96247b60e2f3d2
8953376c13e9e2d2
c963a1163c2fdcd2
669b82eada99d8d2
c9d5cfc0da77c5d2
5c1627c68246b3d2
997ae0aa7fe7a9d2
e8fc71d1dd8666d2
f2c7d640ee5e65d2
03c14cad7d2f56d2
a6a3577dee754dd2
5c9703cbec3747d2
cb6b5bc2bfeb46d2
0851d0f83d733ed2
1a8a6254ed5038d2
fd12bcb7f80233d2
57e43c500c5614d2
d9f2758b70b608d2
54b4f2b5d3fbfed1
953fe5d2b72de5d1
25e5f03ec57cc3d1
c92a26aa3306b1d1
ef04401c0ee2aed1
9abdc635e5a590d1
0d5ae0d51b1f8fd1
f0fc2a47336c8ed1
d128764d450681d1
8d1fef1e374b72d1
0a1cd3ebe1c86bd1
f4b640d32c5269d1
2fce05dc6dbc68d1
503bb2b23c9465d1
753cfad40b9955d1
5508847bff6f3fd1
01965c95078f3bd1
4324c22e9c0e3bd1
d18106454d7628d1
abc68163d0d222d1
d71ffbf48dc310d1
094dfe937bbf09d1
633e28a2de4e09d1
e70f5f3e926108d1
0b7ae25add7203d1
965ae66ed67bfbd0
1470b8279b1ec7d0
e5e207c57b19c7d0
c006a4803bdfb9d0
054b289e515ca7d0
1bbcf5e108ee94d0
07265a093a3086d0
9ed4fd832bac50d0
6d5a0574260929d0
9c77c27215b625d0
5b2577e683a71fd0
66742791199b17d0
c797c5294f6e05d0
72d9ff3fb8b9f8cf
212376004b22d9cf
17e4053a3090d7cf
2cc2da787a28c1cf
658a2b64edf1b5cf
4e58acc1aecbafcf
08e739b92487adcf
03e0151761cbabcf
1aabf5f8ec6ea8cf
99cfee4a39b29ccf
8c8573e546a790cf
caddb5017f848ccf
9f60287423ee88cf
1e14d85a167475cf
757ce4fee14f6ecf
b7af6c4f3de16acf
f3b31264c1295ecf
7f219a8814585bcf
aae2ceb81f5035cf
49713a9c173f22cf
1d86899ef65a1fcf
6a88d069318313cf
45fa451255d907cf
5bb2e0ad6ff4ffce
6f06e6737f2dd6ce
2adb7c2ef82bcece
5c4c11800093bdce
56113fda4c059bce
4f484c0da2ae96ce
67c80c3638cb89ce
246bcd727a0174ce
89a5cf23b40242ce
256021604a3228ce
5c1e2156d5f423ce
e3dba77f6e2822ce
af0992c21b250bce
a77cf96d3e66f2cd
2f02e4c58caed3cd
8b51fa046549d0cd
603087edf2cac7cd
755076deabfcb8cd
ac228dc875dfa7cd
72d3c1c96f6168cd
0daf97e61e0262cd
96eaa0c5114257cd
6eec175e2b3c4dcd
0351511ad1d536cd
6ff742e79d0820cd
de3a258b823705cd
b427117e0adbe6cc
69710b5a9c82e1cc
74a93f997be8dfcc
52130f37a77cdbcc
802d557f88c898cc
4695d3a3e2e78acc
0de12e7952d171cc
9731cbe9402a58cc
71928a6643cf56cc
7eb03b3664df52cc
a68fb9c1d3ea38cc
7b57ceae2be726cc
a744340eb6661acc
6a1954ee528713cc
4e68133db13713cc
9771737b044d0ccc
e4ff7e444af403cc
6ffb2a6f9758ffcb
0c44c6308068c7cb
e3f2cf7b685382cb
f7ca6d4794307bcb
d246ebbfc25b6bcb
a5d14e5e6c305fcb
8616cae5fea348cb
bafeeaa2ccc13fcb
6250bf49199536cb
2e7efb3ab5b214cb
03903821ca2511cb
21142ee346200fcb
372a9c42f96affca
967d1064b184fcca
bf9fe3457857f7ca
ac0282608ebae1ca
f9ba89f0f53cd3ca
efa3ede4f08baeca
9074ba4ab050a8ca
29e538eb00199dca
fe2ad0e1c3ce88ca
1747020894427aca
82a05eeea11163ca
5865b1ce90a155ca
58939945e3b633ca
4123ad7ab7472bca
bcd551c748771fca
e355c8abba13f6c9
bb9c20a4ac5ae6c9
f60c21450742e6c9
d2c577dac0cfd5c9
bfbc38959e76cac9
fb56e95bd199bdc9
ea2f778de752bcc9
5a2a6b817fdbafc9
f6b40d6c8238abc9
e27736558d69a0c9
b20cd571801d8bc9
dc7306b45ad67dc9
6d55b3d2c8d65ec9
88d38e7af09944c9
ab813550210b33c9
eb8a287045c42dc9
d1b10633aa262ac9
16a3656ef15328c9
21df8459c2a223c9
d915cefbca1a0bc9
d72f7c932f1de9c8
e8af63d96deacec8
d7c67e07d2cbcec8
78fa4df62dd9c5c8
2e60f931f3eabfc8
d74e55fe397fb8c8
f11f20cfd988b5c8
7116aa80d89db2c8
b5770f2cbbf896c8
fedc0f8afc8789c8
50bae62bd9b562c8
9bf4ef1a4b235ac8
6533f99db83e50c8
11f3eeb3101948c8
276d772a954d3ec8
05ad36d8eb2415c8
592181f907b914c8
6d2cd8483b2f0fc8
8b98f640de2506c8
99e2565db47cf8c7
77e41efe96e5edc7
fab6462850ede7c7
617caa2c8de0e4c7
e7028237b085cac7
bfdec4263ee5c0c7
6df61f2a871bb9c7
1fb6f6018281afc7
b90bf4e98559adc7
97b41ff915f4a7c7
6479ca0d6bb99ac7
d0056e4f29c597c7
2b443c54373c8cc7
a0d439638e4e71c7
c1e51eef81d65ec7
13157f5702e945c7
2270751d6ad23dc7
90a750de03f83bc7
324d57d7f44329c7
590f3d60aac4e3c6
04be25296f7ecbc6
2556fa7abf93c2c6
ba4da820ccb0bfc6
fc89c228d8a8bbc6
18bf0e857886b2c6
4c7180e1eff3afc6
f7fe52b5a6879cc6
80706ac827ae9ac6
1903a54840fe95c6
8418450b489590c6
f4753f646e5175c6
a8313cae90506bc6
fab0a6eab82866c6
ac903dedf7454ac6
072bc36975fd40c6
519998a11ee72ec6
e003552fcd2816c6
e5d603af291607c6
4ec6bd627d8c04c6
5ab47cb5586bfdc5
764aca918778e9c5
ff86d95d0b56e8c5
cb4025786239e2c5
b6a2fa8c80bac3c5
cc137fc8518fbfc5
f01a2ae1d964bbc5
9aed8a587b14b1c5
9155248a3fefa3c5
fe602ebd740a99c5
e61c0dac19b094c5
78929796daed84c5
b1e1bde6741382c5
18f731e096907ac5
f796425276cb78c5
9971f4b668d175c5
457a254e78656fc5
bca12e385efc67c5
581f6f38338e62c5
372a860aa48d5ec5
547abe40515752c5
e34b7dadda3e36c5
9e36f89441c233c5
0cebe09cce1d24c5
492433c1c3211ac5
97584eb0614113c5
062b9f9ec45efec4
161272f1e1bcf3c4
e56325c1a7c4e3c4
77c9199aba55dec4
24655fd314ffcdc4
d3258f512ca0c1c4
2f23489b5b2ec1c4
a57399c4658cbcc4
11cce75c928fbbc4
121b1c73e6538ac4
2d5ce479053489c4
b2aee5380d7c82c4
18d074e38c887dc4
76f15e3fc10f75c4
c239df1e89c26ec4
303ad1c2d2b855c4
5379cb54bec145c4
bc42c2b7423910c4
e7866deb656c0cc4
f3a436ffb8c2e9c3
2496c1720b02dcc3
68567f69494eb2c3
54f2d138338993c3
fef6960c4d368cc3
a67502c012306fc3
4d57f135eaca6cc3
5ee7e571d6b854c3
a095ff0498cc4cc3
8494509b44e345c3
4e8de5ef5a8e3fc3
12296917d3321ac3
c19c91f74c7f09c3
3a0685e875c2fbc2
aeca776a75bfe3c2
36620a3728f9e2c2
c08936575122c1c2
791c918e0e42bac2
2733ddc69183b4c2
713a4b012540a4c2
4bfb3653ea8c9ac2
fc9ee95ea0d784c2
b7ecabe8300e6cc2
b58082cc0b5267c2
2a00746dd85054c2
ad2a63d65c0b49c2
c46ec2891edf39c2
818b980a0c671dc2
16b8dee6a29b1ac2
39d6b290e4440bc2
4ba4bf6aa90606c2
dca7689f200100c2
15ae94fbcc0bf0c1
d9b1f1504ccaebc1
00502c474fc1bdc1
0ab05a00862abac1
98a73b85681ab0c1
67611abe897da7c1
fd109d6bab93a2c1
41dff2f400189cc1
d4334b34d9399bc1
2dd25c93387090c1
3c022d1968977fc1
7772928ec3f860c1
70f4efff726359c1
397d18cc94eb4dc1
2e292a2b4b1b4bc1
1980bbe5c7f645c1
53010820f05441c1
3b7721af52a636c1
068cad7264492ec1
89560458770409c1
9717f1cf86fffec0
ca3523f57295e7c0
847d0324105f78c0
4dfdf65af3a364c0
beaba929e5e24dc0
042bcd745dde44c0
ffc8a2c1c29c15c0
1ab759a7f59e07c0
d0b9df3b80a406c0
46426f59c9f8ffbf
c7c0e53e26c4debf
69c1ffccaaccdbbf
010a0dc49489c4bf
11b436c9a97ac1bf
c9ca769e9538bcbf
32bf2a72e564b2bf
0432639180fba1bf
caf7577845e39fbf
df4633afc0619abf
99e90277399c73bf
a16aa87931b755bf
4d51b775568237bf
8f35ce0b9a6813bf
5cecf5768879e7be
623bca77a43fe6be
b0b4d17a88fccbbe
a4e842647b50b7be
740f137f2e1ab0be
c04de2e529a9abbe
b9ad7fc3769a72be
b908f76808716cbe
71f43905fbbb68be
372e8dcfba8165be
2c89a32bc4b13cbe
edcd352dbb4c35be
f0ef8adca94a2ebe
e09b63d60dbc23be
0031a5a6641b23be
97a0456077eb1bbe
b39e299c3bf615be
47781e6c0bcc10be
17d932035faf0fbe
ddb355a92da3f2bd
87d5e245bce5c9bd
46ca92ce1237afbd
5e5882a820e2aabd
b5be59870b6ea4bd
628c43e1527d7abd
155fd11f5e1b76bd
5e5597a6503a72bd
19cac2ff65e971bd
eaace8756a7966bd
8fac489db86764bd
6e104d6fed4763bd
125bdedd25a058bd
ea0955c0c26f53bd
333b5f3360263bbd
f0a98d76633237bd
20ae4366cf4936bd
c1e22c6a46b12bbd
7bd6cabac33922bd
e0e580454b1518bd
abc2f4da48e1fbbc
6b9e3c198aeefabc
95486f343d46f7bc
1d8d72f70455f6bc
ca1f7748c751d5bc
6a0b9d8a0882babc
f1fec1589b1db9bc
1242ddbb8998b6bc
c567fc5e382ea1bc
34039e2b09f897bc
537efe7c8d138dbc
7e5cef1065007ebc
15a1b0fa8cd173bc
dc3aa249d32b60bc
85ffcfe1fe925cbc
c4103942b7c242bc
8b004a5355cd3dbc
ed7b4a964d193bbc
31b78cd8bf9b29bc
8cb22c74356e21bc
40aa1838262b14bc
61a8d0bec4d20fbc
0aae784d83830abc
41499c50197103bc
7b4af48b36a8ffbb
10df749d446fe1bb
43ec51277bdbd3bb
070cb8853075b4bb
27f7c310b022b0bb
9dc90af279cba4bb
c9e65aaca4209cbb
2e01a106f1fe98bb
8af4abc150e58dbb
07b1b62237e687bb
fd30e9eb6ec77abb
435567dc5c5775bb
55d16603947f68bb
b0c6d83bba0261bb
37f3f9f64e9b60bb
512f6a9681e64abb
e0237004862f1fbb
cb3fc1cca2eafeba
0ae03aa9f3d6f8ba
7fa6ddd7dbeee3ba
c166b6760338dbba
609af4e26001d9ba
5a2622ecef2ed5ba
15e5d6a73620d0ba
4d35a73c947ababa
f335aba8a90889ba
9c8ad00a9b2187ba
6386e349cac766ba
c6bfb0cc20a84dba
4d4c32aeaba840ba
a78291c4fe3d3eba
83543a71f31b3bba
38f6db36551d2aba
577f1305aba111ba
401b04c41f1410ba
4a54b200e2470aba
6aae7d4a19b9efb9
35fe387970e2ebb9
33f5f61557bfceb9
66b5c1fbcaa1c7b9
f6f2a6107f64beb9
8acf049fee7fbdb9
7cbc45ecb4feb0b9
2b45d211012668b9
e42a00b4930067b9
6c1485118b5363b9
a5f27aff94fe62b9
9c62f74b600242b9
8e7ef9337c2036b9
b6aec706a87d2db9
878e49776eb028b9
a9b96ccf64f520b9
be6c710868f708b9
04859d3d211500b9
df1c157fcf79f3b8
c8f1418362d9eab8
6398f7c6853ca9b8
16eb752d0c5ca8b8
4e2203ac73c64bb8
722fdc1e1a354ab8
4ca1910a316641b8
a45f65eb714932b8
6bec5995ca9e22b8
06abf35752f121b8
1e10d551191118b8
19eee82163490eb8
7a3e41db477804b8
c26c0e30e8abecb7
f334b1e68b73d0b7
e2ad99fbce01d0b7
cf6ae13d4f6cafb7
a1d461ebff30a7b7
4f8a76a490979ab7
57278df3190799b7
52edc90e80337bb7
d403e1cbf5bc73b7
5058913a387e72b7
ff49a5379a1450b7
e3acf378d9d427b7
9cb621a576d813b7
54b9500efd6505b7
ec67fa253611fdb6
52599319e69ffbb6
86d9ee1a7298e4b6
da8bd4dfd92cd5b6
289e3ce0211ab5b6
f65f51828864a5b6
c5c3ba808cfaa2b6
50702f47b5369eb6
6e6d6ef6042291b6
a60ce5dfb2358cb6
408666da3a407eb6
2b8375a9cd5b4db6
628b3ca6b1f439b6
7cb36a8c99032ab6
e3ff2e66f7b524b6
b1695650f71619b6
4bd4c6fe16fa0db6
dda27c138a1505b6
8e099c6ad03ef9b5
257d096e1926eab5
86ec9322e760e9b5
ff4d2b624065d1b5
bda46e0b8759beb5
da1d940b5c5ebdb5
e136f4f8d7ecb2b5
82ec3119919aacb5
d25da4bce9f1abb5
125fa69bd9d5a7b5
9760653d0c1ba2b5
84bfabc0fed69eb5
f703ea5f22eb90b5
c267520bcc8280b5
c896f8bb2c0f77b5
cb4741b2f0c857b5
7c9b2a4a70c356b5
459c2ea50f8247b5
138b8ca9f1993db5
4685cd36b77537b5
d6b2c445ca061eb5
e27777f2f3b606b5
ee3c204faa1efbb4
7e7acc08187ed3b4
0f80a74a4d5cb7b4
3bcf8ea588eca7b4
074774a63da15ab4
d511ccfcc03b57b4
5f16b1a279834db4
165433a2c1d544b4
4fc53a7ceb123db4
cce6db0a7e1127b4
fb94942e8e4123b4
29d52cb33d3e1ab4
ed2ddb497c6ffcb3
58fc9a8f1789e7b3
0c29a4688fb9cbb3
7023133882b1b6b3
1db933c119a7b2b3
5e142a4c5fe3abb3
327076a9cf52a0b3
be15f63b9c299eb3
5a6a90aae2a087b3
4b3ae37a636186b3
5f521ef93aac83b3
22c192d46bb772b3
22fbcc4f57b95eb3
426d3d2c738c4fb3
aafd5c1c57843eb3
d57fd202059a38b3
a4d76ea202cb31b3
9c00aa8b22592db3
a002e2afadd923b3
ed4267530caf01b3
108ef2297b60e6b2
fcd215e69fdbd0b2
42c1bc930c7ac5b2
20c35bf8b60bb7b2
11c1ecfe547eb1b2
c5ab27b16d1b91b2
96a084fdbe6b86b2
03be7185b20985b2
2e370268fba166b2
9b67f1fac44857b2
75087ea09dcc53b2
63600a2d92fb4eb2
5a151c2776d446b2
a401aff977e742b2
3c3ef193f48140b2
3df9da38ac4c32b2
8c36347af43b29b2
5cbc88ffab0d29b2
0a51dcef706b15b2
c98b1d8071d50cb2
6debbc49e4100ab2
4ccd5a503cdc05b2
90ff4e52761703b2
ae94f3827a90e8b1
67bf0168d05ed7b1
8991a1133cb9cab1
e84013b4b6307cb1
6b1f2d809e227bb1
6c1fc22e73d477b1
b61916f7505669b1
f260fa6a834646b1
afb8ab77cfc042b1
299b4d9757bf30b1
40daf0d2eec729b1
0cb9a7793c931cb1
aeca6ee345cbf6b0
092596fa08efcdb0
bb6102ba3bd8c6b0
8cdad04f6162bdb0
becbfc887ad1b4b0
55ea27c0018bb3b0
65718875e70aadb0
db96d8aa280b83b0
181a0288344b62b0
9ab149fa69b153b0
43dc93924a6648b0
30e82cbe45c043b0
76e34c88bd89f8af
515aa2094035f1af
1fdd28e16b15efaf
b142c0cf77abb8af
8756ecb27316adaf
416a4e7bc0d9a1af
fc257e6bcf9299af
76b9555fb9948eaf
754b4686020e8daf
7c8051db7d7c6eaf
3b8b21ca84c56aaf
3ac35224b8db59af
eab6fd16f9274faf
a5d96004f4b438af
63eb5e9e584511af
ec600537ef5efcae
a7a1b1229d77d7ae
d4571f1a33a6d2ae
2f7248d8ad93d1ae
c2e3bf756a77caae
7ad10e9910e7c9ae
3b83d43c9b53c3ae
aaf11b959270c2ae
4948dbeb3008baae
41146ac78392b4ae
5f60fff951fba6ae
3104e3ddc3bf97ae
b1e8907a82f394ae
349a43a7c0c48eae
3d7f8e56f7f184ae
13249dab956177ae
4cbb319edd9172ae
0c11007084a161ae
78d491e6814e5eae
8d3f50a1fe3a38ae
5e6d7c79a6fd37ae
dab20f43f1dd2fae
2701ea179c07fcad
8f491a96050ed7ad
0c8880a4a4f9d4ad
fb6eef3f2d68d2ad
90408b8bfa35cdad
1fcd2ad96ee09aad
0ab12dee586887ad
76339e2073ed84ad
4ba5422be4c968ad
e11a630ed1003fad
135d65eb17d03dad
67d2017e15a43dad
0dc8770a089739ad
84a743e08e0a34ad
71f63b275c8a0cad
15e09c952c180cad
9a36cd3ed0c606ad
53ab3d4d503401ad
1ebe3a00defef2ac
fbf929597a01ecac
f7db12b72773ddac
8080b7b497b2c0ac
74f6d9129c389eac
c64a45f7ed3d90ac
fa1c99fad2fa8bac
8f0b70c6d52d87ac
f0583a2fd39b7bac
9cf17a5a5acd75ac
3d4f65e4f98766ac
959272538b6566ac
4ee205cee03852ac
80b870ebcbe247ac
d95e0c96335136ac
9fa75998a85730ac
cda7df75c88d22ac
5a3f553e94fc20ac
8eb04f4da60415ac
91a0170e721410ac
6e83efdf26da0aac
cae1ba8e608202ac
435135d55437eeab
226bedc2b21decab
cfdf62b81d18e9ab
3e800e7fb5abe7ab
9bd023492cfbe2ab
32d6a697891dccab
d122d2d06381c6ab
bcfbe148daf4c2ab
e4c752abf00cb6ab
6a904a74760aa7ab
2b0aded797a09fab
8ebf5457938b9eab
e48da3bd7a5494ab
112c303f8ce481ab
c9330b21503581ab
41d459c0193f5fab
d436845a6fa75dab
258d264c123f47ab
da625635a1313dab
4d40d281741935ab
25b544cb89e928ab
559298fefc0325ab
98269c2f417620ab
2cba62f1eb9419ab
4f11d3ee796904ab
b33e84571c5cfdaa
6d87a83c2735fcaa
1e732b66135df8aa
3427895dd24de7aa
cf35501fb8cee2aa
556fca4bff91e2aa
15c90aa285dcdfaa
8531586ea9f6ddaa
dc05707f9057d6aa
7e5d8168d16bd3aa
8c317ac1c39094aa
079691b0ccbc90aa
17462b258e6d77aa
fa521e4628b561aa
59c874474d2257aa
f4e2d147cce321aa
1579827d67c1fea9
915b2a3291e0faa9
fbc9de3648d2f4a9
42e7bd77d0f5e2a9
a568e7446c40dea9
b920f564cf6cb9a9
1f34278077fcb4a9
7c0e13072b64a5a9
92dcb762689d9ba9
7ab216a105439ba9
f7d1c1e54dc98ca9
958d22d8a3cc89a9
2daab292b06287a9
1e0f13f31bbb69a9
352518b099e45da9
ebd72ca9ee355aa9
b3a16c4461e557a9
d66a38a3ca9d50a9
300c7c09bd6f2da9
cf3779c994642ca9
8b095704a85b2aa9
b786565c2c101ba9
38d0187f29ea11a9
f7bec572ca3708a9
4774107b0951fca8
fa07657991a3d3a8
f3714ff3937fbea8
464298653751b7a8
22445f50eaff98a8
b5bba28963cf8ba8
84661d637cc985a8
382fd9e38ffe74a8
5322de90363871a8
91075e03a9866fa8
69a9b32046d466a8
70ae1d64114864a8
54b084bea2125ba8
9eb912b0bfaa3ea8
c66b5090ae3c31a8
8d211b91603b28a8
14a89dd590cd07a8
2b1250d4642df5a7
20238c9248e7e1a7
4117db3c79a5d1a7
81c7f6072488cda7
88c51ee1508ccaa7
da5690eba36ec9a7
6cf2cd04b444b6a7
e74ac6a39530b5a7
6e18a882ef75a7a7
02c7ef5b0181a5a7
aed7779d22b1a1a7
ba3e3dfec49182a7
3ec04679414e81a7
cdf2663e6df97ca7
5d1ebec76d2972a7
f9e00238ec0570a7
723c9d529a8c53a7
3cc898416bdb46a7
cc1a66b60e3444a7
e5da670ccf092da7
5551f950d86727a7
092b61e8416304a7
afbff54dbf71e0a6
172a82c8dde7d2a6
76c1de73f62cd2a6
1e719cfd6088bfa6
18e38105becbbda6
df2768b4e0f6baa6
563bd2af2587b8a6
e9d67673badcb5a6
d24d75ee7d57a3a6
f0cf05c0b8db99a6
cc38ead3c1b98fa6
935881d0df868ca6
84af0cc59f9b71a6
b0768cca41d370a6
8c8f8c58f80a5ea6
4b2055b8915d5aa6
ff4626e7c75842a6
d4ac8f9190d32ba6
846ee3bdba2929a6
b68c35b2dfe50ca6
e52af2f25cc007a6
0450fe358a5b05a6
38fecee53019fea5
15c6ba8715a9fda5
41c25f695ae5f4a5
b962fe94ff7af2a5
e539282275c9efa5
af38b4f40460d9a5
a3d2736549b9d6a5
0d967e7be595aaa5
c4bc8c65c49973a5
7b4e0c4150966ca5
996849fd3dd769a5
a9de406c44e768a5
42be0de96dec66a5
241985eafb955ba5
bb228430bd6746a5
0eab2d124b083ca5
fcef7afc8f0e2ea5
067ecc455fd827a5
d7913acaf85714a5
02fe61298aa412a5
81294a55fe78f9a4
beb7507b6442e8a4
9b49c23eddc6daa4
b331cb02a26ed7a4
d11dfca2c66dd3a4
84eee563009ccca4
7c81a6be7b3cbaa4
f7ba28e8778ea1a4
383bc415861f82a4
19d1273d3bed6da4
b8324971eb655fa4
2a3e68024b3e5fa4
3a73949ade5b43a4
0a45f7af2dc436a4
b242e777f9af01a4
edc6d42ec3e1eca3
0c77563a1798dda3
0aa03f89d658dca3
a5d6b9496573d2a3
5f2b25adf322d1a3
b4fa07d70823c5a3
933933b47f697ea3
97fa93b345827ba3
36406e1fc10478a3
5c3814328b1357a3
41e70773f9b437a3
ee922e26596631a3
dbc61f9b15e92aa3
087e8f06d6372aa3
942bef7e67141ba3
60fb3e7833460ca3
1b4dd59d6a4cfca2
85ddc2298c9defa2
bf08699ddbc4e5a2
4c5456344f9ec5a2
912647f5aceec4a2
fb3f185dfeafbda2
4e55ba1b6d3e56a2
203f665ee1a8fda1
5be911bf9e55fca1
060e7d136fe7e1a1
b54591a1fa27d8a1
b7a730ffeb61d4a1
e8a0e69058f8d1a1
320c2d012b3e92a1
8993d2d4417288a1
3bd2c6a80ba876a1
bf55b73179a86aa1
e5cc33c51ca857a1
573c69c73e554ba1
73f7f1142ed626a1
75396280817402a1
9a61bbfe2d1df4a0
23d857169e32e5a0
c7714e8e6339d4a0
48dcac9cc677d0a0
8e49c4ff68aac9a0
625a52c94e00bca0
25eaa8d35b70b9a0
c34ccc9804ff95a0
3fbde17feaba89a0
72583871285b60a0
e06aa50bc47e53a0
fb3455f518b951a0
8958667593d84ea0
4d29be63037b3fa0
d7340737325f31a0
118bf898812a18a0
d7cada9fd72313a0
74775dad2bdf12a0
2e786a29c5fb11a0
675d32cd8033c89f
ad576675b1e7b59f
ac3057a89859a79f
dbd41adf0334a39f
ec366727e0109d9f
5ad7db9203bb9a9f
f35b5c64ab7d9a9f
9044dc6bec52909f
1527375cdd48829f
1384011a3aa5679f
cf88ee237428609f
0ec8d923f603559f
e533674e7c45449f
6f21f53b8cd3359f
723059ee5578269f
7c6c2ef7b645149f
8f0cf1ad2dfe129f
7343ea733f3cf99e
20fe8f7e2944e59e
5b5ce8c736b4d69e
d050ac2b83fdd49e
66645149ea09bf9e
a83eaabfb012b99e
bc5157f6a0e8aa9e
68595883f211a39e
1d273c6dbcf8a29e
479b7aaf67bb759e
3a44f928a5d36a9e
2c07779d20b85e9e
2e367679abc3529e
f3636e8011574b9e
907529689c4c449e
c533c24194f8369e
bafa11ce517a109e
00032163cc28069e
10ca65236bfed89d
7132f1e94f11d59d
4d3be3e7781cce9d
bba4cb79f20ac99d
6103a7cd7bdeab9d
4b87d5a1aaeca59d
60e55cae063a9d9d
e85344a12c47999d
8d286a6f347a8f9d
6d5e154792f07f9d
25cf95d8cc55699d
046620e3f62c589d
327af77a5b8e4d9d
db9501253ef23b9d
ac75cd5a5a7af19c
5b49ff908e6eef9c
7afd80ac8a2ced9c
bb9435364fbeea9c
15252d70dea3e99c
e22edcc571fee89c
0334345a345ab79c
a77d016c97619d9c
6a3648adca389c9c
f11d8a55f0bb8e9c
ba87219b0ad08a9c
945211a8af477e9c
d025b61572c2779c
b3f4311058286e9c
83ded0c08ece6a9c
b94202604bf7629c
f39e8718e2394a9c
d87158a46d20469c
c0ef7f3d091f429c
6147161782df3d9c
fc3e49be33672b9c
43817b538f34199c
c6d4b993d52d079c
b32d59228baa009c
2da3406af7d1fb9b
c85a234b1aeff49b
1e58d9b59867e39b
abe2fb2c4923d09b
99c4df8d63fbcf9b
eca749523086cb9b
4ba5877b9c30cb9b
c231c2a78160c29b
364b1f69cb479f9b
16910d78e99f9d9b
78360c772dee959b
33d0a9fffd43939b
ee02ca9b02f2749b
2fb16a16259a5a9b
536cadc5ddcc4b9b
8d011b1ad84c2b9b
6283a46c1013089b
067af813a469cf9a
3670e8540e01cc9a
d190a5e535c6bd9a
b053b169fa49b19a
811bcbaf3834a49a
83485e3e7a8b9d9a
7e928f5534689b9a
8fb36ef8c3e5969a
3c304b3c4307909a
03d594e7677d6d9a
a0f41d2dfebb619a
8f4998be2341379a
d8e6a22681bd2f9a
6af1a2857a13209a
4c2322de7a43f399
239e3e25bbb7ea99
c7f87cb45d56e299
463332a6406ee099
cf9cb2394aeecf99
9bcffb638ddfc499
6b4988a6fe46b199
eacdc54be86f9f99
18b189934e968199
37f0d88f1a1e7299
c575d168b6f47199
51c6f761bebb4899
91806d49af134899
98704fd027754199
d98a9d46b88a1299
db8c5a8626440b99
097f88a78b40ef98
64f9ffe960fcc398
0f08032881e6a798
c1b01a68853ba798
8d0df56f83bb8798
6ba64e4d5e038698
8f8798fb42266d98
571bd456797f3098
950d7aab24a72b98
1481d0a72cdb1898
15dfdfcff1b60798
295efe848b19fd97
f33d53b48c23ea97
2f88a6165c7ae797
8f1a135ff670e297
ebed9ed9b774c897
c7a7f415f91fb497
be1beb776045a097
0ea7a580dc909497
e36821fca4218197
33535ca03fc58097
e78036e5564a7f97
e41cf5dbc12e7497
cc0c4d047b737197
b5a21b0c3d656097
c5134161b04e5897
97a01a10bf285497
3d75cb9b3d625397
0948367e9c234c97
02b6ffbdceb32297
c0feff86cff11797
1a866bf37545f296
3841d94a1aaeea96
cd574211c5a0ea96
34c41891115be096
e2314f04792fd796
a3b4a1a0e7f1d096
7c0687630115cf96
7c057495e81ab296
1fb0f9ce5125ac96
b2866bbefd84a096
406c899c107e9296
e2d9fc8c945b8c96
f05dd7eb12d18996
9232b94741708696
4e98bc5f776f8296
d936992b17ab7e96
cafc84b164107d96
e4123f4a3c0f7096
75891079b0956796
d0fb7bd66ee65a96
0f8dcfc475524496
deebd3f5d7793a96
7ff6fe7309ee3596
16816a6e93802796
43dd5a35f7a92596
edfdb9af89211a96
8e027ee9f5391196
ada9c6e3685ff095
89a6044e37ccee95
e0e4b0826abbeb95
73a544e59283e095
5a629102e8bdd795
4abaa8b250b2c495
59cb2735a7b69a95
ac66658b53729295
a989cca3d8228d95
a061e820f1218d95
4cc71389192c8195
bcf7463d346f4895
f66278641ce84695
d1e52db7d2e53f95
110de08c911d0095
ea77628e120de794
ffdb03d6763cc994
ff810d383bccad94
3fb5c07c6d987d94
3ae27e85e70e7694
702436f1ee4c6194
af249ac3644f5794
83c3070bfdcb3e94
f08f5cc810073894
8e05fcf7d1e82e94
07d75c4690cc2c94
a31b14677eef2b94
e7bc88e5b93c0e94
ada6431e9ab00694
475ad346059b0394
441807819835f493
09f94fcc91a4d293
79db7e47be9ec793
b950f82a59f9b293
57d051588130ab93
6779cb10859d9d93
75cff8224ddb9793
ad5b466e52677b93
a68c86dfd0815893
5bdd4986f2b14893
fdbf2e55d9794293
e00d6c4101d24193
a37e697fb4333993
6664f29d15e62e93
566009e3f4902493
9b2210584a582193
1b990893eefc1d93
3a53c45a6d91fe92
24e0fcec06e7e892
641a989f6d4daf92
0a831722812e9892
512143e125de8692
96d736bb99dc7e92
f0ab4db8c61a7792
e9c16494f6ac6492
8befef10bc293792
476003eb6c2a3392
9686704147b93292
18fcb0e67bae3192
d3020dc054572e92
602b31e28a262592
7d148b8863d41792
fc8966be1c0f0192
4bd949d503c6b991
ac1014720e17a091
824b4d0c00ce9091
75730d84d7268591
7f104dcde7dc8291
994813af496d8091
852e24913d6f6e91
a9fae091322a5b91
fca91842d3065091
088c6d34129a4691
295c1636e1263a91
5751915943753591
2702d89d708c2d91
a2c4eeacf5472691
0c5cb9eb37c90e91
a86f86a9035e0791
b2031776524eff90
72521d4ee12af990
631271e65aa2f190
b95ea22e0463e390
c73bf803de50a790
836b2bea69c29a90
0b146c65cd257a90
9e444c9c68297590
caa850b04aba7490
3a62efb5cd1e5790
6d6ea7b634205490
2a12d3ae8a314890
9f9052ec6bdc4490
5e235cd56bf83b90
8a22060bd9092d90
02396453282b1c90
8dbc8b5f93d20e90
375f864664b80b90
7257801bfe580790
1a1c961f12c3ea8f
46db51310f1ae48f
0457c8cf07cade8f
44ed8edfc857db8f
6f4d523c9cd3d48f
2e8e7ef88cefce8f
69ddaa611218cd8f
7684af28bbcdc28f
9a96e5c3f86eb38f
893b6e390924998f
986d2642fb98878f
fa2bc3334c44818f
0a429959ae0a718f
fa31e26c1f9d548f
9a374123be98498f
0cd1be68fc463f8f
bf13689a0bce358f
f14518add526328f
7ee7899ccdf9258f
4ced440459ec1e8f
15f298ca4e791c8f
97e270f65f131a8f
9f12fe2dadf10c8f
ac872dd5c6700b8f
f06b2aabc713078f
46f71a6a89d7fe8e
01cfc0ca30cae28e
38775f5e7b85c88e
ab9e8b935754bf8e
8c913670a135b38e
ac1504a64d4fb08e
dddd76cefb7da38e
2e455acb2790928e
b936207c33f97e8e
0af3f93236bb7e8e
371ec9ab42937a8e
7d1e503679f0578e
5af745252ee8518e
3d38b1fdf6933c8e
3380ea9b30d9258e
55a514cd505b1c8e
b5f93ed06a9c098e
942ee8d1f7fc058e
961139f5e97e028e
45e8a35b0488fc8d
e446bb54aa5fd88d
e89aa05789bac78d
567e9faa02fbc08d
900ed2935f8bbc8d
526e0a669bcba18d
29199c5f2a83988d
ebb4c325d7c7518d
e24ca7e7833a4f8d
5ebdc8c28a8f438d
ae383afea1503f8d
7aafd684387b388d
9d8f7a346f6a288d
a8283b60911b218d
d1724b371eef1f8d
9887bb836ff50d8d
d7cb0333c8da058d
9b2b4cd81a1b018d
ac9cdd85f6f1fd8c
9ee709de89a5ed8c
77f2254460efe58c
b0bd62614fd0da8c
247e731c47adbf8c
bc216e35742cb28c
0012f423e6c8a78c
63a0ed76f25e978c
8eb335a17036918c
a65e0af8588c8f8c
146cb43424018c8c
13301d1a2503628c
b2293bf47a34368c
aa9490c3c17a318c
4bb1df7dcd511d8c
396d741de3cb0c8c
d7a42ba3b8f7f28b
923729bc10efef8b
10d1ebb21eebcd8b
81b50d572da9cd8b
c80625de40f6988b
2ace296d8c7e598b
cdd0496504fa518b
7c9579bba0884e8b
d5252cf3a6363e8b
330054dfdbe2198b
bc3dcd55534a008b
bb8de550c1abf48a
a6a3c7c571c1f18a
1a006c11601eec8a
d0bebfa57bbbdf8a
49f4727f732ad38a
b9bd7fee9f04cf8a
8091b9b8bc4bce8a
f8e9d783a5cec08a
0c98f96c9afcbe8a
335049c50467bb8a
0fb7f9825e31998a
404bea9e4ef07f8a
edfccf9bf5247e8a
8015c547eeea7c8a
23847d31fa99778a
fd587206f532768a
00c42cedaa08708a
e03f86ba2c495a8a
d8fb13a8a974578a
36d3a2fd1c9c3e8a
cb26c5597fcd3d8a
049e12113ec5288a
902d09d90b06228a
264faad3fb5afc89
85539421f850f389
2aa2604ae978e989
2eb8f45a405de189
270c97169fd8d289
5ac1d803f0f9b189
ce4202b423cfa589
13e3c5606d5ba589
b1cab93c13a19189
66a21a79630b8e89
f21982dce6d17289
ee582bca4ff96e89
a04ed89375665889
c109047758045689
d2e2e9136c375389
efc3b3f326ab5289
3f874267f9f24e89
8f992409396e3b89
2f5364e1efb02f89
a9a055f63c33fa88
1c4c54896757f988
814941dc4048f088
7d4453d1352cf088
32acc8821662e488
5dde3dc36b33dd88
f366189cc526d788
c94499f07a8ed388
a7ca8c50e11ec588
82fef6922e07be88
8709037bc29ebb88
7d6a571e4047af88
63481688f946af88
6c5887ef9606a588
206e4ef2fbea9f88
feae5a17eab49488
0dd81d2a6f9d8888
b81e55a4baf58788
693846b47a0f6d88
63275456441d6888
3298dd1fa4866288
49794ecbc6544388
41e2a4f0ab4b2188
dbf4434f65621288
78a4cf73de1a0588
b7274b764a9cfa87
ac3d37ba3f98e287
0802b271fdaedd87
bdc9e5bc45e2d587
4f707bfd8c6ed587
e63801a1f4fcbc87
3b5f24027744a587
b928b06e77498e87
d043f4b1c39e7d87
f0fa3a367c1e7987
96bfe814e3a86c87
447a21598ba76a87
620b604b4c2a6087
afad1673b2ec5687
2f80f634c7fb3d87
66748e11a8fb2487
e09d3e24d76f2187
9a821d02ff421e87
952fa1e7a3691b87
36ce02b0d9650987
88bb9ec27b030987
b5e960e72293ec86
83948d7cf93ee786
b6e498721aeed986
1511246fd50ac886
14281e06b6aabc86
4399c54a83b9bb86
e840582a39d9b786
468b0e5e29c1a786
269303354a959f86
4ab07ab9fe599886
de5229a16c4b6986
70bcde027c104c86
d6a654b8a1a64a86
6775bd5e0fd84686
29abcf78959f3b86
651cbdec64883086
f82976d6c6a42e86
cb48a3fee5ca1686
20f4d13597b11486
2114a43440dc1286
bc5c92fee1cfff85
4b8d3320f723f885
a2ef9d8c29c2dd85
61aacebd170cd585
8e70fa719cf6cd85
7d38a114a609b785
0ad7de1a1f79b485
e35c38a2b584a985
6f8261da06169f85
ce76d1fd25d08d85
89f350f821945385
d50e77afe8fe4d85
7bb31d02b6024b85
e852490af3b84285
23e1837f3ffa3385
aaddf6a96e583185
916e6f3d91242e85
1f1ac7f098691e85
f52a5f2549791c85
1078b56bf9d5f784
a4cc9c0063e5ee84
3bd6cae396f1d484
f4fe8382af10cf84
325a7d2dc532b684
ad340a8ee043a784
c345e3449b509484
2b15435c2a308984
830cbe5c46907184
a62929babde36e84
30bd5dd667a46d84
a885c97c631d6684
6707fa37b9243f84
e11c6d8452e93184
a3838a8f48231a84
c69095480b451884
0bfafa091a94f583
6c2da7a97956f583
943ecbfd0b07c383
2c5f19096763b983
485a507bec31a783
336ac3401dfb9b83
86e73ef97c8d9483
dac191da2c657c83
82827b63693c6f83
909ac269ea2b6b83
14fe50e5d40a5183
9a9d8b7a3e5e4883
1f79042da0fa2b83
146a2d82eb6d2183
847190465cbe0c83
88be072e92f6fe82
cd1e83ac75c7fa82
1165b1b28e9db382
4ae2591b960fae82
d848fe312d67a882
a7bb322be1f6a782
ca6311a1ee5ea082
307927c135709e82
54e0141a8dd78982
836f3c69637b8282
1c30f4504aea6482
a1957eb1134a6182
cac996698b784d82
41d363c244ab4c82
9190ce000c4d4b82
4aa666430df74182
59c8a41f02d23f82
695f7574af6e3682
e97a8a5ba3373682
10f3f6bad9bc2d82
6a9983f329830582
67ec9087dc79f181
edacd19ea680ed81
0300605cc6eee781
094e19dfc836d081
a7cd882407f6c781
fb79936d9a15c481
8bcda92d570db581
0e6e853f63e69381
c21d670c0a988b81
74638104ffa38881
7b4b4cb5fc5d8281
7e624f0e7ead7881
56ebdfa64a646581
6bdbceb9272e4c81
f53ab149c4af4981
02f2f2e5af1e3381
0a8146d48e343181
a4f978fe554a2981
d5b5bd24cf302481
4cf4711b66a82281
9aa43438afcb1b81
27a27bc09a980e81
1c4d21dfa2a3fe80
556d23cba9f4fa80
fccb108f7ddca480
8ace4bbcb8b99180
acc0b297b4b78080
46d291361d447d80
c69aae27c86a7080
df268e694c535980
fa2d018cced65680
72727b74ebc24880
cc98c8887f552d80
341ff1b973371e80
8a7ceaee47c51580
9635ee0973fef67f
8c5a15c35d7ef67f
d8eb88d11f3de27f
ee91a0d57158c67f
1ec50f69db84bd7f
17066b7f4d07bd7f
f0918686b2c9b57f
bae3eedbd7dda67f
100f355c633ea67f
51c9fa9667a49a7f
e9dd21affa386d7f
f1f168e7407f537f
a7cbc1755704407f
65dea5c92a561d7f
9182dce7cd4d107f
48dba1c48addff7e
45662fc2243ef97e
5ca86cacf6a7f87e
7b3e4ea551baf57e
8f25f9cd9c89e77e
5b0ff08d3b9ae37e
cc52df64363bb07e
791ea83ce235af7e
8ab53cfefc859f7e
2fc272fbcfe2957e
e67b65b9f7f27a7e
4206cdbd3e566a7e
fd9eea67edce677e
8178ad7e0e4f627e
6007a6d0f2525f7e
aad36bd168815d7e
bc7e006510ef5c7e
4a1cb31d12855b7e
043a57a8c3ac5a7e
58a7352b5742587e
5914401720a0437e
01b22209392b3e7e
5340c21dc82f3c7e
573e8e1b7ddc357e
e992357045f0287e
6ac00925c858217e
265a5a365dfd097e
1b07af36584b097e
75bac3e7ed22fa7d
79bd7dc0daa8dd7d
ad20f58b2757bd7d
695f6463bdebae7d
3044d50b6f548c7d
c04c2c190034827d
db147e81e352817d
54c372344a3a767d
88af47401e576a7d
5f357d1cd8b95c7d
6edd22683ad14f7d
88f02c35d153447d
85b709a614a1387d
1e21b14ffd2c377d
3e7cdf6acfad297d
4a29a7b356051f7d
8e57f07936501e7d
9217d463888b147d
da01aaf3a21c067d
ae231d89e98c017d
06442e8e2d19fb7c
577cdaea9b42ed7c
0c6b54c69826e57c
7268c2f76d27e17c
b9551b8949aed47c
b9b0feb4ec45bc7c
b62a03998c6ab37c
629edd649c70ad7c
9cf5bdb7ef70a27c
25da828261a59b7c
ebe3e3543f26977c
8b4e88a0bb79957c
fa6229585962947c
a4ba3c7bbea6817c
af6e7c7ddb51807c
ffcbc9980b4f7b7c
73b0f6aef72f787c
d94371242c0a637c
d6985079508c627c
a9a5642b07130e7c
3c6c2d95afd10c7c
96cf15016387067c
96b21ae89574057c
f077dbb288bfef7b
7879a7ef099aeb7b
09638ca68ac2de7b
def9bd14de93d97b
bd2239c3bacad67b
087e739b1fbbc97b
7ad19e3999abc57b
d39feaf882cbbf7b
0cb39181d52bba7b
854b02b6021db37b
ddb25a71a5deaa7b
62a3707beefd9d7b
faf69a2e7048857b
ee7712acad97797b
2b0a1af08149787b
e3af543e7ec8657b
43591b4e3a59627b
2be152970c435d7b
cc26e72baece577b
a56c9650410c4e7b
81825dfcb54c4b7b
bbffa8368bf44a7b
3be79d3a522f3d7b
4bd645d1d0aa2a7b
6effb18279c9147b
3e0120cecef6087b
9ced2c8aac80fd7a
06f715ec61fff77a
04eba8069d28ed7a
7bc5ab99399ed17a
a99b4305a116b27a
8d387b3884d6af7a
8c0599b4c310a77a
5b22b8428536967a
d66731961ad38d7a
6c5a165c90e68c7a
b61a587a05507c7a
e9c6e61b81416b7a
27491d970ca6487a
b8047847db413e7a
31811bde74e9257a
eb1ad3e4cb12147a
20e0e6c7d67af479
fde87ec4f400ee79
0b559553fdace279
5830e67b59e7e179
93c79ebe477edb79
7ddda8dac07dbd79
41da530fa851ba79
36e039d126dcb879
3c94b32e381eb379
e42cb3d27eccb279
0aa3b6ddd3849479
24126a1a66235f79
37ba8fab05ea5a79
7eaf35e23ca81e79
c2ba420e8e911c79
4dbe25c128d40d79
168562a7f7c90179
c8c5d92df64dfa78
f282a94474fde178
349c7870098add78
ae5e4e81e691d478
ee052fba41dfcb78
0719812afa6cb978
88051ade73cfa478
34fe644728719e78
c584edda96979278
7beb9a09efa77978
0c16cb985ea27978
75ba5d387fe66278
e432f16fd6803378
214bfa07d4073278
1746b17110502478
5e8a15e3a5162478
23e1941739102478
e0d7f4096fca1278
91b62adddedf1078
2a9d5b273d62fe77
e3ef71f1899df477
8ce5ef604425f277
1dc74ac6fb76e777
c7ede596fe1ee477
72d82d01ee74d777
3fb41888d3c7d477
f87d0ab336d0cc77
c4de55ba9a19c977
30a31b38e3f4b077
27ac7272d2719677
12a60353ae817877
ccf4104407017677
1acd2b18293b7377
c160f8c38e927277
f3db45285d3a6b77
15e8c068ef745b77
41b9199801b05277
e04b287e3bb34d77
ecc15734b4fd1f77
58af427c29bb0777
4a425d8d1cb10077
0a14adb09ec6ef76
aff889bd884ce376
a6d22cf673dec176
af8e94b95f55b976
2a7f0cb2e20bb676
20c0522254d9b076
3dd14246c2bfa776
3635912e6707a476
526ecc941b729c76
337d162b5b4c9176
8fc2cdbb28af8476
2537ae61689c7f76
5fdae9f7550f6c76
3dadb4c3782d6976
5d66756228ed6776
5196da59c6dc6676
3bb4d7fc35ff5476
c5e9788791ca4a76
dd27d5cb0ba84a76
ad84ed73209e3376
bc6e4b5f25472676
47f8c6b86dd5e975
7dfa22ede7c3ba75
7862e67f385dba75
1cc1027b8744a375
945a251bf0a19375
966795b079108975
fe154190ec5e8175
44ce1264e3187f75
cf6e4fe1fee47c75
69dec75240667875
918526d7840d7375
60fda2c4bef45e75
cdb8fcabde765075
0063753a2b964e75
af8d0e0286464b75
307aea6ebc1f4475
d155990bd4fa3c75
a102748180623975
55a8392a2d902c75
b253cc9da07e0875
7cfa397535280775
ac9e389c12d9f674
e6166acea983ec74
db80cc3d14e8ac74
f97b781da812ac74
6bd132001ae3a974
ccdfe87b993fa974
37515828bf819674
a012df2bad5d7774
21f9256835fa6874
9f6be524368f6374
8188a3ff04816374
423b19b0aed23d74
6be0402490c41e74
4c1c572426001d74
beb01a2e7f130f74
5d441aa2573c0574
243b4d9f8e590174
49c659ce002ffb73
a126d62e14f1f773
36c9e1401ef2f573
699867dfd0b3e973
f0e8e85fa114e573
21997af71937da73
eaa2ad3a6a92c973
2704dc7f818cbf73
7c782ff7aef6b073
5b0d1ee5d1b0b073
5995713f759da773
01b923a85a60a473
48a244f804ea6073
4fafeac9743b4c73
f9a690ca015d4b73
9ef93c3f73ea4373
d8cdf64c30be3a73
4f9daac578c50473
3066121b15bae272
cd68616fc9c1d372
3ba8ae227c1ad272
f365e8aa82dfa872
fcd58e8261ab7b72
8048c2eb747b7272
2ae04822f3ea6972
7ce1276df7c26872
159fda4c2c7f6872
192e05a5f6986472
31d38dc58db86072
26780ffb92ee5d72
14236f46987c5872
a0605b2871385872
90f92ae14e1d5272
1424d044966f3672
1c99345c504f3472
9f267855ee593072
b84a351a1edc2f72
580e43e2ca151072
61556e7c81150872
ad0c8a5c273bf671
be68bbfb0539f471
eaf26fe13f18dd71
283b66ed222bd371
f5a0ee50c6abc971
fa51a96cb1ae9571
20d2f5ae25de9371
cc56cf43668a9271
bf6f16d059e69171
89d66d0df0527571
c2a44025014b3a71
9dd5114fe9f13271
c8b29dd880aa1671
c1596372ffeff470
864c107c02debc70
383797e194d3b370
659ee4336046b270
a8644811641dae70
528655b670669e70
3da5c5d5c5527670
f3baae371dd96c70
0ef708baef4d4c70
6d713c13ef664370
94614ceef1362470
b3b6b18238132370
4da409cb2a872070
59f5b9207cc51470
2b147cfc68670a70
260444dfc6930770
5ab44eefec980370
196ee67456d7ff6f
421f907675c29c6f
5f3c1f62a10e856f
859f1606da61826f
28eb515a1ea67c6f
3bf89df49032666f
9f35d38c3bf5216f
7b14c97982b1ff6e
66b10c9fb7b8ed6e
cd4d3c2b5e17ec6e
d5be7dd707cfeb6e
63a11a5168f4d16e
0e3395fde6a3c16e
3bc8a4a33a7fbc6e
dfe8c791ed53b06e
5fe53c888ea9a86e
e1cb682b2d36996e
484f8e459d6f926e
0517edd3f594886e
ac0ada26dfef836e
bc09e8af12357f6e
3726af1159897c6e
b6912204f66e6d6e
e117d5327044586e
25df0c4c6501506e
08c0663315f4456e
b807e66f09402d6e
a7a775ef82a8186e
bd6347ed6f4d106e
2e61fe86d8ef0a6e
5f80ce4e5d0f086e
da7b474f1054fb6d
c7b91b872a1ff66d
41c291654e84da6d
5e27e5a6eb29cd6d
3cfec6508afaaf6d
35278b41e205ae6d
a4112b7dd2e8a16d
22820ff11df78f6d
704366ef133c716d
90542034b6a76e6d
e40ed5668693696d
9d7ff09247155e6d
d029092674055a6d
c80f2f3b48d82c6d
68758b62b08c0b6d
a7b644b404cdf26c
6573892f4e7fb96c
16eae806a7abac6c
376060c4d1f9986c
18ee16b316c0916c
07dbb130bb4e916c
98b9dc774e3b746c
fbc7489075586b6c
494132e1a39b666c
eb980fcd1cbb636c
0db8f4c17505636c
7a8ce6905c165a6c
88a50696ef87586c
68bb8427ac95516c
21f8864345b9486c
83f55679a9a72d6c
5442e3277e27286c
b177d4732ec21f6c
b963538b1185146c
061ce817cf370c6c
587985c2728ffb6b
fcfa24799d46f06b
16d4ea9a07beef6b
b8229eca9559ec6b
741ec4902440e06b
814c2e27b9cedb6b
74a9e31a0032d16b
dc51c897e4a6c76b
fe6643ade484b96b
9886035e4d4ea66b
bcfaee8a193c9e6b
4d3cafa3b4c19b6b
fd3b0393fc36736b
0974042020c3636b
08da2a064bf9596b
ee459ee36036566b
99b146fea688496b
b17b229e802d1f6b
2be7d602d3751e6b
39d60ecfd1e6066b
da6f714adc3e056b
3a0c034d0702f66a
9a20137a85a2f16a
0ad40ba6fc63de6a
3ff0ec2c3047de6a
66a9eca61d8ad56a
e2038327c939d36a
208838ce2930c46a
7e2158c82509c06a
1416df86d17cb76a
9d17ec6b7879b46a
b9efb9194a7dae6a
5aede224512c9e6a
82058329f383996a
aba70a76744a906a
cf13833169d0886a
ece32ea54c6a666a
5817faca1d06666a
515237229257646a
ef73ca7cb03a5c6a
53497e072b35576a
5cad2958c61b4a6a
30873f2785193e6a
661f544dfcca3d6a
9c9c38caad48366a
21e35e7ddd831b6a
cc138752ee54196a
bcba82088a9d0b6a
d547c7eedb3f066a
56c9fc5d5a81ec69
7578664052c7de69
8fcd181261aadd69
083eaab63e8dd869
bfdbccaaccffc169
25964c0c2fb5b269
a866d44620b3a969
3ed6e2537d23a069
73e9b3d0df679869
f8dc9b7386999469
9a460e3f173c8d69
cce1829c5a0b7169
7daeebbd63645f69
6f54615099814069
886d0f7ab4463869
689565ea71ea2069
2a8a622fc7081769
181cf1d83b9f0b69
0643ba2854c6f868
3cb506aed553bf68
f04d2163c6c6be68
6c5195ac2784bb68
20d9a32d17aeaf68
451934a39d79a768
2035c9c0e92da768
3e381e7421589a68
6920ea71ea659568
e5b927828d948e68
52ed8eaa18716c68
d37b920908456a68
5ae4ac86b90b5e68
c3b24e49697f5668
ed3a59b64c3d4b68
f54437df0cb54968
d8170e063a4b4368
5fb1f60ec5083d68
e9b42de0855a3468
63699ed118181c68
81f179dc8790ec67
ad3da4157e01d267
ce89cb38360cc867
b1d75ed06801bf67
347e4ed9093e9467
e778d8dffb918567
939d9d8510cb7967
8646d80f5ebd7567
c1a77d89be1a6167
9fc83380cd325d67
0616b3564d2d4467
db9765238bd60967
de4fbf39d1dcff66
0ebca676ef47f866
6eedb8b79f0cb166
6ad58a1da6eca966
898e0b63791aa266
fd88dc8981979b66
d2d899daea829b66
8724fba8118e7466
d0179b1991277466
932ee6159df26466
9ebf09ea49516466
5191e73e1a2e6166
10e060d8fa444966
ed7dba23a03a4266
33cf9a05f4352e66
242dc559851b2266
6a3dcafc4d541f66
81785fdc0d5ef465
7f1d562ac9a5de65
e41e03ef11a4d065
ee0fa2a9b83bd065
70b2466033e49e65
e4b0e0e38c459465
d575bb1144df9265
6cb97f4e2f897365
b0ad0ae775887165
c3b8fd614a696565
e0da8d0bba5c5165
d3f35ca0fa0a3765
c8503eb89df93365
c742abf04e691665
eb5bfbc586af1265
98c3fc60e9fff964
49c47ba9ca63f664
583883528cf0e364
ddecda1e9eded164
575c307e4edacd64
e2002c9882a6c064
354a8a7d1c8bb264
fbb1c7a8ecc1aa64
62ad44410a4ca464
a358dac2ad67a364
bdc0ebe9779fa064
c79ab96b0dca7964
4c452dc572364664
fdba51c0bff22e64
92af4d6d9f981a64
9dc608ebedb51064
25ad3f9265bd0864
af1145589e5eeb63
df6b8c9c921aae63
1bdaa09a867fa763
6ed1f468511aa163
8c975ef276eda063
b8a93c85c6f79863
416e5c1f4e5d7d63
32be6c9237536a63
681c1818d19e6963
b24efb922d0a6063
88af46f988164863
d1094edea2283e63
88681d4456542763
0d5ee1269427e962
64a44c0a4144ad62
7b9dfdee7b70a362
efe588d3c1d09f62
7cad709c64dd9e62
2c8834fb57e19862
bd7a7d52e1438c62
b639f4b1a63c8b62
12dca30517268462
9b0813106ca48362
225b883e298a6562
a0bc004ec9525a62
cb36951949bf5062
e7fe5d454e782c62
a366a58b62292262
1ce671e8b24b1162
87602a4c4b600b62
216b2d44ffe00262
46aadeda766ff561
1edfbab827eac461
e931bef07f5cb861
67575900a9baa261
3620f65e239b9161
e6ae5f6e8fa78b61
c7e4e08d2caa7c61
500138350b3d7361
06c56e961c0c5661
9c3ddf8217164761
c1ff1b95f0783761
2d479b84ff502661
d435b45598ff1261
22ded45144901161
478c7ae4ab4c0a61
9dabde7bcda70361
6028664ee55efd60
a30c4633783efb60
19031282ec89f760
9f83c16fb545e760
9d9d3a06ae5ce560
e3ea1517aef7d960
2f32a1e24ee9d460
3519e11caecc9e60
bad90160e2f49a60
e662e060a9196d60
3428c954f9ba5060
601eb18144b84c60
cdc7caf2ed873060
60fd5ee54e662860
604cb84481b11e60
027694647e991260
f0c6b33ff10fea5f
6ea8a98e883ce55f
e8f0bf05529bb45f
639f448dd7c89a5f
53e8e8c26a4f885f
6e080f5d4ece805f
e277349116cc7c5f
f9251c82e960785f
aea6fb51f9ff605f
df79500b2a01575f
6f850ea1621f3c5f
7d5cb9d81c7d355f
b44d8379a2b1165f
f03d65fef5d90d5f
c354b8d671e5e75e
25fbb6194202e05e
55e61340bb97df5e
8d438f8ac2c8bd5e
782416a5e3158a5e
ae37fda6797c6d5e
dae060df0a31665e
bd723a50a697555e
b3abe35f4c2a145e
dfab8c544238e45d
88dd336bc33dde5d
44b0b0eb32dfba5d
1d7d66a7ed1ab05d
52a11d8215aea75d
74053c57a21a445d
461269e017672e5d
18fc28210adf225d
a772296dc7be1e5d
2fe60237a8831d5d
2580d023db01055d
d52db1461931f45c
3edc6a81593fed5c
bee7798876f5ec5c
b2290dabff88bc5c
29ff0d4bf37db15c
7ef8a7f6ac6ca85c
d40f0dbb36f0975c
ef37e7a8602f975c
d24737eccb03975c
2130a82c6dbc795c
1cd23e9e2b97785c
a29021acd00d765c
d3876ddcf1c6535c
cebd930080114c5c
01d2f513daec2d5c
07ae5deeaaa12c5c
2f28e441c498265c
ce23f4d556211e5c
d2b34682c627165c
1655bfa1b063035c
a1fc559ebf11e95b
f0aff14b656ce15b
9348b1f28649dd5b
42fb443e5ec9db5b
52894478d52ccd5b
cefff46fade0b25b
98bf01d9db8b9e5b
7e11f961c2f5805b
18c7782691326c5b
9ed6b436c7e85c5b
9cef6e8e90ff495b
053726cf2bb2495b
af19abf75c5f405b
5ae8fa83fbe5385b
d54534093a12365b
7a96368542b8225b
7ee39a3b8df00f5b
73b0b0d1e51e0d5b
58de18678fabff5a
8e51e82e2545f75a
6a9e2c5124e2ed5a
5b38e5fb83fae85a
685e0bb986ace45a
2f05be9e6e6ce05a
9f9abb0392dbd75a
f9f28724f80ac55a
89b1f9f003d8c15a
c5fd6b58b57cb45a
700398ecef4eb45a
f640a945dd81a45a
edec98bb8d9f7b5a
26e95cb67341775a
0bf76a421330755a
b387a0e2aa906a5a
95d7bde80291625a
00eedfe06b39475a
c9afdb7f816b2a5a
bad52eefec22265a
b246d476271c155a
8134c752896cf959
eafbd3813959f859
7014c57c20b9f559
0822d5191b2ad359
823fd2021fa4c859
f45fb218d87ab059
565739a4883aa259
e91c4e6f68109e59
73a79d753f719559
ed28317d0b5e8859
e2de51614f366859
3301023956226159
6bdb2b011c274a59
f6358e82ffe53c59
010b81b5b5dc3759
c814b907f9812159
7e43a02017401459
c6e3c4aa603d0f59
c359d7122b700859
1cc99e4f3b92f358
5affab8f6718de58
ed1aa00261f9c258
7e5842572b35a758
f7f9fb9437b8a458
353ce6db98219458
ca33b6e345999358
6bfb8f72c2857958
0b0f82be9c7d6f58
ca55a190ceb16558
f750284be0a35d58
79e1e7597be63058
c5628e33386f1f58
721015cae2430e58
3c604a6fd3a90658
26b80dcf093eec57
fe69d39e41f9ea57
d214560c503ce457
487a42bbb345dc57
3766b36605addb57
3f8ac47d64a6da57
93ab30815851d057
46ada4ae6697c957
162d5b018366b857
fb05ea70c0d69157
128e4c8121726857
64cdda4e7e305c57
e8f8474b02e45157
63a30b2822464057
7e35dc7d1b8e3e57
a14b553ec7693c57
98307f7956d41b57
178ebb74c5c30e57
6c4e065e325ca156
121be07429159156
f07b4e29c2977f56
8dc0fb02aa9f7e56
2123a1d3b5267b56
932490f4e3096056
59a23a88a4395756
81bb57fe8d234656
a6b88725afd23b56
246c1ab225482c56
ce9b054cda3f1156
b0b38b01c027ea55
5edf97bb4013e655
bb687f940366d155
5011978e6606c855
7b1890e5e559c055
eeb69efa4619be55
8e1c5b50cd14a555
d762b0eda90e9e55
ab2503fcfe989255
0c8246c8abfc8255
aae291ff4bca6f55
1c475375d0926355
f0e6a1e532365455
b93819054b825155
7078206105484555
26dbd5b401b83e55
acfd5fcb8c512055
44c2332ad2720c55
d13f6fff7b840855
2031c161cda8f354
c393893338d1f254
4d5d69247207ef54
8289d78d1a14e054
e38a8f9a5bf7c454
7d763a4a3472c354
37b6877f6fdfc254
ee908f74df7bbb54
b70565fd0e50b954
a85b12a2be84b054
2ab6962c2ff9aa54
d4bf2e634c799054
d6547e23c9b08e54
769a0a85425c7f54
c552575140be7a54
4c1b7c55dd1c7654
6c28277e27e34254
384c8de076a31d54
48606d69aad61854
5f884f6ac2e8e853
4b209b4e0baee653
a168999e8790ca53
d8dd3d0fdf1eba53
eae8e1a36b5eb853
5908e33a5cbead53
ad0134504d3dab53
f7388cf81a02a753
f2b9b4e6ecf08153
bc8d138d7cfe7e53
c445c1be54cb7953
d7255ed249316f53
9b4bccddc5ad6c53
0137c4b331dc5053
6a57352b077e4953
7e3c2fc81dc24053
5664bad4b95f3953
26ae382542c40953
c14154f020080153
355dc83116c9ee52
b77b33800ec9ed52
686c7118aa8eed52
16a7ee0b2508bd52
91c1b4bba481b152
5da7ae15821da152
5bcd2cd578448952
709e6670b6558652
3c7b0b092a317d52
769c721b94cc6e52
8da1cb9b660a6e52
b6fb9fe619935952
2fe395fd13463b52
4073cfdde3341e52
09814b38b7851b52
e1a4aca4dee01652
ccdb7ca7370f1352
1b5cc124fd111052
1891fed102150c52
389f2b546bf20952
e5d9fc3e831ef551
4c40c0138f5ccc51
9948bbbe61f7c651
06fd94d0662ac251
75daaac035ebb951
222bfbd4b5f5b451
27483f28d529ac51
54e9134a74299b51
c62ee71ea1989951
7666dcc659da9651
66612e1a3ee79151
d46db6b9fc3b8f51
e9103c6318108751
328b115999f67451
31a5659aa09a6a51
aff1354009a25a51
6a64579222375251
bb4ae681966a2f51
f378a108771c2651
5af5fea508b51b51
7592377252311251
1cf6264385c4fa50
3ea44b4914baf750
358e8c0c140cf450
3b58c1d8d02bee50
4eaed9852dc0d550
20ab4874bd45bd50
21fced8c7bf4bc50
c862b5d92be6ba50
3f964356d7d5b450
4c25836dcccc8650
e07d52894fd47150
0d042a10ae1f6850
f6524e4ab51d6850
b7727e383a915850
3da86b6712795850
d165943cb2b23b50
55c806668e971150
f35540e76a9e0650
48a44f7706520250
61733d0b35380150
b43d12eb7c3ac54f
734c3b74c9eaaf4f
b79a9790a4768a4f
0f54d2a752db744f
ada45a494f01744f
87d56e8cfd7b704f
e3f6375b72bc594f
2e7c75f43d3e4a4f
2acac9693f7b354f
6a61c582d4dd154f
ab046979eed3114f
ddb4fae1135f094f
4b5a45b2b9ca044f
c6048c7d62bdc64e
50d5c02d85d9ae4e
9c79d1caf700a84e
96826f775fbc984e
c33f8e5aefe58d4e
1840b8c59553854e
43b27a0ccbd37b4e
c51159b73d0d644e
1115b7cf224a5d4e
fe3d6190b32e594e
eca6be8d4b054d4e
8097aaef4dac4c4e
d4eba869c1f1424e
b84bc673ac03224e
e36d528db603134e
2abc105fa2cb014e
c064a3f35af6fd4d
790dd428c125be4d
85da0bcb2940b84d
7020872acb09a44d
df3fdf9530517e4d
54ef077224695d4d
29b0191b592f5c4d
c36ccaea35f1574d
ba40a8abae324c4d
ab35197481d2404d
9dce1c78e7e33b4d
3f356824159d364d
baba7a943ca7354d
a03f7b0363be294d
3cba918547431f4d
018710eb0306094d
eb714c13828e064d
4ab4ff2751f0044d
8122a8661b71f44c
8f1eec590444ed4c
1bf0b3e83417da4c
ae7291dd9e31bb4c
1202e71de157b04c
2034194aeffaa14c
7ac86bc0a95a8e4c
e294af49cda1824c
d93b27d96a177f4c
422c9705f5c77d4c
36c1a0e63ac9734c
c6aff3efe180714c
78aa70c30d15714c
016e481c7fe45d4c
a2c59e4f3456544c
64463672c52d454c
51cc5c8f13c0404c
35d0b146f0ad374c
2744433069e7344c
5086cccc6d83254c
99f3437ade22234c
0b0cfc644263164c
c29a8cea5336fb4b
7b2aaad0d145d64b
b60dfa16fec6d44b
f1cd76ed4a5bd04b
741764b9bcc2cc4b
fc5350890f9bc24b
ee2fdb030f7ab44b
8c1d51cd7ddfb14b
1b5bf6da5106ae4b
9bcb309c7b87a54b
ad68c9e42b42a54b
c20606a96abfa44b
85f823f720338d4b
9da5ecaaa1d5874b
017a3e1f0c4e674b
4f04cab9b2455a4b
b38661637ae33a4b
0d6af88b5c26344b
53e6ae0b4e9b204b
e8924269f5e51b4b
1d80a1dbce5d1a4b
465ce4d57cbc0f4b
ad7cb41e878a094b
da83b3a13a79024b
f047143f6aa5df4a
176273ac5177de4a
3401a5a62178d24a
3cad5932f9d4bb4a
95c4b250b2a8ba4a
4d04f05127ffb44a
869859feb97ab04a
8241f70d4366a64a
fc8bb5cb8d35a54a
35f20284dee9a04a
672d307c4b706c4a
298ad62720b5564a
ba0a47e200b2544a
7700b11c8d5d424a
141adaf1154a334a
7d1f0556b3a7294a
7e5b85121db31c4a
ff6a4491de660e4a
2c2bc7eb55bb064a
8ad32a737f72f449
37b5cf8c06eed549
73fb2f00ce59c649
64f663caa97bc449
4b49f168f487b349
e11fda031f68b049
d7196cb8ca2d7849
037c7090e1647149
cf223f179c3a7149
aeba0830ebdb4849
cd35c848be064249
6c669ba3e1324149
1e832bffb7433e49
29e3209b9f103749
c51a21c3c1332449
a0d077c69cacdc48
7effdd8ac4a1db48
b05d78dbc41ad648
a11f7b6918f9bd48
50025206774fa448
7360ea04f844a248
d45b4036aeb88c48
3edaecf69d688a48
57dc45b3bb427a48
0f6f9c32a92f6a48
5418d6aa696d6048
83a731ec7b505a48
288e9fdea15c5948
0b430448ff695548
6e926f9d458e4f48
025ebd8962424f48
75e9d56db8c6f847
01b465ca16b0f147
3c68c074def6ea47
b724db55331bc447
2aedf2b8f7d4b747
9e75bb67af7a9b47
610a4cabe47a8c47
a8fc51097b107447
94039b0546d35a47
60dddcf3c30e4247
15c1f3a209cd2b47
8efed7896a1af746
12eb7a1124b1e646
ddc02dc0c06bd346
807d441d3691d246
bdaf3712ce92ca46
57c99766aea4ad46
cc8ae7e2a3d39546
29d950991c4e8d46
86a7c1295e0e8b46
b53775b736cd8546
4b0fbc7cd5e45c46
a8b7513765984246
bffff8c9596f4246
ece5772b4ebd1546
fd97e72a5bc90346
f0a3ec8328c5ff45
cf07d9551245fa45
04def3fba29bb545
b547820fa52e9c45
100b8fb5f89d9345
391c8d8055058445
7ef93e24c22f6645
0dc947b9c47d4745
b66f63f7b4f93c45
fdac1bc7f2943845
68a7799da3341945
4460c7eb9f5c0b45
16034de6125e0945
cc991ff396f7fe44
8fdb57c8df8eed44
c8dd3b865debe544
ed0423784583d844
757f18e36412ce44
550c72d22a33c244
206f22e7f0acb944
5dbadf32ebb0b044
0e893ef085e3a044
32e2440942379f44
0cc39f056bdc9944
155ad8f4e6c38f44
876aa78b59217a44
450b5c9febc76044
2a2ac5335cd11d44
30a2aaf8b8f61844
93f4359881071844
7e6e78796740ef43
bbd3db7b2751ec43
d002e2802d07e243
9625a9f7355add43
04a862bb231fc443
1975a5138436b743
20319eea4f38ac43
86bbb9834ac59943
0d54cc42d7eb9543
38f4f0e50fe78c43
9c19348f537b8143
150b17953d2e7743
caa0f45368846843
bb75575cdc675543
d13b0e9c2ec22443
e081b0ac59c2ed42
a9e2f5d077bde742
3b896648da87e542
7120d945878fd642
a566ec6de90dbe42
4c0b1640b0348f42
e68843eb3f378942
ef69d9e8b11d8642
b34f8c732c3d6d42
07fcbb029a786642
019ac659fd2e5342
3c79ce1f5f9d3f42
743dd2aeb0193b42
4c7dc7f505972c42
6f9cc27576901f42
7e6a563ebdcd0642
a337b4f97307e741
88214babf0a4e241
032c380c4f4ce241
c19c1800f4f2df41
79ba51a80f53da41
0b87816d0e63d541
824cab44c263d341
6dda844e6591c241
a5f4e55a695fc241
f2da34d7b5fda341
e46a66e3661a9f41
dbe4411e96668041
106ae84c7dd17641
afa1d9c07b4e6a41
bc037119509c4941
1ff83e9405c34141
3b00299c02543041
a7d1a5793cdb1741
aeb49283c76a1441
dc8db69d44d7e640
237a0c65657fe340
b129c7eed2f0da40
fba51d3039bcd740
f1a83dba1ec2b440
40a0b02adf60ab40
bc142b263818aa40
40ab60df2ab0a040
c3d6d49535d79740
b67e403ada668640
95a8a7e940b67740
521e34e3ddcf7340
59a7c86fc6ab7240
bb5a53889cbf6d40
96927e109c896c40
015e2dbda89a4340
23502fda31884240
d3f0f4af9a593f40
9a3bc817e6002440
95530cc5d8c61e40
ba10141fc4041b40
640b05066766fc3f
6ade47302cecf03f
197129e21e9fdc3f
cea01f252907db3f
a089baea7fe1bd3f
54a3ccb620a1b93f
f5cde9442703b83f
947d986d7cc0b53f
57daa6647dc48a3f
894ef2f96742873f
dd5f01a61b21563f
1748e5db81e94b3f
4d369d152468353f
89fbe7e850970e3f
5ced3f59816adc3e
488a689df6ecda3e
a7814e417946c03e
f39016087297ba3e
b27a1b806c58a83e
50f7ba14494ba43e
7b89af076cd9a23e
abe7abb57f0e803e
7d29adcf6adf7c3e
377d8fb5fafc6c3e
37af21664f73643e
0f8c7a44ab17603e
3b2fdc8b3746433e
38c250858a7d423e
689a5821741e383e
19bf19510ac21b3e
21099c95d7ef093e
dcc5100410f5053e
32eb0eeba092023e
7b08f6cece20013e
70b7643d80c1003e
d4a37f1026fcf63d
abd005ca5772f13d
50587912676ba83d
707652c5d5c5a53d
9753623d9bcb753d
299a9022245d623d
e04be597b725583d
e805b5754edc2f3d
d28f740b3624023d
f78fbeac7ddf013d
6daffa8a50c6fe3c
1238b525dabdf63c
a746db6b4198c83c
68bf53d5ae06b53c
4abbd4f93259ad3c
79b31e382eb3943c
09836a7ef8dd933c
08e841f8154a913c
310d159b7185903c
334f3817fdc37e3c
527d312a090b7b3c
423f9d5f1fce793c
7c0cd1af952d6c3c
47eaf6de74c0683c
e05849c17340653c
5806a9d36f4a603c
b24081f493f13e3c
1554d7265460393c
9a9007433c4b303c
c3b80eaf32f72b3c
3262b6f566e5fd3b
6f663290f49df83b
23d99687e677ec3b
7b3d2f523a9de73b
a176a80ba8c6d23b
b4a7ec88a58ecf3b
15a8b54d744abf3b
31f70fc780bdbd3b
72d21a7c22aea83b
af6ac584ca218b3b
42e587da4866893b
aec3539b3cd4833b
c136a652af21773b
0d739c12df7d713b
87a5447702245f3b
50ee2bd0d8c1583b
f761bbacf4954c3b
3e4346378bdc2f3b
2b504e1e909f1b3b
25f2a3bc8d87f73a
94760ee7857ee23a
af59dbb82452c33a
e6034e1e9882a73a
f402ce95d26a8e3a
a4435bde9a94733a
90571ecdb5ef623a
ed8c7d1995c5533a
92fe916d5ac4533a
245bcfa3ab76443a
6af602074d030c3a
c2fbc275e885063a
2e9abd5eaba1e239
c20b44e490b2d639
6b06e6d1cf0ed639
cabc13e9ccfdbf39
560302c0b198a239
a21044cb359e9739
1814518edead7e39
03bfd0deec535b39
1daf1cee39394239
fcbb124fb7433d39
2cb2189587863739
45840555808d1c39
a5fe1930e5cefe38
0f66a9800602dc38
a911ea297f18d038
3e427d8a8550c238
36e6a51ef0f3c138
1acc4dfe77eca438
5209f26b542b9f38
684a310979279038
1ef3f30092058c38
1e9012b23fd48538
2cc3a38e67a06d38
96eaae1a4ad94138
a4821f8615c43b38
70b3d394e1973738
a874fe8fe3d92f38
33b809860e210738
11a27cc28b67f937
bb609b4ef6f9f337
f2ea3c7a1d82f237
99721e1a8fd8f037
795aea05ab8fba37
54c2df6f7f87b637
49d5ee068ccfb537
3e64734f6621af37
94a6660d41f6a137
3e6cfcfab58f7d37
e64a350e284d7637
e15cd22aaf696c37
57dbad0566b36637
6c98f9d1c4606037
245e1a246a635f37
749681bf28585137
650fd69fec285037
ec69b2a4649f4437
be6581bacf8d2e37
caff6af9429c2a37
c55e8da40a862a37
310f1ff0239d2837
6e7c895911af2637
8e7a9342abc91e37
f2510f17bb121537
f6c0fc664ea21037
38c1f3f01ea5e636
79b8dc26d139e036
8a3e9c1cfda2d336
73f5f21e40e1c936
18104b9ceb22c836
4c73c93ae6a0c136
21534d7c76f4ba36
262b6583ce1c7836
9acc010e54e87036
c2e2f928370a6236
19ba99692d2e4d36
a37804c11f6e4036
76a407672e913536
010da13841342636
4aa0e9de8402f235
213008f2ce8fea35
0dfe1f961efddd35
341060ae0244d635
4c37adf046b1d035
50f40c140c8c8e35
0a193fd1d7298035
95ce2c8474fe6f35
52eec91631c85d35
64b28b1c7d8a4a35
ff5a4c0259754635
2790a0f0ac7b3f35
58942198dbe63c35
1f9cc8ea48923c35
6dae05e2418b2735
a95de499b0182535
12b69c4200e41435
789e71284764fe34
a1bc0735beadec34
3238d45e46ece534
27be57dbe162c634
96e05b119118c434
2b645bf2afcec034
0f0cbb8d500bae34
78dd8a0970789c34
ae8ec4c0a7439a34
32a908c22ff68c34
8c03811f617f8934
67943e09d94e7e34
469161e9a22c5e34
e972a41fba3c5634
3543accd1a525034
f6f0736e70ee3234
6ddf7809307c3234
6050baf954c92834
aae74dd25d892734
35d64402ae601034
36855d3ad4c40d34
bc97f8092b9e0334
4ad27821a6a50134
f82d8c34341dfe33
b9cebf5715f6f533
159385da0bc1f333
233458992de8d933
f6bd8465362cd333
9b9343fdffa9d033
662e35f4059acf33
138e29e3811fcb33
76914c5b2b167d33
9780c53fa05c5333
8abb6704c5495033
3c7ec3fd17384f33
e5679312d63a4833
22862931b6c53e33
bd3b2660335f3b33
26aab4d625552733
7968ac9a6dcc1133
3e0292a0eb0eeb32
1e29d49c7e7ae732
ffd830dd4cafdc32
abcc1d8997a6d632
bfb264e5722abf32
1fab7d5e0875b232
88e4621682c8ac32
886286a41fdd9832
77c0e2a535059432
011b13ff14219332
853a22a6fc149132
5174f69959118b32
e346f1d3ee537632
ea147b4e6c907532
b3a052cfa9767032
1e73a24295506832
3bfde566f5b66232
1393e1725c3c4532
34e5ec465ed43832
4dc5f882e7092232
b5d119b1d45d0f32
a1923e2b012d0c32
3bbdbd80c70ff731
e23dc529588fe831
fa9bc7008fc7da31
7260b88dc58dd331
bc299bbfd88cb731
516a9aa09a65a531
7a25e974de1b8131
7cf18d746f176831
89169ed6314c4031
be4159d6a8ca2431
37289d23f01f0f31
3c9085719b150d31
cb567c735be50931
fb372e94d85f0431
b043c045be2ce830
dce57c2330f5e730
0d1da47834a7df30
5aa3cdb6fb7cda30
846da467d65dbd30
77b0f4e3381ba330
4418f6b8f8aaa230
6a3e1985273f8730
75441fbc6eea7a30
829e7035c1277930
72e2ba151b126630
7d8c546f0bd54430
c455b8d2c2d13a30
1932451009431730
a11b474f21380430
5d1d83a83702e62f
523b4613fd95e32f
eb0df3117907d22f
d168bc6ddc05ce2f
1339617aa276bd2f
9b5a9a25166ab12f
ff1c6b92f3e89a2f
97e77a5c16a6882f
873dfbc734f6802f
aed193add848722f
ccf14557c77c302f
c4c12e5b9b48232f
17c25b15e0240a2f
5ae06c6e9ebe052f
cdd3ae8cc5e4022f
39e2a1ab5ebd9a2e
d4b7c024965e8e2e
1a66c148840a8b2e
cb14b2b53afb7e2e
4f4a3e3df4757c2e
a011fbc5296a782e
6e0aefd886fe612e
c8bfeaf331f9602e
e12f9bee3428582e
8e929027cb5a452e
9e52c3ab7976362e
106bd9523735302e
c14b1b4b2b2a292e
bef85ea17987162e
258cc9656060062e
bb98fef106a1012e
c1907038935cd22d
ef71088ffffeaa2d
a98762b092b2aa2d
9bfbd1f76a40a32d
a83cef497470682d
c489340579e45c2d
f20fb84a1103542d
612650ff849b472d
d749f448fc1c342d
3b3f947c746d312d
490af03261fe2f2d
07073fc205d2f02c
7511a9f22cb0db2c
386da0678ea3c32c
86d49de70052c02c
ab1994ebf162ba2c
393786879518b22c
be3cb1c42ba3892c
6298e157fb34882c
34f8a47b952d6f2c
83b9636709195f2c
17f54fcdf4635b2c
fee0598f75e8492c
a59e6f79407d482c
e1b43bdb6887472c
f5608ee91977462c
0f186c785696282c
f2f4987ac8d6262c
b165c265d28d0a2c
9e5eb8209d77072c
0bb338b165e9052c
f4bd2ae39a60fa2b
6b1e75d302d6e72b
7b5d430c9752e12b
9ee7f2c670acd72b
e3266e346a77d42b
dc9955cdd6e0bc2b
d9c983f790fcae2b
0b380f73e05a8d2b
178242228f54862b
b64d5bcda975832b
34c0ceaff25b642b
04cd492f0459502b
d3809809293c4f2b
b968260111d2452b
e6a0a1f02718382b
8489302a5c43152b
700a6768fc7c142b
e5485539d261142b
a7f52d64d450122b
ab9fa097d7de0a2b
7b784981f01a0a2b
efe7d5d1e67e042b
5af37a4f615b032b
47b7d4f7b8f2ed2a
f7432734cea3df2a
cece2bf82e7cdb2a
4f357b3f69c9ca2a
0766376e35c5c32a
4e01cba25f10bc2a
54aaf92f2c96b62a
89e978e94a60a22a
f956343841fca02a
77fe623d275b9d2a
7107632644778a2a
691708c72f628a2a
76b60be2b20c7f2a
02e04277f3964b2a
b9af646177ec3f2a
a45f3e4b02683e2a
441dd15c33c52a2a
f52f1d7ad385192a
9048318aaed3122a
e4c847426e60102a
c25450d86d74002a
5cb17df34b0dff29
fa963f2de3f0f329
29b778ad4f3ef329
dfb165be90e4ef29
ca9d1900eb38e529
468d4e1c9950d929
b41a3e3db32cd529
29f33e4fad78b729
4d5c2f591b19b029
3d625d2422909a29
d49aea42c4459a29
4a56b52027d68a29
2319d6511b1e8029
d3843e7495c66229
913a26e136165c29
069fc6ebc3f25629
ed907d8acdb94829
dd08a21cae7a3129
cbd64e9791541c29
8d98832a5f9c1929
d97fd3f47d9c1429
6bf748096f3c0029
6f7ca61e5a51eb28
f4da93019869d628
b6b51a21e03c9e28
aa46210edc279d28
21ae5bbef9e49628
081e4860572a8f28
48595ca1de9f8e28
2155927605e46728
0829b0684df26528
8b0ca195c6c05f28
fe2b1e552f634b28
71d32b22ed663b28
1acadfbad1633b28
f11d969d6e271328
5cbc853f05e2ff27
bbb022b010c3f727
662cba65daf0ea27
34c662e1db57be27
779671d27272ac27
810e989ac07ba227
c83e4d952a776d27
7c453057cce74627
4c34e76930434427
c2b48391c6dd3327
0683e319dde72d27
717fd95010ef0d27
89d2d89f16970c27
73bf8c817fdc0427
adfc079c17ea0127
f7c22b9e5b3afa26
061ce585037bf726
5a774173b65ce926
553eb801b4d5db26
e6159d7c506cd226
fa799cf13ee0d126
57ec3e09cf0db826
5309c4422538ae26
33275525d6b4aa26
869f954a35039326
725dee92fb0f7826
21568b88408f6126
89fc5afbd3aa4f26
36781cce83652b26
98ab3b21516d2726
d8906a50ea900626
700793c6df440426
5ee0024219b6fb25
11858cf3835bf725
3af7878dbca3f225
a0b9705bd3a8ea25
d1c37cc53ef0e525
7c9ba5618282da25
ab28e989cb44b525
69b2b52f0c4c9625
ab473f124c268d25
2e06606065c98c25
5d0501db23d08025
ce28324a60216025
d83be44f6eac5825
c6c293bf7afa5625
02cf5b1c85305225
2f3094f0ded83825
767f9c6861ae3725
e6f6eb6c3fb42425
05453ec5dc990f25
247f51fdc4200525
1ee406807b09ef24
92e8e706ecfce024
e492b18158ecb424
4602ace5b4b4ae24
ff57e591a15fab24
9d806c54c620a524
5eddbf6cb555a324
c3dc020b72c19624
250520c4fd517f24
8cbfad471c737e24
ce74017a72cd6b24
08b2f61eddfc6924
375f636a241a5e24
3a4476aba3cf5b24
7401598e9f4d3b24
66221b8559c52d24
c53a981a653f2724
881266e0b3af1c24
a55b95fbea851924
795f23661a6a1224
782410391794e123
8533fa3f7f83e123
3bec77e68796d923
2bba8855880cac23
99eab7bb253e9e23
8a7799fa317d8423
40e37f65650c7a23
d385c37557437823
f009c2982fd66e23
e186c0d51db66423
14a3973998285f23
40428831da2f5023
e8afd552106b4223
33d9e82d99583423
08eb96c7de382723
f1366c33f1351923
000c2e8ed21e1623
b35eb9574fccfb22
6111904451d4de22
b372b76bd492c122
333ec5b631298622
0577ac2ca1e48422
6d8ff71df10f8222
9ebafb96fd8c7522
c73dd26a1d757022
abec1db2c2ed6b22
839a1ad2eab95922
a898ffea505f4422
dd1c686456f90f22
38f3d2ddc5530f22
779129711b1a0022
50bcf47b8cedfc21
7468fa356825f921
d3220ef1b398e821
6a1b83dd7d5ee321
d9c6f6703248e221
c923a2c25984df21
5f04967393d0c821
03dd83fca8aac821
556ba5ceadc9bc21
2896e4f9be5bae21
52a4a0c7e0dba721
73da3719f77a9921
050344a505d08d21
df8bb4c1d1f68c21
1eeae9a8b7188221
26618f40888b5621
2867e40576925521
36baf4767c4d5321
783207d407fa4b21
35ea8fcef2083021
567b26b5d3a12321
cfd9224b00762321
8612dc4034a41421
cb0f2046e32e1421
129a3ca18f480b21
3e09efd7959c0921
172eee54f47ff220
358a977d4ce1e920
1e6c4378adb7e920
79f47ad6c7e6e020
02e88642e76fdb20
12cc919bd719da20
68afae172da3d920
7193de25aef5d220
e949b3873e2cca20
2004b72f7b64c520
bd3649cf6643ae20
50bd45bd7448ab20
1455a6793ce99e20
6ac43029ce388820
0205254603468220
44b9acf0e7226f20
889feafbf24e6e20
91e54b5954356520
a1fda8e15e663f20
68a72de9c0c93520
54f3a8cd61c13120
43ac384fea9e3120
13350700a8f91320
20c5647b2fb70420
4141c305943ef81f
afef156be128dd1f
c7af818201f6b61f
96ac2551cef9b01f
32b275085e7dab1f
353c9248eac89c1f
fab34b3eac238f1f
832bfaa02d04791f
8ee22163d13b6f1f
9fd75c0a0fef161f
1bca5e789cfd071f
7a20d96de6b5021f
218218b7a8e9ea1e
24ef097b8006e41e
f4d5fc24f714d71e
f42b7a332f92cb1e
ece1cd8ee98ac91e
acf2fede003abe1e
a51256707f85aa1e
188256628a66881e
3268509542a2731e
aaf85d13662b731e
a6bf8860fd9c711e
12c53a36dab36d1e
20e9b7ad78436c1e
e518cb2f9d49691e
1b11182ae731331e
32e77a7e9cd4291e
7d372cfd4fb1211e
cf7574165ad8141e
b818111951d5101e
a969bb1bf3130f1e
e7f5732c5505061e
120f6c2940a9f91d
f98c0f4168dedf1d
77e776fbc64ac71d
b3b2a719c133b91d
35cc6dd304e4b71d
39423939ee1caf1d
bcf65504f7728d1d
da15f0d5096f881d
cf1f5af69e89861d
4b1a5dcedba1801d
5db01aeda7667d1d
ec05c444645f661d
751da0028d7a3c1d
89efaa9c70d03a1d
9ea2f8bc6d3c271d
1574b2743fcc0a1d
50fac4854326f61c
62114bb2e871e61c
3446140b0b81e31c
5c78972b9e3ed21c
0ec3d8edc8d1cc1c
58f3923b4f9ec91c
75a344877b02c11c
2fb638844434b51c
72344f505c34991c
80fea3a2df214d1c
556392d07553471c
fdfe4f1f583c331c
e1d0e4b006d1231c
b797c7340101121c
ddec67d43dad111c
aac16f6c54e7021c
db4439d0c00cf51b
4cda1734e8b3f01b
01ce4cd65bf1ed1b
63a77f869aa0da1b
da55419847ced11b
1f07fd9c785eca1b
d094ee08e1f5bc1b
01f3611e1d25ab1b
931dfcee9308991b
ec983baeaf82781b
521011fd24c15c1b
4bae0651daf65b1b
0f99028b84a8571b
f818a0670b78501b
a2fc4c6a9dd54d1b
dfa68e087dc23b1b
1e3331e72a18111b
7e094b5836af071b
c0dc6af9ff82f91a
0e7e0d4d436edf1a
77733b29182bcd1a
38a4ec77fe4dcc1a
283b63d1badfca1a
a345a17ec040b31a
cfa86eecf8f5ab1a
de606683950f9e1a
e73fbb8e0848941a
d23850ed54628a1a
96f24575f36b861a
2e8b0a8448c1661a
d62a35155fe44b1a
04dfb8d11cf3301a
8aec1e60116c001a
b80e496321e8ee19
a46ded3b3d27d119
11dfe8bc77b6c819
6c774ef1ba17c219
3e1bc20a5119bf19
364d2e2d6999ba19
e18ae0beaa4fb819
048f5f6ca631ab19
31a21c977d4a9e19
0bea4449ac5f8519
c145f6c7e5bb8019
43b7368413a57519
3fdc9f1ee2297119
d8ca4719591a5319
d392ca64719a3c19
3017430910453219
726498f6a5052e19
e0bbe8a0efc20a19
c695fe4048a50319
60f789ec82120319
d9719cd42900fe18
9231ae7be6b0fc18
5d22df0a2128fc18
d72ad357270ffb18
e5240286ea91ea18
a6bdcbbe0581e318
c47d888ce374d018
9981964e9389b118
1e88668a62568218
ec69d2e53e177918
d4f440a0ea4f6618
fa952e38f4b35718
df84d395bde25518
4e855395c5b84018
690b9f3bd8f11c18
397eadde8e511418
e3bd56a844721318
2c5b63f4cd4ff517
cfd790303a05e417
be0faf5f0332d917
fa733b3c53bfd417
0dbd5fa0b05ccb17
2b86548f22428217
fe1dd22732757517
4ade7751ac736217
d8afab90952e5017
3f4be981dbe54817
ca7a429408024717
7824501071b14617
aa776d8e252b4617
20f27ff454ee2e17
a6d2e7ddc8822a17
f77ad4583d641b17
b585118eb5f60d17
7fbd074d7f6b0617
fa0d9f4db78ded16
b8a85c0c2d75eb16
6cacaba706e8ea16
b7648d60d2f5df16
e3fb71d111d3dc16
8f4122f22c7dda16
6befbe079aead416
1145f6200139bf16
c21a9ba2e6deb816
52bd08250beea716
c92853f16e65a316
9b9d9fe9780d9116
f29b94b313fe8a16
7901c9f7a7628516
962780936e6a8116
08c50b8b0d8d6216
b444d5c1a2335416
d98b4adca2414616
4d18cc95a6d61e16
45095e12e64d0316
ec24583b6b700016
d9add361a4befb15
dd0c3d88eb92f015
089bb9cb7dd1eb15
775b74ef68c0e815
bad02036a7d6e515
ad0c182c959ce015
9807b6f1cfdfdf15
fedea8e59024db15
aadfdc85a20ac915
a5fda91587bac615
472bcd09a2f3c115
e8bd90a18652b115
c1f00bccfb94ae15
3bbf4a744db5a815
bc73d18cfab0a115
72687f2c4cda9f15
f166153006809a15
33f3c10bda859315
a9fec1677d827915
1d0acc3f74b27415
bd761b5e1fd15f15
448fc3e6f4d85a15
6abd0d39e3735915
3c39605426d75415
b8b10b71d1984315
9f8248dd5c372715
9ce9a3de702d2515
86c80ad56f241115
43772e3d95170b15
83510ad4e550fe14
39aa8f5691fbf314
5a7ad6727ab7d714
029dbfc438fece14
0778e7d458bdc714
a807cd90d59da814
235f28983997a314
63f6110231b39f14
d902165d86c09014
3992cb0f58968814
9818db2ca7d08114
1438375a5fc37a14
eb50f8f280757614
d0c71e9b27b87014
8c8c012434b46c14
83216deb822d6a14
087326f5053d3414
86bcaab6061e2814
72366f9644d02414
72587c98466f2314
11b3d85575411b14
4a334a15f1da1a14
6ab77cd186df1614
242a30deb286e213
1959e04e2756a913
658590010f139813
32453c5c72e19313
33cb1f81e3298e13
b53d99f1a98c8b13
66becc4f7f7c7e13
ddc2b6cbb1d45b13
2fbd76a27a613913
2013f9a800073513
b5f83a81429a2c13
ae776195ab9d2413
c745e902577f1513
dcfa7528a3541513
e25faf85fc820513
126b325439390213
46e6b124117aeb12
df307e77c634e812
20da19d79b91cc12
1e6db3da363ac512
777881ae5303a612
fb86f43ff6289c12
57687221814c8e12
1302393954326b12
bd58a025ddde5b12
bd17d68b3a5f5612
af06ac410c394d12
bcb69889bbdd4212
04114c4e0dc03e12
a284b43e66ac3e12
c31a32d317692912
5691152974e01b12
c48a53e6731c1b12
09b1c22933911312
1df9a940296c0f12
4cb057e11de70212
dad840148d4cf111
e9fad27269aadc11
b2b17e54feecc111
0d531b4408b3c111
bfc17aa9c936b411
141b417555d8b311
25f75b83f38c8511
074a0f5622157211
82b39d8eb2b16511
16bf390120f64511
0af017da44b41e11
95001d918ce00d11
0e4f86ddfc02f910
822dbcd9baf6f310
664944fad860e010
bbe16f449d74df10
dde9cea848c7d710
8bcdeb1eb2ebd110
9dd8fe6b2365ca10
a9206f9be95cb210
086847d13538b210
84f7d5f96bb57810
057235d4ee567210
4176d17d4ce86a10
1162aa87f3554210
45939df8b58f0b10
1b57a8848b02990f
96445275c4cf8d0f
3e6017ab447a8c0f
b4b75c4d4aa7800f
eb2542837e06700f
486a2fa9329c6f0f
38dc020680a9660f
db02277b7d24640f
98f23de21802510f
e90e9d7f7bc04e0f
02e2e0c6d4fd2e0f
2c289656786c180f
f7a3c0f362d20e0f
98a7e6812803080f
9f5503f623d9c80e
fd4a8c6a0995c60e
1cccd1c8edd8c30e
66f847ef76a6bc0e
a53c084b122dab0e
eb7f5cd48686a30e
44a0e385f03e890e
8193e6633f856e0e
d51a70351ed7610e
10f902fcdd864f0e
f07dc969f63ffe0d
35ddfd1e961ffe0d
cc71d152792ee10d
88889d6f2a1dd80d
45477dc4b947c90d
ad3997080a77c80d
17cb5cb0a05fbd0d
6c630575c1f4b80d
cd62021ee697af0d
dcb129d32913a40d
35d6733cb98fa20d
a5aa95e57b7e960d
2e6077f3682e770d
3b717ddf129c730d
4b34265c8bf86a0d
3d8c888161756a0d
62e9279426e15e0d
4395ebd742cc540d
11c1b308441b530d
fcfd8500b83e320d
30dfa73478a41d0d
c5241dce9ce0eb0c
8f3f46fc68bed10c
4499dc6b059fc30c
eee34ebd83f2a90c
8abefc9a6cf9980c
5582fcabc846820c
a3dd98173a56770c
9595702794f0680c
910ec937ebb95c0c
cbc7688030c6440c
b3cbb98f68a4290c
7879a25e98cb160c
ae61a1847000110c
5a753013426af70b
19855fac4944ea0b
f75aac95a0a6df0b
2c05e965b138b30b
e92357808648af0b
d2f3e2607b24960b
41d5630e6d81870b
d10372dd5ae27a0b
79e2acfd5395550b
e650c3d707a8540b
88b92d7a04884b0b
485569ff4804430b
dc96afe3e9092d0b
907a25cd656c140b
586f7d9cbe820f0b
4c16634264fc0c0b
e789d941b927f20a
baf8d6f3a93ae00a
85b4791f1aded70a
6ade63fca60bd40a
5e123d34f719c70a
ad876858ee2db10a
c1ba2a86005ab00a
bc0a83834d78ae0a
799484d3ddb6a30a
a3dc58d6893fa00a
d67371b96da7830a
8131348ed446810a
0a149adaf8b3620a
a436c42daff7450a
d16bc8e1ebd31c0a
358029d7d13f190a
76efc69eb0ad140a
0a62b3f8da9a140a
fdc93e2daddbfe09
93d2a491cc4ff909
3f7ee0c9f591d909
1213913329c2b109
3c93ddf87e6a8309
521b85b7384b8109
98ef408ba7887f09
6b63c32020047409
7bdec28aa68c6309
81d036c8df194e09
d109bf7b93fe4d09
e4b4a8d4c5a63009
ea2436c7fcf92e09
a7046341e8612b09
b0cdef08fa962509
b698be94e88b2009
977d6d9a3b311809
232738dec796eb08
cfad8724b939e708
6b59f94b062ada08
a1a3ae43d3c3d508
16628d0d8b0bc508
6e45f4153366c008
2469fcdd1ef6b208
07e3c2ac04cbab08
8f3c2848de4e9708
d56ee30377069408
91469a12346d8c08
a32a37d6068f7e08
7bc9bb1f9b737e08
14343d05f5267308
10b23835d1476808
d23e733df8d05108
524cf934e5194b08
69d88d3eb6aa3e08
2865f24d68b02908
288f2a5760481e08
61f1f329c3710d08
fcb0119794bc0908
87ddaefd71b20208
4266789a02bbfc07
08abcb04acc2e307
bb87e63722b6b107
3d295bd1cf23a107
aa90bcccb0919607
cfacf32c63377d07
14c7bd58d4e77807
2ac3c5356e376607
71efeecb0be36107
e79ca64d88265307
b45aa13da6744707
f63a08a53bee4607
c640fd7569c32b07
d086303a095a2607
0371bd7a10ba1907
78b96cfa2a811907
bbb4753085b80c07
2cf0d205c23f0707
51c22a66d094fd06
61560c1c966ec506
b821f15257f3ab06
c12e496472ad8c06
272de7dd19e38306
bd583d50b4977406
68f8c65428ba4306
03b200135bfe2c06
c4fe5ec49e9f2b06
6c0c37cf17e81c06
26f77b0385e51c06
67442d4d56b31606
a1e1e76f137d0e06
f2a64e578c62ee05
c81524ebd836ad05
2284e4a12cac7705
107256eed4357205
d4f95f0337f15b05
dccff591b8c44605
6e8894f5d3ed1705
fe5a8a41e5bd0b05
218dd005a5440305
7aed289d06a8eb04
1a30f31cd1b8df04
e9c9ce45644fd404
2b5059042f49cd04
eb990b695045c404
c6cb7e6f2925be04
43c41f23bb62a804
8a28c53e11129e04
eea428fa30639304
19ab31a66c5f8f04
b90015213d9d8504
9d582cf6e3206604
a6055b8a35fe5004
bfa1fb8091633204
e788af15d4262f04
c044de5d74cd2b04
825f5246634f1b04
193cdcff81f71204
123ec00d4e4c1104
002a9f297e7df803
cfabcb611715e003
21c8aaa8fc83dd03
ef83f3351174db03
9a6d7d67e794d503
9144efa67a66c303
d2562f7dad4cc103
395b53ecded0bf03
b28509b28571be03
9f5d47a17679b903
2d85183949e4b203
cb1125ca21389003
497164e190707c03
d9ea95d1c8106d03
cd36d5d11a515103
f54935fa48004c03
f4ea538ba2374203
799011f06bb33f03
9cb75a345a343403
41e24c4f0c382c03
96f340c185aa1803
81331eafe5f2f202
fac6f76e2555e702
0f2efdd4c6e0e202
2a4b96f37742e002
e0961ac7c5ffd402
255230851c5bcf02
da5317372e36cd02
a7a581015befc702
9722b3cebdffb602
14cefe38c4bf9d02
f2d7a117c8f28002
1ef8087c104a6302
484f426289bd5e02
eb85337ca1885902
0ccd7f1477645102
901c2b2853643902
dc9772048ab31402
83379466f6f30c02
2082460346250502
1bab251d1e61f301
5c2decda13f5d201
1bedf15bd64cce01
73a4605aa823b901
47f1b016ca65b401
75bd7e8b50b6a601
e8234d905478a001
42532efd59c69a01
d13b8f07955c9601
4d090603eb108701
4b674e0c1f3e7a01
4c5de47f1c486e01
40439aa8bd2d5e01
f34f151cfee15301
dbc37fba2df94901
5350dc31b3c43701
ea2f92dd54da2801
32932114ff131b01
3626344138a10d01
5937dcb5b5810b01
bfc48994c40d0a01
e42c3126c07afe00
5a47396be0dfee00
e177f939d2abe000
fdb7f6391621b000
08d543e71b69a900
ce5c72e704179000
754e962b3a756300
c1bdc14f472c5000
7ec7e07814cb3600
be231b64a6a53100
03f87d7e299f2a00
8ca7c8e623f41200
23161ed28e2e0c00
ffd132d4fa3f0b00
9e0628cc63210300
